17.099,16.979,17.127,17.093,17.302,17.11,17.107,17.277,17.199,17.272,17.104,16.68,17.195,16.813,17.154,17.122,17.244,17.07,17.287,17.201,17.055,16.901,17.214,17.25,17.27,16.96,16.87,16.856,17.058,17.139,16.923,17.249,17.005,17.232,17.321,17.305,17.235,17.03,17.006,17.055,16.869,16.943,17.141,17.207,16.977,16.906,16.958,17.102,16.923,17.065,17.133,17.076,17.036,17.362,17.006,16.973,16.95,16.947,17.041,17.012,16.92,17.259,17.157,17.228,16.692,17.15,17.072,17.223,17.075,16.985,17.201,17.055,16.945,17.167,17.089,17.141,17.186,17.206,16.91,17.024,17.039,16.895,17.139,17.099,17.207,16.956,17.289,17.288,16.951,17.043,17.079,16.751,17.22,17.216,17.267,17.236,17.039,17.385,17.162,16.947
18.38,18.724,18.5,18.296,18.556,18.58,18.771,18.597,18.476,18.946,18.703,18.53,18.617,18.63,18.713,18.752,18.424,18.374,18.473,18.528,18.373,18.432,18.515,18.515,18.761,18.435,18.318,18.828,18.245,18.781,18.633,18.526,18.534,18.73,18.623,18.562,18.827,18.825,18.379,18.953,18.727,18.504,18.636,18.672,18.845,18.391,18.437,18.806,18.828,18.686,18.442,18.718,18.71,18.717,18.582,18.611,18.826,18.774,18.555,18.612,18.661,18.555,18.834,18.381,18.602,18.685,18.559,18.568,18.651,18.265,18.509,18.358,18.461,18.504,18.748,18.659,18.478,18.532,18.867,18.713,18.547,18.758,18.67,18.772,18.581,18.847,18.91,18.594,18.734,18.302,18.613,18.21,18.676,18.648,18.597,18.716,18.462,18.645,18.615,18.742
38.644,38.792,39.065,38.835,38.55,39.3,38.886,38.895,38.689,39.744,39.373,38.654,39.162,38.86,39.037,39.094,38.885,38.642,39.196,38.807,38.814,39.133,38.953,39.167,38.492,39.049,39.041,38.579,38.93,38.56,38.86,38.791,39.12,39.44,39.063,39.069,38.97,39.213,39.025,39.02,38.998,38.871,38.503,39.101,39.033,38.854,38.527,38.902,39.107,38.655,38.83,38.992,39.061,39.21,38.694,39.07,39.032,38.821,39.266,39.069,38.708,38.828,38.553,38.734,38.676,38.95,39.12,39.339,39.348,38.603,38.88,39.112,39.021,38.965,38.95,38.995,38.871,38.942,38.644,39.232,39.208,38.584,39.121,39.057,39.344,39.228,39.051,39.085,38.922,38.928,39.013,38.86,38.969,38.667,39.16,39.336,38.968,39.234,38.822,38.803
69.172,69.299,69.712,68.817,69.063,69.761,69.235,69.162,69.592,70.462,69.621,68.777,69.758,69.063,69.574,70.009,69.051,69.089,69.803,69.367,68.988,69.424,68.911,69.508,68.791,69.199,68.925,69.327,69.218,69.249,69.267,69.429,69.274,70.589,69.764,69.192,69.53,69.896,69.381,69.662,69.514,69.314,69.194,69.828,69.643,68.772,69.079,69.254,69.313,69.522,69.353,69.739,69.281,69.893,68.765,69.539,69.104,69.155,69.366,69.498,68.708,69.484,69.135,69.169,68.899,69.577,69.549,70.149,69.278,69.532,69.504,69.546,69.489,69.579,69.667,69.984,69.427,69.461,69.186,69.181,69.741,68.503,69.534,69.756,69.467,69.52,69.757,69.666,68.87,69.046,69.488,68.381,69.766,69.644,69.629,70.108,68.933,70.173,69.465,69.206
75.94,75.011,76.159,75.557,75.124,76.136,75.888,76.248,75.371,77.222,75.772,75.521,76.179,74.622,76.074,75.924,75.603,75.06,75.953,75.193,75.099,75.746,75.437,75.605,74.989,75.223,76.787,75.349,75.535,75.09,75.759,75.113,76.222,76.251,75.392,76.13,75.919,76.108,75.505,76.004,75.638,75.682,75.154,76.38,76.164,74.725,75.459,75.323,76.519,75.251,75.647,76.221,76.114,75.927,75.607,75.559,75.465,75.976,76.71,76.131,75.571,75.506,75.303,75.363,75.741,76.133,75.464,77.069,76.5,74.936,75.65,75.313,75.745,75.402,75.36,75.991,75.352,74.92,75.304,76.202,75.784,74.605,75.634,76.2,76.625,75.648,76.33,76.238,75.866,75.292,75.951,75.695,75.977,75.648,76.487,76.158,75.392,76.084,75.75,75.131
91.59,91.565,91.786,91.174,91.839,91.561,91.816,91.562,90.726,92.809,92.049,90.047,91.765,90.715,92.205,92.279,91.426,90.984,92.146,91.218,90.885,90.953,91.792,91.415,91.807,90.506,90.86,91.668,90.489,91.916,91.751,91.607,91.399,92.101,92.255,92.082,92.673,91.828,90.785,91.947,91.59,90.733,91.328,92.456,91.818,91.045,91.222,91.703,92.226,91.445,91.053,91.755,91.485,92.147,90.867,91.016,91.462,91.739,91.209,91.303,91.327,91.779,91.601,91.562,90.718,91.485,91.212,91.924,91.746,90.79,91.525,90.434,90.884,91.274,91.433,91.736,90.786,91.177,91.131,91.405,90.672,91.26,91.886,91.714,91.671,91.925,92.522,92.059,92.052,90.896,91.696,89.744,92.052,92.043,92.097,91.807,91.415,91.946,91.313,91.968
108.94,109.54,109.96,109.6,109.15,110.36,108.93,109.77,109.71,110.41,109.93,109.2,109.4,109.04,109.91,109.9,109.53,108.64,110.2,108.79,110.44,109.15,109.98,109.64,109.62,108.98,109.69,109.8,109.38,108.55,109.69,108.51,109.94,110.35,109.39,110.35,110.32,110.51,109.22,110.8,110.37,110.89,109.29,109.84,109.49,107.97,109.24,109.83,109.53,110.2,110.11,109.78,109.78,110.08,108.66,109.96,109.73,110.27,110.23,110.43,109.73,108.87,108.95,109.65,109.74,109.36,109.52,109.93,110.99,109.67,109.55,109.77,109.97,109.83,109.7,109.72,109.35,109.42,108.72,110.57,110.32,108.45,109.83,110.17,110.45,109.98,110.13,110.88,109.73,110.41,109.7,109.81,109.73,109.35,109.76,110.58,109.9,110.17,109.91,110.24
135.86,135.34,136.64,135.15,135.37,137.11,136.3,134.44,136.09,137.63,135.96,135.7,136.4,135.05,136.62,136.69,135.74,133.95,136.33,135.37,135,135.38,135.26,136.17,133.99,135.01,136.07,135.48,135.58,134.9,135.25,135.34,135.98,137.22,134.91,135.68,135.66,135.38,136.05,136.69,136.72,135.21,135.75,136.21,135.71,134.43,133.87,135,135.86,134.88,135.87,136.62,135.99,136.17,134.95,135.83,135.49,136.94,135.83,135.26,134.41,135.74,134.25,135.33,135.17,134.93,136.21,136.03,136.49,135.56,135.81,135.49,136.24,135.33,135.04,136.43,135.18,135.3,134.32,135.02,135.56,133.18,135.79,137.35,135.61,135.44,136.27,136.15,134.71,136.19,135.87,134.48,136.17,136.95,135.97,137.07,135.34,135.53,135.19,135.77
142.9,143.4,144.3,143.33,141.64,143.43,142.15,142.57,142.17,145.88,142.76,142.92,144.41,141.2,143.33,143.23,142.29,141.89,141.81,141.87,142.78,144.19,142.11,142.5,140.97,142.86,142.99,142.06,142.51,141.07,141.67,140.58,142.4,144.18,141.77,143.67,142.18,143.7,141.84,144,142.98,142.66,139.97,143.27,142.67,142.11,139.99,142.99,143.69,140.78,141.35,143.18,142.75,142.69,141.21,143.27,142.87,143.24,144.48,144.16,141.45,142.64,141.65,142.36,141.42,143.99,142.86,143.67,144.43,140.56,142.33,141.9,142.54,142,141.98,144.02,142.94,142.14,142.79,143.1,143.32,140.57,141.45,144.09,142.76,142.98,143.73,142.58,142.27,141.34,142.75,141.97,142.47,143,142.38,143.2,142.21,142.49,142.97,141.91
169.16,169.25,169.55,168.84,168.94,170.13,167.98,169.01,167.71,169.92,168.73,168.24,168.39,168.01,169.67,168.68,168,169.42,170.5,168.94,169.1,169.9,169.49,167.51,169.46,166.37,168.33,169.18,166.7,169.05,167.43,168.23,168.5,169.48,167.76,170.56,171.28,168.68,169.64,169.56,169.93,169.54,168.88,168.75,169.56,168.12,166.35,169.95,168.84,170.26,166.97,168.52,169.86,167.69,168.4,171.12,167.97,170.91,168.95,166.96,168.38,169.29,168.56,166.77,169.39,166.82,168.95,169.44,170.76,169,169.52,168.74,168.09,169.1,168.84,168.08,166.55,168.29,168.63,170.27,169.3,168.15,170.84,170.81,168.64,170.71,170.11,172.47,169.89,171.89,168.12,169.19,167.65,171.33,168.3,169.62,168.35,168.95,168.6,170.68
172.48,173.93,172.5,171.96,173.18,172.88,172.46,172.46,172.72,173.46,171.8,172.6,172.69,170.78,173.78,172.69,173.29,171.01,173.08,171.02,173.04,173.01,172.68,172.79,171.51,170.27,173.51,171.28,171.41,171.67,174.08,171.95,173.45,173.28,172.99,172.52,173.54,174.45,172.3,175.49,173.31,173.86,173.03,172.48,172.17,170.63,171.86,171.13,172.93,173.54,173.18,174.19,171.87,173.27,171.05,173.27,172.65,174.3,172.11,173.72,172.56,171.16,172.27,172.78,171.68,172.67,172.54,172.68,173.59,173,172.41,172.14,173.69,172.04,172.94,172.78,171.39,172.96,170.3,173.08,173.56,170.01,172.71,172.48,172.81,172.31,172.27,174.79,172.35,173.05,173.03,173.59,173.21,173.66,174.02,174.03,173.16,172.77,173.7,173.55
211.99,212.24,214.72,212.96,211.31,215.19,213.25,214.18,214.05,215.8,216.37,213.04,213.54,213.43,215.28,213.47,214.84,213.74,217.26,212.12,213.48,212.39,216.1,215.84,211.87,215.3,216.73,213.25,212.8,212.78,215.15,213.17,215.03,215.08,215.62,213.58,217.4,215.39,215.06,211.57,213.95,214.07,213.08,214.52,214.18,212.19,215.36,213.27,212.9,215.75,215.17,213.12,215.82,213.64,211.6,215.21,214.53,212.96,215.39,215.21,214.18,214.53,212.44,212.71,215.06,210.88,214.44,215.83,215.57,214.45,213.74,217.39,214.91,216.41,213.97,213.67,211.77,213.99,213.03,214.87,215.06,213.28,216.19,212.95,218.35,215.44,213.51,215.4,214.36,215.19,213.94,213.95,212.57,211.4,214.9,217.04,216.45,215.32,215.03,213.61
216.46,217.56,219.21,218.28,218.39,219.05,217.52,218.09,218.54,219.53,220.14,217.21,218.17,216.38,219.18,218.42,218.36,218.45,218.85,216.91,216.97,218.73,217.65,218.63,216.83,218.52,217.89,217.17,215.56,216.96,218.31,217.81,218.22,218.78,218.47,217.52,218.26,219.79,217.1,218.99,217.73,217.3,215.77,216.5,219.14,217.26,216.92,217.41,216.39,218.1,217.1,217.84,220.78,220.14,218.37,219.69,217.36,218.63,216.62,217.61,217.15,217.65,217.85,214.75,216.54,217.11,218.1,218.47,219.9,215.36,219.2,219.27,218.29,217.13,216.95,218.23,218.36,218.92,217.38,218.72,219.03,216.45,217.57,218.66,219.33,219.61,218.72,218.17,216.84,219.01,217.97,216.47,218.26,218.26,219.97,219.62,219.97,216.51,218.32,217.01
228.32,228.73,229.49,228.54,229.69,231.82,230.17,227.51,230.04,231.81,230.38,226.92,230,230.18,229.66,228.1,229.93,227.36,230.1,228.38,228.53,229.7,228.19,231.26,228.95,227.82,227.03,226.51,228.6,225.79,229.13,230,229.93,230.95,230.13,229.48,226.73,228.34,231.32,229.39,228.86,228.15,227.29,229.99,229,229.27,226.61,228.14,228.77,225.92,228.14,228.78,228.95,230.62,228.96,230.62,229.13,229.64,228.99,228.89,226.16,226.54,226.55,228.27,229.49,227.59,231.19,227.6,231.87,227.11,230.24,227.55,231.17,226.33,228.44,228.06,228.9,231.51,227.05,231.7,231.38,226.79,229.65,230.4,233.67,230.95,229.51,229.3,228.01,230.05,228.71,229.69,230.13,228.75,230.7,230.68,229.76,228.89,229.58,229.35
231.28,231.68,235.1,231.23,232.94,235.02,233.29,233.51,232.75,235.64,236.14,231.32,232.14,233.43,235.43,232.81,234.55,231.79,235.41,232.72,233.06,232.45,236.02,235.64,231.84,233.11,236.23,233.45,232.23,232.27,233.53,232.81,235.19,234.3,234.44,233.31,237.33,235.02,234.63,232.57,235.3,234.34,233.53,233.86,233.19,232.19,232.33,233.88,232.49,234.46,233.59,231.61,236.22,233.56,232.52,233.55,233.74,233.15,233.61,232.81,233.72,234.18,232.38,231.41,233.93,230.11,234.51,234.87,236.62,233.91,233.5,236.46,234.05,235.72,233.68,232.62,231.51,233.93,231.74,234.22,233.99,231.61,235.5,233.41,236.97,234.58,234.3,235.8,233.54,236.9,232.68,232.71,233.67,231.85,233.51,236.22,234.72,234.16,232.64,234.42
246.14,248.68,249.32,247.71,248.39,249.25,247.24,247.03,250.19,248.6,246.72,247.08,248.24,245.98,249.46,247.09,247.03,247.3,250.26,248.68,247.12,245.61,246.07,247.62,249.02,247.48,245.75,247.74,246.93,247.19,246.77,246.35,250.47,249.81,247.63,248.23,247.26,248.57,247.27,250.34,248.07,247.52,248.35,246.26,249.85,248.72,247.92,245.04,246.92,248.8,247.91,246.88,249.15,249.15,249.48,247.07,247.33,249.49,246.09,248.82,249.55,246.14,248.14,246.76,248.72,247.47,249.02,246.57,249.49,243.63,246.72,246.78,248.42,246.46,244.37,248.71,244.76,247.35,245.95,247.39,250.44,246.95,248.25,249.87,246.88,248.34,249.2,251.44,247.89,248.68,249.14,248.48,244.16,249.22,249.58,249.66,249.43,246.03,249.24,248.28
250.04,250.44,249.68,249.06,251.42,253.84,250.41,248.85,252.06,250.94,249.83,248.44,250.05,248.29,250.38,249.1,249.89,248.99,253.14,250.98,249.87,250.34,248.86,251.02,250.59,248.86,248.09,249.24,249.19,248.08,250.9,251.23,251.39,252.1,250.45,250.17,248.35,250.49,251.22,251.55,251.31,249.8,249.67,249.56,250.29,249.87,250.71,249.61,248.61,250.34,248.9,248.77,251.26,250.87,250.58,250.55,249.02,251.86,249.43,249.61,250.38,248.7,249.09,247.43,249.82,248.02,251.98,248.39,251.02,248.71,250.77,248.21,251.73,247.81,250.82,250.12,249.12,252.11,248.67,250.47,253.26,247.65,250.57,252.55,250.51,250.61,251.02,252.71,249.56,251.52,250.71,249.32,252.03,250.66,251.63,251.69,251.37,247.59,251.42,250.71
251.39,252.35,253.36,250.27,252.65,254.17,250.67,252.06,252.45,252.71,252.71,250.81,251.4,252.13,252.08,251.38,253.62,251.2,253.72,253.24,252.99,251.8,250.82,252.99,251.65,250.55,250.72,252.01,250.96,251.1,251.76,251.82,252.32,254.27,251.07,251.61,252.4,253.58,252.59,254.59,252.99,251.88,251.58,251.89,253.06,250.87,251.47,251.11,249.9,252,251.64,250.7,253.96,253.02,252.84,252.42,252.44,253.39,250.18,250.48,250.85,252.58,252.69,250.33,251.27,250.7,254.1,251.87,252.15,250.26,252.73,250.85,252.15,251.18,251.52,251.33,249.95,255.71,251.63,253.62,254.22,248.54,252.23,255.12,253.61,253.38,253.76,254.89,250.13,253.29,252.24,251.35,252.65,254.32,252.47,253.23,252.32,251.84,252.34,251.63
267.52,269.92,272.04,270.01,272.52,274.42,268.42,271.06,271.52,271.36,275.94,268.45,270.84,270.35,272.9,270.46,270.84,267.42,272,270.65,270.88,269.81,271.24,269.84,272.32,271.8,270.58,272.2,271.93,268.75,272.31,271.03,269.95,270.02,273.62,272.02,271.74,271.56,271.28,271.26,271.33,270.95,268.74,273.34,271.7,270.65,268.58,273.92,271.4,272.88,271.23,270.2,274.34,274.72,271.54,274.29,269.98,271.96,268.34,268.16,270.91,268.4,272.21,270.44,270.85,271.74,271.11,269.35,274.4,271.09,272.15,273.57,269.96,269.76,268.54,273.52,269.77,269.31,270.41,271.33,272.38,267.41,269.72,275.06,273.86,273.28,272.36,271.91,272.1,271.96,271.73,268.03,268.09,271.34,274.99,272.19,273.34,270.05,272.05,270.6
277.41,280.46,282.4,278.19,280.02,283.86,279.58,278.76,283.69,281.78,281.25,280.02,280.73,278.72,281.63,280.09,279.16,278.27,284.12,282.11,280.52,278.26,280.47,279.86,279.67,281.53,278.24,281.15,282.19,279.68,278.43,280.67,282.29,281.35,280.22,279.99,277.92,281.59,279.87,282.56,278.85,278.07,280.66,282.84,281.15,280.75,279.97,278.86,278.56,279.78,280.28,278.13,281.86,281.73,280.64,280.18,280.56,281.12,280.04,281.15,280.71,280.18,279.51,279.71,281.66,279.4,281.47,278.44,281.86,278.65,279.35,279.01,280.57,281.28,277.89,281.69,276.72,280.92,279.28,280.18,283.73,276.93,279.05,282.23,280.03,280.12,281.52,284.16,279.94,280.18,281.04,279.14,277.02,282.12,280.7,282.14,281.91,278.1,282.19,278.45
298.79,302.39,301.69,299.94,301.46,304.7,298.67,300.73,302.69,300.91,300.9,300.72,301.19,296.95,302.74,299.71,299.33,300.38,302.83,301.84,303.37,301.68,300.22,299.95,300.16,299.28,299.44,301.37,301.94,299.91,299.41,299.51,303.59,302.58,301.61,300.32,301.25,303.64,300.72,305.12,301.53,301.12,301.86,303.32,302.17,300.35,301.3,299.51,302,303.57,300.46,301.88,302.32,302.89,300.67,301.84,301,302.54,300.93,300.75,303.91,298.05,302.65,300.33,302.21,300.19,300.03,299.36,302.37,301.27,299.3,299.83,301.01,300.67,301.73,301.41,296.24,302.74,301.21,300.07,304.7,297.47,301.88,302.81,298.97,303.34,302.22,308.44,302.37,300.98,301.75,302.63,298.62,305.07,303.04,304.31,303.46,299.26,304.01,301.81
305.11,307.26,304.85,304.06,306.04,309.7,305.44,304.97,305.19,306.76,305.19,303.84,304.04,307.45,305.77,305.18,305,304.2,309.12,305.35,305.92,303.92,305.12,304.44,307.61,301.62,303.41,307.51,302.52,304.29,304.91,304.65,304.99,307.73,303.2,306.82,306.73,305.02,305.8,308.69,307.68,306.9,305.33,306.39,306.16,303.83,302.62,307.59,302.64,306.14,304.53,303.77,306.22,305.51,306.47,306.98,304.46,308.72,304.89,304.2,305.04,305.31,303.77,303.18,307.17,302.08,309.35,304.77,308.31,304.42,307.13,303.29,305.74,303.5,304.68,304.36,304.08,306.28,302.4,308.42,306.63,303.74,306.65,308.7,308.58,306.8,307.95,310.15,306.82,310.15,305.84,304.91,305.19,307.58,305.97,306.68,305.36,305.41,307.24,307.12
342.45,345.09,347.57,345.77,346.04,350.02,344.15,347.32,347.17,350.43,348.93,347.53,346.65,344.89,346.69,348.05,347.05,343.71,349.2,345.13,347.18,344.78,348.73,347.93,346.12,346.98,347.13,347,345.95,347.94,347.72,349.4,348.53,347.33,349.5,346.97,348.9,348.74,346.49,346.28,346.54,345.48,345.07,346.18,349.07,343.85,344.88,348.77,345.37,348.28,348.51,345.24,349.7,349.8,344.86,350.32,346.9,348.16,346.01,347.38,348.18,346.61,348.5,345.16,347.72,343.52,347.91,348.92,349.96,345.5,347.71,347.13,346.32,349.3,345.97,349.96,343.7,347.86,344.98,349.1,350.34,344.26,346.04,351.11,350.48,347.21,347.05,346.93,347.01,348.02,347.98,344.64,343.56,346.9,350.86,349.91,349.5,343.89,350.13,345.19
351.38,353.75,351.55,348.07,351.47,353.19,351.64,351.64,352.39,353.75,353.84,350.56,350.55,349.05,354.28,352.2,353.11,350.4,354.1,349.23,350.41,349.34,350.95,352.7,350.58,349.91,352.35,351.54,349.32,350.78,352.63,351.1,353.23,354.75,350.7,350.95,354.63,354.62,350.96,355.88,353.23,351.41,351.67,353.65,351.5,348.08,349.44,350.94,350.58,353.74,352.2,353.75,353.59,353.42,350.71,352.45,350.34,354,350.57,353.21,352.18,351.73,353.18,351.79,350.41,349.94,354.44,352.16,354.02,348.99,351.39,352.7,353.98,350.8,350.9,352.33,348.34,351.46,348.33,350.76,350.94,347.43,350.67,352.68,353.58,351.36,353.67,355.46,351.05,353.74,352.24,351.21,352.41,352.51,353.97,354.61,354.53,353.28,354.05,352.07
384.11,382.89,381.71,377.28,380.17,381.76,379.98,379.64,380.24,385.66,378.71,381.52,382.05,378.77,380.05,378.51,379.86,380.3,382.55,379.17,379.79,381.46,382.78,378.28,382.46,378.49,381.06,381.37,378.28,380.19,380.41,379.92,383.33,381.72,382.03,381.6,381.46,379.9,380.64,384.08,379.81,379.97,377.86,381.74,384.63,377.38,379.35,380.66,382.44,379.76,380.63,382.22,384.75,380.81,380.21,381.7,381.58,384.25,376.03,383.32,381.38,379.98,383.57,379.05,382.35,378.79,381.55,384.36,383.93,377.47,383.22,380.61,381.74,381.23,380.96,381.18,377.99,379.66,379.4,381.84,381.26,379.56,380.88,383.37,383.25,380.34,383.65,384.78,379.27,380.59,379.69,380.4,379.47,380.63,377.11,381.95,380.74,377.37,383.53,381.4
386.32,387.59,388.37,382.81,389.11,390.23,380.9,381.55,384.64,388,384.78,386.75,383.79,380.82,388.69,387.16,383.33,387.38,388.94,384.64,388.16,382.29,385.55,382.79,386.39,380,384.53,388.39,386.54,383.99,385.67,384.73,387.05,387.99,387.21,385.41,389.59,386.94,387.48,390.64,385.8,383.73,384.49,386.33,386.86,384.33,383.16,384.26,385.37,385.97,381.65,383.79,388.66,385.07,383.54,387.82,386.71,389.21,384.36,386.47,382.37,384.23,384.07,381.81,383.71,382.56,387.61,386.36,388.66,381.34,386.72,385.79,387.96,383.8,382.2,388.08,383.15,388.07,380.39,384.83,386.7,383.01,386.59,388.47,390.74,389.49,390.66,390.18,383.17,388.34,387.58,388.43,383.88,387.52,389.52,388.03,388.71,383.6,387.22,386.7
400.94,402.8,402.95,398.41,402.65,406.61,401.8,400.72,402.36,402.73,403.36,401.81,400.95,399.84,404.7,403.51,402,401.22,406.97,403.52,404.82,397.99,400.3,401.35,399.07,398.55,402.28,404.09,401.61,403.94,399.23,402.1,403.37,405.41,399.99,402.2,402.7,402.77,400.74,405.52,406.17,402.63,404.86,401.74,403.39,399.17,397.48,401.69,401.38,403.03,400.6,401.65,408.19,401.76,400.26,400.46,402.62,403.03,397.35,399.35,399.76,405.22,399.87,399.7,404.36,396.15,403.39,401.81,405.97,400.51,401.5,402.58,399.08,402.44,404.06,404.46,401.84,403.55,398.94,401.05,402.52,397.97,403.54,402.93,400.74,401.89,403.73,408.66,400.11,407.82,402.08,401.27,403.08,402.82,402.35,406.49,401.4,398.55,402.64,401.52
431.13,431.46,430.37,426.3,428.94,432.83,428.06,425.31,430.09,434.92,428.08,425.66,431.18,428.02,429.88,428.95,430.32,427.97,431.93,429.11,428.97,430.16,428.31,427.44,425.71,427.96,427.79,429.36,428.37,429.01,430.76,429.52,431.01,430.69,430.2,429.6,430.49,431.85,428.11,428.23,429.61,430.59,427.19,429.04,431.79,428.5,427.84,429.14,429.81,427.99,428.25,429.87,433.27,428.84,428.83,429.04,430.79,432.16,427.33,431.17,426.77,429.96,428.69,429.23,428.54,425.75,433.11,428.95,431.26,425.25,431.05,427.98,431.95,428.48,430.05,433.17,425.98,431,426.23,429.72,430.11,425.94,429.06,432.2,430.86,426.23,430.38,432.65,427.35,430.84,429.4,429.21,429.95,429.5,427.8,431.34,428.96,426.49,430.43,428.42
434.81,433.27,436.2,427.66,433.62,441.14,431.86,437.28,436.9,441.78,429.69,431.17,439.08,436.37,439.52,429.79,437.23,430.18,439.86,434.98,434.94,438,444.49,429.6,435.82,434.38,442.15,436.9,440.5,435.11,441.35,437.12,443.35,435.89,437.58,436.26,437.13,433.95,440.62,433.68,438.06,437.54,428.78,436.85,438.02,437.64,434.85,436.31,440.93,436.39,433.26,435.57,442.35,436.22,437.56,432.34,432.56,435.03,438.31,435.01,438.58,440.75,443.11,434.62,434.64,434.87,438.03,439.34,439.74,429.6,433.38,440.03,438.1,441.84,438.25,437.7,429.37,432.84,437.5,433.29,436.06,431.47,435.64,439.7,436.18,431.54,445.78,444.34,435.46,440.29,432.21,438.17,435.93,433.79,430.08,432.52,431.24,432.78,436.99,434.38
448.44,447.98,450.83,445.11,454.02,454.79,438.65,452.56,450.11,456.62,451.33,446.32,451.1,450.41,449.36,445.28,450.07,448.15,451.1,451.38,449.37,452.95,457.99,447.55,447.44,448.59,450.94,451.13,451.89,450.2,453.82,449.69,457.05,449.64,452.87,450.37,458.46,453.75,448.74,445.41,455.68,455.42,446.72,445.64,450.64,451.46,446.54,449.35,455.77,449.84,446.08,445.47,457.53,447.19,450.07,448.01,449.06,450.16,450.56,448.42,450.07,453.68,456.87,448.68,448.54,442.47,450.15,451.92,450.1,445.49,448.71,453.38,451.75,454.6,451.5,452.68,443.5,447.6,448.4,449.69,451.14,446.32,446.2,452.55,453.6,448.59,450.22,453.67,452.42,453.5,446.91,449.46,454.27,444.99,450.04,451.76,448.41,440.59,451.42,446.92
456.48,456.42,454.15,459.26,458.8,457.44,456.53,455.66,459.94,465.63,459.78,460.67,465.67,455.8,456.99,461.69,457.23,464.88,456.69,456.8,462.73,457.74,459.61,458.22,450.43,455.5,461.16,458.12,455.66,460.82,458.21,465.25,458.78,454.75,454.98,461.14,463.6,462.12,456.23,460.76,457.59,461.99,448.26,448.84,462.52,455.05,461.36,457.25,459.76,455.09,454.24,457.64,462.64,459.37,456.16,456.73,462.44,462.4,457.02,462.18,456.35,457.04,464.66,454.04,454.55,452.36,455.17,460.01,463.02,450.26,459.53,456.28,461.28,455.83,457.89,463.51,459.24,460.99,456.9,462.51,460.13,451.31,453.05,465.31,461.84,456.62,453.45,456.32,455.02,461.27,451.55,458.26,462.74,461.79,456.44,460.03,462.57,444.83,459.78,452.07
462.58,464.07,467.21,463.16,469.16,472.78,462.89,468.1,467.53,469.36,469.04,463.55,474.05,458.31,469.36,463.93,469.12,467.54,465.99,467.49,464.39,466.03,470.89,467.29,469.21,465.32,469.36,468.19,466.01,467.97,467.99,472.32,471.27,467.52,468.66,467.13,472.22,467.27,471.57,462.68,469.33,468.51,463.37,466,469.94,470.06,462.86,469.79,470.61,469.41,463.56,461.11,469.07,467.35,465.88,466.41,468.39,465.66,465.99,463.2,467.67,469.22,470.91,462.87,465.58,462.43,468.25,466.54,471.79,462.75,465.21,464.83,466.22,463.8,467.6,472.3,463.98,469.96,467.46,467.93,468.69,464.46,464.9,477.47,470.49,467.82,470.84,467.42,468.27,469.46,462.87,464.96,469.2,470.02,467.41,466.58,469.15,458.38,468.74,465.36
477.25,475.89,475.14,470.04,473.67,478.05,474.16,470.44,474.37,478.81,471.43,471.57,477.19,466.84,473.26,469.3,472.43,477.04,476.88,473.21,474.7,467.95,477.15,470.58,470.06,470.44,471.83,474.68,471.83,473.46,473.35,476.44,477.17,469.37,475.66,474.57,474.27,468.94,472.46,474.34,471.83,473.3,467.71,472.75,470.42,472.7,471.24,471.64,471.54,473.42,472.11,472.7,476.96,473.31,470.44,468.6,473.76,468.49,467.7,474.71,469.49,473.74,472.69,470.98,470.18,467.93,471.21,473.79,477.59,464.92,474.22,474.99,469.01,472.14,474.43,475.97,470.09,474.26,471.26,470.94,472.98,471.08,472.92,479.37,473.2,471.5,474.45,476.08,470.73,473.82,472.37,467.11,474.69,474.16,473.33,474.2,473.56,468.93,475.01,470.57
478.99,477.33,478.47,474.6,475.08,478.91,476.96,473.6,478.36,481.21,474.53,474.37,481.3,473.5,479.33,477.98,477.26,480.56,481.48,477.85,476.48,475.14,479.64,477.65,475.38,472.64,473.45,477.2,475.03,475.46,474.65,477.47,478.32,474.81,479.83,478.43,476.57,474.02,475.03,475.74,475.58,476.86,468.83,478.86,475.94,476.8,474.54,480.06,473.39,478.18,473.43,477.11,480.34,476.18,476.26,475.33,476.44,478.34,475.27,477.69,475.25,478.35,476.6,475.95,472.22,474.69,472.22,477.88,479.84,470.19,477.84,476.88,477.28,478.76,474.86,479.64,474.66,480.71,473.2,475.51,480.12,474.16,474.37,480.78,475.06,474.12,483.1,480.9,473.39,478.71,474.23,473.32,475.18,477.41,477.13,474.66,476.43,472.67,478.71,474.29
481.66,482.68,480.83,477.21,481.65,482.41,481.06,476.88,480.76,483.27,476.59,475.62,484.25,476.78,482.55,482.43,482.59,483.88,484.32,480.24,478.77,476.09,481.87,478.31,478.39,477.53,478.41,481.3,478.69,480.79,481.73,482.05,482.05,478.89,482.51,478.84,479.9,475.85,481.73,479.04,479.46,480.87,475.86,479.35,482.39,479.75,477.2,482.11,477.96,480.27,477.63,480.62,486.93,479.88,479.81,476.59,479.83,480.16,477.52,478.1,476.85,481.33,481.38,480.92,478.16,476.89,482.71,479.8,484.55,473.09,480.33,479.26,483.87,481.18,477.82,483.97,478.76,482.8,479.44,476.28,481.33,475.45,478.97,482.86,480.96,480.76,484.47,485.62,475.92,481.92,479.4,479.33,480.94,482.11,482.96,481.05,477.33,475.19,481.52,479.07
486.79,485.7,484.66,484.57,489.26,485.43,485.28,481.46,485.99,487.45,478.41,478.23,485.75,478.75,484.32,483.83,485.43,485.91,489.01,483.35,488.22,482.04,487.23,482.24,483.28,480.59,481.78,482.06,482.21,487.44,483.69,483.85,484.03,485.08,484.25,488.63,485.69,481.98,483.03,481.19,481.07,485.24,479.25,485.47,483.46,481.32,480.36,484.92,482.16,487.46,478.02,483.57,491.74,482.62,481.23,482.66,484.91,484.26,478.72,480.72,479.16,487.75,484.39,483.35,481.82,478.13,484.28,488.72,488.39,478.59,483.56,481.49,484.58,485.62,482.07,486.71,485.8,489.06,482.56,481.16,484.31,478.95,482.25,486.44,482.65,482.43,491.18,486.1,479,483.44,481.7,483.31,485.23,483.83,487.91,485.59,480.71,478.1,485.82,481.07
488.44,490.87,492.18,488,495.59,488.52,486.26,484.28,487.39,492.24,489.81,490.02,490.76,482.56,489.61,491.74,487.6,493.26,492.64,485.65,489.9,485.2,490.66,486.3,485.54,484.67,489.36,492.09,483.84,491.16,485.8,488.09,491.68,487.97,491.99,491.35,492.21,489.73,489.67,490.2,487.25,486.87,483.24,489.55,490.82,484.73,488.03,487.27,485.81,487.91,483.06,487.42,492.26,485.57,483.69,488.2,488.67,492.55,482.65,486.37,484.12,489.79,490.65,484.8,483.01,483.16,487.11,491.18,490.81,481.1,487.93,490.91,488.56,489.32,484.14,492.64,487.65,491.75,485.32,485.39,487.61,483.42,484.86,491.84,490.8,489.32,492.24,488.68,482.4,490.35,487.13,486.04,487.35,489.66,497.01,490.19,492.83,484.32,491.06,485.61
503.11,505.41,511.61,505.89,507.7,510.68,505.98,507.59,506.75,512.7,512.62,502.14,509.45,504.73,511.04,505.92,507.46,511.98,510.47,505.97,505.89,506.04,511.03,506.47,504.89,505.57,511.56,506.72,508.36,506.79,509.29,509.21,511.26,506,509.31,508.85,512.72,512.03,509.91,506.4,510,508.45,500.54,505.78,510.13,506.67,506.11,506.39,509.43,508.24,503.21,504.28,513.68,506.43,509.09,506.05,506.62,507.27,506.63,506.85,507.16,509.68,512.8,504.62,504.65,503.86,508.56,509.21,510.01,501.32,506.21,510.18,508.2,509.81,507.79,509.55,506.38,506.45,505.69,508.98,508.56,501.6,506.39,512.24,511.85,506.73,512.15,511.5,509.03,510.84,504.25,507.74,506.55,505.49,507.31,507.93,508.01,503.92,506.98,505.37
546.3,541.77,542.29,544.31,541.71,544.67,538.29,527.81,538.84,540.53,547.23,530.33,538.95,540.62,542.83,527.83,545.47,538.04,553.37,543.98,537.24,534.57,524.67,525.82,535.86,542.92,546.05,537.66,544.14,533.98,542.9,544.68,531.68,542.44,547.75,542.57,540.99,543.83,538.57,544.57,543.15,537.69,540.58,542.84,546.28,533.3,545.22,540.8,549.06,534.62,535.03,529.39,550.5,537.08,539.75,529.49,548.32,551.96,523.32,538.59,536.6,545.29,532.31,539.81,533.92,527.62,549.27,531.02,539.66,542.33,538.55,532.62,538.96,527.72,543.38,549.61,535.25,535.3,537.52,546.48,531.81,533.61,541.32,539.47,543.44,540.09,539.37,541.88,537.89,543.45,545.53,541.08,540.85,536.06,536.44,542.84,533.47,536.31,535.91,544.41
555.13,550.26,559.95,558.03,556.3,556.9,556.33,549.34,550.75,553.95,556.58,550.43,550.72,549.89,557.31,552.49,554.97,549.48,559.79,556.97,552.21,546.91,548.9,551.35,554.88,551.97,558.88,556.1,547.46,554.85,555.01,552.48,551.66,552.82,560.62,559.84,560.18,555.13,552.61,550.54,555.13,555.84,553.79,554.42,555.9,546.33,557.42,553.01,554.55,553.16,552.81,547.39,561.36,553.45,551.7,545.98,557.68,558.43,542.1,550.04,550.01,554.84,552.3,546.84,550.07,543.66,557.03,549.65,555.38,550.23,555.5,549.82,551.8,548.66,552.59,555.78,545.81,555.39,552.7,556.61,552.69,553.14,557.08,551.15,559.86,560.32,555.76,552.74,552.44,556.21,554.12,546.68,554.7,554.51,554.8,558.4,552.73,550.61,551.68,557.07
556.93,559.85,561.56,558.83,559.98,560.47,559.92,553.46,558.8,558.05,559.23,556.91,558.89,554.98,563.77,553.17,558.6,553.82,561.62,559.19,556.15,559.14,557.05,555.3,555.85,557.46,561.94,559.96,552.82,555.49,558.06,557.21,554.6,557.86,561.12,562.91,564.67,558.26,556.44,556.56,559.75,558.6,555.93,555.94,560.47,549.57,562.89,558.48,556.38,555.36,553.14,549.56,564.18,556.72,554.31,558.37,561.21,560.86,553.94,551.45,553.86,560.06,553.73,553.09,557.36,546.61,558.19,554.9,557.61,555.29,557.42,553.61,555.89,551.39,556.9,560.2,550.54,556.98,557.28,560.97,557.24,555.41,559.81,558.06,560.47,562.76,559.23,560.19,558.72,558.44,554.78,555.68,555.75,557.76,556.45,559.31,557.83,557.06,553.33,560.09
560.85,564.01,565.11,562.17,567.02,561.01,567.49,560.66,566.37,559.12,564.58,564.11,562.64,556.42,568.62,559.8,566.71,560.18,565.82,565.6,559.67,561.13,564.65,566.6,558.26,565.12,565.42,565.37,556.25,558.58,561.88,558.8,560.77,558.54,569.24,563.86,568.83,559.69,558.28,560.51,564.3,562.33,561.58,561.53,562.35,565.66,566.32,565.29,561.87,563.32,558.9,553.47,564.9,559.13,558.13,560.04,561.28,565.15,560.39,557.86,560.27,560.62,558.57,555.31,561.3,556.32,562.82,558.74,567.09,562.87,560.76,556.81,564.93,557.12,559.31,564.01,551.09,560.86,567.48,563.16,560.61,560.25,561.26,567.36,570.74,565.86,566.31,561.4,561.47,562.63,558.12,558.14,565.02,560.86,563.15,563.92,570.12,557.56,563.01,563.72
563.33,568.26,573.72,565.88,574.26,565.91,571.13,563.88,569.11,564.62,574.49,566.64,569.4,565.44,575.71,564.05,572.23,563.41,566.77,567.07,561.22,561.93,566.63,570.12,568.53,567.47,571.85,571.69,561.31,564.08,565.11,569.92,567.24,567.4,576.03,567.76,572.18,567.14,574.87,561.46,570.33,564.73,570.82,569.81,565.25,569.59,572.06,567.99,570.9,573.02,567.45,557.74,573.3,571.04,560.16,568.59,573.47,566.89,561.47,561.74,569.46,571.82,562.9,560.51,572,563.98,571.18,563.04,575.3,569.47,568.18,568.11,571.16,559.81,561.67,572.29,558.36,573.91,573.46,572.09,571.68,564.06,565.12,571.56,576.5,570.49,572.09,562.82,569.79,568.95,559.26,563.91,571.36,573.69,569.99,567.61,573.09,567.53,570.01,567.5
572.28,571.26,579.24,568.43,574.67,570.83,571.86,571.54,571.45,575.32,577.52,571.16,571.77,569.99,577.08,567.9,577.84,570.95,575.81,575.49,571.99,570.96,573.26,573.99,572.4,571.01,578.9,574.62,567.92,570.28,572.57,573.58,572.8,573.89,577.87,570.32,578.93,574.37,576.73,571.37,571.19,571.66,572.85,574.93,575.6,577.7,576.61,570.93,573.98,575.4,572.16,566.91,577.14,571.65,571.35,574.69,580.65,576.84,567.28,571.06,573.83,574.99,570.65,563.95,577.65,567.54,573.51,566.02,577.58,572.44,571.42,570.21,573.99,572.77,569.75,573.73,564.26,579.94,576.23,576.4,573.02,567.17,577.99,576.11,583.16,575.21,575.67,578.41,570.77,575.86,571.69,566.3,573.28,575.89,575.69,575.89,576.93,569.41,574.81,572.93
574.12,581.16,582.82,577.83,578.15,575.87,578.12,574.85,580.57,583.68,581.81,576.04,577.46,574.76,579.01,571.13,580.78,576.26,579.83,577.86,575.43,576.77,576.31,578.44,574.58,575.84,579.99,575.85,568.73,575.2,579.9,581.5,574.39,577.19,580.96,574.71,580.29,577,579.91,575.54,576.54,576.84,575.74,580.16,579.81,583.11,583.95,576.52,577.12,578.99,575.73,569.08,584.79,575.52,580.69,585.51,583.01,578.64,571.01,576.44,574.89,580.57,573.54,569,581.58,569.54,575.31,576.35,584.81,575.95,579.35,575.75,576.36,574.75,576.6,583.63,570.66,583.83,578.46,578.2,575.43,571.03,581.03,584.64,584.34,579.89,578.55,578.64,575.16,579.91,574.27,572.69,575.72,585.56,577.07,580.56,580.62,574.14,576.57,577.14
584.48,586.71,587.68,584.49,581.46,585.41,583.65,580.59,581.81,585.34,592.22,576.46,581.75,578.14,590.94,574.69,584.87,578.67,586.3,580.67,579.72,586.89,578.83,581.76,581.71,579.51,586.8,581.87,581.49,580.03,590.83,587.46,581.25,580.16,589.78,585.02,584.46,585.56,582.1,581.8,579.96,590.05,581.96,582.46,586.75,586.07,585.97,580.7,582.19,580.55,576.59,574.3,588.12,578.55,584.22,591.69,586.41,591.61,573.37,580.79,579.67,585.43,574.2,581.27,583.06,582.93,592.95,579.88,588.65,578.69,583.63,582.32,584.53,575.93,586.2,595.42,578.27,590.66,581.62,583.61,581.79,574.53,583.89,589.73,590.77,581.73,582.28,583.1,581.31,584.92,583.68,585.11,579.37,589.66,591.9,581.63,582.99,575.98,580.34,579.88
599.12,595.99,599.54,595.6,598.92,598.77,598.66,587.49,593.41,593.93,597.99,590.76,592.82,590.32,594.23,594.02,596.35,594.35,606.42,599.73,592.82,590.1,590.56,588.43,597.33,594.79,599.17,595.43,595.88,593.21,594.55,596.54,593.36,599.99,597.79,605.04,595.77,593.54,591.71,604.33,597.42,594.42,594.99,595.86,597.89,592.5,596.63,596.87,595.92,594.65,588.55,590.43,598.68,595.29,595.02,592.87,596.66,602.52,586.34,592.15,595.74,599,591.89,588.89,599.51,585.9,602.19,595.51,594.24,593.44,595.74,591.39,595.11,590.82,594.54,601.01,590.04,593.05,593.59,598.03,594.09,586.51,598.58,604.42,594.38,601.27,597.98,602.12,593.75,602.28,598.86,592.6,592.17,598.26,595.45,599.23,595.7,593.35,593.64,597.57
608.94,611.44,613.01,611.42,615.75,614.49,614.92,610.01,614.38,608.69,615.86,610.73,613.6,607.41,616.93,608.66,614.63,607.08,613.42,616.28,607.08,609.14,611.18,614.43,613.22,614.05,611.51,616.6,602.78,610.39,610.67,614.43,609.62,615.19,621.08,612.36,617.41,609.53,615.15,608.26,616.69,610.38,612.69,612.01,611.34,609.52,609.19,616.87,611.88,616.72,610.32,605.71,616.55,614.09,612.88,616,615.42,613.94,607.75,605.32,613.1,608.73,610.54,605.47,613.84,604.9,615.08,607.6,619.91,611.35,615.38,608.96,614.07,604.67,609.14,612.56,600.63,616.74,619.29,615,615.18,610.97,610.03,617.82,620.5,618.38,616.47,610.31,610.82,615.54,607.01,607.95,612.87,619.3,616.57,612.5,618.68,611.28,614.31,612.11
619.36,615.66,623.08,618.88,621.19,620.01,617.96,613.7,614.59,624.5,622.38,620.82,621.54,617.89,619.74,621.11,619.35,615.6,623,624.45,611.7,619.94,618.89,618.43,621.4,616.39,624.25,625.08,613.63,622.94,617.04,616.12,620.38,623.91,622.77,627.29,626.73,623.33,617.86,622.95,621.98,616.69,618.87,621.22,622.82,621.53,622.8,621.75,621.14,619.96,618.82,615.8,623.52,621.32,620.39,619.88,628.15,627.02,620.62,616.11,620.4,619.7,618.49,620.62,622.44,620.08,620.99,622,624.71,613.4,618.79,617.89,618.26,617,619.39,623.27,612.99,621.84,621.24,625.18,620.58,620.51,623.85,626.23,626,627.59,623.82,624.12,625.6,616.8,619.96,614.93,614.84,623.47,620.41,624.39,620.43,619.54,621.19,622.48
622.22,629.93,630.68,625.45,624.35,626.12,625.21,625.61,622.98,630.3,628.24,623.93,624.66,622.06,632.26,624.53,624.8,621.79,631.27,625.02,622.43,627.34,624.33,622.71,624.79,624.58,625.25,626.8,620.57,624.24,624.26,621.12,625.97,626.11,629.24,629.61,629.53,630.11,624.86,629.74,624.64,625.92,623.88,625.42,629.31,625.88,627.17,624.72,626.9,625.46,624.68,620.77,627.61,625.68,624.6,626.61,629.07,631.22,627.47,622.75,620.69,626.79,626.19,627.94,625.5,623.8,624.75,622.88,630.05,625.41,626.24,623.03,621.02,625.74,623.8,627.45,616.81,624.52,629.62,630.43,627.31,624.21,627.85,627.91,629.11,631.03,625.48,630.65,626.18,624.74,622.32,620.33,624.84,629.96,623.02,629.72,631.46,623.73,624.74,626.48
632.57,636.28,634.93,628.65,633.32,635.61,633.93,628.74,635.36,637.39,636.88,626.72,630.88,627.37,636.31,627.02,632,627.97,638.76,634.93,628.81,628.93,628.64,632.13,630.26,634.04,630.32,632.82,627.75,630.78,635.51,631.79,632.99,632.48,640.64,633.92,631.38,634.73,633.88,632.67,632.65,635.57,633.36,634.01,638.1,634.1,638.03,630.07,629.91,632.53,635.03,627.35,637.27,633.22,633.78,639.83,634.3,638.63,628.69,630.14,629.29,627.56,628.46,632.05,635.57,632.93,636.91,626.77,633.71,629.8,633.03,626.14,633.09,630.48,627.65,638.46,622.96,638.52,632.42,633.24,636.66,625.33,630.85,635.47,637.82,634.99,631.76,637.51,627.62,633.25,632.09,629.6,628.58,639.74,631.69,630.71,633.69,626.02,632.6,629.46
635.61,639.17,652.81,640.1,646.06,640.53,641.31,639.71,644.92,642.04,646.62,641.92,643.37,635.84,645.61,639.89,644.46,635.46,642.39,642.89,639.47,643.83,639.57,643.63,641.38,640.54,645.17,641.44,632.6,638.43,638.61,643.4,637.93,641.32,645.78,639.45,642,643.81,642.56,640.08,640.86,641.87,640.66,642.93,642.47,642.29,644.15,641.63,639.15,641.72,643.06,630.94,646.55,645.79,640.89,649.32,642.12,644.47,634.11,638.07,638.96,647.51,637.31,635.79,641.94,641.14,641.7,638.18,649.65,640.91,644.9,642.64,639.34,639.93,636.37,643.78,634.16,643.62,644.88,645.25,644.58,633.65,639.12,649.18,646.6,645.55,643.02,639.31,636.18,642.2,636.4,632.99,644.51,648.53,649.85,642.06,647.87,637.58,641.89,639.51
652.38,649.88,658.76,651.9,656.45,647.21,651.62,648.85,650.62,658.77,656.54,652.58,650.7,644.04,660.45,653.04,650.88,646.02,653.48,651.28,646.85,650.38,650.03,647.92,646.63,647.91,659.94,650.41,642.75,650.79,652.31,650.01,652.02,652,653.94,649.39,652.07,651.65,651.61,656.93,648.34,648.78,653.29,650.29,655.65,648.16,653.12,645.61,652,653.03,653.41,650.58,656.19,651.93,653.45,653.96,655.18,658.36,643.48,647.76,647.04,655.26,648.68,648.43,655.71,652.37,649.16,657.15,651.26,651.36,655.84,651.92,651.89,652.36,648.72,656.45,649.17,651.38,651.19,654.69,650.53,642.2,654.14,653.65,655.3,653.43,650.17,656.82,648.41,653.74,652.5,643.07,648.62,659.55,655.19,659.33,654.67,649.8,650.44,651.59
661.41,655.63,665.24,659.91,659.43,665.06,659.1,654.45,659.78,663.47,659.05,660.47,658.43,655.7,662.72,658.04,654.32,654.63,667.21,660.35,654.69,658.48,653.64,652.06,654.48,649.74,663.9,662.78,654,660.06,653.07,651.96,656.99,661.83,655.22,661.53,664.69,656.88,655.23,661.51,657.8,656.04,657.38,660.97,659.13,653.13,658.4,656.5,657.87,658.44,659.08,656.16,661.7,655.79,660.28,660.75,661.09,667.25,654.15,652.51,652.9,658.43,653.05,654.34,661.52,654.17,657,657.92,664.28,657.63,660.64,654.91,658.42,654.37,651.28,657.93,651.37,657.46,659.15,663.12,658.43,656.89,660.77,662.57,665.11,666.54,661.69,667.87,660.13,655.98,654.06,660.9,654.25,663.82,656.48,664.48,657.03,654,658.64,656.33
663.7,663.63,669.82,668.59,663.47,666.53,660.93,659.13,660.71,667.76,667.21,664.72,660.02,661.32,670.57,666.61,660.56,664.17,669.38,670.24,661.56,663.29,665.63,663.58,665.75,659.05,667.12,668.83,660.75,662.26,663.43,658.65,663.91,668.58,664.46,669.12,671.56,667.59,663.83,671.02,666.86,666.26,665.67,661.85,665.68,662.56,663.09,659.21,664,662.03,661.43,662.68,670.27,662.23,663.36,669.33,665.07,670.16,667.67,659.71,659.46,665.82,661.92,663.38,663.23,661.04,664.15,663.94,666.78,661.27,665.86,664.07,660.9,660.79,659.06,668.08,661.29,665.16,661.37,665.29,661.89,664.79,663.71,672.41,666.65,668.76,667.68,669.89,664.63,665.42,661.58,661.66,662.87,668.52,663.71,668.65,668.12,660.22,663.61,665.48
690.12,681.45,691.93,675.64,687.36,690.61,683.16,675.51,684.69,691.83,686.35,674,686.48,680.35,693.64,690.92,686.09,677.39,693.51,683.24,679.3,692.19,681.04,685.76,681.13,679.64,673.32,686.5,685.02,679.19,690.53,682.41,683.53,689.83,691.9,683.39,689.3,690.22,685.1,680.79,684.01,683.75,680.75,693.72,686.57,679.39,688.88,682.92,684.26,682.84,681.87,682.37,680.82,684.02,677.73,689.25,683.29,689,680.91,687.93,674.78,676.13,674.59,688.25,679.27,687.4,680.58,683.15,686.92,691.58,688.15,674.68,688.8,685.92,683.13,682.06,672.81,677.37,665.77,675.12,684.95,681.6,686.55,685.84,685.56,684.98,686.97,683.17,689.95,680.72,689.75,677.02,685.03,694.77,687.33,678.28,682.06,686.38,684.3,694.62
701.34,694.43,700.05,694.83,695.01,693.96,695.24,695.87,689.48,701.7,693.55,693.81,692.24,690.1,698.84,693.49,693.24,687.47,699.22,690.95,693.75,697.55,695.29,688.81,695.73,683.62,706.12,693.44,686.74,691.23,693.35,688.24,697.49,692.95,697.47,701.07,698.14,693.37,691.48,702.83,690.4,691.29,697.02,699.67,697.4,681.46,692.9,687.77,704.52,691.96,698.27,699.47,697.66,693.97,693.29,695.66,693.83,703.68,694.64,694.39,697.3,688.51,692.26,696.92,702.02,697.35,688.7,698.47,702.7,692.95,696.26,688.1,691.99,692.9,689.85,691.59,684.15,686.15,693.55,698.4,688.81,686.35,697.63,696.95,702.98,697.37,696.09,705.38,695.14,692.46,692.79,695,692.05,698.51,693.76,702.65,694.45,690.63,693.14,699.17
705.41,708.46,713.41,703.34,709.96,710.36,709.03,705,710.42,709.27,707,710.03,705.59,702.46,712.71,709.32,706.33,702.16,713.78,709.72,703.48,704.26,705.91,705.52,703.17,699.56,715.38,710.76,710.42,706.73,709.46,703.61,709.43,711.18,706.54,706.89,710.51,709.19,704.13,718.17,712.79,709.76,709.09,707.52,707.7,696.89,706.3,701.02,706.08,707.13,705,704.66,708.57,709.06,705.71,704.94,712.7,716.57,711.14,706.12,707.59,703.57,703.8,706.34,708.22,707.47,703.14,708.72,709.2,708.69,708.25,703.49,710.27,705.02,706.58,711.35,702.95,706.8,700.16,709.06,709.11,696.27,705.75,711.79,708.02,711.5,710.68,714.17,704.96,705.7,710.31,706.4,706.24,715.21,710.96,710.75,707.6,704.39,708.62,707.93
734.39,734.22,735.67,737.85,732.31,743.04,729.62,720.68,730.3,735.9,731.12,737.58,732.57,733.67,740.33,735.42,726.54,728.82,742.82,734.36,726.52,734.47,728.44,730.53,729.43,723.5,733.2,732.79,735.15,731.98,729.91,729.46,731.37,741.22,734.4,731.14,740.54,735.56,732.7,740.47,738.68,731.15,732.22,741.21,729.1,726.55,733.7,728.87,728.66,733.02,727.38,735.44,731.09,728.53,726.42,734.79,732.44,739.89,730.55,729.27,723.24,732.88,725.14,731.18,730.37,727.06,733.59,731.1,731.73,738.54,736.54,725.57,736.57,729.85,728.98,732.12,719.3,734.89,715.41,726.63,733.92,733.03,731.97,736.78,730.29,739.12,733.74,738.75,735.69,732.43,730.99,732.89,728.49,745.17,734.18,731.3,729.27,732.86,736.78,739.75
758.04,764.86,759.34,755.08,757.5,762,755.88,750.84,754.46,759.4,754.71,761.72,756.37,753.75,766.86,757.46,761.74,750,763.36,757.28,752.98,759.28,755.55,759.04,751.57,744.82,759.56,757.7,755.55,753.76,763.59,758.03,758.35,762.23,759.28,755.52,761.96,762.14,758.03,766.11,763.05,755.81,757.53,763.6,754.33,751.55,753.3,749.92,757.44,756.7,754.22,763.75,754.77,755.66,751.47,758.27,757.69,765.71,754.06,755.82,751.85,753.66,751.31,757.74,756.34,752.92,758.04,755.41,758.3,762.03,757.37,750.15,764.23,753.49,755.78,756.07,745.9,755.28,747.12,754.1,756.74,749.98,756.5,760.41,755.96,759.18,757.4,764.06,758.81,757.25,759.09,756.18,760.36,768.28,763.57,759.75,754.83,757.43,759.71,764.98
2601.7,2604.2,2622.4,2596.9,2602.2,2602.6,2639.4,2598.7,2631.7,2622.7,2614.3,2605.2,2602.2,2655.4,2617.5,2596.4,2613.5,2633.5,2596.4,2637.1,2597.5,2597.8,2608.9,2603.9,2609.7,2630.4,2613.9,2612.5,2599.8,2603,2607,2613.2,2603.4,2627.9,2631.6,2608.3,2609.9,2614.8,2619.7,2621,2623.1,2632.3,2621.6,2622.6,2598.6,2598.9,2607.5,2598.1,2629.4,2605,2620.4,2604.6,2617,2629,2602.3,2612.3,2606.2,2599.5,2601.6,2604.3,2599.5,2619,2621.6,2613.3,2645.6,2617.1,2601,2600.5,2600.6,2600.3,2616.1,2606.9,2619.1,2607,2598.2,2619.4,2603.1,2612,2637.2,2606.2,2610.8,2613.2,2620.7,2604.8,2616.7,2614.2,2606.4,2600.9,2610.7,2614.9,2611.1,2626.9,2608,2612.9,2627.6,2620,2623.4,2606.9,2631.9,2629.1
2638.6,2605.9,2634.9,2628.5,2632.7,2637.4,2643.9,2625.9,2637.2,2648.2,2646.4,2613.2,2607.5,2658.8,2618.5,2604.6,2650.8,2635.4,2633.1,2641.3,2632.1,2631.3,2636.8,2659,2645.5,2643,2617.2,2613.9,2636.7,2604.7,2627,2621.8,2627.3,2631.1,2633.9,2615,2625,2626.7,2622.3,2658.4,2632.3,2644.9,2627.3,2629.9,2620,2601.5,2621.6,2609.3,2636.4,2619.1,2621.1,2613,2631.1,2640.6,2619.5,2623,2622.3,2635.6,2640.7,2611.3,2630.8,2635.9,2637.7,2624.8,2646.8,2620.5,2634.1,2609.5,2627.4,2616.9,2649.8,2620.7,2634.4,2628.9,2634.3,2629.6,2616.8,2617.4,2639.2,2608.5,2611.6,2622.1,2642.8,2611.2,2616.7,2626.4,2632.9,2632.2,2620.7,2623.7,2613.2,2631,2640.6,2620.7,2629.7,2620.8,2627,2620,2645.2,2645.5
2639,2630.4,2648.2,2646.5,2641,2645.1,2657,2626.3,2638.9,2657.8,2656.3,2614.6,2636.6,2659.4,2650,2619,2665,2652.8,2643.8,2661.6,2637.9,2633.9,2656.7,2661.4,2649.7,2656.2,2649.5,2642.7,2639.9,2643.9,2641.9,2643.1,2660.8,2647.8,2652.5,2639.6,2646.7,2657.8,2654.8,2660.7,2637.1,2649.7,2651.1,2637.7,2657.6,2662.1,2634.3,2630.5,2642.3,2653.1,2629.7,2625.9,2656.6,2646.9,2622.8,2623.8,2628.2,2660.4,2654.7,2656.7,2641.5,2660.9,2638.6,2636,2650.1,2656.5,2654.1,2656.5,2655.5,2623.2,2652.8,2632.9,2649.4,2648.7,2637.9,2636,2630.9,2628.5,2646.5,2620,2656.4,2657.6,2651.9,2633.7,2638,2631.6,2641.1,2652.9,2657.1,2662.3,2645.1,2649.1,2652.5,2652.8,2646.2,2629.8,2644.6,2643.3,2646.7,2658.3
3460.3,3458.5,3433.8,3476.6,3463.1,3447.8,3426.4,3420.8,3429.9,3453.4,3433.9,3474.8,3406.1,3444.3,3466.8,3456.5,3473.3,3474.8,3423.4,3461.1,3427.6,3436.8,3440,3407.4,3412,3419.4,3468.5,3424.9,3410.4,3469.7,3423.7,3462.1,3417.7,3454.3,3415.4,3484.1,3453.4,3452.6,3405.5,3463.1,3455.2,3412.9,3426,3458,3461.8,3479.2,3460,3418.9,3415.3,3420.8,3442.7,3411.6,3436.8,3408.2,3483.3,3478.6,3423.7,3482.2,3455.1,3432.5,3475.7,3418.3,3427.7,3485.3,3463.6,3481.6,3426.1,3418.1,3446.4,3428.3,3452.4,3456.2,3456,3485.3,3472.2,3410.3,3467.9,3405.7,3480.6,3412.1,3449,3427.2,3460.4,3431.4,3469.6,3477.4,3441.1,3455.7,3411.6,3427.1,3416,3477.1,3447.4,3437.9,3472.4,3451.7,3464,3420.1,3471.7,3431.2
