17.166,17.349,17.472,17.506,17.524,17.349,17.501,17.401,17.33,17.626,17.552,17.484,17.441,17.303,17.418,17.564,17.606,17.656,17.487,17.632,17.57,17.548,17.459,17.379,17.475,17.183,17.494,17.275,17.432,17.357,17.288,17.716,17.464,17.539,17.527,17.648,17.254,17.489,17.523,17.654,17.309,17.34,17.341,17.791,17.351,17.497,17.28,17.39,17.173,17.218,17.592,17.504,17.346,17.698,17.566,17.362,17.375,17.708,17.447,17.612,17.523,17.514,17.446,17.564,17.605,17.666,17.544,17.479,17.364,17.552,17.567,17.186,17.382,17.398,17.404,17.728,17.476,17.369,17.607,17.473,17.439,17.925,17.234,17.443,17.378,17.343,17.502,17.384,17.534,17.493,17.493,17.652,17.518,17.261,17.499,17.574,17.382,17.465,17.821,17.594
18.431,18.434,18.598,18.816,18.621,18.488,18.79,18.795,18.856,18.597,18.428,18.696,18.598,18.697,18.387,18.717,18.851,18.5,18.802,18.714,18.747,18.723,18.698,18.653,18.651,18.737,18.624,18.898,18.714,18.261,18.868,18.666,18.582,18.519,18.511,18.497,18.634,18.675,18.716,18.65,18.828,18.403,18.535,18.672,18.532,18.512,18.896,18.597,18.831,18.518,18.564,18.577,17.997,18.512,18.317,18.632,18.674,18.393,18.72,18.654,18.603,18.289,18.725,18.683,18.606,18.5,18.911,18.685,18.443,18.393,18.4,18.483,18.494,18.773,18.794,18.536,19.178,18.675,18.689,18.529,18.676,18.682,18.631,18.721,18.226,18.741,18.625,18.521,18.208,18.653,18.603,18.73,18.487,18.641,18.882,18.546,18.601,18.667,18.456,18.904
38.755,38.968,38.943,38.591,38.637,38.888,38.711,39.009,38.825,39.068,39.099,38.938,38.813,39.426,39.11,39.264,39.207,38.986,38.818,38.688,38.938,38.982,39.011,38.791,38.891,38.967,38.715,39.135,39.006,39.056,38.994,38.738,38.861,38.778,39.016,38.883,38.62,38.767,38.728,38.725,38.861,38.507,38.813,39.067,39.031,39.057,39.266,39.067,39.122,38.511,39.115,39.13,38.948,38.819,38.637,38.704,39.326,38.826,38.39,38.791,38.941,38.409,38.935,38.961,38.537,38.205,38.838,38.901,38.993,39.073,38.894,39.321,39.029,38.73,38.674,38.656,39.308,38.955,38.844,38.882,38.674,38.939,38.67,38.938,38.995,38.945,39.046,39.231,38.747,38.875,39.021,39.153,38.813,38.565,39.123,39.088,38.68,39.093,39.04,39.07
68.739,69.28,69.476,69.024,69.637,68.965,69.032,69.592,68.833,69.777,69.621,69.328,69.177,69.798,69.236,69.978,69.747,69.889,69.256,68.851,69.392,69.44,69.823,69.517,69.26,69.095,69.28,69.521,69.683,69.241,69.445,69.059,68.555,69.36,69.178,69.239,68.221,69.368,69.375,69.263,69.304,68.507,69.361,69.66,68.867,69.867,69.552,69.231,69.297,68.183,69.784,69.317,69.157,69.624,69.475,69.031,70.221,69.296,68.619,69.54,69.293,68.84,69.292,69.887,69.416,69.251,69.356,69.734,69.189,69.594,69.682,69.143,69.212,69.061,68.88,69.37,69.899,69.504,69.289,69.236,69.22,70.067,69.215,69.469,69.011,69.22,69.507,69.718,68.608,69.402,70.068,70.164,69.285,69.301,69.805,70.098,69.145,69.769,69.845,69.197
75.168,74.522,75.151,74.537,75.402,75.649,74.934,76.146,75.527,76.188,75.802,75.515,75.615,75.943,75.567,76.442,76.058,75.199,75.885,74.518,75.337,75.563,75.489,75.64,75.436,75.826,75.553,75.72,75.421,76.047,75.536,75.241,75.222,75.134,75.613,75.799,74.591,75.331,76.108,75.194,75.17,74.997,75.356,75.517,74.592,75.777,76.027,75.957,75.243,75.246,75.941,75.453,75.903,74.736,75.293,75.468,76.183,75.171,75.09,75.445,75.193,74.31,75.405,75.612,75.154,74.112,74.907,75.687,75.374,74.86,74.973,76.648,75.937,75.103,74.956,75.251,76.267,75.439,75.321,74.999,74.91,75.562,74.825,75.392,75.915,75.817,76.261,76.065,74.81,75.614,74.488,75.788,75.344,75.142,75.593,75.642,74.799,75.546,75.717,75.873
90.811,91.4,92.451,92.368,91.688,91.025,92.93,92.31,92.366,92.151,91.919,91.684,91.803,91.786,91.589,92.512,92.142,91.841,92.283,92.776,92.027,92.572,92.397,91.964,92.572,91.012,92.207,92.325,91.861,91.616,91.734,92.69,91.57,92.195,91.79,92.111,91.821,91.818,92.36,92.115,92.498,91.545,91.331,93.039,91.431,91.472,92.092,92.172,91.93,91.25,91.987,91.983,90.222,91.907,91.411,92.447,91.736,91.857,91.841,92.639,91.948,91.51,92.147,91.995,91.95,91.541,92.979,92.012,91.445,91.898,91.959,91.842,91.58,92.049,92.18,91.946,93.32,91.598,92.094,91.353,92.001,92.71,91.072,92.069,91.232,91.727,92.136,89.894,91.122,92.233,91.673,92.193,91.596,91.996,92.475,92.539,91.446,92.09,92.337,92.744
109.27,109.08,109.54,108.48,108.76,108.17,109.21,109.22,109.55,109.42,109.74,108.67,109.72,109.95,109.35,109.74,110.5,109.28,109.09,109.09,109.56,109.91,109.98,109.11,109.04,110.2,110.03,110.27,108.95,109.25,109.62,109.25,107.96,108.77,109.39,109.86,108.43,109.46,108.8,109.53,109.16,108.96,108.37,109.23,109.66,110.21,110.58,108.61,108.68,108.26,108.82,109.4,109.13,108.83,109.36,108.7,110.04,108.66,108.42,108.78,108.54,107.78,108.28,109.33,108.73,108.02,108.91,109.03,109.29,108.77,109.34,109.3,109.13,108.96,108.26,108.56,109.79,110.42,108.95,109.38,108.06,108.92,108.83,108.85,109.54,109.59,109.45,110.22,109.36,109.75,108.66,109.54,109.55,108.61,109.24,109.36,109.07,109.73,109.51,109.51
135.41,134.88,135.41,134.7,135.72,134.71,134.98,136.57,135.2,136.13,136.67,135.09,135.15,136.87,135.99,137.22,136.09,135.01,136.07,135.35,134.56,135.87,135.21,135.73,135.56,136.05,134.7,135.93,135.12,136.44,136.32,135.02,134.09,134.76,135.09,136.62,134.54,134.56,135.68,135.84,136.06,134.62,134.82,135.77,134.71,136.81,136.68,135.92,135.32,134.05,136.2,135.76,135.5,134.92,135.61,134.63,136.59,134.71,134.29,136.05,135.74,134,134.52,135.79,134.69,133.98,135.05,134.55,135.63,135.06,135.21,136.49,135.25,135.5,135.11,134.77,135.29,136.29,135.2,135.58,134.43,134.29,135.46,135.04,135.31,135.58,136.23,137.06,133.86,135.63,136.13,136.23,135.2,134.61,135.31,137.81,135.05,137.02,135.25,134.15
142.69,140.94,143.27,140.65,141.4,143.38,142.76,144.49,143.37,143.43,143.73,142.57,142.76,143.64,143.42,144.43,144.25,142.21,142.3,141.75,142.27,143.11,142.08,142.35,144.03,143.2,142.45,143.28,141.59,142.72,142.25,141.36,141.91,141.52,142.7,143.34,140.04,140.73,143.21,142.15,142.03,141.07,141.38,142.67,142.55,144.1,144.16,143.52,143.09,142.08,142.39,143.17,142.63,142.66,142.75,143.12,144.44,141.98,141.91,142.37,141.57,140.04,142.65,142.49,141.51,140.31,140.48,142.54,143.21,142.52,142.85,144.61,143.52,140.95,142.09,141.83,143.4,143.25,141.62,142.15,141.99,140.99,141.21,142.22,143.45,143.34,143.38,145.65,141.55,142.65,140.71,142.52,142.7,141.29,142.53,144.66,142.06,144.15,143.68,142.11
169.12,168.64,166.95,170.22,169.77,167.47,169.8,168.42,169.69,168.39,170.21,167.85,168.29,168.43,169.45,166.91,168,167.06,168.7,170.7,168.53,170.56,169.36,168.78,166.52,170.71,168.64,170.48,168.17,167.19,167.61,169.3,166.14,170.39,169.38,171.46,168.06,167.44,168.2,168.82,169.14,169.42,166.02,167.89,170.29,169.15,170.04,165.87,168.94,167.07,167.8,169.4,167.71,168.22,168.39,167.34,168.41,167.85,168.94,168,169.61,166.04,167.78,168.83,166.65,166.29,168.57,167.5,168.52,167.26,168.89,170.42,168.65,170.51,167.79,168.78,168.02,168.76,168.72,168.23,168.34,166.39,170.09,166.87,168.27,168.45,168.72,169.36,168.68,168.26,166.65,168.31,169.2,169.24,168.32,171.12,168.57,166.96,170.36,169.19
171.7,170,172.85,171.77,172.15,169.71,173.66,172.91,173.23,171.95,171.07,169.98,172.65,173.79,172.4,172.94,173.07,172.09,172.07,172.12,171.37,174.21,174.6,172.77,171.58,174.36,173.39,173.52,173.28,173.71,173.6,173.82,172.09,172.3,171.95,171.96,172.44,172.21,173.09,172.8,173.22,173.31,171.66,173.41,174.34,173,172.91,171.9,172.04,171.1,172.4,173.05,174.2,172.29,173.13,171.39,173.42,172.91,170.81,173.32,171.35,172.45,171.85,172.23,171.65,171.35,171.31,171.59,172.83,172.48,172.1,172.55,171.37,173.85,171.13,171.04,172.66,173.38,171.76,171.84,170.63,171.82,173.07,173.17,173,171.54,171.62,172.3,172.2,173.14,172.03,173.21,173.28,170.92,170.61,173.4,172.42,173.28,172.29,172.04
214.72,213.92,212.64,212.06,214.09,211.94,209.17,211.88,210.84,213.19,215.85,212.6,213.13,216.16,213.75,212.68,212.9,216.11,213.47,210.65,214.48,215.71,215.76,214.46,211.68,215,214.04,215.49,216.06,213.93,215.9,212.66,213.71,213.65,214.94,214.19,214.61,213.96,211.56,213.74,213.02,211.78,214.15,215.86,214.7,214.45,214.92,213.18,212.91,210.77,214.1,214.72,214.31,213.99,211.54,210.97,216.81,212.8,211,212.09,214.03,213.71,211.95,211.72,211.74,212.74,214.75,214.06,213.08,212.94,214.16,214.91,214.07,212.64,211.88,212.47,215.31,215.7,214.5,212.17,211.99,214.02,213.51,214.98,213.58,213.75,215.15,212.27,215.14,213.94,215.04,216.04,212.51,211.41,215.45,214.1,212.42,213.32,213.85,214.14
218.4,216.53,217.39,215.91,217.91,217.04,215.1,218.43,216.34,218.06,216.72,217.08,216.57,220.32,218.18,215.95,217.92,216.69,218.15,217.01,216.49,216.55,216.95,215.56,216.28,217.65,218.43,218.1,216.55,216.3,218.89,216.81,219.69,217.55,216.4,216.88,216.88,216.03,217.95,214.88,216.18,217.1,215.82,219.66,218.49,215.63,216.94,217.07,216.23,215.36,218.47,216.48,217.01,218.67,217.44,216.5,221.28,216.26,215.06,216.66,215.67,215.58,217.39,216.46,217.06,215.56,216.38,218.31,217.79,217.13,215.45,218.89,217.87,216.46,215.67,216.45,218.15,216.98,217.32,214.12,217.72,217.57,214.39,218.41,216.08,218.44,217.19,217.42,218.46,218.44,216.59,218.23,217.57,215.3,217.76,217.53,216.65,218.2,216.9,216.49
227.53,228.18,229.89,229.04,228.06,227.21,228.91,228.8,228.45,229.92,229.76,228.54,228,230.35,231.35,229.17,231.06,226.3,229.13,230.37,228.24,229.37,229.04,228.15,228.52,230.47,228.02,230.15,228.6,230.87,229.76,230.81,229.97,226.55,227.32,229.52,229.19,226.59,228.44,227.85,230.82,229.56,227.95,229.45,231.62,229.36,231.18,227.3,228.52,227.11,228.66,230.41,229.05,229.19,228.86,226.95,231.63,228.4,227.38,227.57,227.03,225.17,228,229.03,226.08,226.63,228.8,228.32,229.89,229.8,229.82,230.57,228.5,229.44,228.03,226.42,231.15,228.06,228.19,229.4,227.83,227.74,228.33,230.04,229.56,229.24,228.3,230.1,230.02,228.03,229.79,231.21,229.94,226.57,226.94,231.04,228.1,230.55,229.88,230.23
234.9,235.31,232.51,233.02,233.56,233.34,233.43,231.88,231.95,233.25,235.12,231.95,233.01,235.72,234.87,232.24,233.23,234.25,232,233.4,234.13,233.53,233.8,233.04,231.82,234.28,234,234.88,234.08,233.01,233.78,233.24,230.97,234.43,234.67,234.28,233.53,234.05,230.74,234.32,234.18,232.75,233.08,234.02,234.14,234.31,234.62,231.97,231.63,230.14,234.01,235.04,232.24,232.96,231.79,229.61,234.05,232.24,231.2,230.38,233.23,232.74,232.06,232.4,230.09,231.58,233.54,232.26,233.02,232.35,233.45,233.14,232.57,233.34,231.61,232.22,234.53,235.87,234.48,232.6,232.93,231.4,232.8,231.9,232.66,233.16,232.93,233.96,235.02,233.61,234.08,234.9,233.02,230.86,234.73,233.82,231.66,234.08,232.13,233.51
246.9,243.92,245.72,246.89,246.4,244.57,243.95,247.03,246.11,244.86,246.13,245.37,247.05,247.5,246.77,243.65,244.78,244.59,246.34,247.47,245.68,246.41,246.84,241.99,244.24,246.26,246.72,247.92,246.35,246.34,247.79,247.4,247.37,245.83,245.07,247.49,245.03,246.3,245.35,244.55,246.24,246.51,242,247.99,247.51,243.78,246.92,244.81,246.07,243.63,246.89,245.24,242.36,245.77,247.59,245.44,249.4,243.78,244.82,245.15,246.1,244.73,245.25,246.87,246.32,247.2,246,245.82,247.22,246.66,244.52,246.94,247.99,247.34,244.89,246.24,243.65,245.74,247.65,244.34,245.18,243.16,242.47,245.77,245.87,247.07,247.84,245.18,247.04,246.58,244.58,246.92,244.86,241.94,245.82,246.19,246.44,248.6,244.24,246.83
247.92,247.86,250.8,249.69,251,247.64,251.45,250.29,250.12,250.95,248.67,249.79,250.23,250.25,250.31,248.97,250.2,247.9,250.08,251.8,249.52,250.17,249.73,248.31,248.78,250.49,250.64,250.98,248.63,250.71,250.36,251.81,250.8,248.62,246.69,249.73,249.13,248.04,250.47,248.94,251.47,250.11,248.48,251.14,251.73,249.91,251.26,247.37,249.37,247.91,249.62,250.2,249.17,250.12,251.38,247.95,252.18,247.84,248.76,248.32,247.57,245.23,247.5,252.38,248.71,248.97,248.82,249.81,251.71,251.35,249.82,250.29,248.98,250.02,248.62,247.02,250.14,249.34,248.14,250.96,247.07,249.17,247.95,248.28,248.97,249.7,248.54,252.27,250.91,249.89,250.44,251.15,250.53,248.55,247.42,251.34,249.49,250.93,250.26,250.43
252.58,250.59,250.86,252.38,252.63,252.49,253.54,252.21,252.36,252.45,253.02,250.82,252.42,254.83,253.03,251.29,252.45,250.9,251.73,253.09,250.26,250.99,250.75,248.75,251.68,252.47,251.41,252.88,249.91,252.14,250.94,253.67,252.37,250.67,250.63,252.8,249.59,251.02,252.33,249.45,252.81,252.88,248.67,252.32,252.49,251.89,252.38,250.49,250.76,248.76,252.04,252.8,249.85,251.29,253.01,251.14,254.61,249.68,249.22,249.84,252.69,250.12,251.12,252.55,251.21,250.66,250.27,251.53,251.99,252.58,250.81,251.94,252.46,252.38,251.47,251.1,252.36,251.22,252.12,252.54,252.81,251.48,250.22,250.99,251,251.02,251.06,253.17,251.71,251.92,252.87,251.91,254.18,249.57,251.74,252.58,251.11,253.31,252.65,251.89
271.53,267.48,271.1,270.62,271.34,267.17,269.3,270.89,267.21,274.17,271.47,272.33,267.59,271.5,271.83,269.64,269.82,267.68,272.26,272.12,268.08,266.54,266.29,264.02,267.31,270.09,270.03,271.06,269.52,270.41,273.07,269.16,270.55,269.69,265.16,269.88,268.67,270.31,268.96,268.01,268.38,271.13,267.28,271.64,270.67,268.64,268.81,269.72,269.61,267.45,271.53,267.59,268.93,270.85,271.05,269.11,272.73,270.73,266.53,269.54,269.87,269.76,271.53,269.25,269.63,267.66,269.53,270.32,271.22,270.5,268.71,270.59,270.84,271.14,268.46,269.66,270.53,269.89,270.75,266,270.5,269.96,266.68,269.13,268.34,272.59,268.79,270.75,269.65,274.25,272.23,270.4,269.65,270.25,269.36,270.24,269.47,275.22,269.23,270.27
277.62,275.68,276.97,276.9,277.43,275.88,275.64,278.79,276.05,277.44,277.97,277.41,276.47,277.68,277.61,276.56,276.19,274.71,277.47,280.06,274.71,276.46,275.84,272.37,276.71,277.24,277.04,277.5,277.57,277.41,278.83,277.56,277.96,275.71,276.83,278.47,275.18,277.7,275.16,277.9,278,278.06,273,278.38,276.08,277.61,277.68,275.4,276.81,274.58,278.26,276.45,273.7,276.95,278,275.57,279.68,274.94,276.36,275.6,278.67,276.31,275.48,278.32,277.53,277.48,276.07,275.83,278.38,277.14,276.14,276.76,277.35,276.69,278.01,275.62,274.44,278.07,278.33,276.49,276.33,274.32,274.56,275.68,275.43,277.31,277.76,276.96,276.7,277.29,276.79,278.38,276.23,273.49,276.89,278.15,277.27,282.29,276.9,277.28
301.12,298.48,298.57,300.93,301.82,297.26,300.21,301.65,301.4,299.62,301.21,299.19,301.06,299.98,300.53,299.32,298.31,295.81,298.78,302.92,297.93,301.72,301.33,295.63,296.8,303.2,300.62,301.98,301.13,298.34,299.73,302.71,300.13,300.8,299.27,300.82,298.15,300.59,299.22,299.43,300.84,304.56,294.9,302.04,300.57,301.58,298.95,296.41,300.41,296.79,299.4,300.02,298.01,300.29,302.04,299.93,301.54,298.68,301.53,300.39,300.17,297.28,299.31,302.2,299.73,299.53,299.39,299.32,301.82,301.06,299.72,301.25,300.08,302.33,301.02,299.55,298.82,298.98,300.97,300.27,298.75,295.67,298.69,298.61,297.88,298.58,298.64,300.5,297.96,300.7,297,300.03,299.91,297.67,300.02,301.8,300.74,302.03,303.2,300.87
304.42,305.43,303.97,307.14,306.98,302.87,308.78,304.46,307.83,305.51,305.86,305.09,304.99,306.38,306.43,303.87,306.89,302.96,305.12,308.64,305.29,306.82,305.97,304.37,303.32,307.8,306.02,307.15,303.93,305.53,305.6,307.96,301.96,305.14,305.81,310.07,304.6,304.36,303.3,305.91,307.85,305.2,301.91,304.43,308.49,305.26,310.03,300.25,303.82,302.22,304.06,305.63,302.74,304.55,304.78,301.78,306.57,301.88,303.55,301.85,303.79,302.86,303.13,306.93,302.77,302,305.39,302.78,305.68,304.24,306.01,305.28,304.73,307.92,303.68,302.92,305.44,306.78,303.99,306.58,304.55,303.75,306.32,304.22,305.45,306.01,305.72,306.58,306.89,306.17,305.37,306.42,307.15,304.08,303.18,308.49,303.89,304.81,306.16,306.81
347.58,344.37,345.23,343.44,349.03,344.05,340.2,346.99,343.01,348.59,345.37,346.53,344.1,348.14,345.77,344.39,345.78,345.71,350.72,345.69,345.41,344.55,344.22,340.73,343.55,345.4,344.99,346.3,347.2,345.56,351.75,343.82,348.05,346.95,341.93,345.39,345.33,346.16,347.34,342.13,342.02,344.48,346.67,349.92,347.18,343.33,345.39,346.78,346.38,346,349.11,345.58,345.54,348.47,346.11,344.07,350.57,343.89,340.83,343.15,345.67,344.91,347.87,344.52,346.35,341.52,345.06,347.07,345.16,345.1,343.31,349.48,347.12,344.55,344.14,342.78,345.47,349.23,346.38,341.86,344.31,346.55,340.72,346.85,342.56,347.73,347.56,342.41,344.38,348.81,348.39,345.73,347.99,345.19,346.83,344.47,345.63,349.26,345.75,345.62
353.5,350.01,350.69,350.61,353.45,347.94,351.78,353,351.81,351.36,351.91,348.95,352.93,355.2,350.87,353.64,353.92,351.28,352.94,350.88,351.8,354.54,352.86,351.81,350.75,353.03,353.61,352.3,351.49,351.95,353.16,354.77,352.44,349.7,351.5,353.29,350.02,350.62,353.14,352.29,352.57,350.9,350.6,355.96,352.35,351.22,353.21,351.15,349.68,349.18,350.14,353.21,348.98,352.08,352.76,350.07,354.07,349.58,348.26,351.88,347.6,350.19,350.27,352.19,351.49,349.37,350.66,350.71,353.55,351.08,351.42,351.08,351.71,353.23,349.66,349.76,351.35,355.3,351.73,350.42,349.98,352.36,351.12,352.13,350.03,353.65,351.97,352.15,354.03,353.94,351.86,353.3,351.52,348.05,349.61,352,350.56,353.14,350.58,350.67
378.2,375.29,374.27,378.45,381.2,377.02,377.03,378.06,375.46,378.62,374.51,375.71,377.36,380.41,375.55,374.25,376.64,378.43,380.91,378.15,378.08,381.18,379.12,374.43,378.95,378.04,376.05,377.31,377.75,377.87,379.85,381.25,379.04,377.3,375.18,381.76,376.81,379.77,379.71,375.9,377.68,378.45,379.22,383.14,379.03,375.08,375.02,376.46,377.48,375.51,380.18,379.43,375.18,381.37,376.05,379.16,382.32,375.17,373.38,377.35,382.37,377.36,376.02,377.66,376.77,376.36,380.27,377.92,378.42,378.11,377.93,377.53,380.78,378.92,374.41,378.11,376.12,379.93,379.88,373.74,377.97,379.45,376.94,378.48,374.09,377.25,378.26,375.26,375.88,378.15,376.08,379.06,378.14,373.3,378.17,379.09,378.01,377.3,379.62,379.15
381.68,377.03,380.38,382.16,382.34,381.82,383.36,384.06,381.73,382.22,380.4,379.61,382.7,383.24,382.91,380.9,382.41,380.56,385.25,380.95,383.41,383.83,384.45,381.33,381.5,387.01,382.52,384.09,382.49,381.26,384.03,383.27,382.9,382.56,379.36,384.52,382.35,382.56,384.59,379.65,383.02,382.97,381.84,385.17,381.65,380.47,381.63,383.75,382.46,379.3,382.1,384.11,380.47,382.22,382.22,381.85,383.35,380.02,382.06,381.46,383.28,379.66,379.21,381.49,379.48,380.58,381.14,382.47,382.76,379.91,382.3,384.38,384,384.61,382.25,380.45,382.96,382.61,381.32,378.75,382.42,381.97,380.95,383.77,380.71,382.49,379.22,379.48,380.03,379.28,380.78,381.55,381.33,381.59,380.84,380.51,381.33,383.25,380.87,385.66
391.98,390.99,389.6,392.51,393.28,389.76,395.03,390.91,393.12,391.41,393.71,391.62,392.19,393.72,393.62,387.36,391.53,389.97,391.91,395.6,391.05,393.73,393.53,388.12,390.61,392.98,389.45,393.19,391.29,391.07,392.47,394.12,389.66,391.59,391.93,395.35,391.87,390.87,389.27,392.17,394.05,392.11,388.24,393.7,394.85,392.53,394.14,386.09,390.09,387.8,392.25,393.35,388.98,391.62,392.46,389.74,394.76,388.95,388.68,386.6,394.7,389.12,389.52,394.22,390.3,390,391.84,389.4,391.91,392.85,393.55,393.1,392.72,393.54,391.64,389.83,389.63,392.43,392.49,393.91,391.37,389.13,390.75,390.62,391.38,393.47,391.59,393.18,391.73,393.73,392.5,392.26,394.25,387.33,389.76,395.49,392.18,392.25,394.01,393.58
425.81,424,427.69,427.38,430.17,426.26,430.66,428.86,427.04,429.4,426.48,426.67,428.09,427.83,428.68,427.02,428.48,426.13,427.62,428.93,428.03,426.21,427.3,426.79,429.07,428.17,427.31,427.84,429.03,428.3,428.15,429.39,426.25,425.98,425.62,430.45,423.37,427.01,427.85,428.42,429.59,427.34,427.52,430.42,430.89,429.54,428.27,427.28,428.07,424.41,427.44,429.63,427.03,430.88,430.13,425.29,428.84,428.17,423.96,426.27,426.74,425.14,426.75,430.41,424.77,425.97,427.33,428.15,430.81,427.34,430.61,428.86,429.21,426.32,427.05,424.39,428.26,429.95,426.82,424.65,427.19,424.77,427.7,427.88,427.86,429.77,425.37,429.51,429.43,427.32,427.27,431.1,427.64,424.96,425.94,429.17,426.75,430.44,426.98,428.93
430.85,433.95,435.32,443.27,440.47,434.69,432.96,432.28,435.71,437.98,436.99,436.23,429.3,432.44,440.87,429.32,433.17,432.72,430.87,436.45,432.92,430.44,430.38,429.35,430.16,434.65,434.66,434.92,435.93,439.1,429.39,431.15,427.23,442.77,432.43,433.65,428.34,432.07,435.57,432.38,438.14,435.08,434.28,431.99,431.22,435.66,432.71,435.38,432.67,431.56,435.4,437.87,427.79,436.8,430.47,432.52,431.38,432.71,433.43,428.83,439.17,435.44,435.12,430.87,427.66,436.75,431.53,434.55,436.61,431.56,438.99,429.69,436.57,436.12,433.21,434.85,436.74,436.59,435.4,427.11,435.71,432.16,429.94,429.84,437.39,437.66,430.29,431,441.36,430.56,435.23,433.87,433.77,441.46,439.91,436.42,432.63,442.6,430.88,439.25
448.55,447.9,447.53,455.29,453.63,452.56,447.85,447.95,450.78,452.74,446.93,447.34,445.43,446.4,449.91,441.25,445.31,446.34,447.15,450.09,452.89,444.4,447.58,444.32,446.12,447.53,448.09,449.65,448.05,449.98,447.16,446.67,440.83,457.18,441.61,452.13,441.13,447.21,449.41,448.79,451.52,447.59,447.66,449.03,449.04,450.13,442.67,451.64,447.07,446.63,452.13,449.08,444.66,454.09,446.16,446.11,446.91,448.64,449.18,442.44,449.43,448.97,445.91,443.13,441.17,444.24,446.28,448.39,451.26,445.35,446.62,446.05,450.89,444.74,445.33,448.22,456.59,448.83,450.09,438.13,450.8,445.49,442.95,446.84,446.71,448.97,442.72,443.38,451.79,443.49,447.72,445.28,451.65,454.42,451.63,448.6,450.12,452.09,444.36,448.52
459.82,455.15,453.44,458.63,470.62,461.24,454.81,464.9,456.87,457.09,458.03,452.84,455.77,460.88,458.1,455.55,463.49,455.65,468.26,461.23,463.21,462.43,460.16,449.75,458.99,454.55,458.38,454.07,457.28,459.21,463.64,453.85,461.17,460.98,450.7,458.86,459.13,462.6,466.19,451.46,456.54,456.82,462.05,461.06,460.75,459.04,458.08,457.4,455.31,460.71,460.08,455.79,461.34,470.35,457.76,464.88,462.44,452.62,454.18,454.68,454.68,458.7,453.95,455.15,457.72,454.43,459.51,457.77,457.67,451.93,457.93,459.42,460.89,453.49,456.16,452.02,458.84,458.76,456.92,447.65,456.36,456.99,451.85,460.63,459.86,462.67,458.62,446.38,465.67,451.13,448.49,453.27,461.95,461.01,453.77,459.85,460.16,459.06,461.93,453.2
466.78,465.14,468.48,471.63,472.77,470.03,468.32,466.22,467.75,473.24,468.06,467.04,463.81,464.74,468.88,461.79,468.46,463.03,473.93,468.85,466.86,463.77,466.69,461.68,461.35,465.97,469.06,466.87,468.39,468.29,467.1,464.79,464.16,468.17,460,464.49,464.81,467.2,470.25,462.88,469.46,470.06,468.84,466.7,468.55,465.5,463.74,465.17,468.96,465.55,468.21,468,462.85,474.83,469.53,468.82,465.51,465.4,468.56,461.63,471.1,468.37,465.69,461.61,465.4,464.9,465.54,467.1,469.7,467.58,465.31,465.49,465.76,466.93,467.04,469.34,469.88,464.04,467.02,458.76,467.86,465.44,460.05,466.99,466.21,469.41,465.01,463.77,467.66,465.68,469.56,462.8,467.76,467.8,464.83,467.57,465.59,472.15,464.34,469.86
474.22,468.41,472.26,475.6,480.19,470.68,470.19,477.33,469.69,476.13,471.5,471.53,474.04,474.36,475.11,470.16,475.2,472.91,476.87,474.52,475.39,475.27,473.12,468.96,472.86,471.58,469.96,471.75,472.28,473.65,475.09,474.13,472.83,474.4,468.14,478.21,471.24,471.8,477.66,471.03,476.76,475.94,473.8,478.33,474.92,472.05,472.6,475.29,473.85,469.19,474.73,473.53,469.67,481.57,473.73,475.43,474.81,470.73,472.8,471.45,474.42,471.2,468.96,471,471.72,474.66,475.76,474.03,475.74,474.09,473.54,474.63,476.55,471.22,471.88,471.21,473.35,473.27,471.88,465.1,474.04,471.61,472.72,478.2,472.73,477.42,471.87,468.61,474.72,469.63,470.34,471.5,472.44,475.93,473.17,475.65,473.47,475.18,475.41,472.19
476.12,473.97,476.32,477.6,481.93,478.05,474.51,479.99,475.65,477.41,476.8,478.57,480.34,480.79,476.1,472.62,478.45,480.58,480.1,477.8,479.37,479.14,481.86,475.78,476.99,475.96,478.68,477.92,480.53,477.97,476.94,477.56,474.97,479.39,473.31,480.78,475.08,474.77,478.26,474.24,477.22,478.54,477.82,484.34,477.23,475.7,473.97,477.75,474.56,474.42,478.39,478.2,476.28,483.43,478.84,477.47,481.08,472.35,475.17,477.46,475.37,478.18,476.46,475.54,475.56,475.6,476.65,479.2,481.99,474.79,480.61,477.43,477.59,476.11,475.51,474.62,476.04,477.94,479.39,473.1,481.21,474.25,476.09,479.1,476.67,480.49,475.84,472.95,478.6,476.84,479.06,478.89,475.61,477.34,478.13,479.36,478.46,480.96,480.34,479.62
482.16,475.9,477.39,483.67,483.41,479.51,480.96,481.89,479.89,482.1,481.77,481.13,480.83,483.58,483.77,477.65,479.48,481.53,485.49,479.85,484.8,481.38,482.97,479.76,483.55,480.35,481.2,478.94,485.14,480.91,482.51,482.08,481.43,482.68,477.09,484.11,480.6,480.77,483.03,476.33,481.57,481.34,479.2,485.33,479.88,479.25,479.14,483.53,479.46,475.71,480.24,481.56,479.67,488.64,481.64,480.44,486.55,478.81,480.19,483.64,480.62,480.32,478.69,481.12,481.66,478.79,478.78,483.86,485.6,481.96,484.62,480.87,481.98,481.02,478.61,478.32,481.85,482.35,482.78,477.71,482.6,478.41,480.63,480.5,480.57,483.97,479.44,479.1,485.39,481.27,481.65,481.65,480.6,481.04,480.42,483.49,482.88,487.93,486.05,482.91
490.41,482.81,483.66,486.33,492.07,487.06,482.45,488.9,487.16,485.81,486.15,484,484.2,493.57,484.28,484.55,486.55,486.46,493.88,487.84,488.32,488.24,487.08,486.21,488.38,490.35,485.39,486.52,486.11,484.07,489.28,490.17,486.12,486.55,481.56,492.01,486.62,488.68,490.29,481.96,489.91,485.4,487.62,492.96,485.6,489.14,484.46,485.55,486.28,482.71,489.89,486.2,485.44,496.79,486.06,489.3,494.51,482.61,481.44,486.48,489.6,488.04,484.46,482.46,488.83,489.26,488.83,486.78,486.86,486.72,485.01,487.84,487.78,485.27,483.21,483.45,486.11,489.14,486.49,481.25,488.12,485.78,488.43,486.08,485.74,489.52,483.77,482.72,487.48,486.09,486.75,485.19,486.22,483.07,486.89,492.81,487.35,491.31,490.64,487.11
498.36,492.17,494.07,498.41,498.85,490.37,496.64,490.86,494.9,497.37,488.06,496.67,493.53,494.89,498.68,491.97,496.14,495.86,498.38,498.75,498.76,494.82,498.78,493.89,489.29,496.49,494.19,492.98,495.83,501.27,499.65,496.78,500.36,499.32,494.39,501.29,496.32,501.84,496.95,492.24,494.13,494.69,494.56,497.96,492.44,492.32,494.13,496.15,493.37,489.97,504.09,490.09,496.1,503.29,498.35,495.59,497.17,492.01,491.71,494.78,504.68,499.59,492.75,496.4,495.95,499.93,496.04,492.72,497.96,496.62,497.82,497.72,499.13,494.81,493.93,499,493.4,492.63,493.98,491.3,494.45,502.09,497.42,493.76,493.17,492.46,498,490.89,491.01,495.27,499.34,501.35,498.88,490.98,495.72,495.99,492.79,502.89,496.36,496.96
508.56,506.66,507.19,510.13,512.18,508.71,505.41,507.1,508.44,509.73,506.37,504.39,505.07,513.1,508.3,501.49,506.81,505.52,511.05,509.55,507.45,505.24,507.01,502.69,501.03,506.47,506.84,507.29,506.37,508.91,507.97,506,508.74,510.71,501.85,509.17,504.52,508.36,509.61,503,505.9,505.48,504.9,508.86,507.08,505.43,505.08,506.15,505.5,503.77,510.76,506.28,504.27,512.83,505.03,506.4,508.92,506.44,504.44,503.82,510.38,506.92,505.71,503.04,506.46,511.31,504.99,505.4,509.3,504.6,507.26,504.8,508.61,505.82,501.05,505.62,509.15,508.69,507.34,498.42,506.28,511.81,505,507.04,506.53,509.67,505.86,501.53,512.36,505.26,509.31,508.01,508.57,507.82,507.79,508.45,506.13,513.31,503.7,507.98
542.16,535.14,544.81,535.09,535.35,536.47,545.95,533.61,535.2,531.97,538.63,538.03,545.55,530.98,537.35,522.04,536.69,530.25,545.35,533.11,546.66,536.88,543.42,538.06,534.06,537.31,521.23,544.32,538.87,531.71,529.35,535.81,539.86,537.73,532.76,541.11,534.58,534.74,532.52,546.94,535.31,534.92,536.86,547.53,540.56,546.17,540.38,530.7,539.27,532.98,531.44,532.28,536.82,542.83,548.43,530.39,544.13,542.71,531.15,521.71,540.31,534.64,531.26,544.1,542.56,544.91,536.02,534.17,540.94,537.69,547.51,549.52,547.72,531.24,542,529.88,531.32,543.57,539.34,543.45,541.38,537.82,530.85,542.33,543.76,549.35,534.06,547.13,541.42,546.72,543.57,537.97,539.49,536.94,537.57,537.68,538.08,542.31,542.57,540.25
555.48,547.06,554.92,557.01,555.82,553.57,555.9,554.65,548.35,554.65,557.66,554.19,550.71,552.34,554.22,545.51,548.06,550.29,556.17,550.13,550.38,554.4,555.16,558.29,549.71,558.29,552.89,561.02,552.72,550.01,551.97,543.43,552.19,555.51,552.92,556.36,555.42,552.86,550.38,549.74,554.25,554.4,552.03,559.69,555.68,558.3,556.77,550.66,544.21,543.39,553.43,549.3,547.3,553.74,555.37,543.66,553.32,553.7,554.12,548.87,556.74,551.95,549.51,549.34,552.16,555.78,556.3,554.74,552.12,549.93,554.2,562,551.57,547.6,556.82,553.61,551.71,552.74,558.13,548.21,553.58,546.26,555.76,553.29,553.97,559.39,555.59,555.74,556.79,558.71,548.06,555.97,550.79,545.14,553.53,558.18,552.28,558.04,556.56,554.39
562.38,551.56,559.2,559.44,559.22,558.36,556.72,556.34,552.11,557.81,558.36,555.55,560.65,558.07,561.24,551.21,554.62,553.03,558.25,555.4,561.75,559.78,559.2,563.13,557.58,561.48,559.7,564.6,560.47,555.39,557.37,561.41,557.73,557.82,554.7,559.37,562.68,557.73,556.38,558.44,557.86,557.65,554.11,563.09,558.75,560.54,560.57,555.25,555.83,555.53,559.09,557.22,560.19,558.01,558.3,554.2,566.67,557.13,555.99,558.28,557.52,555.39,552.18,557.42,555.26,559.69,558.59,558.12,557.05,551.21,560.87,564.44,556.47,556.62,560.56,554.69,558.89,555.15,560.88,551.84,560.18,552,558.1,558.88,561.67,562.12,557.76,558.82,559.68,561.99,552.91,558.78,556.75,555.29,560.87,560.31,554.29,560.88,562.34,558.56
563.03,557.36,563.25,562.11,563.27,560.76,564.56,557.66,559.49,559.51,566.63,561.51,566,565.68,567.93,556.05,559.46,555.91,565.06,558.12,565.53,562.79,566.1,565.61,557.84,566.9,567.91,566.06,566.57,560.25,563.41,565.36,567.44,560.25,558.51,562.19,566.83,560.77,558.94,562.91,569.04,564.72,558.23,565.12,560.15,562.1,565.09,558.97,558.46,557.98,560.85,558.4,564.81,562.74,561.82,556.05,572.98,558.13,564.69,558.55,562.12,559.04,556.19,559.89,560.83,563.01,564,561.4,560.87,555.21,563.6,568.07,563.78,559.16,562.03,564.68,571.31,560.16,567.3,562.39,564.41,556.83,563.89,559.63,563.64,562.69,560.48,563.17,565.74,565.12,560.7,563.83,561.93,559.65,565.69,563.27,563.05,562.93,564.52,563.39
569.71,569.04,568.67,572.54,574.01,572,570.5,567.42,560.89,573.81,573.69,566.26,576.21,567.95,571.95,558.48,562.41,567.56,572.73,560.12,574.65,570.15,576.95,569.96,565.87,569.36,569.9,568.43,574.28,567.84,573.4,570.43,569.08,562.84,563.7,566.73,568.51,569.87,568.65,573.7,572.03,570.16,570.61,567.15,573.1,564.95,571.38,565.39,568.06,563.49,562.05,569.22,571.38,570.3,568.65,560.93,576.4,564.36,566.05,566.58,569.37,568.48,574.03,563.11,561.39,572.52,566.99,574.38,572.43,571.18,568.67,579.59,565.94,566.4,573.93,568.71,572.7,565.08,569.26,565.1,567.72,559.82,565.67,562.95,569,565.22,568.91,572.51,567.6,574.15,565.01,574.27,563.58,565.23,568.53,566.04,569.69,571.93,571.64,570.57
575.57,573.25,570.45,575.87,576.49,574.67,577.14,573.76,566.43,576.07,577.31,570.67,579.01,572.17,576.8,564.11,570.52,570.86,576.19,570.26,578.06,578.71,582.75,576.2,572.84,572.6,574.91,578.42,578.48,572.04,575.74,578.14,572.63,573.09,570.3,577.07,570.44,571.03,575.65,576.55,576.38,572.25,572.34,578.82,576.28,577.4,576.47,568.26,575.41,569.15,568,571.85,572.99,579.04,582.23,571.45,579.78,569.75,573.69,575.46,573.26,574.54,575.93,566.24,577.28,577.09,574.02,576.04,575.2,579.2,570.4,583.06,570.02,573.74,575.14,576.8,577.48,571.06,577.52,571.98,572.15,563.17,573.32,573.22,576.28,571.27,574.23,573.89,578.8,579.84,576.8,580.69,573.18,567.71,577.51,577.79,571.29,575.33,574.63,579.16
580.17,576.19,577.47,576.85,581.55,579.22,578.86,576.17,573.5,578.77,581.04,575.89,580.37,578.17,578.4,570,574.48,574.18,581.7,580,580.5,580.54,583.19,579.48,577.9,575.24,576.08,581.17,579.21,577.18,576.58,579.13,583.91,579.93,576.18,581.27,580.61,576.24,577.32,583.56,579.51,576.28,578.29,582.87,579.82,581.32,580.75,572.28,578.95,573.2,578.43,577.8,575.66,581.33,593.03,575.56,587.91,577.08,574.99,578.14,575.68,580.93,577.02,580.22,578.85,581.76,576.07,581.69,579.59,582.21,582.8,584.9,582.04,577.1,580.33,578.09,583.02,579.62,581.71,577.03,575.88,571.67,578.5,577.46,580.63,582.76,575.06,578.46,584.1,582.52,579.29,584.68,577.08,576.35,583.48,581.06,576.61,580.73,581,582.43
585.96,578.05,582.96,582.23,585.52,580.57,588.11,578.51,579.99,588.12,589.4,581.4,582.92,580.66,580.99,574.53,579.88,577.39,589.59,583.86,584.68,589.14,585.82,580.95,590.07,586.08,579.41,585.65,583.04,582.95,579.39,582.58,586.65,585,580.07,584.24,582.4,581.1,581.48,585.38,582.35,583.61,581.12,587.85,590.55,585.06,582.4,576.33,584.52,576.52,582.11,579.74,582.75,584.36,598.02,583.23,591.07,579.41,580.53,580.71,586.68,583.91,578.64,586.53,581.77,586.07,580.96,584.5,588.1,587.53,592.62,586.84,585.21,583.53,582.78,592.26,584.56,589.69,589.65,590.89,581.82,583.7,581.48,579.37,582.92,588.48,578.82,589.15,587.03,585.84,585.07,587.7,581.16,578.89,584.2,583.26,579.72,587.68,587.96,585.79
606.11,595.52,603.12,604.34,605.45,599.61,606.48,600.08,604.35,602.57,602.43,604.14,607.27,608.33,606.67,593.99,602.49,603.76,607.32,603.57,606.66,606.96,606.72,600.8,599.76,606.07,602.03,607.08,603.69,604.52,603.55,606.8,609.22,607.82,601.64,606.81,606.32,606.8,603.76,601.58,606.13,604.96,600.85,607.29,605.41,601.03,605.95,601.82,599.48,600.35,605.89,600.95,601.67,607.04,607.44,603.65,608.73,599.53,598.02,599.99,607.18,601.46,601.08,604.81,604.62,605.82,601.97,604.07,606.61,605.8,604.8,611.63,605.71,603.24,603.95,604.8,602.47,601.11,602.91,601.52,603.28,604.93,603.04,601.39,603.02,607.17,604.72,602.5,601.88,607.13,605.08,606.57,606.97,597.7,602.45,602.58,603.07,604.7,603.42,606.02
615.32,610.79,613.26,615.96,616.3,611.25,617.68,612.84,607.33,616.07,614.47,616.04,614.61,613.99,615.82,607.21,611.93,608.18,619,616.58,613.74,610.63,616.43,608.3,609.53,613.51,614.49,615.93,616.06,612.9,618.23,611.22,619.43,610.3,606.15,613.94,615.29,612.37,612.15,607.96,617.78,619.01,610.71,615.84,616.45,611.21,615.87,612.01,615.57,609.85,612.33,615.89,610.98,616.43,614.37,609.74,620.98,611.71,610.33,617.36,613.05,612.64,612.69,608.75,606.7,611.39,614.82,614.36,617.6,615.1,613.38,621.72,613.83,613.97,618.03,615.16,616.63,610.37,618.61,609.41,613.78,608.77,613.52,609.61,609.87,615.42,612.71,613.98,613.01,619.68,612.58,613.01,611.54,608.63,609.12,614.24,613.14,619.87,616.22,618.12
617.58,617.08,618.87,623.21,618.04,617.27,625.14,617.27,615.5,617.82,617.88,617.54,618.93,622.29,618.24,617.6,616.78,616.12,621.49,623.45,623.22,625.04,621.61,618.38,615.27,627.86,619.66,626.91,617.08,618.85,621.1,621.08,622.78,623.78,619.09,620.12,620.86,618.44,622.86,617.38,618.28,620.91,613.59,627.34,621.63,619.89,623.06,620,624.85,614.99,620.23,619.13,612.11,621.6,621.3,618.33,623.21,617.34,618.15,618.1,618.57,615.29,619.49,619.99,614.74,617.18,621.37,619.79,620.21,619.06,619.01,625.08,620.52,622.63,624.67,620.63,617.63,617.2,622.42,612.57,622.1,614.85,617.7,618.69,617.89,618.38,618.55,617.84,614.88,620.4,617.21,617.45,614.15,618.46,625.35,623.36,615.06,625.71,618.84,623.41
628.97,619.61,630.09,628.24,623.41,624.17,632.98,626.27,622.43,625.62,627.86,622.29,623.92,626.49,624.38,625.49,620.21,622.37,626.95,624.68,626.29,627.2,631.22,625.39,623.82,628.4,627.75,633.4,624.26,624.77,626.36,626.64,631.04,626.15,622.14,625.79,627.35,625.6,624.22,628.54,626.92,624.08,620.7,630.57,626.9,624.39,628.26,622.82,629.73,620.8,623.54,622.42,622.43,624.87,625.54,621.12,633.18,623.44,624.81,627.92,624.3,621.94,624.39,623,626.13,625.04,624.96,626.13,627.61,625.42,620.63,633.26,624.96,625.38,627.26,624.09,630.62,628.4,626.46,623.64,624.93,619.99,625.11,620.86,626.04,622.9,621.97,621.85,621.23,627.61,622.66,625.74,624.68,621.61,628.93,626.37,623.43,629.56,625.3,627.23
631.12,628.36,633.37,632.31,635.38,627.23,635.83,631.03,631.12,636.93,636.48,632.34,631.83,630.34,631.69,628.63,625.45,625.75,636.42,636.18,631.83,635.87,632.89,627.48,635.2,629.74,632.21,639.25,635.31,630.99,636.69,633.34,634.54,629.86,626.17,633.78,629.17,629.26,631.17,637.28,634.21,632.43,625.3,633.89,635.67,632.63,633.85,627.68,630.78,623.47,629.6,629.01,627.59,636.41,639.48,628.79,639.78,630.12,626.77,634.09,627.84,630.24,633,632.45,628.96,635.73,630.36,634.31,636.9,637.76,632.39,636.05,631.55,630.1,635.1,634.17,633.67,636.63,638.92,629.22,628.11,625.91,631.41,628.02,631.72,634.72,629.81,635.36,635.33,636.96,631.2,637.56,626.87,628.33,629.67,635.42,629.2,643.94,633.76,631.81
649.41,634.94,644.22,643.47,643.23,645.91,641.67,645.57,637.23,646.33,649,640.98,640.64,648.61,645.81,634.68,636.81,640.02,647.73,641.19,638.76,640.41,643.32,638.26,639.83,642.9,644.73,645,641.52,640.85,649.47,639.22,651.27,643.17,636.53,638.35,644.53,639.96,645.45,645.47,646.61,645.18,637.22,646.22,647.12,643.07,642.12,637.2,644.86,636.84,647.91,640.4,645.91,645.89,651.89,636.56,656.38,638.72,637.56,644.29,640.91,643.04,645.87,635.28,649.16,644.03,637.71,648.67,645,648.29,638.24,650.37,638.49,642.45,647.05,647.27,643.59,642.53,642.85,637.39,642.1,634.63,639.63,637.88,641.09,642.43,643.05,643.33,642.15,649.25,643.83,651.32,643.31,634.04,647.47,639.35,643.07,649.94,640.09,641.95
653.23,651.69,652.65,657.13,657.95,652.34,660.74,654,647.43,653.9,653.92,650.1,654.28,652.84,653.99,655.59,650.51,646.35,657.72,652.74,655.11,659.13,658.07,654.86,647.59,662.92,652.84,660.87,650.14,655.18,651.53,658.79,653.92,654.65,653.04,659.33,654.27,651.68,657.28,655.65,656.62,651.79,645.43,657.31,648.75,654.92,659.25,651.24,657.34,648.99,659.96,651.72,649.88,653.22,659.25,654.76,662.77,649.71,649.95,653.16,656.54,643.36,651.93,658.28,652.16,650.83,655.14,651.19,655.22,649.49,650.91,661.77,657.86,661.28,651.35,652.78,653.31,655.95,653.65,654.47,656.7,649.15,657.26,650.76,655.24,652.75,657.66,649.14,650.45,652.8,652.5,653.26,648.95,656.47,655.12,661.54,649.06,657.87,652.74,654.07
657.58,655.45,660.99,663.48,661.57,654.2,664.77,661.31,657.52,659.61,659.88,655.66,660.3,663.22,656.83,657.76,658.48,654.36,662.95,663.06,659.01,663.1,664.1,659.01,652.85,667.9,660.99,666.23,654.92,663.62,661.91,668.64,663.2,660.04,655.09,660.66,659.8,661.32,661.76,659.38,658.96,661.85,656.1,662.54,660.26,662.02,665.21,659.01,660.5,650.06,663.26,658.98,656.87,654.95,664,656.91,664.37,658.36,656.9,659.01,661.19,657.44,654.56,662.91,659.08,655.97,658.41,654.9,660.49,659.7,658.51,665.57,663.12,663.57,660.03,658.83,657,659.6,662.37,658.26,658.54,663.71,661.77,658.07,657.81,655.83,659.54,656.75,658.37,660.2,661.41,666.01,658.58,659.15,662.61,667.53,654.77,663.35,658.74,659.92
670.21,663.6,662.82,668.23,666.81,663.28,669.74,667.31,664.19,663.8,664.97,663.68,667.44,669.98,665.9,666.39,660.65,663.66,665.22,667.04,666.41,672.62,670.1,665.07,663.37,672.09,667.57,671.73,664.81,668.6,665.53,672.26,668.91,670.16,667.95,667.71,667.7,668.29,664.39,665.67,665.79,666.48,660.3,670.36,664.99,664.76,667.02,664.17,666.78,659.95,668.07,663.43,665.79,667.93,665.96,663.06,675.14,661.54,666.96,668.82,673.02,665.78,663.77,663.79,665.75,670.2,665.19,667.16,664.52,664.68,665.46,671.4,667.53,668.76,665.2,666.96,665.63,666.36,669.4,660.66,667.64,666.91,665.72,662.81,663.2,665.06,665.18,663.09,664.47,667.06,663.02,671.19,663.84,663.38,669.63,670.11,664.19,669.13,665.55,666.36
675.13,676,690.82,681.46,686.95,680.58,697.2,681.12,684.66,687.87,685.84,677.42,686.52,694.18,688.17,693.39,679.46,683.84,680.69,691.81,675.05,695.86,693.5,692.44,691.05,677.08,692.72,690.28,687.3,688.06,681.4,686.89,672.24,692.73,685.96,686.9,690.07,680.3,685.27,679.98,690.67,697.68,682.72,694.18,687.36,691.46,682.25,687.46,682.3,675.99,686.78,692.02,693.54,684.28,689.52,683.46,692.33,692.18,674.19,692.86,683.53,689.28,687.55,684.6,678.26,678.18,682.03,688.85,687.22,687.35,687.89,682.94,675.2,685.25,688.19,675.02,685.61,683.45,683.79,687.81,690.35,675.61,683,686.86,682.3,680.54,682.36,669.72,684.29,689.56,681.33,689.65,679.9,686.07,675.33,695.69,680.71,690.34,690.74,680.44
692.22,683.02,694.68,691.78,691.59,694.4,701.78,701.76,692.71,693.56,697.21,687.47,699.74,695.24,692.94,702.45,694.9,694,701.42,693.4,695.28,700.08,696.31,698.28,691.41,707.91,697.84,705.32,688.51,697.63,693.33,696.77,695.28,696.99,695.57,701.12,695.83,692.56,704.19,693.92,695.21,699.75,688.03,697.44,690.05,695.85,695.43,696.67,695.91,695.4,691.18,697.34,695.79,687.63,695.8,696.81,693.69,694.8,699.84,698.92,694.82,690.79,687.89,695.07,690.71,686.73,691.34,693.59,691.94,688.99,692.83,707.07,697.62,704.02,693.63,693.31,697.31,695.32,693.76,690.34,695.12,689.93,690.25,694.04,693.7,692.98,695.37,691.74,693.11,695.28,692.42,693.7,694.83,693.77,694.54,699.28,687.9,693.65,695.32,700.67
710.24,709.6,710.45,712.71,715.11,708.51,714.39,708.79,712.15,709.45,708.79,708.29,716.55,716.2,710.35,713.86,706.13,708.61,709.76,712.01,709.39,715.84,715.53,709,706.49,718.48,713.31,717.22,708.12,715.43,711.08,715.35,715.48,713.31,712.91,711.51,716,713.73,711.23,708.99,713.74,716.98,702.51,715.44,707.61,714.89,714.96,711.68,709.57,702.4,721.14,711.61,712.47,709.22,715.28,709.49,716.6,707.5,707.47,710.7,713.62,710.77,709.2,715.99,708.26,713.74,706.41,708.38,712.62,709.93,708.41,712.64,713.56,713.98,711.44,709.97,706.08,711.41,710.57,712.66,713.82,711.3,712.14,707.72,709.93,706.71,712.35,706.32,704.38,713.49,718.94,712.93,705.79,708.06,715.24,715.56,707.33,719.83,706.54,710.08
726.69,732.65,732.66,731.59,734.38,725.1,742.64,730.72,732.28,731.86,734.27,722.44,733.14,739.68,732.97,734.46,723.99,730.77,729.13,738.68,720.35,743.2,741.03,734.18,732.27,733.63,733.04,732.27,731.58,737.85,734.54,740.94,726.8,734.57,728.33,729.52,734.21,726.44,732.01,731.84,737.51,739.7,729.13,737.73,738.2,736.13,731.48,730.64,733.08,721.92,736.17,735.64,737.32,732.13,737.18,731.25,740.65,734.7,719.37,736.35,733.22,733.37,732.01,733.87,726.9,726.7,733.03,733.92,734.22,733.17,739.79,732.18,733.96,738.37,738.36,722.16,725.16,735.5,731.94,731.37,735.65,723.08,739.24,731.45,728.74,729.31,728.93,726.09,731.23,732.95,741.71,734.65,726.76,732.5,734.66,747.74,729.22,736.44,740.67,729.4
752.49,751.93,757.41,754.87,757.83,749.58,764.74,757.55,758.14,754.7,757.17,747.37,758.99,767.72,757.68,764.3,751.86,756.72,755.5,760.29,749.27,765.67,763.64,763.89,758.94,764.68,758,760.55,760.24,763.24,759.21,762.81,753.94,759.24,754.82,758.24,759.61,752.98,759.19,756.72,763.12,766.78,756.2,765.14,763.92,761.52,756.86,758.54,756.58,750.21,757.49,763.98,766.54,753.72,759.16,753.74,761.07,759.26,749.58,766.65,757.93,760,757,757.64,751.03,750.24,754.64,757.37,760.36,757.78,760.67,759.46,756.52,763.06,758.3,750.34,753.38,760.28,754.67,755.69,756.88,750.18,761.18,756.69,754.86,752.58,753.28,754.3,753.44,761.53,763.01,757.85,754.9,753.76,754.04,767.27,752.55,759.57,760.9,754.51
2616.9,2628.2,2634.4,2611.5,2653.9,2602.8,2637,2622.8,2605.3,2631.4,2627.1,2607,2624.5,2609,2606.2,2615.4,2623,2599.2,2607.4,2635.3,2599.7,2631.8,2636.6,2630.7,2631.4,2621.5,2612.5,2603.8,2600.9,2609.7,2601.3,2630.6,2644.8,2619.1,2637.4,2650.3,2600.2,2641.5,2605,2607.9,2605.8,2611.7,2599.7,2602.7,2611.6,2617.1,2612.1,2613.6,2609,2620,2604.4,2599.5,2609.1,2628.7,2604.6,2625.3,2602.5,2596.4,2607.8,2639.4,2610,2614.9,2656.3,2631.3,2602.9,2607.7,2613.7,2634.8,2645.3,2594.7,2604.9,2602.7,2601.3,2617.8,2617.2,2629.8,2610.5,2644.5,2601.7,2611,2605,2596.6,2601.8,2611.7,2641.5,2623.8,2614.8,2612.2,2601.5,2621.1,2620.4,2622.9,2601.6,2596.9,2613.2,2624.3,2597.7,2620.9,2601.8,2641.8
2650.3,2651.7,2637.8,2639,2658.6,2610.4,2655.3,2658.3,2628.8,2655.8,2642.2,2609.7,2625.1,2655.5,2608.4,2624.9,2637.4,2633,2612.3,2657,2632.5,2641.7,2640.3,2638.4,2642.4,2656.1,2646.3,2614.1,2631.6,2613.1,2622.3,2638,2645,2623.3,2648.8,2650.5,2640.9,2646.2,2649.1,2649.4,2634.5,2639.3,2649.9,2626.6,2651.6,2620.4,2613.4,2636.9,2654.9,2655.7,2629.6,2638.4,2638.7,2638.2,2608.6,2654.9,2602.6,2638.2,2635.2,2654.5,2640.3,2637.4,2657,2659,2607.4,2636.2,2639.6,2649,2652.8,2650.2,2618,2648.9,2655.6,2652.7,2653.7,2636.6,2636.2,2653.5,2608.2,2619.8,2639.3,2656.6,2628.5,2632.5,2652.8,2640.6,2643.7,2656.2,2610.4,2638.4,2632.3,2633.1,2609.4,2633.5,2616.3,2635.2,2617.5,2649.6,2637.4,2643.6
2723.5,2739.2,2705.3,2750.5,2753.2,2704.3,2735,2750.4,2700.4,2756.9,2744.9,2703.3,2744.5,2744.6,2734.8,2697.5,2734.1,2743.7,2743.6,2747.7,2730.6,2729.8,2708.5,2737.2,2736,2704.8,2733.8,2752.3,2726.8,2744.3,2716.4,2757.8,2706,2709.1,2722.7,2749,2745,2710.4,2735.7,2743.3,2708.4,2719.1,2703.3,2736.5,2699.3,2748.7,2732.2,2705.1,2715.6,2732.8,2759.1,2752.2,2717,2716.7,2741,2720.9,2745.5,2738.1,2752.5,2754.1,2725.6,2754.7,2712.6,2704.4,2750.3,2719.7,2743.2,2751.3,2722.8,2730.5,2737.6,2703.6,2702.2,2699.2,2723.1,2736.4,2730.3,2699.7,2727.4,2738.4,2758.3,2751.8,2727.7,2745.1,2722.2,2698.9,2735.7,2758.8,2718.6,2754.3,2745.1,2714.9,2720.1,2743.2,2704,2723.9,2707.6,2696.8,2726.8,2750.4
3405.6,3417.8,3480,3405.5,3452.6,3467.1,3464.1,3485.6,3425.5,3432.5,3464.5,3483.5,3416.3,3446.4,3410,3469.5,3440.3,3466.2,3436.5,3462.7,3476.4,3412,3475.5,3471.5,3463.7,3460.1,3407.9,3462.4,3406.4,3423.6,3423.7,3475.7,3419.5,3481.6,3427,3443.8,3420.5,3485.6,3482.8,3419.1,3424.8,3460.4,3447.2,3427.4,3444.7,3409,3472.6,3429.9,3463.7,3484.8,3449.3,3463.5,3424.6,3468.5,3463.2,3418.9,3473.6,3406.9,3461.6,3406.6,3449.5,3448.4,3477.6,3451.6,3460.9,3467.4,3470.1,3430.4,3485.3,3453.5,3419,3458.7,3453.4,3470.5,3436.6,3467.9,3442.1,3411.6,3474.2,3455.4,3477.6,3489.9,3407,3404.7,3459.3,3415.9,3482.7,3418.1,3419,3458.4,3448.7,3472.7,3418.5,3480.5,3483,3447.1,3458.4,3437,3429,3460.8
