18.348,18.521,18.479,18.187,18.459,18.824,18.385,18.49,18.5,18.439,18.309,18.52,18.574,18.272,18.655,18.444,18.582,18.094,18.312,18.467,18.385,18.47,18.206,18.567,18.377,18.382,18.359,18.126,18.299,18.454,18.121,18.482,18.348,18.423,18.28,18.499,18.465,18.509,18.369,18.302,18.388,18.443,18.436,18.352,18.187,18.224,18.244,18.418,18.342,18.374,18.291,18.557,18.371,18.659,18.264,18.483,18.545,18.599,18.247,18.48,18.384,18.538,18.442,18.227,18.17,18.349,18.416,18.203,18.46,18.543,18.335,18.317,18.328,18.174,18.226,18.52,18.392,18.525,18.435,18.492,18.42,18.429,18.446,18.487,18.157,18.286,18.37,18.455,18.501,18.47,18.224,18.357,18.275,18.263,18.323,18.464,18.447,18.639,18.513,18.355
18.873,18.649,18.867,18.7,18.56,18.898,18.495,18.617,18.602,18.646,18.74,18.636,18.954,18.956,18.736,18.453,18.907,18.689,18.548,18.632,18.637,18.538,18.286,18.634,18.723,18.455,18.73,18.658,18.695,18.72,18.623,18.615,18.6,18.897,18.596,18.834,18.486,18.772,18.815,18.724,18.465,18.517,18.763,18.524,18.708,18.588,18.414,18.491,18.665,18.531,18.83,18.682,18.557,18.767,18.289,19.01,18.604,18.808,18.485,18.623,18.646,18.638,18.645,18.878,18.421,18.709,18.756,18.849,18.715,18.902,18.649,18.791,18.474,18.454,18.602,18.676,18.458,18.609,18.545,18.768,18.645,18.566,18.543,18.542,18.913,18.566,18.55,18.624,18.856,18.574,18.839,18.895,18.568,18.509,18.663,18.654,18.617,18.778,18.626,18.867
39.48,39.227,39.191,38.44,39,38.673,38.716,38.991,38.992,39.217,38.72,39.228,39.506,39.16,39.376,38.949,38.693,38.881,39.106,38.868,39.148,39.073,38.898,38.844,39.043,39.359,39.069,38.923,39.284,38.599,38.542,39.331,38.719,38.707,38.699,38.592,38.838,39.121,39.128,39.299,38.871,38.869,38.662,39,38.86,39.259,38.71,39.256,38.97,38.943,38.969,39.395,39.049,39.013,38.693,39.021,38.932,38.865,38.871,39.19,39.095,39.07,39.077,39.187,38.83,39.05,38.807,39.174,38.422,39.205,39.211,39.002,38.664,38.686,38.625,38.926,39.046,39.249,39.217,39.111,38.924,38.825,39.2,38.932,38.986,39.01,38.854,38.995,39.002,38.476,39.301,38.988,39.086,39.059,38.849,39.272,38.809,39.126,39.265,38.918
70.575,69.736,70.034,69.113,69.895,70.313,69.548,69.975,69.471,70.036,69.723,70.31,70.72,69.507,70.675,69.75,69.677,69.34,69.813,70.089,69.924,69.981,69.887,70.186,70.219,69.734,70.241,69.552,70.513,69.546,69.362,69.772,69.851,69.893,69.559,70.027,69.616,70.67,70.048,69.896,69.61,70.024,70.165,69.8,69.575,70.074,69.333,69.863,70.054,69.879,70.072,70.073,69.961,70.065,69.183,69.465,70.099,69.865,69.302,70.086,69.746,69.862,69.825,69.845,69.168,69.866,70.004,69.834,69.41,70.11,69.996,69.965,69.083,69.295,69.343,69.959,69.911,70.639,69.948,69.967,69.405,69.503,69.978,69.981,69.038,69.767,69.267,70.266,70.356,69.439,70.109,69.961,69.22,69.795,68.989,70.208,69.896,70.128,69.953,69.699
76.358,75.887,75.758,75.111,75.154,75.306,74.904,75.656,75.238,75.624,75.165,75.08,75.894,75.522,76.222,74.861,75.22,74.772,76.169,75.306,75.352,75.749,75.604,75.648,75.828,76.15,75.618,75.206,75.936,74.928,74.592,76.69,75.997,74.235,74.996,74.553,75.309,75.897,75.559,76.414,75.716,75.234,75.116,75.228,74.518,75.783,74.748,75.912,75.61,75.471,75.278,76.497,75.385,74.947,74.872,75.216,75.453,74.855,74.605,75.72,75.158,75.523,76.079,75.662,74.871,75.487,74.965,75.426,74.524,75.88,75.588,75.504,74.948,74.36,75.551,74.993,75.098,76.15,75.375,75.919,74.967,75.174,75.132,75.751,75.493,75.808,75.511,75.888,75.781,75.404,75.529,75.789,75.041,75.068,75.435,76.159,74.674,75.647,76.093,75.548
95.694,94.773,95.29,94.687,94.144,96.507,94.278,94.184,94.98,95.521,95.383,94.356,95.7,94.241,95.526,94.463,95.636,94.062,93.875,94.938,94.035,94.539,93.574,94.527,94.919,94.471,95.133,93.578,93.771,94.841,94.08,94.792,95.164,94.941,93.617,95.119,94.623,95.812,95.355,94.75,95.151,94.623,95.431,94.647,94.24,94.558,94.274,94.45,94.646,93.965,95.141,95.071,94.214,95.987,93.564,95.757,95.225,95.734,94.481,94.881,94.703,95.031,94.69,94.904,93.946,94.38,94.874,94.048,95.263,95.931,94.335,95.11,93.879,94.092,94.019,95.102,94.436,95.622,94.925,95.614,94.62,95.182,95.036,94.421,95.043,94.012,94.351,95.149,95.392,94.908,94.444,94.43,94.024,94.065,94.717,94.895,94.953,95.657,95.537,94.447
109.59,109.62,110.09,108.03,109.58,108.64,108.82,110.26,109.34,109.72,108.5,109.74,109.2,108.41,110.16,108.17,109.4,107.57,108.74,108.99,109.89,109.73,109.84,109.68,109.28,109.81,109.9,109.45,110.21,108.63,108.33,109.84,109.19,108.25,108.9,108.36,107.68,109.91,109.27,109.67,107.94,108.13,108.86,109.16,108.73,109.63,109.72,110.44,109.57,109.22,107.52,109.96,108.99,109.27,107.93,108.76,108.17,108.73,108.76,109.52,108.89,108.97,109.3,109.59,109.36,109.08,108.68,109.81,107.11,110.06,109.58,108.45,108.61,108.85,109.16,108.62,109.29,110.18,109.65,109.54,109.34,107.85,108.51,109.3,107.82,108.91,108.65,109.4,108.68,108.27,109.58,109.08,109.54,108.9,109.04,109.97,108.73,108.69,108.92,109.41
136.37,135.32,135.74,134.57,135.38,136.15,135.01,136.51,135.1,135.38,135.11,136.18,136.68,134.27,137.26,135.26,135.28,135.17,135.23,135.4,136.07,136.25,135.63,135.47,136.18,135.19,135.52,134.93,136.64,135.11,135.04,136.12,135.96,134.41,134.42,134.24,134.55,136.79,133.91,136.02,135.5,135.87,135.43,135.92,135.06,136.41,135.72,136.47,136.34,135.33,135.15,137.14,136.28,136.58,135.13,134.3,135.96,135.64,134.67,136.38,135.75,135.18,135.53,134.65,135.03,135.56,135.24,135.41,134.7,136.42,135.34,136.75,135.4,134.28,135.54,136.23,136.11,136.24,135.45,136.3,134.77,135.22,134.76,136.07,134.73,136.63,134.5,137.12,135.84,134.12,136.28,135.04,135.21,135.39,135.76,136.67,135.81,136.64,136.26,134.85
146.29,142.45,143.47,140.78,141.54,141.57,141.81,143.1,141.98,142.87,141.24,143.08,143.18,141.27,144.26,141.01,142.13,142.31,142.03,140.72,142.14,143.58,143.97,142.38,142.36,142.73,144.95,143.26,143.1,141.48,140.01,145.71,142.43,142.01,141.9,141.42,142.22,143.56,142.55,143.34,142.83,141.6,140.54,142.72,141.42,143.1,142.91,144.24,142.81,141.51,142.04,143.44,143.73,142.71,141.83,141.6,141.45,142.84,141.21,144.2,143.14,142.27,143.06,143.13,141.96,143.47,140.19,143.34,140.61,144.18,142.73,144.34,142.97,140.51,142.53,141.84,144.08,143.58,142.43,144.11,141.55,141.25,143.07,142.29,143.08,143.99,142.01,142.1,142.86,141.36,143.27,142.27,141.82,142.25,143.52,145.12,141.02,143.11,143.67,142.34
166.3,168.63,169.68,169.1,168.87,167.64,167.3,169.87,170.07,168.85,167.88,169.39,166.98,166.84,168.3,168.45,169.79,166.72,168.27,167.23,169.13,169.07,169.08,170.45,167.85,167.8,168.18,168.3,168.01,168.08,167.37,170.54,166.8,169.99,167.63,167.17,169.2,169.68,167.85,169.25,168.19,167.76,169.28,168.85,168.91,167.49,170.03,169.9,168.16,168.97,168,169.97,168.96,170.42,168.9,168.2,168.91,169.17,168.72,170.1,167.92,169.89,168.58,167.67,170.22,169.55,167.1,170.13,168.54,166.95,169.11,169.45,167.69,168.6,167.15,170,167.72,169.93,169.4,170.11,168.26,168.25,166.08,169.66,167.61,170.4,169.75,167.7,170.49,165.94,168.55,167.84,169.07,168.65,169.11,169.34,169.32,167.27,169.09,169.73
172.48,173.42,174.76,172.09,173.67,172.41,172.2,174.87,173.51,175.15,173.08,173.84,173.43,171,174.96,173.18,173.07,171.77,172.53,172.93,174.09,172.85,173.81,172.8,173.1,172.85,172.64,172.55,174.43,171.64,173.13,173.73,172.81,171.42,172.93,170.69,171.28,175.61,171.5,172.96,171.77,171.86,174.02,174.26,173.32,172.15,173.83,173.98,172.59,173.04,171.51,173.93,172.01,174.04,172.82,172.64,172.28,172.67,173.13,172.8,171.62,174.08,173.94,172.56,174.14,172.48,172.52,171.98,170.41,173.89,172.7,171.77,171.24,172.02,172.54,172.19,173.88,174.37,173.52,173.6,172.94,171.88,172.03,174.71,170.02,173.16,173.16,173.8,172.41,172.24,172.69,171.92,174.08,172.9,173.33,172.67,172.47,172.5,172.8,173.05
210.1,213.3,212.73,208.88,211.89,210.18,211.12,211.92,211.1,212.91,212.69,213.27,213.33,212.74,212,213.73,210.03,209.48,213.23,213.32,213.29,211.23,210.19,211.25,213.96,215.33,211.31,209.58,215.05,208.64,209.19,211.94,209.91,209.82,211.28,210.32,209,211.62,213.98,212.79,210.68,210.84,211.81,213.69,210.62,212.19,211.01,212.78,212.16,211.72,209.1,213.14,210.31,208.94,211.81,210.91,211.89,209.42,211.26,211.48,210.16,211.01,212.28,211.81,211.93,209.64,212.99,213.05,208.18,211.07,213.7,209.83,210.4,209.47,209.47,211.6,210.37,213.24,213.42,212.26,211.22,209.53,211.3,211.58,208.03,209.98,210.31,215.12,211.63,211.13,213.69,212.21,213.15,210.91,208.55,209.81,213.25,211.47,212.08,211.02
218.86,218.54,219.04,214.43,216.63,216.82,216.73,217.82,216.95,219.22,216.69,217.15,217.82,216,217.55,217.79,217.3,216.34,219.37,217.07,217.56,218.15,217.88,214.93,218.19,217.25,215.43,216.52,218.81,216.49,216.1,215.38,216.79,216.06,216.18,216.41,216.78,219.58,217.89,217.46,217.12,218.5,216.96,217.24,217.77,217.16,216.12,216.95,217.62,215.14,216.74,218.02,217.68,218.56,216.53,215.98,217.49,216.78,215.95,217.33,216.17,216.29,216.87,217.9,218.15,217.29,217.12,218.28,217.17,218.89,217.35,216.43,217.49,214.96,217.39,216.26,219.72,215.71,217.05,216.52,217.24,217.88,216.45,219.58,217.61,217.88,215.78,217.61,216.5,215.84,218.42,216.92,218.46,216.55,217.29,217.86,216.24,218.06,217.47,216.36
228.24,228.81,231.38,227.5,229.46,226.91,228.66,229.78,229.3,230.51,227.63,231.87,228.87,227.71,230.95,227.64,229.55,227.25,229.18,228.26,231.71,229.67,228.31,227.59,227.82,228.16,227.39,227.62,230.42,227.98,229.6,229.34,226.81,224.91,226.89,227.67,226.24,230.2,227.3,230.07,226.27,228.14,228.71,230.87,229.39,230.42,229.18,230.41,228.75,228.77,227.34,231.12,229.15,229.86,227.59,229.04,227.91,228.44,229.74,228.33,227.68,229.18,228.06,229.86,228.87,229.32,228.1,229.96,226.79,229.87,229.51,227.73,227.02,228.71,228.37,229.43,229.91,227.83,229.26,228.12,229.11,229.18,228.45,229.26,227.24,228.84,228.53,228.77,227.85,225.11,231.69,228.81,231.67,229.28,229.01,230.04,228.3,229.69,229.61,227.65
231.38,232.49,233.89,230.14,232.59,231.23,232.72,234.01,232.02,233.23,232.35,235.13,234.13,231.41,233.7,232.67,232.33,230.8,232.86,232.51,235.23,233.28,231.89,231.59,233.74,234.47,231.18,230.3,233.64,231.62,231.89,232.12,230.7,230.41,230.21,230.82,230.35,232.62,233.45,233.99,230.92,231.44,231.09,233.27,231.95,233.96,232.76,233.24,234.02,231.65,230.77,233.78,233.52,234.21,230.81,232.14,232.03,232.01,232.18,232.15,231.4,231.94,231.31,232.36,234.18,233.09,234.01,234.3,229.77,233.51,232.47,232.07,233.89,231.82,231.16,232.35,233.81,233.06,233.4,233.61,233.09,232.17,230.79,233.17,231.09,232.63,231.43,234.02,230.72,229.43,234.75,231.54,234.81,234.19,232.3,234.05,233.3,233.01,232.82,232.54
248.49,248.31,250.84,245.8,246.48,247.65,248.91,250.23,243.79,250.61,247.59,248.88,248.61,246.33,247.86,248.35,248.4,247.12,246.54,246.24,245.43,247.92,247.58,248.03,248.2,247.69,247.03,247.88,249.12,248.59,247.09,245.09,246.56,244.29,248.84,248.12,246.56,249.63,246.44,249.12,245.78,247.76,248.15,250.62,250.55,249.13,249.88,248.64,249.12,248.16,246.09,249.02,248.8,250.56,248.35,245.68,246.38,247.83,249.19,248.77,247.51,249.62,248.05,245.9,247.88,249.15,249.18,249.83,247.92,247.29,249.4,246.71,247,247.73,248.71,248.73,249.01,246.86,248.49,247.57,247.01,249.42,246.97,250.32,248.37,248.25,249.03,249.21,248.39,246.61,249.22,246.78,248.37,246.71,248.51,248.46,248.36,248.34,248.41,247.85
250.16,249.71,252.3,248.08,251.39,248.01,249.8,250.38,248.48,251.97,249.49,251.29,249.82,247.72,253.24,249.35,250.62,248.53,249.42,250.71,251.33,250.55,252.26,248.38,248.65,248.44,248.5,250.53,251.53,250.77,249.12,249.31,248.37,250.86,249.69,249.75,248.03,251.79,248.03,250.56,250.85,249.09,251.67,251.66,251.21,252.01,251.09,250.82,250.57,249.3,249.44,252.18,250.33,251.4,250.65,248.6,248.45,251.66,250.06,249.64,248.15,251.67,250.07,251.29,250.02,251.54,251.16,251.2,248.7,250.75,251.23,248.89,250.23,249.59,250.67,249.79,251.67,249.49,249.29,250.8,249.76,250.51,250.17,251.54,248.94,250.88,250,250.97,248.61,247.91,251.08,250.16,252.25,250.42,249.72,251.56,249.08,251.23,250.46,248.4
251.7,253.77,253.06,250.28,252.76,251.54,252.38,252.74,254.41,254.39,252.96,253.03,253.05,248.91,254.14,252.86,253.5,250.83,251.96,251.23,254.85,252.67,253.99,250.17,251.19,250.44,249.86,251.58,253.13,252.57,252.14,252.39,251.38,253.31,251.47,250.96,251.67,254.2,251.03,252.21,252.91,253.48,253.15,252.92,252.56,252.41,252.8,252.71,253.27,252.66,250.57,253.93,252.87,255.39,252.23,250.91,251.62,251.69,250.57,253.21,252.06,251.84,250.96,253.06,252.65,253.84,252.66,253.09,251.69,252.74,252.25,252,253.09,251.07,252.41,251.72,254.05,250.05,251.1,252.22,250.45,252.12,252.82,253.2,252.12,254.24,250.86,254.53,250.81,249.55,253.08,253.63,254.7,254.49,250.47,253.36,249.9,252.68,252.52,250.57
271.51,270.72,270.48,265.71,268.69,271.36,270.07,269.02,269.27,271,268.48,270.45,270.93,267.52,268.52,268.81,269.98,267.51,273.05,269.12,268.68,272.73,271.01,268.46,269.66,269.71,267.38,268.67,270.72,269.02,270.72,267.08,271.18,267.16,267.91,269.95,269.92,271.98,269.36,269.95,270.7,273.03,271.21,268.07,269.41,269.63,269.95,269.31,270.37,269.72,268.19,270.91,269.83,271.16,267.83,268.19,271.15,269.46,268.5,269.55,267.97,269.19,267.63,270.12,270.39,270.57,268.03,271.37,267.38,270.83,269.6,267.46,269.06,268.7,271.78,266.62,270.79,267.76,270.67,268.11,271.02,270.1,268.7,272.79,270.58,269.32,265.6,272.58,267.84,267.58,271.52,268.29,268.7,268.11,267.62,270.18,270.41,268.08,269.82,268.21
281.22,280.12,281.31,277.11,278.05,279.82,280.39,279.62,276.72,280.85,279.48,282.09,280.88,277.55,280.82,280.11,279.66,277.86,276.39,277.58,279.6,280.79,279.24,278.61,281.43,278.27,279.25,279.91,281.05,280.85,277.55,277.93,277.98,279.92,280.15,279.95,277.6,281.08,278.34,280.47,282.08,279.57,279.29,284.38,279.5,281.11,281.95,280.83,279.91,278.82,276.83,281.94,279.84,281.6,282.57,277.61,278.94,279.8,278.66,280.22,278.91,280.92,280.51,277.84,277.56,281.01,282.14,281.45,276.9,281.63,279.34,278.99,281.92,278.23,280.85,279.43,282.04,278.69,279.94,280.24,278.78,279.96,279.41,281.53,280.35,280.25,279.38,282.48,279.14,279.62,281.61,279.3,279.58,278.87,279.21,280.85,280.07,282.26,279.23,279.04
300.87,302.1,303.76,299.56,299.03,299.78,300.02,301.32,298.6,304.13,300.09,302.27,301.22,296.78,302.42,299.79,300.98,298.14,298.96,299.66,298,302.82,301.47,301.26,301.14,298.52,300.23,301.31,301.4,301.05,298.4,301.02,298.01,301.3,301.74,298.86,298.1,303.11,299.5,302.02,302.5,299.96,302.95,304.58,302.53,301.04,303.64,301.6,301.11,300.71,298.21,301.41,300.67,302.17,303.35,298.68,298.94,300.35,300.49,300.39,299.64,302.94,302.34,298.93,300.37,303.86,303.54,303.29,299.12,300.93,300.42,298.79,301.8,299.36,302.07,298.56,301.09,301.57,300.84,301.25,299.29,299.56,298.66,303.18,298.78,302.36,302.31,301.74,300.44,299.92,300.24,298.56,301.64,301.91,300.21,302.33,298.16,301.23,299.76,301.7
302.15,304.54,307.87,303.47,305.56,302.46,303.95,307.92,307.71,306.45,304,307.89,302.19,303.15,305.66,304.03,309.41,302.31,305.45,303.08,308.08,305.75,306.39,305.87,303.55,304.21,303.83,305.07,306.73,305.74,305.43,306.97,304.24,304.24,304.39,305.04,303.43,306.24,304.01,306.35,303.21,303.24,306.75,306.05,306.09,306.19,308.65,308.24,305.88,306.31,304.1,307.86,305.31,308.46,305.03,304.65,303.95,306.67,305.79,305.46,303.87,306.5,305.5,305.53,307.87,307.03,304.72,307.09,302.9,303.7,307.87,305.28,303.15,305.96,305.72,308.53,306.37,306.02,305.37,307.14,304.83,304.86,303.11,307.6,303.75,305.21,305.17,304.98,305.83,300.59,307.75,307.3,308.18,306.45,304.86,307.37,307.61,305.29,306.81,306.06
346.17,345.93,344.73,339.07,344.65,346.85,345.13,343.54,346.49,345.81,343.41,345.1,348.92,345.29,344.8,347.85,344.22,341.72,347.81,343.72,347.15,346.93,346.17,340.82,347.57,347.13,343.07,344.39,349.35,343.97,344.45,342.89,345.14,344.12,346.64,342.9,343.58,347.54,344.83,346.4,344.86,347.31,345.93,345.26,343.66,344.2,344.1,345.64,342.93,342.69,342.12,346.63,343.75,344.14,345.42,344.05,346.92,344.36,341.68,345.48,340.97,344.32,344.79,346.39,343.88,343.69,344.13,346.02,341.46,346.98,344.02,342.14,343.83,340.54,344.62,341.05,344.78,343.22,346.2,342.34,345.08,343.69,342.81,347.1,345.91,345.29,342.21,348.28,343.44,344.67,347.28,347.5,345.47,342.39,342.75,344.47,346.05,345.89,345.35,343.9
350.91,354.05,353.84,348.15,352.23,352.79,351.91,354.35,349.76,355.51,352.53,353.52,352.93,349.04,354.17,352.4,354.85,349.78,352.54,351.37,351.61,352.96,352.25,351.95,350.35,351.74,350.11,350.8,354.57,351.03,350.38,352.53,352.55,350,353.14,349.43,348.21,355.08,350.1,349.82,349.07,351.67,354.26,352.64,349.33,350.82,353.16,354.14,355.61,352.24,346.75,352.32,351.59,354.05,350.36,349.69,351.61,352.74,348.47,351.32,349.62,350.83,352.6,351.78,353.26,351.73,352.15,351.46,347.95,353.76,352.51,349.81,351.61,348.65,352.09,350.53,351.78,352.17,350.38,352.85,351.83,348.52,351.4,352.55,348.07,351.23,351.51,354.06,349.85,350.24,351.29,351.86,352.37,349.09,351.16,353.1,352.3,353.09,352.82,350.12
381.76,380.34,383.51,378.93,378.54,383.11,378.9,383.09,378.12,382.89,380.15,380.07,383.96,375.88,380.09,382.24,382.18,377.65,382.1,378.66,384.05,382.17,380.33,380.73,380.87,382.4,380.31,379.07,382.15,377.21,380.86,381.31,379.18,379.71,379.07,380.58,380.57,384.09,380.61,382.65,381.33,379.48,378.7,382.82,379.58,379.48,379.49,382.07,381,379.19,380.59,383.75,381.17,383.45,381.64,382.09,378.73,379.47,377.19,379.69,380.01,382.5,383.04,382.24,380.69,380.68,381.01,380.34,377.52,382.71,377.3,380.66,379.93,374.99,379.51,378.4,382.61,381.62,379.3,379.48,379.44,378.72,379.73,382.96,378.18,384.11,381.93,381.72,382.5,378.9,382.81,381.95,382.36,378.67,382.48,383.34,378.66,382.98,381.06,379.58
382.78,383.5,384.73,381.46,381.6,384.73,384.06,386.57,379.45,387.66,383.09,386.31,387.71,381.13,382.95,385.67,384.77,381.04,384.76,382.48,386.5,384.7,381.41,384.46,384.73,385.21,383.41,381.88,383.76,381.01,384.26,383.08,380.64,382.13,382.12,384.41,383.98,387.72,381.32,384.68,384.93,384.87,386.24,384.17,383.45,381.47,383.73,385.08,385.99,385.2,382.69,391.09,385.09,385.23,383.52,383.53,384.13,381.19,383.79,384.13,381.98,384.42,384.08,383.27,382.83,384.98,387.95,382.96,379.51,385.27,381.87,383.51,385.43,384.72,385.01,383.38,391.07,382.69,383.44,382.83,383.26,386.62,384.24,386.01,378.49,385.6,384.6,382.19,385.38,381.45,386.43,383.81,384.77,381.1,385.44,384.64,383.38,387.55,381.94,380.98
396.64,396.22,397.82,394.32,394.92,397.43,395.78,398.5,397.56,396.73,397.1,399.74,398.26,393.03,398.89,396.74,397.79,392.67,392.72,395.06,401.13,397.48,395.17,396.84,398.27,395.86,393.86,393.81,398.08,397.27,395.18,396.2,395.27,400.63,395.71,394.92,393.79,397.24,394.88,399.63,397.3,397.86,398.08,397.89,399.07,398.96,400.35,398.99,394.37,396.23,394.81,398.51,398.83,400.51,400.92,392.33,394.13,398.68,395.82,396.88,395.53,398.05,398.92,393.76,397.55,396.8,400.66,397.87,396.55,397.52,398.15,396.41,396.83,396.6,397.32,401.29,399.9,398.37,396.83,398.09,394.52,399.4,393.11,401.22,396.07,398.79,395.86,397.8,394.69,395.56,398.32,396.97,398.37,396.34,395.97,396.49,398.75,398.32,398.62,396.64
428.47,427.3,430.26,425.54,428.89,430.35,428.63,429.99,422.83,430.62,428.55,429.94,432.87,423.53,430.86,432.58,431.74,427.31,430.71,427.72,431.77,428.25,428.35,425.81,428.78,428.72,428.68,422.59,429.23,428.02,428.65,430.2,427.86,425.82,429.62,427.95,427.94,431.16,426.61,428.44,426.05,430.98,429.59,431.68,427.53,430.33,428.3,427.73,429.89,427.56,427.09,430.25,429.87,430.99,423.22,426.9,430.2,430.09,425.11,429.31,426.31,428.03,426.45,430,429.24,429.61,431.44,428.39,425.23,430.19,428.66,429.29,425.17,425.55,427.64,428.29,430.92,428.32,427.6,428.62,426.93,428.25,428.75,429.02,427.48,429.64,430.62,429.91,429.19,427.23,430.53,431.02,428.41,423.65,428.7,430.85,427.81,431.1,429.82,425.86
431.21,432.45,436.09,435.12,432.57,435.94,437.12,433.22,429.06,435.33,434.01,435.76,437.76,426.14,436.02,435.87,435.23,430.29,437.96,428.62,435.28,432.52,435.24,431.48,437.57,435.39,432.53,427.95,430.85,434.54,437.9,430.77,430.89,435.04,432.8,436.77,437.6,433.64,434.2,435.56,435.53,432.17,431.05,436.17,430.1,431.26,431.86,431.77,435.93,434.17,434.2,435.36,435.69,439.67,429.59,434.97,435.48,433.66,428.92,433.16,435.19,441.42,432.5,437.24,438.61,435.92,433.36,435.84,431.39,432.25,429.1,436.96,440.64,436.8,434.02,432.53,435.48,433.37,433.57,436.26,430.57,430.12,436.53,436.1,431.84,440.3,434.25,436.28,435.87,427.99,438.95,431.68,430.31,427.61,433.89,432.5,429.53,432.95,433.52,432.73
444.04,444.6,447.61,447.17,446.09,447.34,452.94,449.2,436.88,447.71,445.59,450.74,449.6,439.23,449.35,451.37,448.39,446.29,451.65,442.09,451.87,443.39,449.08,442.77,451.81,448.98,445.51,442.55,446.38,446.16,454.55,443.28,445.07,446,444.13,451.04,452.09,449.7,450.32,448.56,448.44,446.06,443.7,451.42,444.4,446.95,447.06,442.2,445.51,444.56,447.93,446.82,450.58,451.04,449.98,448.7,450.8,445.09,448.39,442.76,446.48,450.71,441.57,450.83,455.44,446.19,447.3,450.28,447.92,446.88,440.65,447.07,451.84,446.66,452.93,444.73,453.57,445.89,445.45,444.97,442.12,448.18,447.71,451.33,447.59,453.16,449.4,449.39,450.49,443.73,453.83,444.72,444.85,438.15,449.69,445.99,440.35,447.62,443.62,445.25
460.75,454.12,461.28,456.22,453.76,460.4,455.35,462.85,458.25,462.11,454.82,455.14,465.64,447.9,458.04,465.78,455.52,451.05,463.19,452,466.53,461.12,460.83,449.97,462.05,457.84,460.82,455.58,458.84,460.16,460.27,455.15,459.79,457.02,463.83,452.29,458.01,466.29,457.48,462.13,459.07,458.48,459.69,463.76,455.41,455.05,454.19,453.18,450.38,447.37,460.08,454.53,455.35,458.09,461,459.47,456.28,459.89,452.44,458.8,452.03,455.6,456.53,457.46,466.88,452.73,459.43,453.73,462.37,461.79,448.23,460.72,459.03,448.18,463.78,455.87,462.05,455.65,457.97,450.55,447.05,452.73,449.66,459.37,459.28,461.19,455.2,451.93,461.73,461.04,462.52,463.34,456.5,446.55,462.24,459.96,448,467.13,453.07,453.63
467.13,464.15,469.36,467,461.95,469.33,471.49,466.45,463.98,470.09,469.16,468.52,471.95,459.73,471.11,468.22,466.03,464.44,475.33,463.84,469.48,468.95,470.94,460.49,470.05,468.38,465.74,456.5,465.43,467.52,471.95,462.8,468.69,463.66,464.41,464.28,473.15,468.44,464.01,471.65,470.54,469.64,468.38,467.1,463.77,466.04,466.44,463.03,466.26,464.59,465.53,465.2,468.38,469.17,463.63,467.99,466.72,465.91,465.12,464.04,463.43,466.53,464.29,467.29,469.64,467.41,468.74,466.12,466.01,469.13,459.84,466.54,468.95,466.2,466.96,462.39,474.06,463.75,469.07,464.12,462.44,465.79,467.97,467.13,469.28,470.18,462.38,467.08,467.52,464.97,470.89,466.67,462.27,463.06,468.05,465.79,462.31,469.63,464.74,464.63
471.83,470.51,475.38,471.85,474.21,475.32,472.93,475.34,468.17,476.18,470.51,471.42,475.85,465.56,477.69,476.98,477.1,467.5,478.15,469.23,475.97,473.32,473.75,471.36,476.71,472.48,473.85,473.93,476.1,472.56,475.41,470.9,470.95,471,474.71,469.97,475.07,480.05,472.27,474.91,471.97,471.62,475.64,477.94,472.27,472.76,472.83,473.66,471.99,467.74,473.99,476.56,474.22,475.7,475.45,472.55,474.04,473,467.18,472.46,471.52,473.67,474.79,477.02,477.78,470.35,474.31,473.67,475.01,475.53,470.16,474.57,472.51,469.39,472.51,471.67,478.89,470.81,469.75,471.49,470.51,471.57,470.63,475.59,471.01,477.39,473.3,473.82,476.98,473.59,474.25,475.29,472.06,467.76,475.61,475.88,471.94,478.41,470.5,468.95
478.86,476.78,481.48,473.5,477.44,481,479.08,480.05,475.46,480.27,478.84,476.84,482.39,467.84,480.72,479.61,478.05,473.46,480.32,474.7,479.28,474.34,478.45,476.11,479.33,479.61,478.73,476.71,477.35,476.3,477.35,474.08,475.8,474.22,476.38,475.76,476.32,484.94,478.21,476.38,477.66,480.25,476.61,481.48,474.95,474.98,477.43,477.11,479.96,475.72,475.95,479.24,476.7,480.48,476.66,482.02,480.61,476.89,474.91,479.23,475.92,476.91,478.81,477.7,478.18,479.19,478.2,477.17,476.64,481.52,475.35,479.05,476.86,475.47,476.48,478.33,482.7,474.74,476.45,476.75,477.08,474.66,476.64,477.75,476.05,480.51,478.45,480.39,480.9,477.22,480.95,476.17,477.16,475.29,477.25,476.55,476.8,479.52,476.3,473.11
482.18,480.84,484.34,480.4,480.31,481.81,481.26,484.21,479.67,485.78,481.21,481.77,486.76,475.05,484.36,481.99,482.62,477.36,481.85,481.38,481.03,482.8,480.73,479.51,480.74,481.43,482.62,479.29,482.73,480.05,479.27,478.52,478.04,476.35,477.19,483.59,482.42,486.28,479.54,479.01,482.92,483.35,484.29,484.57,477.9,480.34,479.42,479.35,483.34,480.06,480.12,481.63,480.27,485.6,482.73,483.55,482.08,480.46,479.32,482.2,476.6,481.24,480.69,481.57,481.31,480.14,479.9,478.9,480.13,482.63,477.7,484.7,485.7,478.3,479.37,480.52,485.5,480.89,480.19,480.22,479.92,480.54,480.48,480.76,476.95,482.73,482.69,486.82,481.36,480.56,484.5,482.5,479.68,480.1,482.45,483.31,481.07,484.69,479.4,476.09
487.45,483.45,488.5,482.57,484.66,488.1,485.06,490.54,484.4,490.05,484.76,486.16,492.16,478.46,489.59,489.29,484.86,483.72,489.19,484.31,490.99,487.9,488.38,483.18,486.69,486.98,489.25,483.63,488.82,483.94,488.3,485.76,486.11,483.13,489.84,485.54,485.43,492.24,485.1,486.4,486.33,487.12,488.86,486.96,484.41,484.74,485.6,484.42,489.04,481.89,487.97,497.1,489.82,488.42,487.56,484.53,484.46,486.25,486.45,488.68,483.29,484.82,486.53,488.59,489.89,484.89,491.05,484.53,484.65,489.54,481.53,490.92,490.63,479.83,489.14,484.32,498.07,484.84,485.83,485.18,482.55,488.98,483.66,488.62,485.16,489.08,485.48,489.39,487.05,484.79,490.76,487.79,486.58,483.52,491.35,487.53,486.76,491.97,484.08,485.58
502.49,503.86,506.78,502.84,504.51,506.09,504.8,506.6,500.66,508.22,502.83,507.14,507.44,499.22,505.4,510.16,502.72,500.99,503.69,498.4,509.49,504.44,504.72,500.25,505.64,505.93,501.9,496.86,500.68,502.92,506.05,500.99,503.24,504.06,506.39,506.63,506.59,508.89,505.82,506.27,505.02,504.19,506.34,505.75,501.43,502.1,501.97,498.99,503.68,501.16,504.75,505.91,504.75,507.76,503.15,504.42,504.47,503.67,503.05,505.6,500.95,506.84,500.36,504.55,507.43,506.47,503.87,504.63,502.01,505.46,501.76,507.27,507.58,503.47,507.27,502.62,510.85,501.7,505.49,502.83,500.99,504.72,506.66,508.6,503.25,506.51,504.58,506.28,503.98,503.85,507.98,504.86,503.01,496.23,509.47,502.58,500.49,506.66,504.6,505.86
512.59,510.76,513.35,513.4,513.76,524.63,511.32,522.48,510.38,517.81,509.06,513.69,518.41,502.92,520.73,513.5,512.77,507,511.99,514.31,520.81,510.73,513.15,512.26,519.1,509.82,510.14,508.35,509.79,510.52,511.48,507.41,514.41,512.9,510.91,524.39,511.04,515.35,509.14,511.79,517.15,516.22,514.53,511.44,513.51,511.38,516.02,510.96,513.25,510.56,509.86,520.7,514.08,520.06,510.4,509.35,510.54,515.92,517.72,517.89,515.61,520.32,514.66,512.07,513.95,512.39,519.22,511.01,515.92,516.99,508.58,517.35,514.73,516.22,515.09,517.6,524.61,517.04,515.29,510.81,509.89,517.61,514.89,519.3,507.67,514.82,506.39,517,514.88,510.05,513.93,513.03,515.02,509.29,516.14,512.24,509.65,519.04,519.96,508.19
542.46,535.67,543.98,539.45,538.29,545.91,541.16,541.18,543.73,537.64,547.06,536.09,538.98,543.46,532.75,547.23,546.2,537.02,540.38,533.57,548.65,532.53,531.44,532.31,535.24,542.17,534.68,534.58,539.56,532.36,538.69,543.77,530.82,537.88,538.55,542.26,530.91,533.05,534.83,532.22,526.49,541.13,542.29,535.94,544.26,542.14,532.43,540.62,533.41,537.69,537.37,534.28,538.82,541.42,547.25,534.8,528.27,541.44,539.33,547.72,540.34,531.62,552.57,540.06,545.83,533.82,541.61,541.15,541.44,537.79,544.22,546.32,534.76,544.84,537.24,546.9,545.4,538.13,533.5,541.59,540.92,546.42,540.47,531.92,544.63,536.68,541.96,535.17,531.51,540.57,539.2,543.89,542.16,539.63,534.13,531.58,538.03,539.52,541.22,532.54
552.48,553.84,557.64,549.67,545.35,548.94,545.5,555.88,549.06,553.78,556.43,550.67,542.56,551.71,555.02,551.97,552.99,545.58,555.07,556.21,558.39,552.5,544.4,547.32,553.97,545.81,550.39,546.28,553.05,550.81,543.74,548.4,546.62,546.49,546.46,551.7,550.97,556.04,551.86,555.23,549.41,552.34,554.21,551.03,553.06,552.91,549.48,546.15,549.94,546.8,551.27,554.94,551.56,552.07,555.21,550.17,550.97,544.86,549.37,552.39,549.03,547.99,558.95,549.78,554.14,543.22,551.17,549.32,551.71,554.69,550.93,555.6,551.82,548.41,549.23,554.3,552.39,552.82,554.32,557.62,552.87,552.49,549.12,555.5,550.49,553.05,545.97,560.66,553.48,551.98,553.57,551.02,555.47,545.47,553.75,538.17,551.43,551.29,544.5,548.29
559.07,559.03,561.35,557,556.99,555.15,558.89,560.87,554.13,559.92,564.03,559.06,551.2,556.19,560.96,558.3,560.48,558.28,557.81,562.7,563.82,557.08,555.03,556.41,557.43,562.53,555.22,554.07,559.95,554.4,556.74,556.13,556.11,550.35,554.93,556.59,553.26,560.79,556.96,559.63,554.32,555.1,557.21,557.36,559.96,556.59,557.55,554.24,557.4,555.41,553.37,559.58,561.41,557.22,563.93,557.66,553.25,559.97,559.22,557.02,557.8,554.75,560.31,556.36,560.98,559.68,558.87,561.61,561.76,558.61,562.13,560.91,558.34,555.78,554.05,558.59,561.08,558.76,557.21,560.34,555.56,562.19,555.4,559.03,556.54,555.64,553.05,562,555.86,559.37,559.09,554.82,558.53,557.18,557.42,559.18,558.57,556.75,554.91,557.78
562.04,561.05,572.33,560.53,561,566.05,562.27,567.03,564.55,566.95,567.5,566.09,561.77,559.4,565.67,564.03,562.82,559.19,561.41,565.43,567.32,559,560.69,562.66,564.55,563.82,557.39,555.14,562.62,559.4,560.88,563.3,561.61,561.13,563.66,560.26,558.72,566.24,559.4,561.97,559.87,562,562.3,566.84,562.75,562.15,558.14,557.54,561.18,561.4,557.01,560.59,563.61,560.18,564.98,565.47,560.22,564.02,561.23,564.18,561.7,559.16,564.16,561,564.79,564.52,563.96,568.13,563.7,564.52,564.42,562.28,564.09,562.29,557.21,562.81,566.55,560.95,561.11,565.9,562.87,565.07,558.12,561.99,563.92,559.48,560.81,566.24,560.59,561.8,565.69,564.24,563.96,559.58,563.43,562.35,561.72,563,563.48,562.03
569.44,564.78,574.38,561.11,566.59,569.38,576.91,569.62,566.71,571.95,573.68,569.89,569.36,561.24,571.91,567.88,563.81,565.43,572.84,568.47,576.06,569.55,568.1,565.73,568.7,566.04,566.31,557.63,568,569.27,569.96,571.6,565.49,562.35,567.77,563.19,567.72,570.92,569.27,568.7,561.15,567.64,570.93,571.12,568.93,570.2,568.28,566.33,565.44,563.99,561.08,562.59,568.77,564.85,573.97,566.72,562.4,567.6,568.16,570.22,564.81,567.22,565.71,566.65,566.51,565.67,566.23,572.36,570.74,571.06,566.08,567.77,570.73,565.37,560.6,566.19,572.47,563.43,572.08,572.31,565.81,566.09,563.63,566.66,568.87,567.94,563.99,568.11,567.07,563.89,574.2,568.16,568.31,566.15,570.23,566.34,567.52,571.33,565.33,567.12
578.78,567.91,580.13,570.56,569.87,574.08,579.91,571.64,570.13,575.01,580.28,571.41,577.53,569.39,577.95,569.6,569.07,568.25,576.66,576.78,578.46,574.97,573.74,568.66,574.04,570.14,567.86,562.03,575.37,576.98,574.63,574.37,576.02,568.42,571.37,570.86,574.89,575.65,573.56,576.2,570.7,576.93,575.31,575.78,571.43,572.51,575.2,573.46,577.75,569.22,567.89,572.61,575.56,570.34,576.51,567.82,572.49,572.15,572.99,572.02,568.32,572.04,571.53,568.72,571.79,567.87,572.8,575.26,574.21,573.99,570.38,573.19,574.15,579.49,566.73,574.15,575.57,570.7,574.82,576.83,568.67,577.79,571.11,570.64,576.58,571.97,568.57,579.96,570.09,569.24,577.51,575.32,572.79,577.53,572.02,572.24,571.95,574.66,572.13,570.72
581.88,571.55,582.94,578.94,579.8,583.2,582.93,576.92,578.82,578.59,583.29,580.9,583.48,575.11,584.26,587.49,583.42,574.61,579.16,578.76,581.91,580.3,581.19,571.16,576.3,580.62,580.2,577.81,576.13,578.48,575.49,577.04,578.57,571.41,579.43,580.98,581.79,582.18,579.75,580.94,580.9,583.24,583.13,581.54,580.32,577.92,579.37,579.98,579.84,575.19,571.25,577.97,578.72,576.14,582.27,576.51,576.94,579.78,576.73,584.42,574.47,573.17,585.28,579.9,579.98,582.04,582.45,585.37,579.35,577.42,583.15,581.75,575.32,582.35,574.19,582.74,583.24,576.06,581.82,581.91,575.54,581.33,574.77,580.02,579.57,575.23,579.14,583.15,572.85,577.83,581.22,581.56,579.72,578.67,578.92,579.07,577.29,581.19,581.76,572.62
586.27,582.55,585.98,579.39,585.33,585.65,591.85,585.13,586,584.69,583.89,583.53,587.5,582.69,590.39,590.11,588.24,579.52,581.49,587.28,588.83,586.17,584.17,581.71,582.16,582.78,583.43,579.23,580.15,582.36,579.28,582.7,588.25,585.55,592.19,582.9,586.17,585.12,583.11,588.14,586.23,588.24,583.71,586.49,582.87,590.54,586.64,584.86,581.42,580.31,580.93,583.55,580.38,584.77,589.54,583.71,577.69,587.88,580.87,589.65,581.11,583.12,588.08,583.93,584.08,585.77,586.27,589.79,584.94,582,591.24,587.95,583.87,585.55,582.37,585.87,589.16,582.99,584.8,586.17,581.77,586.25,584.91,581.34,584.77,580.45,587.89,588.82,581.77,579.3,583.87,598.86,583.55,585,581.04,580.23,584.35,586.4,583.91,581.69
606.18,607.83,612.67,598.8,608.7,601.99,606.21,606.64,607.96,609.93,605.58,603.58,601.61,602.05,609.76,608.88,609.98,604.83,601.13,606.62,609.92,600.94,607.07,600.81,605.98,602.68,596.56,600.36,602.8,604.52,601.33,600.78,604.4,605.62,605.23,603.16,603.21,609.36,604.2,605.22,608.3,601.26,608.53,604.79,610.39,600.74,605.27,602.77,607.2,602.73,603.07,603.67,604.76,611.11,608.58,607.21,603.3,606.23,607.33,608.83,602.47,601.31,606.91,604.52,609.5,608.52,603.6,605.14,608.38,609.97,606.69,606.87,607.33,606.72,602.19,606.22,611.23,601.65,604.04,608.54,604.99,610.34,607.99,608.12,604.64,606.11,602.23,607.06,603.66,602.97,606.29,609.58,610.35,603.07,604.49,601.99,602.62,607.78,603.97,603.99
617.53,609.59,618.57,607.96,609.09,614.28,614.69,613.14,610.23,615.92,616.82,613.18,612.75,607.19,617.79,612.9,613.91,606.85,613.83,615.5,613.98,614.22,610.22,606.8,610.64,608.35,613.05,610.99,614.48,616.16,608.25,612.72,610.2,610.83,612.7,612.8,615.64,616.79,611.34,613.93,611.97,609.34,617.28,613.16,612.73,613.01,613.81,608.53,612.79,610.28,606.5,612.9,611.31,613.96,617.17,610.95,610.64,608.97,610.99,614.62,611.7,613.45,610.47,613.24,615.98,609.17,609.22,613.07,610.89,615.59,610.38,611.61,611.01,612.99,608.3,607.62,613.3,607.79,618.16,615.85,614.77,614.26,611.6,612.05,616.32,610.67,602.99,617.6,608.79,608.9,615.02,614.18,614.85,609.34,614.54,607.17,613.9,611.62,606.53,609.5
622.68,617.67,620.58,618.4,617.42,617.36,617.13,615.73,615.57,624.74,622.5,616.66,621.41,618.13,622.51,620.08,618.77,614.86,618.51,620.91,619.45,616.42,616.77,615.92,613.18,619.07,614.9,618.7,617.7,619.58,616.03,615.62,619.03,620.38,617.77,619.94,618.4,623.08,617.33,617.97,615.51,618.2,619.36,617.07,618.86,617.36,619.21,615.41,618.01,617.39,615.36,621.45,619.89,621,621.41,622.58,616.63,620.85,616.28,623.98,620.13,623.07,617.35,619.93,620.85,619.38,615.07,622.83,617.1,621.55,618.45,618.73,619.79,616.58,609.93,614.51,617.28,623.72,620.42,622.93,622.19,620.28,617.57,622.24,620.33,616.84,616.9,621.92,619.25,617.07,616.84,618.99,618.27,617.32,619.78,620.26,615.61,619.16,618.91,617.46
623.72,622.24,629.78,620.57,618.02,628.33,624.92,625.86,622.1,627.18,626.71,620.03,624.93,624.61,627.48,621.81,620.88,621.48,624.28,624.67,626.66,624.38,622.3,620.68,621.25,623.47,624.35,624.23,621.18,620.41,619.72,621.39,621.58,624.29,624.41,621.75,625.75,628.51,625.55,624.39,621.97,619.23,625.32,624.29,621.08,622.64,620.75,621.67,620.54,623.69,621.38,628.74,622.84,626.85,625.48,624.59,619.15,626.05,623.85,625.69,625.78,626.2,623.7,626.54,621.86,624.35,617.6,627.45,620.08,626.01,624.24,624.75,624.55,619.13,617.77,624.58,622.06,626.64,624.69,625.38,625.43,625.38,626.56,624.63,625.62,623.86,624.84,628.43,621.13,620.58,622.41,620.18,622.97,619.04,623.91,626.69,617.86,622.35,628.72,620.33
629.99,625.21,632.63,622.75,630.6,632.2,631.82,630.7,631.07,637.14,633.24,630.75,634.6,626.43,634.57,637.24,632.08,630.63,629.46,634.89,629.74,631.03,628.62,628.28,623.2,631.63,630.85,631.15,628.03,631.79,626.85,630.65,632.04,630.82,633.28,632.49,633.3,636.75,630.88,628.09,626.96,632.65,632.06,635.48,626.41,633.85,631.99,630.3,632.66,626.09,623.95,632.37,630.15,631.21,630.68,630.38,627.34,635.14,628.65,634.95,629.87,629.47,630.7,633.31,627.89,631.55,633.38,634.28,627.81,628.91,633.11,633.26,627.5,626.55,629.34,629.42,627.24,630.35,629.93,633.98,629.74,633.75,628.05,626.18,633.17,627.6,627.9,644.43,626.62,629.65,634.83,634.33,630.28,627.14,627.06,630.26,633.46,629.66,632.35,623.96
644.64,638.57,644.87,635.4,637.56,639.3,647.48,636.85,637.46,641.86,641.76,638.16,642.23,631.92,644.29,639.51,637.43,634.62,643.91,639.5,643.67,646.52,642.94,634.61,639.94,635.48,634.23,635.8,640.44,640.19,639.32,636.9,640.88,632.3,635.86,641.69,645.15,642.01,640.31,643.04,647.19,644.19,643.36,641.13,639.13,641.25,640.92,639.22,639.05,641.66,632.51,636.01,638.19,641.03,639.91,636.09,637.68,638.93,637.83,640.08,637.53,635.65,634.51,637.22,643.54,637.54,638.23,641.59,638.21,642.33,638.42,635.12,639.22,637.95,634.9,633.78,642.44,632.26,642.73,638.71,640.64,641,636.97,641.9,642.38,640.19,635.31,646.45,632.6,631.6,641.96,638.9,639.04,643.21,638.27,641.22,638.48,640.64,637.91,636.29
651.65,652.38,654.81,654.15,650.85,657.39,651.9,659.94,649.66,653.87,658.94,653.31,653.72,648.27,657.62,655.25,657.15,653.1,654.15,654.45,654.35,650.42,654.59,660.35,647.65,653.46,653.22,655.29,656.05,651.99,654.52,652.85,653.77,651.43,654.85,650.85,653.88,658.87,648.3,657.54,661.73,645.71,654.57,655.13,653.31,656.38,653.55,654.45,651.79,655.92,653.05,664.89,657.69,660.35,654.88,652.46,651.82,653.57,654.68,656.83,658.64,660.54,652.82,654.1,653.41,657.45,645.92,652.05,651.84,654.14,653.08,659.62,656.58,650.36,647.54,654.94,648.56,662.47,655.26,658.15,654.25,659.15,654.87,665.2,648.78,661.42,654.47,665.47,657.46,651.78,649.99,651.13,652.61,653.17,657.1,661.59,649.75,652.69,662.05,652.02
662.21,657.48,659.28,660.94,656.12,665.13,653.48,665.56,654.82,667.04,662.4,656.35,659.67,658.82,665.44,658.57,658.09,659.35,657.87,662.21,660.94,661.64,658.56,663.05,664.84,657.14,656.29,658.56,657.12,658.02,658.23,664.37,661.32,658.22,660.16,658.12,659.93,667.25,655.36,660.55,662.98,657.13,664.71,656.92,655.31,660.07,662.28,657.13,662.13,662.69,658.69,666.91,659.57,662.18,660.06,659.76,659.64,660.94,659.97,662.67,662.52,664.64,661.54,657.41,660.92,662.32,659.8,663.96,663,664.46,663.1,666.75,662.54,659.32,658.37,659.65,660.42,663.35,657.78,662.7,658.51,666.99,661.57,666.15,658.41,661.8,660.85,666.04,659.88,659.63,658.08,657.13,656.34,654.96,661.32,661.92,658.6,662.72,667.21,656.28
666.51,665.43,671.19,667.84,665,669.14,666.81,667.3,662.16,673.42,668.28,666.59,668.26,661.32,670.51,666.07,666.79,662.97,665.32,668.08,666.08,664.16,667.14,664.77,667.6,664.91,663.45,661.64,664.07,660.34,662.46,667,668.7,666.91,663.27,666.14,669.18,671.46,666.67,666.03,669.57,663.87,668.25,667.69,665.65,662.69,665.75,661.78,668.37,666.85,660.29,669,666.11,669.04,670.75,664.93,663,666.7,666.65,669.62,668.06,668.61,667.27,663.18,667.79,668.28,668.86,669.01,666.57,668.47,667.28,668.86,671.06,664.36,661.91,667.85,671.92,669.26,664.95,672,663.87,672.28,662.85,671.15,662.84,668.95,665.88,669.78,666.33,662.4,667.64,662.92,668.29,664.42,664.61,666.97,662.57,669.75,669.37,664.34
688.01,681,690.07,686.96,683.94,689.49,686.85,676.56,690.91,697.04,694.74,686.9,693.18,676.32,686.04,688.33,687.86,683.83,682.67,690.71,680.59,686.98,685.73,682.57,681.13,686.85,691.42,678.64,687.76,683.96,682.45,691.42,684.92,677.19,676.8,674.62,687.08,700.11,681.85,687.2,692.55,685.4,691.12,693.94,684.51,692.05,681.92,689.84,684.61,684.1,687.81,694.17,680.41,695.05,671.59,691.21,691.54,689.45,687.17,692.76,679.04,677.82,682.76,680.53,683.5,680.12,689.75,670.75,683.31,691.24,682.77,690.1,674.24,681.14,677.06,685.68,691.6,691.66,690.08,692.88,682.76,691.9,686.26,681.35,682.82,684,690.44,697.09,692.51,687.36,685.09,678.79,681.97,690.55,676,686.67,684.74,693.72,686.1,680.97
696.06,695.08,698.26,697.82,688.3,699.28,688.44,696.24,692.5,699.91,698.67,689.15,699.56,687.96,696.9,692.63,696.6,688.36,697.32,695.09,692.95,702.08,694.42,701.41,696.19,696.67,695.58,691.36,689.68,691.13,688.81,703.3,700.17,686.45,691.78,686.62,691.42,704.71,691.8,699.97,697.88,691.99,699.14,697.9,687.3,692.28,691.94,698.66,694.72,691.6,695.86,704.2,693.75,700.38,695.63,694.46,696.24,693.96,689.19,693.75,691.7,698.14,702.32,694.31,691.64,693.77,692.87,694.35,690.23,699.04,688.4,692.32,691.99,685.45,695.07,688.18,695.26,704.01,691.28,700.34,693.3,694.4,687.14,702.4,692.9,702.37,701.89,701.39,697.06,696.31,688.57,691.07,694.25,695.17,696.94,702.15,700.9,694.2,700.55,692.16
710.94,710.6,711.87,712.28,708.42,715.67,706.62,717.84,708.33,722.06,713.89,712.14,718.81,707.65,713.99,709.73,709.19,712.46,707.62,713.05,711.76,709.13,708.57,709.86,711.84,712.14,711.36,707.36,712.02,711.63,707.05,715.82,709.91,707.78,712.93,710.28,711.74,717.38,705.28,715.13,720.23,706.32,713.88,713.29,710.85,715.98,713.05,707.59,711.27,714,707.54,718.42,708.99,717.5,716.46,710.11,707.73,710.67,712.96,715.65,715.54,719.5,709.54,704.78,710.65,712.76,716.19,711.11,717.54,712.28,711.93,718.66,714.53,710.43,708.97,711.89,719,712.29,710.73,719.2,704.63,715.37,710.82,720.34,707.88,718.61,711.46,721.36,711.57,710.43,710.67,708.09,712.37,711.37,712.19,712.45,711.56,716.81,720.09,710.39
735.62,729.61,730.68,729.87,728.91,738.94,731.53,735.74,727.56,742.53,739.28,737.92,738.86,725.2,738.41,738.86,733.84,734.79,728.2,733.22,732.92,732.75,730.89,732.31,734.14,731.26,732.8,723.08,735.53,728.69,733.36,736.71,731.56,733.12,732.17,725.65,733.72,744.17,734.74,730.94,739.34,733.26,742.29,737.45,732.74,736.68,733.89,733.78,735.72,733.15,736.04,732.85,732.94,740.64,734.13,729.98,734,734.5,731.34,734.97,729.67,733.52,732.84,727.68,738.76,732.23,734.04,724.8,731.52,733.12,732.1,738.61,729.29,733.15,721.44,735.12,736.63,739.37,731.92,737.43,729.33,741.72,740.21,736.82,727.49,735.33,733.99,741.28,734.14,729.87,730.36,721.73,727.83,734.63,730.69,737.35,738.86,736,735.36,726.58
758.12,755.83,759.26,754.94,754.9,760.48,755.11,760.7,759.32,768.07,762.24,760.16,765.69,748.75,762.97,762.39,757.56,758.77,753.93,756.45,758.14,758.79,756,757.91,757.17,754.5,759.3,750.81,763.19,752.79,755.57,762.44,755.94,753.78,755.84,749.9,755.1,769.41,755.32,756.48,760.19,757.57,770.01,764.15,755.71,757.77,759.21,759.78,759.44,757.84,758.28,761.03,755.63,766.55,760.37,756.63,762.24,760.14,755.18,757.84,754.62,759.67,760.38,752.53,760.11,757.06,757.92,755.02,752.3,759.53,754.87,759,758.82,753.87,751.15,756.68,761.17,762.78,756.78,761.46,753.03,759.91,759.21,763.27,749.14,761.01,759.56,767.69,757.48,754.2,752.79,749.31,756.35,758.79,755.82,760.34,766.77,761.7,760.41,752.78
2604.1,2608.3,2609.9,2609,2619.4,2606.3,2621.8,2597.2,2598.4,2612.1,2598.3,2619.5,2600.4,2650.8,2639.4,2599.5,2633.7,2607.4,2622.7,2627.1,2624.5,2615,2616.7,2633.1,2607.8,2596.7,2626.8,2617.6,2615.8,2599.7,2610.5,2628.7,2595,2606.3,2611.9,2637.5,2646.2,2631.2,2602.5,2626.3,2632.2,2597.4,2599.8,2621.1,2642.6,2629.2,2607.8,2624.8,2611.3,2599.2,2622.7,2605.1,2630.3,2596.4,2645.4,2636.2,2596,2649.7,2638.8,2601.1,2612.9,2636.9,2599.6,2632,2595.1,2607.3,2601.5,2609.9,2624.8,2626.2,2609,2615.7,2611.2,2620.7,2646,2601.2,2651,2615.9,2614.6,2603.6,2603.8,2620.5,2597.4,2625.7,2605.1,2622.8,2639.1,2618.8,2615.3,2629.7,2622.1,2630.8,2603.7,2617.4,2602.3,2623.6,2627.8,2626,2605.1,2645.6
2605.7,2634.8,2648.7,2630.6,2622.8,2641.2,2630.3,2615.1,2611.3,2631.4,2648.8,2628.9,2605.2,2652.1,2652.9,2633.1,2659.5,2627.9,2626.7,2655.6,2646.9,2624.3,2632.3,2647.8,2645,2649.2,2631,2628.9,2653.2,2613,2644.3,2646.5,2658.2,2627.7,2639.8,2649.1,2656.1,2648,2646.7,2632.3,2646,2649.5,2625.5,2649.4,2645,2630.1,2654.4,2628.9,2626.5,2625.7,2637,2645.1,2649.2,2623.9,2647.9,2645.8,2614.3,2653.1,2641.1,2637.1,2638.2,2654,2625.9,2641.3,2610.2,2631.7,2606.3,2637.6,2642.4,2654.5,2622.3,2627.5,2634,2634.3,2653.7,2636.7,2653.4,2626.7,2648.2,2631.1,2617.3,2625.3,2605.6,2625.9,2616,2628.8,2646.9,2629.4,2633.2,2630,2630.9,2642.6,2624.1,2625.7,2642.7,2627.3,2651.4,2651.6,2644,2655.8
2627.2,2667.7,2650.5,2655.4,2676.8,2656.5,2682.6,2656.4,2661.9,2666,2655.4,2675.8,2628.2,2656.2,2684.9,2682.5,2663.4,2663.4,2628.3,2667.5,2657.2,2633.8,2643.3,2657.9,2648.5,2653.1,2675.9,2658.7,2674,2651,2677.4,2659.7,2670,2656.2,2666.1,2670.5,2678.8,2658.5,2649.6,2636,2661.8,2654.9,2658.6,2671.6,2650.3,2650.1,2655.5,2675.3,2659,2657.9,2646.6,2674.5,2651.3,2676.6,2671.2,2649.1,2652.7,2663.9,2653.9,2668.9,2643.4,2667.9,2630.6,2664.6,2623.7,2637.9,2664.2,2640.7,2645.7,2658.5,2657.8,2642.2,2638.1,2652.1,2679.4,2654.6,2653.6,2655.7,2681.2,2645.6,2652.5,2630.3,2641,2648.1,2638.8,2650,2659.7,2668.7,2678.7,2650.2,2654.7,2669.3,2655.4,2672.9,2662.8,2664.2,2661.3,2683.1,2652.5,2683.8
3471.5,3464.7,3439.9,3462.7,3464.3,3487.5,3417,3467.9,3403.6,3471.2,3451.1,3408.3,3481,3418.2,3445.9,3482.8,3429.5,3447.3,3425.6,3487.4,3430.5,3480.3,3446.4,3432.3,3442.7,3408.5,3437.9,3475.5,3481,3457.3,3423.2,3411.9,3424.6,3471.3,3419.4,3432.3,3452.4,3456.7,3418.6,3467.5,3474.7,3468.7,3451.8,3410.2,3435.1,3431.8,3440.9,3469.8,3484.5,3476.2,3466.7,3483.5,3473.5,3411.9,3456.6,3426.9,3441.6,3446.4,3474.1,3467.5,3421.9,3481.2,3470.6,3411.9,3420.2,3455.4,3458.6,3480.9,3467.8,3405.2,3436.2,3433.4,3483.7,3426.2,3425.1,3468.6,3474.8,3411.9,3447.5,3473.4,3487.6,3477.6,3476.3,3480.3,3481.7,3448.4,3451.6,3440,3474.5,3428.6,3451.5,3480.8,3410.1,3439.4,3423.9,3461.1,3440.8,3420.7,3439.9,3452.8
