18.357,18.298,18.473,18.693,18.53,18.505,18.363,18.366,18.104,18.484,18.559,18.331,18.474,18.13,18.494,18.219,18.682,18.333,18.432,18.552,18.693,18.457,18.387,18.431,18.392,18.374,18.426,18.436,18.317,18.617,18.475,18.476,18.337,18.608,18.694,18.328,18.41,18.66,18.302,18.633,18.09,18.393,18.462,18.446,18.402,18.384,18.516,18.11,18.628,18.472,18.62,18.43,18.685,18.574,18.601,18.388,18.555,18.704,18.379,18.327,18.515,18.515,18.483,18.448,18.636,18.459,18.297,18.337,18.512,18.622,18.35,18.573,18.512,18.472,18.172,18.5,18.558,18.341,18.368,18.158,18.563,18.488,18.559,18.393,18.427,18.716,18.746,18.275,18.331,18.537,18.39,18.518,18.709,18.81,18.563,18.433,18.604,18.483,18.349,18.479
18.545,18.711,18.558,18.875,18.577,18.897,18.82,18.581,18.425,19.002,18.648,18.718,18.51,18.682,18.683,18.465,18.765,18.737,18.585,18.713,18.714,18.564,18.548,18.604,18.549,18.734,18.555,18.505,18.667,18.907,18.707,18.5,18.863,18.83,18.976,18.773,18.758,18.743,18.622,18.742,18.23,18.555,18.558,18.724,18.458,18.704,18.839,18.433,18.735,18.651,18.688,18.615,18.884,18.853,18.694,18.909,18.754,18.823,18.627,18.447,18.698,18.6,18.571,18.56,18.755,18.644,18.722,18.603,18.56,18.837,18.774,18.667,18.656,18.74,18.611,18.663,18.728,18.472,18.479,18.868,18.578,18.552,18.638,18.79,18.691,18.755,18.904,18.677,18.617,18.731,18.539,18.863,18.986,18.941,18.701,18.777,18.834,18.641,18.682,18.642
39.28,38.933,38.615,38.786,39.063,39.073,38.809,39.164,38.601,39.135,39.214,38.652,38.469,38.615,39.019,38.706,39.182,38.939,39.141,38.849,38.874,38.958,38.74,38.628,38.556,39.108,39.017,38.601,38.703,39.46,38.703,38.989,38.965,39.177,39.209,38.87,39.105,38.725,38.655,39.219,38.523,38.946,39.054,38.73,38.675,39.345,38.381,38.954,38.976,38.648,38.966,38.887,38.605,38.995,39.087,38.495,38.853,39.017,38.573,38.597,38.57,39.574,38.878,38.656,38.914,39.133,39.046,38.815,39.054,38.903,39.394,38.741,38.946,39.287,38.941,39.498,38.911,38.889,38.746,38.972,39.012,38.955,38.764,39.035,38.839,38.9,39.091,38.947,38.615,39.03,38.876,39.212,38.944,38.903,39.064,39.291,38.978,38.866,38.736,38.918
69.781,69.762,69.59,69.741,70.077,70.161,69.926,69.737,68.926,69.979,70.233,69.374,69.286,69.774,69.975,69.341,70.075,69.694,69.73,70.021,69.62,69.432,69.516,69.556,69.462,70.202,69.949,69.266,69.134,70.65,70.078,69.855,69.759,69.853,70.789,69.834,69.861,69.572,69.778,70.385,68.339,69.388,69.748,69.661,69.445,70.371,69.503,68.949,69.941,68.932,69.805,69.718,69.755,70.025,70.221,69.929,70.311,70.415,69.412,69.46,69.33,70.137,70.126,69.824,69.589,69.855,69.935,69.106,69.225,70.277,69.886,69.384,69.839,70.503,69.084,70.134,69.874,69.227,69.576,69.257,69.805,69.702,69.589,70,69.484,69.442,69.481,70.056,69.475,70.457,69.086,70.023,70.355,70.438,69.95,69.897,69.76,70.195,69.629,69.144
75.855,75.65,75.044,75.283,75.607,75.133,74.993,75.718,75.173,75.62,76.652,75.057,74.119,74.851,75.236,75.209,75.946,75.739,75.229,75.616,75.321,75.483,74.794,75.01,74.931,75.188,74.981,74.904,75.482,76.247,74.711,75.992,75.766,75.449,75.945,75.881,75.441,75.422,74.415,75.204,74.379,74.783,75.12,74.969,74.95,76.463,74.824,75.12,75.422,74.883,74.952,75.587,75.361,75.738,76.261,75.249,75.142,76.538,75.366,74.24,74.832,76.174,75.225,75.062,75.381,76.417,75.536,74.794,75.304,75.559,76.065,74.894,75.187,75.461,75.628,76.51,75.069,74.831,75.032,75.595,75.409,75.354,75.36,75.709,75.143,75.35,76.062,75.231,74.889,75.229,75.046,75.933,75.665,75.911,74.578,75.763,75.837,74.943,74.804,75.141
94.103,94.617,94.375,95.94,94.876,95.061,95.007,94.668,94.081,95.637,95.34,95.105,95.216,94.494,95.279,94.214,95.35,94.946,94.761,95.857,95.659,94.865,95.457,95.042,94.804,95.476,94.771,94.542,94.956,95.833,95.632,94.728,95.59,95.625,96.05,95.213,95.442,95.618,95.086,95.658,93.238,94.88,94.321,95.419,94.857,94.803,95.369,93.473,95.612,95.256,95.074,95.125,96.608,95.621,95.606,95.556,95.451,96.557,95.394,94.368,94.805,94.057,95.229,95.024,95.993,94.657,94.745,95.154,94.666,96.618,95.205,94.664,95.078,95.672,94.723,95.847,94.896,94.113,94.531,95.127,94.833,95.028,95.271,94.981,95.626,95.458,96.393,95.285,94.134,95.148,94.842,95.107,96.553,97.068,95.257,94.662,95.912,95.003,94.835,94.677
109.92,109.51,108.56,109.4,109.17,108.9,108.96,109.64,107.91,109.35,109.97,108.12,107.66,107.7,109.51,109.13,108.67,109.36,109.39,108.65,108.75,109.78,109.11,108.75,108.24,109.45,109,108.4,108.73,109.79,109.41,109.5,108.92,108.61,109.71,109.71,109.56,109.14,107.65,108.94,108.21,108.89,109.82,109.19,108.42,110.46,108.12,108.94,109.49,108.03,109.06,109.03,109.87,109.49,109.49,108.98,109.97,109.99,108.24,108.53,109.01,110.11,108.7,109.17,108.28,109.65,108.79,107.75,109.14,109.51,110.15,108.54,108.3,109.91,109.58,110.25,108.91,109.16,108.44,108.53,109.43,109.18,108.51,109.44,108.21,109.06,109.57,108.54,108.94,108.91,108.77,109.78,108.84,109.07,109.22,109.74,109.55,108.66,109.45,108.89
135.52,135.38,135.73,135.51,137.02,135.93,135.4,135.46,134.9,135.12,136.64,135.97,134.52,135.11,136.12,135.12,136.49,136.47,135.28,135.97,134.61,135.29,134.89,134.67,135.4,136.32,135.21,134.51,134.46,135.19,136.03,136.6,134.96,135.88,135.76,135.14,135.56,135.02,135.38,135.63,133.96,134.74,135.24,134.24,134.54,135.55,134.64,133.8,135.28,134.74,134.71,136.14,135.75,135.44,136.63,135.76,136.15,136.58,134.37,134.69,133.8,135.89,135.24,135.42,134.74,135.79,136.38,134.63,135.68,135.58,136.25,134.27,134.89,136.45,135.55,136.78,135.24,134.77,135.19,135.27,134.95,135.66,134.49,136.48,135.31,134.47,134.79,136.14,135.45,134.76,134.33,135.51,135.62,135.73,135.38,134.87,135.4,135.54,135.35,136.23
143.12,143.75,140.91,141.58,143.12,142.61,142.12,144.53,141.06,142.89,143.19,142.64,140.74,140.44,142.9,142.88,143.85,142.12,142,141.56,141.11,142.96,141.4,142.87,141.23,141.83,142.43,141.31,142.15,143.67,142.83,143.49,143.02,143.12,142.51,143.04,141.95,141.37,141.04,142.25,142.03,144.1,143,141.58,141.38,144.47,140.81,141.63,143.42,141.16,143.85,142.49,142.38,143.28,144.38,141.57,141.74,144.96,142.13,140.72,141.71,145.03,142.77,141.72,141.8,142.99,143.37,141.79,143.85,143.24,144.26,140.76,141.62,143.56,143.93,145.61,142.02,141.1,141.72,142.98,141.55,143.24,141.42,142.4,142.25,141.74,143.96,141.77,140.4,141.75,141.57,142.28,143.19,142.29,142.31,142.86,143.14,141.58,142.51,142.48
167.62,169.4,168.34,170.33,170.75,166.93,168.51,168.7,166.9,168.88,169.57,169.17,168.34,167.24,168.93,170.58,169.38,171.48,166.92,167.07,168.72,169.47,168.98,166.93,168.92,167.66,168.11,164.14,168.39,168.45,168.78,169.18,168.25,169.15,168.77,169.72,168.13,169.56,167.76,168.51,167.75,165.53,168.63,169.52,166.43,168.6,166.74,167.45,168.47,168.78,168.26,170.23,169.12,168.1,169.5,168.91,166.41,170.33,167.62,168.24,168.45,168.35,168.53,169.36,166.97,169.57,168,166.3,168.66,169.1,167.67,167.26,168.01,169.43,166.82,170.06,169.13,167.92,169.07,169.24,168.76,167.43,167.74,169.45,168.58,168.52,168.86,167.97,168.95,168.46,166.53,169.06,169,167.53,169.45,168.06,168.3,167.34,167.79,170.44
173.59,174.19,173.27,172.7,173.59,173.53,171.95,174.2,170.86,173.53,174.17,171.13,173.14,171.59,172.66,174.39,171.66,174.41,174.24,172.4,172.63,173.6,173.53,173.5,171.72,174,172.89,171.74,170.84,173.19,173.08,174.17,172.58,171.04,173.66,175.09,173.7,172.87,170.86,172.7,172.18,172.5,172.15,173.58,173.05,174.2,171.07,173.37,173.78,172.58,172.44,172.34,175.19,174.91,173.8,173,174.94,173.74,172.56,172.14,172.3,172.93,172.8,174.06,172.74,172.07,172.99,170.7,171.87,174.67,173.16,170.76,172.38,174.55,173.17,173.92,173.15,173.33,172.42,173.23,173.81,173.22,172.14,173.5,172.27,172.48,173.88,173.27,172.9,172.1,171.47,175.15,173.35,173.37,174.9,173.92,173.55,173.34,174.05,172.82
211.38,209.23,210.94,211.11,210.14,211.25,210.25,212.55,208.32,211.16,212.64,206.61,207.21,211.09,211.21,209.53,212.3,211.49,212.34,209.79,211.6,211.31,210.7,209.45,208.67,211.88,209.9,208.46,208.7,211.78,209.11,209.48,210.49,211.81,212.67,211.39,213.78,210.17,209.97,212.73,208.04,209.97,211.79,210.11,209.99,211.97,207.62,211.73,209.79,208.33,209.55,210.71,209.3,209.64,209.6,206.93,209.99,208.23,207.92,209.89,207.33,212.74,208.44,210.98,210.24,210.06,211.05,208.95,209.87,210.2,210.91,212.77,212.07,210.86,209.66,208.71,209.73,212.15,210.61,209.38,209.98,209.73,209.89,211.63,209.56,210.49,210.15,210.77,209.08,214.48,211.6,214.22,210.11,209.75,209.23,212.78,210.39,211.37,207.41,207.96
217.55,217.55,216.69,216.78,218.4,216.76,216.87,218.47,215.79,216.36,215.98,217.82,216.34,216.83,215.9,217.35,219.45,216.01,218.37,217.11,217.65,215.98,215.71,217.39,216.74,217.48,217.81,215.33,214.87,218.04,216,218.55,217.64,216.82,217.98,215.92,217.45,215.63,216.19,216.6,216.03,218.46,218.84,215.44,217.77,219.32,215.57,218.3,216.52,214.98,217.33,218.52,216.47,216.24,216.69,217.14,218.07,218.31,216.43,216.43,215.46,219.46,218.2,215.13,217.66,216.28,216.75,215.15,218.95,216.59,218.42,217.57,216.02,219.24,216.45,217.32,218.64,218.56,217.18,217.2,216.62,217.72,216.36,218.6,217.38,216.03,216.58,216.06,215.83,216.15,216.95,218.25,217.22,216.65,217.22,216.27,216.01,217.28,216.22,216.25
230.76,227.9,228.42,226.79,230.05,228.56,228.08,228.4,227.71,229.48,229.79,227.37,228.72,227.46,230.03,227.14,228.95,229.84,230.84,228.34,230.07,228.51,226.41,227.63,226.92,230.27,228.13,228.52,225.43,229.3,228.46,229.51,228.84,228.13,229.29,226.73,229.61,227.16,228.18,230.19,226.21,230.2,229.42,228.54,228.08,230.49,226.52,229.42,227.84,228.6,228.46,229.94,227.13,229.45,228.94,228.24,230.46,228.46,226.95,228.75,226.94,230.25,227.4,227.38,227.28,229.05,230.1,225.72,229.94,228.68,230.63,226.57,227.91,231.12,229.38,228.76,229.3,228.37,227.85,227.78,230.09,229.61,227.89,229.3,228.15,228.98,229.1,229.25,227.63,229.1,228.17,228.57,226.67,227.42,229.48,230.45,227.06,229.28,230.1,228.63
233.16,231.16,230.78,233.35,233.54,231.86,232.36,232.21,231.19,232.33,233.41,232.26,231,231.39,233.12,231.63,233.28,233.12,233.2,231.4,233.73,231.85,233.89,230.61,231.16,233.96,231.42,231.41,230.83,232.24,232.14,232.84,232.21,233.8,232.25,229.38,235.16,232.03,231.7,232.86,230.6,231.93,233.04,231.63,230.03,233.16,230.04,231.27,232.45,231.53,230.65,233.97,232.07,231.33,232.41,231.39,234.38,232.77,230.18,232.33,230.55,232.98,230.48,232.29,231.09,232.82,233.68,230.69,233.74,231.56,234.1,232.68,231.51,234.07,232.49,234.29,232.57,232.41,231.6,231.27,232.4,232.93,230.86,233.71,231.27,232.12,231.85,232.4,232.7,233,232.86,234.39,231.19,230.75,232.54,232.23,231.71,231.91,232.86,232.46
246.07,249.66,249.16,247.64,250.94,248.15,246.9,247.58,249.62,246.65,248.51,249.82,248.26,248.59,248.99,248.09,248.58,249.14,247.48,248.33,249.26,249.13,247.13,246.9,247.78,250.7,248.35,246.27,245.02,246.1,247.8,248.68,248.62,248.48,246.28,248.66,248.23,249.08,245.39,247.46,246.71,247.31,248.76,247.08,247.5,247.4,249.96,248.34,248.15,246.52,248.83,247.18,247.54,246.99,249.64,251.02,251.31,248.78,245.51,247.23,244.91,245.02,246.8,248.2,247.56,247.75,248.32,243.96,248.48,249.73,246.9,247.12,246.8,251.65,248.57,250.3,250.58,250.18,248.01,248.32,246.78,249,249.04,248.98,248.07,249.12,249.34,245,248.65,247.27,247.09,248.74,246.56,246.82,249.5,250.47,246.54,248.06,245.71,249.08
250.21,251.07,250.39,249.06,252.12,248.56,249.43,249.59,250.16,249.52,250.66,250.97,249.2,249.86,251.23,251.58,250.25,251.41,249.9,249.8,250.64,250.36,247.77,248,249.1,250.79,249.75,247.88,247.46,251.34,249.53,250.1,250.87,250.77,251.33,249.32,250.29,251.3,249.36,250.29,248.73,251.05,250.42,248.76,249.76,251.72,252.35,252.86,249.35,249.01,249.44,250.28,249.82,249.12,250.45,252.41,252.3,250.91,249.82,249.59,249.38,251.07,247.94,249.59,248.65,249.74,251.34,245.39,251.44,250.85,251.65,250.11,248.8,252.11,251.54,251.75,251.66,250.82,249.35,251.08,250.57,250.7,249.86,250.63,250.02,250.96,250.6,248.82,250.1,248.47,248.78,250.57,248.99,250.63,251.74,252.11,248.59,249.83,251.81,250.09
252.83,252.78,251.47,251.3,253.65,251.37,250.41,252.94,253.16,251.74,252.3,254.25,252.72,251.78,252.24,252.64,253.12,253.3,253.3,254.15,253.71,252.23,251.43,250.37,252.4,252.23,251.17,250.29,249.58,251.68,251.1,255.25,251.5,251.97,252.64,251.56,250.71,252.59,252.21,251.28,251.61,252.16,253.93,249.63,250.97,255.58,252.73,253.54,252.07,251.11,251.24,253.62,252.28,251.19,251.56,255.21,254.7,252.16,250.22,252.08,249.8,253.06,254.6,250.3,253.45,249.88,251.96,248.86,252.21,252.44,253.5,250.79,251.09,252.83,251.62,253.96,253.93,252.89,251.55,251.58,254.7,253.21,251.26,252.44,251.08,253.44,251.84,253,250.98,251.26,249.92,254.36,252.12,251.43,253.07,252.53,250.23,251.77,252.37,251.78
269.57,270.72,269.67,267.69,269.77,266.55,270.72,268.89,266.73,268.57,266.83,270.89,268.63,270.8,267.66,269.91,269.87,267.19,273.05,270,271.08,269.29,271.03,269.78,270.95,269.67,270.88,268.65,266.61,268.25,268.19,272.51,268.66,267.73,269.9,265.74,269.94,265.16,267.92,267.98,269.85,269.4,273.58,271.12,269.21,270.06,268.61,269.98,268.25,266.12,269.28,272.23,269.45,268.16,271.3,271.31,271.2,271.89,266.64,268.19,268.21,268.48,270.76,267.83,268.82,272.2,268.21,269.43,271.67,270.99,268.75,272,267.6,273.18,266.17,269.96,271.04,270.46,270.3,268.59,267.98,268.79,268.39,271.55,269.21,266.36,265.17,270.12,270.9,268.43,268.23,266.95,269.61,272.17,268.98,267.15,269.23,271.7,268.23,267.99
278.39,279.32,280.49,279.57,281.85,280.3,279.5,279.73,280.91,279.39,280.48,283.82,279.53,281.44,281.04,279.43,281.98,281.36,281.45,281.5,280.01,282.6,280.01,277.42,279.95,282.96,279.64,279.23,276.39,278.31,279.79,280.97,280.6,282.14,278,279.41,279.3,282.36,279.4,280,277.91,280.18,281.04,278.46,280.03,278.79,282.51,280.19,278.63,277.73,280.03,279.21,279.97,277.88,283.62,283.83,283.73,281.06,276.98,276.65,275.46,276.47,277.96,279.67,279.84,278.37,280.86,276.46,280.43,281.65,280.09,282.42,279.54,283.02,280.47,282.36,280.13,280.38,278.9,281.55,278.83,281.4,280.19,281.98,280.34,280.04,279.5,279.12,282.2,278.62,279.44,280.37,280.1,279.59,281.05,282.18,279.52,281.37,276.87,279.6
298.8,302.18,301.2,300.08,303.73,301.3,300.31,300.58,301.48,302.02,302.62,300.77,301.87,299.71,303.45,302.59,299.69,304.26,299.19,300.59,301.36,302.71,301.08,298.78,299.02,302.97,300.91,299.26,298.36,299.35,300.41,301.13,301.61,302.15,300.01,303.56,300.19,304.43,296.12,301.11,299.41,300.75,301.14,300.29,299.27,299.13,303.15,302.23,300.68,299.02,300.44,299.29,300.86,299.65,303.51,303.64,303.72,302.26,298.63,298.38,298.16,297.26,301.29,301.8,300.06,298.69,299.47,294.69,299.76,302.62,299.52,301.39,299.25,303.01,300.46,303.94,302.35,302.8,299.6,302.12,302.47,302.07,301.7,301.76,300.36,301.24,301.11,298.55,303.41,296.57,298.63,302.5,300.1,300.1,304.01,302.49,300.38,300.23,298.97,300.49
306.79,307.06,306.05,307.37,307.91,302.62,304.4,305.05,302.72,305.55,307.29,306,304.26,303.01,306.41,307.38,306.62,309.78,306.08,304.28,307.5,305.55,304.12,302.7,306.2,304.17,304.61,300.08,304.54,306.53,305.46,306.46,305.55,306.01,305.77,306.26,306.07,306.46,305.07,304.65,302.89,301.52,306.34,306.48,304.17,307.43,303.54,305.42,304.77,305.74,305.32,306.45,306.33,306.24,306.53,306.37,305.5,307.14,303.85,304.68,304.07,305.31,302.25,305.68,303.5,307.41,305.58,301.85,305.85,305.99,304.66,302.57,303.28,308.27,303.06,308.43,306.27,304.53,304.72,306.64,305.68,305.16,304.13,307.23,304.1,307.08,307.53,305.65,304.8,306.97,303.8,306.4,303.78,304.11,306.11,306.83,303.17,304.93,304.9,306.9
344.12,343.43,343.93,343.27,344.97,344.19,345.81,344.28,340.45,342.94,342.1,345.83,341.29,348.31,340.61,342.93,347.53,341.77,350.57,345.29,345.49,343.79,344.55,343.68,344.69,345.59,344.64,341.27,340.94,345.11,341.43,344.57,345.2,343.95,345.53,341.2,345.68,340.68,342.26,344.17,343.35,343.94,348.28,342.71,345.44,345.23,343.08,346.39,341.96,339.18,343.98,344.78,344.96,341.98,343.78,343.21,343.7,344.59,341.51,341.95,340.01,345.86,343.97,341.04,344.37,344.65,342.51,343.94,345.54,344.21,344.37,346.38,342.38,345.33,339.82,345.07,345.56,346.02,345.25,343.9,342.94,343.08,343.72,348.4,344.43,341.21,340.59,345.07,343.84,345.88,344.28,343.72,342.65,344.22,343.11,343.06,343.8,346.12,339.54,342.96
351.61,352.94,352.39,351.36,353.26,352.3,348.99,353.96,349.14,351.03,352.87,349.96,350.84,349.37,353.01,352.58,353.1,353.09,352.8,352.74,352.27,351.44,348.3,350.42,350.73,353.28,349.84,349.01,348.72,351.95,350.11,354.81,350.74,351.7,353.07,355.49,353.75,351.91,349.07,350.19,349.28,350.41,353.51,351.02,351.66,355.3,352.02,350.36,351.98,348.92,352.28,351.77,355.52,354.36,353.04,353.98,354.08,354.45,351.56,348.15,349.33,351.51,349.91,352.16,353.23,351.02,353.13,347.85,351.95,353.83,353.15,351.16,350.28,352.85,350.8,352.51,351.9,353.9,349.79,353.37,351.91,352.29,349.9,352.12,349.98,351.61,353.6,350.42,349.45,351.02,350.05,354.76,352.41,352.14,351.5,352.35,351.78,350.07,351.93,352.02
382.43,383.14,379.88,377.4,383.62,381.09,383.46,379.53,375.27,381.45,383.59,382.26,378.05,380.43,379.14,380.83,381.73,384.46,380.29,379.6,383.58,381.59,376.37,380.89,376.51,379.48,379.15,377.78,379.38,382.41,381.12,380.17,379.85,383.13,381.59,383.43,379.24,382.49,378.29,380.4,374.53,379.12,379.61,379.17,377.09,382.09,380.48,382.04,380.72,378.59,378.34,381.78,379.87,383.53,383.67,379.33,380.53,381.84,379.47,379.11,377.78,381.7,377.3,380.76,380.34,379.71,381.14,378.81,381.58,383.23,381.47,377.52,378.58,381.67,379.54,380.78,382.99,378.21,380.73,382.75,379.43,376.81,379.98,381.23,381.86,378.31,381.3,377.06,381.13,379.38,379.49,382.38,380.96,381.73,380.74,381.24,380.47,379.68,379.93,381.45
387.57,386,382.17,381.11,387.34,386.63,384.45,382.34,383.42,384.62,384.54,384.58,383.88,383.26,386.56,383.57,385.49,386.36,387.11,382.07,385.82,385.46,386.01,382.02,380.5,388.11,382.6,381.07,381.05,384.01,384.15,383.17,386.41,385.26,386.78,386.19,381.84,384.91,381.53,382.47,382.12,385.82,382.75,382.31,382.9,388.33,384.8,383.76,382.86,384.03,384.68,387.96,384.93,387.03,388.06,388.75,388.16,386.72,384.07,384.11,382.86,385.9,383.52,382.37,385,383.08,383.27,380.1,384.61,387.24,384.52,382.06,381.77,385.95,386.78,383.76,385.77,386.08,383.68,383.68,384.39,380.17,383.58,384.52,384.38,383.39,383.91,382.58,383.91,387.38,381.11,385.31,383.42,384.72,390.93,383.14,383.71,385.55,382.41,382.06
395.65,396.64,395.87,401.18,401.85,396.02,397.12,398.36,397.74,397.64,400.44,401.27,396.69,397.72,399.5,395.38,402.1,400.3,399.74,399.73,398.48,397.15,399.53,395.67,397.94,401.22,396.57,391.54,396.64,398.12,401.4,394.72,395.51,399.86,396.23,396.2,397.11,398.45,396.32,396.61,395.91,396.59,398.59,395.52,397.62,399.34,399.29,396.42,398.54,396.09,396.5,400.25,399.78,394.89,398.21,398.32,399.45,399.82,396.6,399.73,392.79,396.73,396.83,398.11,398.56,395.81,395.04,396.57,396.91,400.04,399.38,397.5,393.72,403.05,397.13,399.34,399.93,398.44,398.64,397.57,397.32,397.32,396.57,402.8,396.02,400.61,400.39,398.63,397.84,397.8,398.05,400.53,396.51,397.53,398.78,398.21,394.75,397.34,394.48,400.8
427.21,430.35,427.32,426.67,432.24,428.54,430.04,429.68,427.22,430.13,431.57,430.59,426.52,428.88,429.32,428.18,430.55,430.49,431,429.04,430.94,426.63,423.95,428.05,426.53,425.52,427.24,426.52,425.54,429.63,427.58,428.4,430.26,431.03,430.97,420.13,432.34,427.7,426.4,428.55,424.55,428.77,428.95,429.49,424.88,429.86,430.67,428.76,427.38,427.67,428.27,430.08,429.61,430.6,431.13,428.55,430.56,432.99,424.61,427.21,426.48,423.51,425.18,428.64,429.78,427.83,430.69,425.12,430.79,431.02,429.02,426.07,427.19,430.42,427.34,424.09,430.86,424.26,427.73,430.83,430.76,426.98,425.26,430.48,428.97,427.82,430.1,425.84,427.28,429.34,425.76,430.9,425.99,429.75,429.71,424.9,427.74,428.83,428.26,428.19
432.32,435.4,430.23,430.14,436.37,430.23,434.73,430.78,428.84,434.28,433.74,436.59,437.05,438.5,435.8,434.44,432.52,431.93,432.04,434.02,434.4,430.8,431,435.44,431.68,432.95,429.13,433.85,435.92,433.68,431.95,436.4,435.06,440,432.76,429.98,438.47,435.32,438.46,429.57,428.66,432.83,432.46,433.65,428.31,433.69,439.64,435.83,435.73,432.25,431.64,440.45,432.92,434,442.5,432.89,434.93,437.93,430.43,432.27,433.47,431.43,427.23,436.05,434.01,435.36,439.04,427.96,434.05,437.66,430.69,430.55,434.99,432.86,436.36,432.03,435.28,428.52,434.14,432.71,431.74,430.84,428.66,431.11,431.35,436.75,431.78,431.88,435.07,431.88,430.83,434.41,432.7,441.61,432.62,432.14,432.01,433.25,440.05,428.84
446.5,450.65,443.66,447.34,449.9,443.19,450.25,442.06,443.71,445.67,446.19,449.46,450.06,453.67,449.48,452.2,446.6,454.7,446.02,448.58,447.08,448.49,449.64,449.86,443.13,446.74,444.53,445.3,448.06,448.37,444.73,446.57,450.69,451.6,446.91,446.59,451.18,448.11,446.74,441.68,446.82,448.4,446.26,445.74,439.96,443.44,452.63,453.26,449.55,448.19,443.99,450.7,444.22,448.2,452.14,446.11,450.32,452.56,439.89,447.16,445.99,442.65,446.26,445.26,446.35,451.82,448.2,445.45,448.33,450.32,451.55,443.89,446.4,441.08,446.54,441.26,449.86,440.68,447.6,444.79,445.76,446.87,441.62,447.62,443.01,445.99,445.38,443.45,447.55,442.76,446.31,449.12,441.35,451.32,446.16,441.99,446.07,445.74,452.48,446.34
454.85,456.65,455.03,455.27,466.35,462.46,466.85,451.08,456.94,454.45,460.65,453.62,458.07,461.86,451.63,458.98,461.68,457.56,459.45,457.81,459.77,449.76,452.75,465.07,458.84,457.56,453.09,455.83,457.65,461.41,454.04,446.67,466.75,454.96,460.6,454.88,463.46,456,453.19,454.63,449.75,457.71,462.89,456.28,459.51,459.62,460.58,462.63,455.17,459.15,462.49,461.2,459.5,461.47,460.85,455.97,455.5,457.26,460.17,453.68,451.83,454.26,461.65,447.39,457.93,457.36,455.39,450.65,459.16,457.16,456.79,459.42,452.98,461.86,454.5,458.89,465.2,459.81,455.18,453.61,460.74,460.07,453.77,462.55,453.38,457.74,455.05,455.61,453.88,458.08,464.32,455.32,449.37,455.09,457.46,453.19,454.02,453.59,452.77,453.76
463.17,470.61,463.05,463.96,469.68,464.76,468.56,464.67,465.17,464.93,464.58,467.38,465.91,471.05,466.63,470.61,467.79,463.67,468.26,464.78,469,464.45,465.05,468.78,467.86,463.44,462.12,465.38,461.37,465.61,465.25,465.72,467.8,464,469.34,460.98,469.55,464.95,459.59,461.77,466.54,465.31,471.24,464.66,462.36,466.59,469.92,468.04,465.04,466.47,467.3,470,464.69,465.45,466.05,466.61,469.39,468.1,462.93,468.57,465.64,461.3,467.44,463.46,462.38,471.78,464.62,465.95,465.96,467.36,463.61,468.66,465.42,466.63,465.55,462.54,474.65,464.15,469.83,460.41,465.55,467.11,464.78,468.25,469.46,465.66,464.27,465.43,464.35,464.62,465.42,466.2,465.51,465.78,463.49,464.05,466.92,463.47,464.68,464.17
474.13,474.86,471.71,467.41,476.89,475.24,475.44,468.83,469.31,473.2,475.88,474.03,471.22,477.67,470.08,475.54,474.66,476.75,474.48,472.36,475.65,472.76,469.63,474.87,471.8,473.03,470.67,472.06,467.69,472.89,470.36,471.54,477.83,474.45,473.26,472.93,476.38,472.73,471.1,470.77,467.62,475.67,476.71,470.81,469.74,476.23,476.48,476.17,472.43,473.86,475.45,475.75,470.59,473.07,474.35,475.35,474.49,475.34,470.77,471.95,468.42,472.21,470.76,469.39,474.04,473.97,475.2,468.96,473.53,473.19,473.91,471.66,468.52,476.28,475.12,474.69,475.38,470.47,471.54,470.54,473.44,471.85,470.87,475.86,473.09,471.29,471.7,469.99,472.52,472.95,472.88,474.33,469.94,474.48,473.04,470.13,470.65,471.58,471.65,472.53
476.53,481.47,474.63,472.13,481.11,477.64,477.67,473.09,472.73,477.59,480.3,476.96,473.37,479.25,476.66,478.28,478.05,478.77,477.73,478.56,478.76,477.38,472.99,477.04,473.64,482.79,475.82,476.9,475.05,477.12,475.39,477.68,480.01,480.16,475.79,478.4,478.29,477.24,476.9,475.39,470.28,477.37,478.11,476.01,474.41,479.99,482.26,480.91,476.71,474.68,477.29,481.2,481.05,482.84,482.21,475.51,475.77,483.1,475.82,475.03,476.81,477.75,476.99,476.68,478.94,476.2,481.37,476.43,481.17,478.42,482.56,474.57,474.9,479.83,476.3,477.01,483.24,477.33,478.14,476.52,478.05,476.25,477.35,477.52,476.86,476,475.95,474.23,475.52,476.21,473.83,477.76,472.47,481.93,477.98,477.91,476.41,478.65,479.6,474.67
477.94,484.27,477.7,475.13,482.4,479.97,487.85,476.46,478.26,478.69,481.38,481.13,478.71,482.86,478.13,481.14,482.15,484.99,483.75,481.07,481.68,481.61,478.97,478.19,478.94,485.75,477.32,480.26,476.71,482.21,478.24,480.01,484.2,481.57,483.25,479.02,481.1,479.93,480.3,481.61,475.23,479.89,478.45,479.1,475.91,486.7,483.11,484.3,479.38,478.7,479.8,482.06,482.93,483.74,487.19,485.36,483.43,483.7,481.23,475.18,481.01,484.17,480.75,480.86,481.15,481.82,485.11,479.6,484.14,482.54,482.84,476.77,479.53,485.56,480.39,481.54,486.58,480,479.45,478.17,483.41,478.16,479.63,479.09,479.96,479.53,478.33,483.37,478.65,481.47,476.58,480.85,482.33,484.15,481.17,478.79,478.31,482.94,482.22,480.04
489.18,488.69,481.73,482.46,490.69,491.89,494.49,485.39,485.28,481.93,489.12,489.27,486.03,491.16,486.38,488.03,487.4,487.2,489.91,484.99,487.02,483.72,486.42,487.44,485.04,487.58,485.47,487.33,483.22,486.33,487.62,483.75,487.08,488.26,488.52,487.86,489.49,485.58,483.54,485.32,480.42,490.11,487.9,484.43,484.7,490.45,486.65,485.53,484.57,486.21,487.98,491.06,487.37,485.97,490.53,489,488.57,487.91,484.54,486.71,483.73,488.47,491.11,486.79,488.11,482.04,486.56,482.08,488.53,487.47,486.45,483.96,484.4,489.37,488.64,484.18,489.11,488.06,489.95,484.4,484.65,486.03,486.41,486.26,487.8,481.76,482.06,487.37,484.74,486.63,484.53,486.61,484.13,487.67,491.11,486.71,482.97,486.7,485.7,481.58
502.34,507.38,500.27,502.56,508.31,503.67,512.87,504,500.3,503.03,506.57,507.26,507.97,509.3,503.35,504.22,505.66,506.41,509.73,506.22,505.52,502.24,503.79,508.67,504.86,503.39,500.41,502.31,503.92,505.74,501.87,503.33,507.05,506.87,504.49,503.01,504.67,502.55,505.09,500.97,501.44,502.89,508.96,503.85,503.92,509.45,505.46,504.77,506.11,500.84,504.46,509.24,504.81,504.04,509.51,503.67,506.9,506.45,501.63,501.91,501.62,501.55,506.26,504.1,507.32,505.59,506.29,501.42,506.25,507.52,503.85,506,506.2,510.3,503.15,500.57,508.6,503.04,507.68,502.43,502.03,504.91,502,506.41,504.24,504.44,502.63,502.52,501.5,507.78,504.33,506.72,501.48,506.28,503.1,506.14,500.67,502.89,505.84,500.34
517.14,516.63,514.31,520.41,517.15,515.27,514.52,512.52,517.67,507.35,513.75,520.23,515.61,519.41,519.81,512.33,518.23,515.56,513.21,523.15,517.61,515.4,525.39,515.71,511.84,524.94,515.78,519.9,518.72,511.66,520.29,516.01,510.5,517.26,523.23,511.38,511.37,518.4,522.3,517.55,512.98,517.43,518.21,510.74,520.37,518.06,518.27,512.65,517.08,516.79,507.36,522.81,518.42,512.41,516.34,523.63,526.47,516.37,511.21,525.44,513.32,517.43,511.95,510.63,517.9,511.86,514.88,510.54,517.33,524.34,521.89,514.77,509.02,521.44,521.53,521.58,515.36,512.13,521.37,505.37,510.9,510.48,515.42,515.4,515.52,512.1,515.91,518.23,514.92,519.35,517.38,516.43,522.23,525.27,524.12,515.47,518.21,520.01,518.87,515.17
530.61,537.51,532.3,541.39,536.18,534.07,548.88,548.7,546.01,547.49,544.54,553.17,538.75,538.22,542.09,534.66,542.85,537.73,543.1,543.13,539.33,523.24,534.17,540.15,541.27,537.18,528.22,539.33,539.88,540.22,539.59,518.3,531.23,529.11,538.93,533.34,538.58,533.28,538.82,537.83,534.18,538.11,545.97,535.2,542.56,543.59,536.35,535.45,539.49,540.81,536.86,538.95,538.18,533.9,532.36,544.64,540.91,547.82,537.67,541.43,541.31,541.48,525.34,544.46,543.6,538.29,541.01,538.28,540.76,543.67,533.58,542.48,534.95,532.18,542.87,533.71,548.44,541.45,543.79,544.74,536.29,524.25,542.58,533.4,548.31,544.25,543.58,532.99,523.95,544.14,523.22,535.29,525.81,538.95,541.14,544.45,535.27,542.69,529.63,539.87
539.27,552.73,553.35,557.5,551.87,551.77,556.79,554.77,554.45,552.97,553.92,557.15,540.44,549.49,554.03,552.41,551.82,554.19,551.81,549.24,557.62,548.87,550.86,551.33,552.71,543.08,549.31,552.6,548.92,550.65,550.14,543.37,551.38,546,547.23,547.51,552.16,550.16,545.86,548.22,541.85,552.31,551.92,554.73,550.47,555.41,550.1,544.78,545.78,549.87,546.22,552.9,555.93,544.67,550.07,551.38,550.43,550.67,543.88,549.56,546.58,552.38,545.4,551.98,548.2,544.67,549.66,549.64,554.83,552.1,546.65,555.03,554.78,548.83,554.43,548.86,554.64,551.79,554.88,547.31,544.19,551.9,550.79,550.91,554.86,555.98,553.93,548.92,551.22,552.04,547.25,559.07,553.71,552.11,545.82,553.56,549.93,552.7,549.3,546.28
554.32,557.79,557.52,557.83,555.91,558.72,561.53,557.25,556.36,565.43,561.07,558.53,558.06,553.87,559.99,559.73,565.79,560.55,555.94,557.04,560.43,551.98,562.22,558.7,559.37,552.81,552.98,559.49,553.41,555.46,560.58,550.29,558.48,547.93,561.34,555.51,556.6,560.18,547.57,557.11,554.1,559.82,557.31,558.64,553.66,559.13,559.55,556.36,555.54,558.81,555.83,554.6,559.11,556.06,554.18,559.11,558.97,562.49,557.17,558.76,557.46,558.44,551.11,553.58,550.93,555.47,560.34,554.04,557,557.55,559.21,561.4,558.63,555.11,559.88,558.4,560.82,560.06,555.36,548.94,558.14,558.02,562.69,556.77,561.47,558.26,556.32,553.91,553.93,560.6,553.71,562.99,554.95,559.29,555.43,560.51,557.13,559.26,553.08,558.12
556.64,560.68,563.17,561.47,560.19,560.49,565.3,565.32,562.28,566.15,567.22,561.89,562.53,558.86,560.61,564.88,566.86,561.98,561.63,560.09,564.53,558.53,566.6,561.27,560.97,565.27,556.54,561.17,554.76,558.52,562.51,559.94,563.67,557.8,564.26,557.24,562.39,563.28,558.18,564.78,561.6,567.34,566.04,563.39,560.4,562.4,561.7,560.88,563.53,562.69,558.76,564.13,563.73,564,556.92,561.7,562.95,563.76,560.44,561.13,560.75,564.61,554.25,557.1,560.77,560.26,563.06,558.99,561.52,561.31,560.68,564.41,561.93,558.6,565.09,563.99,565.14,561.67,560.97,562.42,561.18,560.22,563.98,563.99,564.23,563.96,565.45,561.38,559.27,563.21,554.89,568.48,560.02,561.67,561.29,565.02,560,563.54,558.95,563.75
561.68,567.05,567.96,565.23,568.14,563.49,566.66,570.74,567.87,569.59,568.98,563.89,563.29,562.27,562.38,570.26,572.72,564.49,567.84,562.95,574.7,569.82,577.15,568.96,571.06,576.03,558.32,571.34,562.52,561.59,565.05,564.29,566.55,559.07,571.04,558.76,569.11,567.76,563.53,568.66,565.72,569.83,566.36,565.79,563.6,567.28,566.6,566.47,569.42,572.08,567.73,574.03,566,564.26,560.28,565.71,565.55,569.13,569.86,571.67,573.53,568.61,563.17,565.45,563.54,566.55,569.01,567.35,568.01,563.98,565.92,572.13,562.29,566.36,567.27,565.8,570.58,563.38,572.92,563.75,567.84,570.5,573.44,565.5,566.38,566.02,566.95,568.7,562.06,568.58,559.35,570.18,563.81,563.68,562.17,571.37,569.96,564.26,566.06,568.46
564.83,569.52,570.6,575.71,570.9,567.7,575.08,574.64,581.05,574.32,573.68,574.23,566.09,569.04,568.87,573.29,576.1,572.17,574.79,566.83,576.17,572.56,578.35,572.85,575.48,577.06,567.74,576.24,564.85,568.9,574.04,567.3,573.15,572.33,574.83,567.43,576.12,571.7,568.44,575.21,574.57,574.26,577.71,572.16,565.6,570.78,570.29,569.43,573.38,575.12,577.42,579.1,572.23,570.02,565.97,576.26,576.82,578.87,574.66,577.83,575.68,575.91,566.9,573.22,566.83,573.75,577.47,575.84,572.94,568.22,570.4,575.73,570.99,569.07,577.25,574.02,585.02,568.91,577.94,570.21,569.85,575.66,575.63,576.15,574.62,572.8,570.46,570.82,568.84,570.72,567.88,577.08,570.92,572.5,565.23,575.83,570.34,572.46,569.47,574.46
570.89,576.2,578.44,581.2,579.14,571.03,582.16,580.98,582.23,581.97,584.46,584.54,573.86,576.27,579.77,573.97,580.1,583.08,582.44,579.58,579.04,582.55,584.11,575.85,578.39,582.79,572.24,577.16,582.15,575.84,578.83,570.5,575.73,581.78,583.07,577.32,577.69,572.53,572.31,579.54,578.57,575.81,583.27,577.78,580.37,581.57,583.65,579.42,574.85,576.89,578.9,583.19,577.32,573.45,572.86,584.47,577.87,586.33,581.07,581.47,580.02,578.85,575.79,580.44,581.12,579.65,580.82,576.65,578.86,578.23,571.51,579.14,573.46,571.8,578.88,583.55,586.71,580.34,580.52,581.12,578.32,579.9,579.03,578.6,581.39,580.53,579.48,575.73,574.28,581.6,573.22,580.7,571.85,576.82,575.01,584.76,576.83,581.05,572.96,578.92
576.13,582.38,580.55,585.57,582.17,580.21,587.29,591.62,595,590.18,590.38,593.89,584.75,580.36,586,582.62,584.95,584.1,586.72,589.18,586.69,595.49,586.72,579.09,580.61,592.86,576.78,589.53,586.15,582.28,582.04,577.58,578.73,585.26,587.48,584.33,594.47,584.29,585.6,582.09,589.61,585.68,583.72,581.6,584.25,585.77,590.62,593.88,584.78,580.63,582.53,584.62,581.62,580.79,584.18,593.17,584.98,587,591.1,586.78,584.41,591.09,578.23,585.84,583.09,596.8,586.3,582.26,589.87,586.03,579.7,582.52,581.83,580.79,582.36,585.33,591.11,582.75,584.2,586.95,587.84,583.44,582.35,581.09,588.35,586.4,583.63,585.64,578.51,588.6,576.16,585.61,580.7,589.81,585.57,600.7,582.73,595.68,577.4,582.8
598.24,606.85,606.34,607.29,605.64,601.28,607.52,607.51,605.84,606.65,603.45,610.68,606.23,605.1,604.81,607.54,607.37,604.23,606.08,605.05,609,602.02,610.69,604.28,607.8,604.49,603.08,602.53,596.8,603.57,604.17,605.4,604,599.2,604.49,601.18,598.14,604.42,600.96,604.66,603.99,606.47,608.34,598.52,606.17,609.87,597.54,595.9,603.69,607.58,604.36,609.05,606.56,600.31,601.62,613.32,609.72,610.69,605.46,604.64,607.53,607.84,608.54,599.19,602.34,599.66,606.26,598.79,606.98,609.4,605.73,604.98,604.92,605.38,607.25,603.23,608.06,607.12,604.46,601.39,600.44,602.5,608.39,603.99,611.61,608.2,607.42,602.05,597.08,606.49,601.31,608.57,610.1,605.05,605.73,608.12,608.7,606.6,600.27,599.21
601.18,611.18,613.06,613.13,610.26,605.86,613.08,615.49,612.75,611.92,610.33,614.79,609.49,608.82,606.91,613.29,613.93,607.73,615.14,608.07,616.84,618.52,619.18,613.66,616.18,606.07,609.28,612.8,603.87,605.28,611.45,611.45,611.68,601.66,615.73,605.29,612.99,608.48,608.61,607.74,608.12,614.62,618.76,614.46,610.13,613.7,608.55,606.52,610.99,608.77,610.88,613.11,614.26,605.35,609.91,615.35,612.53,611.76,608.89,609.48,613.19,614.05,609.77,605.11,608.48,610.51,609.59,611.21,615.36,615.33,606.95,616.52,607.96,610.89,614.84,607.45,614.15,611.13,613.68,604.73,606.26,612.83,614.56,614.02,613.78,610.81,612.67,612.62,610.72,611.36,608.8,611.23,612.61,615.88,612.3,610.09,610.15,616.49,609.28,605.69
613.3,617.89,618.1,619.83,618.39,619.38,623.05,617.22,616.17,622.63,622.31,624.39,615.72,612.78,616.8,620.95,618.88,620.35,618.89,617.18,620.77,621.86,622.61,614.57,620.39,611.14,617.46,615.33,612.03,620.87,616.76,614.9,620.59,618.55,621.2,617.84,617.34,619.19,616.09,618.38,614.47,622.21,620.41,618.88,613.83,619.03,613.97,619.45,616.73,615.98,615.41,615.72,619.66,617.24,618.07,617.74,614.67,621.41,614.38,615.87,615.9,617.85,613.33,613.94,620.22,616.65,615.94,616.74,618.95,623.01,614.72,619.43,620.5,613.5,616.07,621.18,622.85,618.99,618.25,621.59,617.85,618.95,621.47,620.36,620.19,618.94,618.76,613.9,614.02,615.71,611.99,622.1,622.57,625.77,619.95,616.04,616.49,616.89,614.86,615.52
616.07,622.41,619.7,621.29,619.12,623.21,623.98,623.86,620.49,628.68,627.83,629.06,621.81,621.03,624.05,624.82,622.79,625.3,619.21,620.86,628.92,624.87,629.57,620.94,621.9,619.53,618.9,620.68,617.49,624.63,623.26,620.84,630.42,625.04,624.73,624.49,623.32,622.43,624.04,620.6,622.92,624.26,625.56,627.69,619.28,620.61,618.2,622.13,621.55,617.84,620.62,625.75,629.25,622.45,623.29,623.14,620.66,623.06,619.66,622.36,624.17,621.93,623.15,624.8,626.88,620.2,622.32,618.33,620.16,627.08,625.07,623.26,623.07,619.08,622.92,625.1,624.99,625.97,623.25,629.67,621.54,619.9,625.96,623.91,624.55,621.54,628.08,618.8,623.8,621.48,618.24,626.31,624.54,627.03,625.85,627.29,619.08,619.82,619.8,624.4
620.92,626.84,629.11,628.46,630.18,627.29,630.75,630.55,635.25,635.31,634.54,638.24,629.53,629.89,628.65,630.03,631.22,629.05,630.94,631.5,632.62,632.51,634.07,625.82,628.45,634.97,628.2,631.34,624.69,630.11,630.28,630.88,634.62,629.83,631.8,627.42,635.33,629.89,629.44,631.08,627.78,631.25,631.33,634.36,629.24,632.23,630.04,634.09,630.39,625.31,628.41,629.95,630.35,627.52,629.1,637.63,633.53,633.45,630.67,627.01,624.85,634.61,625.97,628.24,632.15,625.31,631.83,629.36,634.21,631.18,626.23,630.24,626.65,627.68,626.49,633.17,634.96,632.41,633.08,633.38,632.01,634.05,630.28,630.83,631.12,628.18,629.61,632.18,630.68,631.72,625.46,632.62,628.88,631.89,626.09,633.46,627.62,636.86,625.74,632.99
632.76,635.95,637.47,635.53,637.42,631.12,637.3,640.29,644.47,638.83,639.36,643.86,636.52,635.45,633.36,639.24,643.61,634.88,643.97,639.74,642.87,645.91,645.57,638.01,642.93,642.86,634.85,639.03,626.47,632.58,633.07,641.85,638.45,637.08,640.49,629.82,639.22,632.99,632.54,636.07,641.97,639.29,644.89,638.47,635.41,639.98,638.23,642.73,638.35,634.44,639.33,644.22,636.97,633.84,633.29,644.26,638.5,639.57,637.4,643.17,639.38,641.67,639.77,637.71,635.05,648.12,638.51,638.31,641.96,637.96,636.24,643.77,634.56,640.02,635.53,639.18,648.49,637.48,643.28,638.22,639.67,642.8,640.83,641,639.32,634.41,632.97,637.01,635.88,635.22,636.71,639.31,642.88,636.43,634.08,643.32,637.32,640.96,633.75,638.73
648.61,653.27,659.11,656.21,657.21,656.68,656.82,652.21,652.04,658.38,664.49,660.38,654.2,653.74,652.82,655.87,657.45,662.64,653.56,653.59,657.47,653.57,653.89,654.79,654.99,645.86,650.89,647.82,653.2,654.56,651.47,656.06,655.36,654.52,655.78,658.12,651.35,655.16,655.35,652.41,647.31,651.86,654.71,652.77,650.32,654.48,647.79,646.42,652.57,655.22,644.35,658.25,653.89,654.93,656.8,657.93,647.39,657.38,648.29,655.23,647.27,654.7,652.45,657.99,657.23,655.66,655.51,645.19,649.25,659.36,655.22,647.52,654.45,650.16,649.69,657.9,657.53,653.28,654.4,655.24,653.43,652.6,657.05,655.97,655.96,652.35,658.25,648.35,654.26,653.78,649.23,657.97,655.74,657.71,656.67,656.5,651.27,653.38,651.25,653.38
657.88,659.83,662.63,660.69,663.29,659.94,659.75,654.2,659.64,663.76,667.03,664.71,664.39,658.13,663.96,665.13,664.56,665.28,654.6,662.29,663.99,658.22,663.08,659,660.77,656.31,656.19,654.19,655.72,660.08,664.56,657.53,665.4,659.55,663.14,662.65,657.41,662.11,662.81,654.77,651,656.23,659.02,663.09,658.07,662.16,656.41,656.32,657.91,657.3,654.02,663.12,663.79,659.71,665.49,665.2,664.35,662.82,657.34,658.65,654.58,655.54,660.95,663.24,661.02,658.41,657.62,650.64,654.45,664.03,660.01,658.76,658.86,659.58,660.67,665.78,661.96,658.3,661.69,664.03,657.46,655.07,663.98,663.34,659.1,653.7,662.98,660.98,659.75,660.26,656.03,663.13,661.21,665.38,660.44,660.76,657.77,657.51,655.53,660.12
661.32,663.87,664.84,667.88,665.63,666.76,665.52,667.01,663.44,667.28,669.43,667.68,667.64,664.31,669.63,668.8,669.46,670.12,667.24,666.8,668.51,666.27,672.81,665.31,665.94,668.71,660.21,663.5,662.84,664.96,665.22,665.68,665.83,666.6,670.77,668.21,662.38,671.29,666.28,667.69,660.29,666.47,665.37,672.13,664.93,666.07,664.12,664.45,668.09,664.95,662.75,669.06,673.98,664.15,669.79,670.1,672.55,669.95,663.49,666.06,669.81,663.78,663.58,664.3,666.87,663.67,666.35,658.49,662.6,669.02,666.4,665.63,664.02,666.29,668.72,672.22,667.45,670.33,664.64,672.03,663.44,663.08,666.75,666.92,667.14,663.77,668.09,665.52,662.75,668.11,662.72,670.8,672.11,673.19,671.24,667.52,667.86,665.83,663.39,669.67
677.59,678.77,674.89,684.88,683.73,684.38,684.52,688.67,678.23,686.81,690.1,686.17,691.28,687.22,678.88,686.85,686.38,680.18,685.22,685.4,688.52,683.54,689.76,684.49,686.46,687.13,687.1,684.86,670.24,681.24,688.28,690.44,687.74,688.5,689.47,684.95,691.94,681.3,688.24,691.53,666.87,683.79,674.67,694.59,683,685.46,680.59,671.35,683.17,683.4,680.63,688.34,697.91,688.37,688.48,695.45,692.46,693.18,688.31,679.14,679.33,675.86,688.69,698.46,684.29,681.6,688.03,682.76,681.88,695.46,682.73,683.01,690.51,686.78,678.77,690.44,683.79,680.36,684.22,687.4,684.48,691.08,684.05,682.41,689.89,673.77,679.84,689.98,681.35,685.74,675.74,675.21,691.84,688.61,685.28,677.61,683.95,685.14,685,673.96
693.36,694.76,691.75,694.35,697.04,690.58,693.07,693.04,692.93,699.39,706.9,699.7,694.95,694.66,693.93,699.52,695.73,701.83,693.85,698.11,698.54,698.92,693.23,692.59,694.56,699.16,687.53,689.76,695.22,696.83,697.01,698.75,697.42,694.23,693.44,702.38,701.32,700.35,691.39,694.77,688.13,688.99,690.16,695.05,688.4,697.49,690.92,688.56,698.02,690.72,684.63,701.21,709.84,696.54,700.63,699.14,695.63,708.08,696.85,685.18,688.35,690.35,692.18,701.69,693.92,697.36,693.7,686.9,690.85,702.27,698.11,686.5,692.26,694.41,697.07,702.85,691.57,691.62,692.5,701.81,694.05,697,695.76,698.49,697.21,694.3,701.45,693.55,695.45,691.86,693.33,695.2,697.8,699.66,691.22,692.33,696.07,695.81,691.68,696.31
705.5,708.63,713.96,714.08,714.64,713.63,711.48,710.06,709.73,714.59,720.41,716.89,714.72,711.94,711.39,713.32,713.85,716.9,711.62,709.84,712.78,709.93,718.24,708.71,712.52,715.78,705.54,707.29,706.39,707.77,711.86,710.39,711.68,711.94,711.46,709.21,714.41,715.57,711.51,712.68,702.33,707.99,708.03,709.3,712.65,708.5,709.08,702.82,709.98,710.42,702.62,711.68,715.28,710.65,715.09,715.75,717.12,714.5,703.27,709.26,708.76,703.25,707.68,713.79,711.78,707.38,709.93,701.01,706.63,713.26,713.25,711.06,709.93,714.02,708.98,719.28,713.37,712.19,711.53,719.11,705.23,709.45,712.11,713.73,708.16,708.91,716.32,711.31,711.44,711.89,707.35,716.06,715.34,714.22,711.99,717.04,709.4,714.68,706.04,713.67
723.89,732.07,733.6,730.83,740.54,736.72,733.06,735.28,727,737.25,735.51,731.73,740.43,735.45,732.1,740.34,735.58,736.57,738.14,732.04,734.61,730.37,736.39,731.2,730.13,736.93,730.08,722.64,717.64,730.67,740.22,734.81,738.11,731.74,734.89,738.23,736.29,730.92,736.77,733.91,725.14,728.42,722.07,744.81,732.07,732.89,724.25,724.45,731.7,729.83,731.37,733.97,739.6,735.8,737.26,738.33,738.11,739.66,733.19,729.76,723.94,722.25,734.41,742.37,731.19,728.24,732.43,725.85,722.51,742.44,727.87,728.68,733.77,740.38,724.2,736.23,733.17,730.06,732.54,739.97,729.75,733.04,732.27,730.64,734.84,723.76,732.06,735.6,729.72,739.2,718.8,737.83,739.23,735.6,738.73,729.12,729.8,737.78,731.6,733
751.73,758.59,756.88,755.32,763.15,760.57,755.03,760.79,750.91,758.56,762.76,757.75,760.95,756.65,756.97,764.71,757.9,762.57,768.44,757.39,757.65,757.16,758.68,753.66,755.05,770.45,753.12,749.27,747.85,754.56,760.78,764.02,759.84,755.51,758.32,763.91,768.42,756.8,756.97,761.44,751.88,750.93,749.93,762.67,754.61,757.35,749.53,749.01,757.65,754.98,752.6,758.8,771.08,761.96,761.41,761.28,763.03,765.39,759.72,752.62,749.23,748.42,756.56,767.17,754.87,753.22,759.07,750.56,750.22,768.36,755.06,750.47,756.8,763.87,752.84,761.2,756.19,754.31,754.69,764.35,757.35,760.21,754.51,757.55,759.64,750.59,757.86,764.02,755.91,757.31,747.59,760.28,760.83,759.45,762.08,755.58,755.92,761.89,758.89,758.38
2605.6,2599.3,2608.5,2605.7,2604,2608,2641.7,2611.1,2618.7,2612.8,2621.4,2607.3,2597.4,2608.6,2596.6,2646.3,2605.5,2607.4,2629.6,2641.1,2657.6,2619.6,2617.3,2637.9,2624.5,2614.6,2634.6,2616.9,2614.6,2597.9,2635.6,2611.1,2618.2,2635.2,2604.9,2610,2601.6,2603.5,2622.3,2611.4,2602.7,2601.6,2634.8,2629.2,2636.9,2617.4,2647.5,2637.4,2613.5,2620.2,2614.6,2632.6,2617.7,2601.1,2627.3,2635.3,2610.4,2637.6,2614.9,2596.8,2608.4,2597.9,2607.2,2622.7,2626.6,2620.5,2603.9,2606.4,2619.1,2606,2600.2,2640.3,2606.2,2614.7,2614.2,2639.6,2603.9,2596.5,2611.5,2607.1,2634.1,2608.5,2613.9,2612.3,2601.5,2599.7,2631.1,2595.5,2615.2,2623.6,2615.4,2644.4,2623.5,2634.7,2614.6,2597.4,2620.1,2612,2634.2,2621.1
2618.3,2647.3,2644,2620,2635.9,2629.3,2653.7,2654.2,2648,2621.2,2663.5,2619.1,2652.8,2620.9,2617.1,2662,2649.7,2636.5,2665.6,2669.7,2664.2,2623.1,2642.7,2653.7,2637.4,2615.1,2654,2646.5,2645.9,2661.4,2645.7,2618.4,2619,2636.5,2622,2613.9,2641.2,2621.6,2661.3,2667,2626.2,2630.5,2643.3,2651.7,2653.6,2654.7,2660.9,2658.5,2649.7,2642.4,2649.9,2636.8,2631.9,2660.8,2650.8,2647.9,2631.1,2640.1,2632.8,2629.1,2613,2650.5,2639.2,2645.9,2651.4,2636.2,2645.7,2664.2,2653,2628.9,2656,2653.4,2606.5,2617.8,2640.2,2664.8,2625.1,2640.8,2614.5,2607.6,2639.9,2652.8,2645.8,2641.8,2611.4,2614.4,2647.9,2641.7,2665,2625,2653.2,2667.5,2662.4,2636.8,2615.3,2617.2,2653.9,2635.2,2636.1,2631.9
2779.7,2801.8,2752.1,2805.7,2749.5,2769.4,2786.1,2759.3,2757.1,2750.7,2759.5,2784.3,2791.8,2789.4,2791.2,2788.6,2774.2,2775.8,2805.9,2802.9,2782.3,2745.4,2769.3,2774.6,2774.9,2770.1,2800.1,2799.6,2805.5,2745.7,2780.2,2745.8,2767.4,2774,2749.1,2775.1,2743.1,2758,2779.1,2801.6,2769.9,2747.9,2784.7,2800.1,2764.8,2764.7,2779.3,2804.1,2762.3,2805.2,2758.6,2798.1,2802.4,2794.9,2755.9,2756.9,2779.8,2755.5,2744.4,2780.1,2782.5,2768.2,2763.7,2798.5,2743.1,2746.3,2769.1,2792,2747.1,2768.9,2749.6,2787,2789.6,2755.8,2759,2745.5,2743,2768.7,2759.2,2767.4,2790.8,2749.8,2787.1,2796.7,2787.4,2760.9,2799.6,2764.1,2802.9,2748,2802.2,2762.9,2779.9,2794,2787.7,2785.6,2752.5,2784.1,2804.6,2774.7
3828.9,3815.1,3816.7,3794.4,3819.2,3850.4,3817.9,3797.6,3806,3838.5,3843.6,3800.6,3790.1,3790,3764.6,3824.8,3815.9,3783,3836.9,3761.2,3813.4,3821.6,3790.8,3790.8,3838.8,3788.8,3848,3803.4,3760.5,3767.7,3844.1,3836.7,3773.6,3778.2,3837.2,3843.7,3839.4,3783.9,3832.8,3764.1,3838.4,3794.9,3821,3828,3770.3,3853.9,3769.1,3837.8,3847.2,3836,3773.2,3775.1,3818.1,3827.5,3800.5,3837.5,3812.7,3767.2,3764.2,3784.9,3780.1,3845,3837.6,3774.2,3829.2,3775.2,3776.6,3826.4,3820.1,3763.2,3784.9,3830.4,3839.9,3794.9,3809.4,3761.8,3804.8,3776.5,3793.9,3831.3,3849.5,3791.7,3783.8,3832.2,3822.5,3839.1,3812.2,3836.7,3818.6,3804.7,3796.4,3793.8,3766.5,3841.4,3763.4,3805.3,3835.4,3821.7,3800.7,3820.2
