15.266,15.703,15.736,15.567,15.474,15.561,15.532,15.329,15.553,15.505,15.377,15.71,15.582,15.515,15.31,15.592,15.144,15.43,15.3,15.739,15.479,15.461,15.095,15.47,15.533,15.526,15.491,15.43,15.367,15.398,15.325,15.581,15.543,15.323,15.223,15.793,15.66,15.273,15.589,15.847,15.501,15.686,15.42,15.42,15.495,15.785,15.707,15.561,15.281,15.496,15.298,15.4,15.539,15.819,15.637,15.551,15.169,15.398,15.346,15.553,15.457,15.395,15.687,15.351,15.384,15.474,15.43,15.293,15.636,15.451,15.717,15.525,15.714,15.526,15.725,15.354,15.406,15.444,15.704,15.489,15.783,15.5,15.368,15.599,15.48,15.776,15.791,15.537,15.694,15.585,15.282,15.505,15.486,15.686,15.482,15.469,15.389,15.411,15.394,15.547
18.084,18.557,18.568,18.757,18.637,18.577,18.494,18.547,18.503,18.456,18.821,18.63,18.53,18.696,18.354,18.356,18.5,18.317,18.437,18.522,18.791,18.565,18.535,18.397,18.415,18.598,18.434,18.347,18.24,18.687,18.547,18.608,18.658,18.586,18.259,18.555,18.67,18.483,18.385,18.706,18.348,18.634,18.396,18.648,18.834,18.657,18.635,18.837,18.573,18.5,18.391,18.812,18.789,18.277,18.566,18.545,18.733,18.446,18.436,18.726,18.522,18.47,18.524,18.415,18.574,18.724,18.608,18.627,18.632,18.466,18.613,18.692,18.393,18.644,18.467,18.616,18.332,18.661,18.597,18.495,18.545,18.83,18.419,18.315,18.484,18.731,18.38,18.52,18.94,18.595,18.477,18.733,18.505,18.622,18.546,18.439,18.775,18.786,18.768,18.41
38.924,38.605,38.93,38.511,38.592,38.784,38.544,38.671,38.662,38.669,38.527,38.96,38.612,38.884,38.765,38.566,38.457,38.729,38.595,38.39,39.082,38.844,38.532,38.368,38.347,38.817,38.266,38.497,38.542,38.941,38.766,38.903,39.138,38.615,38.148,38.857,38.403,38.429,39.009,38.784,38.919,38.579,38.229,38.735,38.604,38.608,38.727,38.567,38.908,39.078,38.349,38.293,38.499,38.862,38.728,38.843,38.937,38.582,38.533,38.488,38.273,38.162,38.384,38.593,38.503,38.39,38.64,38.618,38.803,38.703,38.32,38.565,38.504,38.406,38.664,38.484,38.207,38.183,38.279,38.617,38.51,38.238,38.878,38.892,38.367,38.725,39.064,38.595,38.681,38.359,38.887,39.177,38.317,38.794,38.849,38.715,38.319,38.57,38.928,38.494
67.087,68.198,68.304,68.187,68.269,68.02,68.222,68.208,67.677,68.178,68.342,68.567,68.272,67.829,67.575,67.614,67.471,67.45,67.8,67.477,68.473,68.382,67.824,67.331,67.653,68.358,67.623,67.772,67.595,68.135,68.086,68.547,68.197,67.631,67.609,68.008,68.168,67.886,68.097,68.129,67.597,68.737,67.191,68.606,68.212,68.139,68.198,68.036,67.931,68.157,67.836,67.606,68.339,68.155,67.93,67.881,67.83,67.808,67.426,67.849,67.479,67.162,68.015,68.06,67.977,67.891,67.806,68.094,68.496,67.669,67.576,68.286,68.056,67.879,67.838,67.477,67.6,67.835,67.663,67.424,68.557,67.853,68.429,68.061,68.112,68.464,68.053,67.958,68.251,68.166,67.796,68.238,67.514,68.308,67.958,67.822,68.023,68.367,68.89,67.561
75.303,75.444,76.245,74.686,74.896,75.358,75.477,74.889,75.356,75.407,75.448,74.934,74.933,74.642,75.622,74.828,74.929,75.459,74.665,74.553,75.453,75.182,74.509,73.712,74.373,75.475,74.535,74.971,75.059,75.765,75.061,75.789,75.601,74.794,73.952,75.132,73.997,75.228,76.043,75.556,75.676,75.387,74.529,75.378,75.12,75.011,75.016,74.728,75.773,75.737,74.588,74.728,74.687,75.225,74.725,75.395,75.206,74.729,74.364,75.047,74.5,74.96,74.844,74.755,74.213,74.337,75.011,75.103,75.761,74.766,74.923,74.638,74.791,74.607,74.938,75.403,74.975,74.511,74.181,75.054,74.641,75.135,75.771,75.79,74.531,75.628,75.441,75.128,75.027,74.981,75.577,75.813,74.752,75.345,75.133,75.407,74.762,74.957,75.948,74.484
90.432,91.837,92.707,92.721,92.102,91.587,91.533,91.673,91.662,92.193,92.524,92.307,91.92,92.402,90.47,90.876,91.317,91.045,90.909,91.935,92.618,92.222,91.27,91.193,91.36,92.288,90.971,91.541,90.709,92.059,91.423,91.282,92.369,92.204,90.681,91.811,92.371,91.221,91.854,93.391,91.827,92.587,91.851,91.885,92.546,92.471,92.166,92.33,91.516,91.763,90.576,92.353,92.113,91.14,91.571,92.368,91.145,91.278,90.873,92.251,92.007,91.288,92.191,90.884,91.49,92.048,92.125,91.003,92.258,91.748,91.215,92.077,92.038,92.549,92.04,91.743,90.677,92.445,93.068,92.087,92.195,92.255,91.388,90.756,91.365,92.901,92.698,92.122,92.421,93.218,91.17,92.377,91.859,92.778,91.758,91.494,92.306,92.229,92.179,90.911
109.41,109.11,109.88,107.81,109.34,109.16,108.38,108.71,109.03,108.74,108.66,109.19,108.52,108.78,109.24,108.08,108.57,109.45,108.96,108.5,108.75,110.09,109.01,108.43,109.3,109.82,108.33,109.4,109.46,109.7,108.68,109.39,110.64,109.27,107.93,109.08,109.33,108.25,109.99,108.96,108.67,108.84,107.11,109.21,109.28,108.18,109.09,108.49,108.29,109.1,108.57,106.88,108.32,108.53,109.54,108.43,109.65,108.59,107.58,108.48,108.4,107.8,107.61,109.21,109.04,107.67,108.77,108.91,109.12,108.92,107.88,109.66,109.14,108.56,108.4,108.37,108.72,108.76,108.46,109.13,108.7,108.62,110.02,109.68,107.87,109.21,109.85,108.35,108.28,107.51,108.92,109.06,108.19,108.33,109.61,109.73,109.13,108.52,109.08,108.48
135.16,135.6,136.34,134.05,135.74,135.16,135.73,135.19,135.58,135.87,135.47,135.96,134.51,134.26,135.47,135.21,134.41,135.44,134.7,134.08,135.67,136.27,136.01,133.82,134.88,136.21,134.51,135.58,135.7,136.13,134.78,135.48,135.56,135.79,134.81,135,133.95,135.57,135.78,135.25,135.85,136.43,133.63,136.26,135.75,135.02,134.42,134.87,136.13,135.91,135.14,133.7,135.37,135.53,135.66,135.16,136.28,135.09,134.71,134.96,134.02,134.62,134.99,135.89,134.41,134.33,135.12,136.12,136.31,135.26,135.13,135.55,136.35,135.15,135.21,134.63,134.85,135.01,134.09,134.98,135.19,134.86,136.68,135.99,135.01,135.51,136.14,134.53,134.24,135.82,135.9,135.16,134.52,135.54,135.99,135.19,135.19,134.55,135.63,134.57
144.46,142.26,144.1,141.97,143.7,144.04,143.51,143.27,143.3,143.06,143.55,144.63,143.1,144.79,144.34,142.76,142.18,144.82,141.61,141.48,144.64,143.81,142.97,141.26,142.22,143.54,140.76,142.6,144.57,144.25,142.96,144.35,146.54,143.69,141.13,143.23,141.37,143.84,144.03,142.55,143.48,143.3,141.38,143.32,142.38,142.98,142.79,141.83,143.88,144.91,142.43,141.13,142.62,142.58,143.9,143.14,143.82,144.2,142.93,141.95,141.4,141.29,142.33,144.3,141.59,141.02,143.31,144.58,142.91,142.47,141.91,142.04,143.76,143.11,142.11,142.95,143.6,142.93,141.01,143.17,143.13,141.28,144.55,144.92,142.33,143,144.07,142.68,141.75,141.75,143.54,143.69,141.63,143.35,143.03,144.14,142.38,142.64,145.11,142.32
167.02,167.72,170.75,168.22,168.14,167.32,168.98,166.03,169.27,167.41,169.94,166.79,168.62,168.3,168.94,169.57,166.86,168.2,169.47,168.54,169.17,168.39,170.31,170.06,169.58,169.36,168.31,169.71,169.01,166.96,167.33,168.48,171,168.44,168.69,167.6,167.16,167.29,170.19,168.45,169.85,169.94,167.41,168.33,169.77,166.68,168.82,166.07,169.71,169.04,168.41,167.22,168.29,169.4,171.24,168.86,169.78,167.56,165.48,169.26,168.3,168.25,166.7,168.34,168.26,168.48,169.67,169.05,168.4,169.11,168.91,168.51,169.5,166.71,168.22,168.49,166.91,169.24,168.52,169.34,167.76,169.47,169.3,170.39,169.2,169.84,168.82,168.85,168.11,169.3,169.61,168.83,165.34,170.67,169.85,168.92,167.16,166.92,167.97,167.76
171.53,172.96,173.49,171.99,174.09,171.86,171.36,173.52,173.69,173.18,172.56,174.05,173.01,173.09,173.28,172.14,170.77,173.28,172.12,171.45,172.54,175.45,173.52,171.02,171.85,174.34,171.08,173.79,171.73,172.33,172.27,173.03,175.03,173.7,171.06,171.36,173.14,172.01,173.25,174.64,172.77,172.42,171.25,172.95,173.24,171.3,173.28,171.3,171.57,171.03,171.69,171.08,173.03,171.66,173.02,172.12,173.07,172.31,171.3,172.25,172.44,172.14,171.48,172.2,173.06,171.74,172.92,172.03,173.23,173.16,170.84,173.9,172.82,173.75,172.65,172.9,171.57,172.92,172.96,171.92,174.12,173.55,171.59,173.83,173.07,174.01,174.16,172.13,171.56,174.04,172.84,172.89,171.75,173.53,175.02,172.74,173.03,172.99,172.23,173.22
212.39,213.38,214.23,209.49,212.4,213.31,212.43,210.61,211.19,211.62,211.47,212.32,210.99,208.77,210.68,211.35,212.5,210.59,213.98,212.6,211.95,212.24,212.07,211.83,210.86,214.51,209.54,210.82,211.73,211.83,213.79,213.43,213.13,210.25,210.21,212.65,213.63,209.33,214.75,213.73,210.48,211.59,210.54,212.18,213.36,210.64,211.32,213.23,212.84,212.99,211.24,210.41,207.86,214.05,211.07,212.36,212.56,210.74,209.79,212.76,211.27,208.49,208.64,209.6,211.56,212.17,210.45,211.28,213.05,211.94,210.14,213.09,210.82,208.7,212.81,212.38,208.03,208.4,210.96,211.66,211.67,213.54,212.88,213.88,211.43,213.09,213.23,211.51,212.88,210.42,211.47,213.36,209.3,211.37,212.31,211.46,211.05,211.54,211.68,211.46
217.48,216.84,217.38,217.38,217.11,216.87,216.73,216.58,215.44,215.19,215.95,217.14,216.55,218.19,218.87,218.93,218.15,217.85,216.5,217.62,217.44,217.23,216.45,217.1,215.79,216.65,215.61,215.57,214.33,216.22,220.5,217.71,215.3,217.84,215.55,216.79,217.5,216.44,216.8,217.32,218.05,216.71,216.85,217.83,217.68,218.16,217.89,217.55,216.15,217.37,215.73,215.36,218.66,216.93,217.48,216.48,217.65,218.01,216.83,216.62,214.81,214.94,218.03,217.55,217.27,217.87,216.41,218.36,215.89,217.1,216.35,216.24,217.51,217.85,218.31,217.59,217.42,213.92,215.21,217.56,215.54,215.82,217.81,215.62,216.13,216.44,217.78,217.38,218,216.44,217.72,218.3,216.78,216.14,217.63,218.3,217.35,218.35,216.64,216.48
230.05,228.54,229.25,227.59,230.51,229.31,229.04,228.95,230.39,229.59,228.71,230.44,227.91,227.87,229.84,229.72,228.33,229.05,230.55,228.53,229.18,231.61,230.99,228.17,227.64,228.17,228.67,229.06,227.04,230.48,230.96,229.63,229.71,229.97,227.34,229.13,227.7,226.8,228.89,228.74,230.21,227.57,226.97,229.64,229.63,228.26,228.84,230.09,228.24,230.32,227.84,226.27,228.51,228.23,231,228.85,230.71,228.34,227.81,229.8,227.18,226.85,227.55,230.46,228.35,229.07,228.82,228.69,228.87,230.37,228.21,230.22,228.96,229.16,230.35,227.56,226.62,226.85,227.35,229.69,229.09,226.87,229.78,230.54,227.36,228.04,230.6,227.84,227.79,227.4,230.35,230.36,227.93,228.41,231.8,229.85,228.66,228.95,228.1,229.17
233.11,233.14,233.91,230.17,232.66,231.56,231.87,232.43,233.53,232.32,231.66,233.36,230.67,232.63,233.11,233.21,232.97,231.65,234.63,232.66,231.45,233.8,233.47,232.76,233.97,234.2,232.26,232.84,232.62,233.91,232.59,231.82,233.19,233.63,230.57,233.94,234.02,229.89,234.79,233.4,232.76,231.63,229.18,232.37,234,231.47,231.49,232.93,232.68,233.55,231.87,230.37,232.76,233.32,234.25,232.15,234.6,231.27,230.48,232.29,229.61,229.96,230.55,233.58,232.19,232.41,231.65,232.87,232.96,232.9,231.79,234.28,233.28,232.06,232.74,229.94,230.07,231.6,233.05,233.26,230.87,232.48,234.43,232.82,230.09,232.87,236.44,231.25,233.05,229.51,235.08,232.87,230.98,232.09,236.8,232,232.36,231.15,231.41,232.31
247.91,246.98,248.34,249.21,249.31,248.75,248.74,247.63,247.2,248.43,249.05,246.95,248.21,249.34,248.15,251.13,247.77,248.19,249.04,247.16,248.84,249.65,247.94,248.66,248.71,248.46,248.13,248.86,246.11,247.37,248.75,249.47,250.38,251.41,247.22,244.98,248.91,247.67,247.28,248.04,250.65,248.69,247.06,250.2,249.79,248.11,248.68,248.54,247.88,248.82,248.14,245.88,244.22,248.71,250.83,249.13,250.1,248.75,248.17,249.29,246.34,246.16,249.73,246.19,250.25,249.52,249.43,249.44,247.42,250.41,249.16,247.8,249.9,249.13,247.97,247.86,244.37,244.95,246.64,249.59,248.19,246.47,249.03,247.88,247.02,247.16,249.73,249.25,246.46,248.07,248.54,247.21,244.89,250.5,249.51,251.45,248.1,248.36,248.68,248.81
250.52,248.34,250.67,250.92,250.98,250.43,252.16,250.54,251.48,251.13,250.59,250.1,251.07,252.13,252.17,251.75,249.24,251.1,249.7,250.07,251.11,251.49,249.24,249.36,250.68,249.64,249.05,251.79,247.95,249.37,252.92,250.22,250.75,252.3,248.52,250.48,250.8,248.5,250.19,249.45,251.15,249.88,247.53,250.68,253.33,249.76,250.25,250.48,249.43,250.82,249.55,248.41,251.69,249.17,251.66,250.8,252.4,250.41,248.47,250.3,247.67,248.99,250.83,250.17,251.29,252.12,250.19,250.19,248.77,251.38,250.73,249.98,251.13,252.1,250.25,248.46,249.17,248.74,247.91,250.95,250.29,248.32,250.42,249.67,250.19,249.48,251.79,250.39,247.69,250.97,252.32,251.17,248.17,251.04,251.76,251.68,251.14,250.45,249.9,249.99
252.03,252.42,251.82,251.24,252.96,251.63,254.78,253.88,253.12,251.68,252.14,252.07,251.65,253.77,254.35,253.29,251.91,253.75,251.58,250.71,253.13,252.36,251.32,252.41,253.11,251.69,251.76,252.98,248.85,251.85,254.3,252.79,251.95,253.79,249.76,251.72,252.72,251.94,250.85,251.69,254.06,253.58,250.24,253.78,255.36,254.8,254.39,252.44,252.38,253.14,252.27,251.92,253.51,250.91,252.98,252.71,254.94,252.41,251.59,251.03,248.89,251.67,254.31,252.34,252.01,253.46,252.73,253.23,251.61,253.35,251.76,252.89,254.75,254.04,253.48,250.71,252.73,249.88,249.78,251.86,250.59,250.36,251.95,251.83,252.53,250.73,252.71,251.45,252.33,251.47,255.25,251.85,250.81,253.38,257.37,252.3,252.91,252.78,253.3,252.57
269.66,272.53,272.05,269.99,269.08,270.12,273.03,271.76,267.91,267.73,271.22,270.64,267.3,268.86,269.83,270.08,272.79,270.75,269.13,269.6,267.64,272.33,271.24,268.13,272.29,268.4,268.29,269.46,267.64,268.14,272.81,269.39,263.51,273.87,270.75,266.36,272.16,270.07,267.72,269.52,270.96,271.01,267.71,271.43,269.36,269.81,270.93,274.22,266.17,267.65,269.75,268.42,273.54,273.32,270.54,267.54,271.89,269.94,267.73,269.05,267.78,266.68,270.74,270.06,270.23,270.12,267.42,268.86,270.78,268.92,268.56,269.38,270.14,268.75,270.37,268.42,269.48,267.54,265.98,269.89,267.8,268.99,271.14,268.75,268.78,268.01,273.95,269.65,269.35,270.24,272.77,270.13,272.18,268.92,270.37,272.63,271.49,271.73,269,270.25
280.5,279.12,281.93,281.58,281.83,284.46,285.27,282.18,281.46,282.73,282.44,279.85,280.71,281.84,280.12,282.13,279.77,280.04,279.75,279.41,283.28,283.28,281.3,279.52,282.21,280.46,281.29,279.9,278.87,279.92,281.23,281.72,281.65,284.42,278.73,278.85,280.3,281.25,277.07,280.49,282.92,280.78,280.2,281.82,285.85,282.81,281,282.84,281.63,280.39,281.04,279.88,279.31,282.48,281.62,282.95,285.17,281.24,281.76,280.67,277.98,280.59,283.69,279.6,282.51,280.85,280.41,282.93,278.57,280.7,282.67,281.27,284.45,283.68,280.32,281.73,277.16,279.27,276.98,281.36,281.27,279.76,280.56,280.75,283.03,280.69,283.77,281.44,280.41,282.2,283.69,279.6,279.31,281.95,283.17,282.4,283.04,281.27,280.8,280.18
298.93,297.92,302.1,299.89,301.11,301.45,302.91,300.75,302.81,299.66,301.69,300.8,300.96,301.71,299.73,303.13,298.73,298.98,298.29,297.32,300.47,302.88,300.41,299.21,301.21,299.98,299.79,302.39,296.44,296.49,299.59,300.73,302.63,302.96,297.99,297.36,300.68,298.69,299.75,298.74,303.02,300.78,297.69,301.11,303.34,298.82,300.02,298.49,298.35,299.95,300.77,298.1,298.67,300.1,302.9,301.02,304.13,299.09,297.05,301.09,296.32,299.46,298.29,298.21,301.61,299.91,301.7,301.72,299.18,301.35,300.48,300.27,301.76,300.14,298.07,299.16,297.15,299.61,299.44,298.5,300,300.87,300.93,302.25,299.21,300.2,303.11,300.3,298.23,299.57,303.11,299.49,296.55,303.03,303.77,302.03,299.21,299.63,298.49,299.85
303.48,302.57,305.26,303.67,304.2,302.55,303.33,302.36,304.33,305.33,303.83,301.52,302.6,304.28,303.73,304.8,300.64,304.86,306.45,302.63,302.92,303.58,304.69,304.86,304.1,304.01,303.21,305.27,302.67,303.89,304.2,303.55,306.85,305.24,302.13,302.41,302.36,300.07,303.87,303.09,305.62,304.49,302.02,303.79,306.09,301.35,304.18,302.57,305.38,304.26,301.54,300.06,302.14,304.28,305.96,304.5,305.49,302.38,299.59,304.03,301.9,300.24,303.6,302.37,304.67,304.61,304.48,303,302.59,304.98,303.6,304.95,304.37,303.78,303.95,301.79,300.18,303.18,300.99,304.3,302.47,301.56,303.94,304.77,304.69,304.11,305.37,304.48,301.93,303.67,304.94,302.92,300.22,305.14,307.82,305.61,305.18,302.43,303.31,303.24
341.53,342.23,344,339.85,341.12,343.87,344.44,342.89,342.77,341.21,344.25,341.54,342.21,341.12,343.07,341.01,339.56,342.45,340.57,341.08,342.75,344.68,341.49,339.1,344.04,342.12,339.61,340.64,340.88,340.72,341.83,344.51,339.82,343.55,339.82,340.39,342.8,341.81,340.41,344.61,341.77,343.21,340.51,339.91,341.82,341.3,339.92,343.94,344.04,340.46,341.92,340,343.01,343.61,341.98,342.69,345.87,340.24,340.31,340.27,338.81,341.81,341.05,339.18,343.8,342.76,337.14,341.88,343.12,340.89,342.46,341.35,342.17,341.21,340.82,343.67,339.88,338.76,337.04,342.05,341.33,342.32,342.2,343.95,341.58,343.72,344.74,341.54,339.06,344.16,344.35,343.94,341.89,342.72,345.06,342.61,339.91,342.65,340.97,340.92
349.51,350.84,352.18,348.36,352.2,349.48,350.2,347.96,348.93,346.86,349.63,349.93,347.95,348.5,351.13,351.02,352.81,352.79,350.07,351.88,350.17,353.19,348.9,350.61,351.42,348.86,346.76,348.63,347.9,349.34,354.29,348.89,349.69,351.46,348.09,346.78,352.87,349.48,350.65,351.34,350.7,352.52,350.04,350.83,353.87,351.47,350.57,353.1,347.41,347.81,349.06,349.12,351.07,351.4,350.31,349.3,351.04,349.32,349.53,349.94,347.1,347.86,348.95,347.64,351.04,350.2,349.73,351.07,350.6,348.85,348.64,348.74,350.73,350.9,350.98,351.17,350.7,347.66,350.03,349.83,348.31,351.06,350.6,349.52,347.97,350.29,349.87,348.72,351.7,348.63,349.96,349.85,351.59,348.06,350.74,354.45,351.67,350.74,348.74,347.82
374.97,373.13,379.49,372.75,374.71,373.99,377.11,373.13,376.12,377.34,375.15,375.29,375.91,371.89,376.72,376.56,372.41,375.41,373.65,374.67,378.13,374.64,373.11,371.58,372.09,375.44,372.03,375.87,371.79,373.54,375.62,376.89,376.17,373.89,370.9,374.39,370.77,373.87,376.81,378.03,373.28,379.06,373.96,377.15,377.49,375.16,375.14,374.29,377.1,375.74,372.77,375.4,374.07,376.31,375.62,377.68,377.28,375.48,374.64,374.64,373.35,374.79,372.11,372.45,371.7,377.01,377.05,374.75,374.11,374.49,372.23,373.48,375.94,376.56,375.41,375.4,374.86,369.95,372.86,375.04,375.84,374.89,375.54,375.65,372.96,376.31,376.36,377.39,373.35,376.99,378.45,374.89,370.29,374.31,375.52,373.69,374.07,374.23,374.81,376.16
383.8,384.19,389.16,384.68,385.79,384.02,383.55,380.51,385.85,385.76,383.73,381.39,382.56,381.98,383.39,386.25,383.76,383.14,382.36,385.25,386.05,385.63,384.88,384.89,380.38,385.59,382.26,382.24,382.67,385.52,387.91,382.81,382.78,387.45,383.88,385.57,383.68,383.11,384.81,384.29,382.25,389.48,383.51,383.42,389.23,382.86,385.85,383.95,381.45,376.33,380.63,378.91,382.37,383.51,385.16,382.03,386.76,385.55,382.81,385.8,382.79,382.34,384.8,381.39,385.46,385.44,389.77,385.83,382.44,383.58,382.26,380.94,384.15,385.12,384.06,383.66,380.55,384.71,379.55,382.11,384.02,378.43,380.91,383.15,385.91,381.78,383.04,382.67,384.4,388.66,388.25,385.25,377.59,385.98,384.48,384.11,384.79,385.5,384.77,382.74
396.72,396.57,400.09,398.25,398.85,399.04,396.91,397.46,399.4,395.51,400.06,396.98,397.97,396.85,397.74,399.21,397.86,394.2,398.98,399.2,399.53,399.04,397.39,398.43,400.15,399.71,398.12,397.23,400.44,397.24,396.64,396.44,398.55,401.73,394.61,398.31,398.02,398.09,397.02,396.86,400.41,400.6,396.38,399.91,404.97,398.38,397.34,398.15,399.42,396.2,398.66,397.46,397.38,396.3,399.64,402.22,401.13,396.37,396.64,398.14,394.62,398.1,397.02,396.56,399.33,397.18,401.27,398.5,396.29,398.94,399.39,401.22,398.91,400.47,398.1,396.17,395.87,399.11,397.21,397.69,396.25,396.54,401.6,396.86,400.52,397.72,399.29,397.11,398.98,398.11,399.16,397.98,395.97,399.52,401.1,399.04,396.58,394.96,398.9,395.27
422.69,422.29,426.89,423.2,425.08,424.83,425.69,425.08,425.85,427.61,426.36,426.82,424.3,423.84,427.08,425.16,423.72,424.37,424.95,425.33,427.88,426.68,424.59,422.01,423.85,426.11,423.23,426.08,423.13,424.32,427.65,421.9,425.89,428.7,421.48,424.05,425.53,423.84,425.19,426.73,425.23,427.26,423.44,424.72,427.89,425.46,426.52,426.27,425.51,425.44,423.92,424.88,425.37,424.42,426.6,427.25,426.89,424.89,423.88,423.62,420.68,423.89,423.8,423.22,423.78,424.54,426.54,424.77,426.09,424.62,424.19,426.17,426.24,426.44,425.35,419.19,423.65,423.56,424.23,425.48,427.65,422.53,424.52,425.66,424.3,425.4,426.88,426.75,423.64,428.84,427.55,425.02,423.21,423.85,425.37,427.52,424.53,425.99,424.27,425.75
430.83,431.31,437.21,430.47,430.8,432.13,447.7,433.33,431.91,435.09,438.2,429.86,430.32,432.11,434.2,430.55,431.58,433.41,431.92,431.27,432.66,432.57,429.99,427.84,435.43,432.75,431.73,435.26,433.31,427.84,434.52,431.36,434.15,433.64,426.33,429.58,432.86,435.79,436.37,434.45,426.94,432.87,429.33,427.9,433.31,435.71,436.84,436.25,429.49,429.54,432.98,434.7,435.35,438.62,433.19,434.53,431.29,433.67,431.88,429.01,427.94,432.63,427.12,432.4,427.57,432.06,430.52,434.11,428.58,430.33,430.51,433.33,436.24,433.36,430.68,426.61,432.64,425.78,430.85,435.25,436.4,429.9,433.13,431.74,431.11,435.33,435.9,433.49,430.3,436.18,435.88,432.53,432.37,430.28,430.96,428.8,430.23,432.25,426.96,434.06
445.24,451.2,452.88,446.32,441.87,448.99,454.36,449.56,447.19,448.5,449.74,442.51,446.8,446.18,450.92,447.48,448.5,447.94,442.12,451.13,451.94,447.89,446.51,448.22,445.92,447.07,448.73,451.98,441.96,441.98,451.59,443.22,446.05,451.28,440.92,446.07,449.63,449.54,450.75,450.25,449.56,448.35,448.08,443.87,449.92,450.01,447.82,447.69,445.93,445.66,450.58,453.24,449.77,448.75,448.42,450.08,448.45,451.67,447.95,444.94,441.97,446.96,443.85,450.93,444.24,447.01,447.24,452.42,444.43,444.53,446.53,445.71,448.54,451.44,446.49,448.03,448.93,442.07,446.41,450,449.17,445.15,448.8,445.95,444.03,447.94,458.52,451.84,445.84,452.73,451.01,443.94,445.43,441.66,446.21,445.66,447.59,447.33,442.22,447.41
459.14,454.22,463.07,461.66,459.52,457.3,456.51,453.14,456.39,454.84,457.77,460,460.25,461.44,468.3,457.35,462.82,461.26,455.13,464.7,464.51,463.44,453.26,463.05,456.66,453.92,451.6,459.14,460.32,457.12,466.87,458.2,460.84,467.08,452.9,459.9,462.99,463.94,460.75,463.03,458.81,463.18,459.39,454.41,461.04,460.71,453.41,459.06,460.16,454.85,458.02,465.54,462.89,453.63,459.52,462.51,462.7,459.7,466.35,457.28,453.38,456.36,455.13,454.01,458.86,463.62,455.14,464.18,451.9,459.51,459.76,454.08,459.53,466.31,457.81,454.99,464.22,454.57,460.22,460.89,455.56,463.63,464.5,448.68,454.27,464.65,458.98,460.75,463.5,465.87,459.91,454.94,460.57,449.15,462.17,464.1,460.32,463.35,453.82,456.78
463.4,466.9,467.9,466.27,463.19,469.69,471.15,465.83,464.83,467.02,470.05,465.85,462.76,463.39,470.8,466.9,467.79,467.34,464.79,468.74,469,467.89,464.56,464.43,465.56,465.44,465.53,469.02,462.03,464.59,469.85,463.4,461.39,471.5,460.83,463.62,468.15,469.45,465.96,465.04,462.58,468.63,468.15,466.03,465.54,468.79,464.02,470.77,464.02,463.04,467.81,469.53,473.11,466.65,469.05,469.28,466.06,462.27,470.58,463.38,459.16,462.64,466.01,464.87,462.42,464.7,464.25,467.34,464.85,462.97,465.48,464.01,463.65,473.35,464.31,461.57,466.87,461,465.47,467.4,465.38,465.31,469.67,462.88,462.18,465.4,471.15,468.07,465.29,471.23,470.25,461.83,467.27,462.47,466.4,468.2,468.64,465.68,462.27,467.44
472.4,468.43,477.31,472.05,470.28,472.57,474.58,469.46,473.27,469.96,471.18,475.95,472.53,472.77,475.84,472.91,470.35,474.83,470.58,476.02,478.74,473.48,467.26,472.81,468.63,469.31,466.75,471.09,470.62,473.78,478.15,473.01,470.77,475.53,464.4,472.89,473.04,473.65,476,469.46,466.99,476.88,473.27,471.24,474.62,471.62,468.43,474.58,470.28,467.9,470.64,478.29,475.79,472.63,473.75,477.65,478.51,473.74,474.21,470.15,467.86,468.15,470.14,470.79,472.21,472.89,471.42,478.37,469.74,468.53,469.37,467.28,473.43,482.44,470.64,471.57,474.27,468.57,468.11,472.2,469.93,473.02,470.61,468.89,468.06,472.12,474.75,475.27,473.17,474.32,477.4,469.54,472.71,467.92,472.04,474.22,471.98,470.22,467.44,468.88
473.46,471.57,480.63,477.57,481.41,476.57,475.78,474.62,475.39,477.54,476.44,480.33,477.46,476.2,478.27,478.66,476.51,479.04,475.13,477.05,481.62,476.66,476.65,473.54,472.03,476.47,470.42,476.69,472.07,477.13,484.2,477.42,476.03,479.63,472.28,475.07,476.85,475.85,476.97,480.89,473.16,481.1,478.09,475.79,480.69,479.11,478.37,477.29,473.86,477.99,475.36,478.48,480.21,475.89,478.31,480,480.77,479.2,480.67,475.04,472.75,473.15,481.4,474.35,474.47,479.13,482.94,480.54,475.77,475.71,473.39,475.92,480.34,483.83,477.94,475.17,475.22,472.52,476.56,479.63,479.22,474.42,476.37,478.39,475.57,477.99,478.87,478.63,478.49,483.64,479.92,477.75,474.57,477.63,478.34,478.13,479.85,479.5,476.1,477.21
475.8,476.65,483.09,483.2,481.85,478.84,484.22,479.18,478.43,481.04,480.53,484.42,479.2,481.07,486.34,479.75,480.73,481.5,477.71,484.08,483.16,481.38,480,477.91,479.67,481.5,475.5,480.02,476.28,482.14,485.21,479.06,479.28,480.66,477.68,480.73,480.21,478.84,481.84,484.09,476.51,484.84,481.16,482.51,485.1,480.54,482.45,483.53,477.23,480.47,478.93,479.41,486.77,479.7,481.03,481.4,486.84,481.63,481.62,477.46,474.89,477.98,484.11,478.36,479.58,484.87,485.86,481.42,480.99,477.74,478.25,480.68,484.71,491.7,479.89,477.87,484.04,481.65,478.98,482.23,483.03,478.69,479.88,480.82,479.02,481.66,484.06,485.1,482.72,487.26,485.54,480.35,476.64,482.85,483.38,481.12,481.89,485.24,482.95,482.18
488.62,482.53,492.74,489.19,488.67,485.04,487.67,484.97,486.04,489.54,488.11,489.51,489.27,487.8,492.73,488.7,491.55,486.29,487.96,490.13,489.88,487.78,484.7,487.19,486.02,486,490.67,487.65,487.04,487.97,493.76,485.68,486.7,492.98,485.48,490.17,488.46,488.51,487.08,489.09,484.45,497.23,492.87,486.23,490.21,488.93,485.94,490.45,485.09,485.11,491.05,484.9,490.32,484.95,489.82,491.68,494.72,491.23,491.68,485.46,482.02,484.51,488.58,484.36,487.03,493.23,490.96,492.26,488.94,485.99,485.45,484.93,491.98,492.42,487.68,485.04,492.79,487.32,483.22,488.57,488.53,484.54,487.68,484.14,486.48,489.56,488.51,491.17,489.24,493.5,497.94,485.41,486.4,484.54,486.84,488.29,490.24,489.04,491.31,484.98
504.28,509.12,508.06,508.47,506.15,506.06,512.19,507.35,502.97,502.56,508.61,507.78,507.74,503.51,512.82,506.7,511.4,501.02,509.32,510.84,509.68,509.21,503.15,504.09,505.63,503.19,510.79,504.56,505.38,505.98,512.55,504.43,504.67,511.62,499.62,505.58,510.27,508.83,503.86,509.83,507.93,509.42,509.4,501.5,508.84,509.46,508.29,511.85,505.84,502.25,509.45,508.34,511.41,506.9,507.52,511.32,506.6,505.85,510.34,502.58,500.18,502.25,504.44,505.39,503.82,508.58,505.68,507.41,507.61,504.06,504.87,503.38,506.9,515.17,506.45,504.49,510.86,499.9,505.03,507.87,507.34,506.32,508.16,502.44,505.2,512.75,511.21,509.17,509.84,508.95,512.52,505.38,509.49,501.18,508.98,509.12,506.47,507.07,506.11,504.65
510.85,517.8,517.74,520.08,520.53,513.57,518.78,517.49,515.26,520.72,519.82,514.88,517.72,507.83,516.51,513.68,517.16,510.54,518.4,518,523.75,518.78,522.04,515.47,510.63,521.15,520.18,520.29,515.65,514.86,519.02,515.05,515.95,521.64,516.02,515.3,519.82,522.47,510.49,516.41,515.65,522.75,517.84,519.32,520.6,520.2,517.66,516.65,514.63,508.64,514.47,516.97,519.39,514.89,516.22,513.2,520.54,518.12,516.81,522.79,519.34,517.09,516.2,514.42,518.12,524.54,512.81,517.09,515.93,521.16,514.51,515.75,516.22,519.41,522.08,516.75,517.85,514.95,517.01,513.5,514.67,518.21,515.75,507.12,523.59,514.83,516.49,518.09,522.26,522.78,518.38,521.31,513.54,515.35,514.63,513.19,521.9,520.77,524.12,514.2
542.56,538,539.47,529.71,544.34,543.15,537.91,540.75,536.81,533.06,536.94,540.12,522.2,540.82,543.87,534.42,541.24,527.47,542.14,541.44,544.31,530.48,530.17,522.01,547.18,543.16,532.07,536.79,538.23,537.83,539.33,528,535.45,544.45,531.27,530.26,538.59,536.84,537.01,532.32,535.72,542.13,533.07,529.77,546.67,536.12,542.43,540.37,538.72,540.41,542.24,529.11,543.58,535.33,543.88,545.44,541.42,528.97,537.95,536.07,538.28,541.53,543.17,534.01,539.71,542.11,542.49,538.01,544.85,540.07,536.98,543.71,521.86,540.72,537.97,528.09,526.52,538.65,536.69,536.01,542.73,536.11,538.24,543.65,551.29,529.19,538.83,536.12,531,532.75,542.76,541.08,541.92,538.82,545.26,540.59,532.84,537.3,539.74,537.58
549.5,548.42,555.21,547.53,549.98,552.47,553.27,551.99,543.52,551.56,551.31,552.12,547.37,549.73,552.43,550.97,549.57,547.67,549.42,547.47,548.06,542.61,545.57,548.55,553.86,554.66,549.42,553.67,548.2,550.06,550.38,549.74,552.62,550.18,543.59,541.57,551.14,543.85,547.44,553.02,547.84,544.84,551.37,546.99,553.28,544.79,551.31,550.19,552.19,551.46,549.65,544.46,547.73,546.69,554.48,550.05,550.07,544.1,545.7,550.27,548.54,547.07,553.65,543.29,550.02,548.67,552.11,550.67,551.13,553.04,550.32,554.59,548.45,551.78,550.57,546.83,543.08,549.87,544.33,551.88,543.37,545.36,549.75,552.13,558.78,554.07,559.15,548.51,548.8,550.18,549.9,549.63,550.9,546.91,555.65,547.86,547.2,548.43,547.63,545.5
555.12,553.63,562.37,559.06,555.2,556.51,560.12,553.63,558.48,556.27,556.46,559.46,548.69,558.9,557.89,559.55,560.19,550.01,557.17,562.39,550.6,556.25,554.47,554.77,558.52,558.82,555.28,563.63,555.64,555.28,554.39,555.01,558.33,555.4,551.04,555.84,556.83,549.12,557.15,559.57,549.52,550.87,552.61,557.4,555.26,556.68,555.16,555.23,558.2,557.75,556.61,552.3,556.26,548.73,559,555.33,555.04,556.43,556.7,556.46,554.76,549.9,558.43,552.08,557.98,557.32,555.48,558.51,552.93,558.02,557.07,557.72,555.42,557.03,559.26,554.59,552.52,557.17,557.5,561.3,553.03,557.61,559.6,557.59,561.28,558.01,562.54,556.14,553.48,557.07,557.28,556.7,554.53,558.75,563.4,551.5,557.85,559.17,551.84,557.2
558.35,563.94,564.3,561.09,562.54,559.45,561.16,555.57,562.76,560.7,558.67,565.55,553.94,560.14,560.45,568.66,565.19,553.62,563.24,563.78,559.98,560.27,566.99,560.62,560.29,567.64,555.89,566.9,557.09,565.2,556.72,558.9,560.88,563.42,554.09,563.14,563.87,555.49,561.14,560.39,554.73,557.13,554.99,558.83,563.5,558.47,560.13,559.22,560.4,558.77,559.28,559.07,558.89,561.95,561.98,561.79,559.84,558.26,561.04,564.36,557.67,556.82,564.6,559.72,560.14,561.14,561.72,562.31,562.29,560.01,558.17,566.82,559.99,560.63,566.07,555.94,553.06,559.7,563.72,564.5,557.6,562.06,560.43,563.06,562.33,562.31,565.21,561.13,568.76,563.39,558.26,559.96,560.08,562.3,566.13,554.99,566.82,565.58,555.82,559.97
564.65,569.87,569.1,561.59,568.68,578.1,573.47,570.77,572.15,573.5,567.97,576.35,561.68,564.96,570.31,571.8,573.97,565.76,567.32,571.6,569.94,569,570.74,570.51,564.59,570.25,559.13,575.06,562.52,571.79,564.35,568.05,563.16,576.85,565.33,564.67,566.45,563.14,566.01,565.68,557.99,561.09,560.16,563.46,566.54,564.71,563.53,573.64,565.71,572.14,568.15,571.79,568.79,566.28,574.23,564.91,564.32,563.27,567,568.13,561.15,563.55,573.08,564.46,562.27,567.11,565.3,564.63,568.52,565.17,570.13,573.49,571.55,569.67,569.21,558.17,562.2,571.1,566.33,574.57,567.66,571.64,569.26,571.57,569.11,563.96,572.12,565.81,569.29,571.58,564.46,560.59,563.6,570.22,577.94,566.84,567.16,567.05,563.12,572.46
573.89,574.92,573,573.33,575.91,580.72,577.52,573.86,574.47,577.86,572.1,577.47,573.32,573.71,578.21,573.92,577.43,568.65,579.41,576.37,577.86,571.38,575,575.18,576.02,577.98,575.79,577.87,571.03,574.59,577.96,572.63,573.22,579.36,568.48,568.43,575.02,569.96,573.5,572.9,570.75,567.79,567.29,573.9,578.35,572.17,571.87,578.56,571.47,575.01,573.75,571.95,577.36,571.56,576.23,570.44,571.68,566.34,571.64,571.65,573.35,568.52,581.44,568.19,573.65,579.81,569.31,570.75,571.59,577.67,572.71,580.09,577.33,578.95,575.91,570.41,566.54,574.25,573.07,577.47,575.58,576.58,573.93,573.83,576.21,568.16,574.92,574.76,573.09,573.01,570.59,572.52,567.42,572.27,580.68,576.16,575.31,573.65,565.44,575.26
582.04,580.35,577.52,577.62,580.59,581.15,578.59,578.84,579.86,580.21,574.96,581.82,578.22,579.1,578.75,578.02,578.64,575.81,580.89,579.52,581.91,577.65,576.54,581.63,581.15,581.32,577.58,580.46,574.1,581.4,584.98,578.58,580.85,583.92,572.54,573.43,576.49,579.5,578.87,576.48,578.96,580.37,574.73,579.42,583.71,577.4,578.49,580.12,579.57,580.52,578.8,579.9,585.01,572.79,580.35,581.94,577.67,577.89,576.7,575.82,575.93,572.81,585.96,575.51,575.71,581.69,583.75,575.54,580.28,582.87,576.1,584.23,581.47,587.49,580.18,577.88,570.3,577.14,573.66,582.73,578.84,578.93,576.66,577.12,587.28,576.02,578.61,579.01,577.91,580.65,577.68,575.6,577.93,576.69,583.01,577.33,578.19,579.74,577.61,576.04
585.47,585.1,585.33,580.5,584.62,584.18,585.43,589.17,582.55,583.18,581.91,586.76,585.28,584.89,595.41,582.07,580.05,576.95,585.37,589.76,586.41,584.9,579.82,584.68,582.56,583.95,584.98,583.33,581.87,584.66,589.89,581.55,581.65,594.31,576.2,585.32,581.6,583.06,580.06,577.75,583.91,586.4,578.99,589.23,588.25,580.9,585.02,582.99,582.09,582.08,581.1,580.41,589.95,581.81,585.61,585.44,587.56,580.41,582.7,583.04,578.55,592.6,594.28,578.3,582.08,590.76,586.23,583.34,582.63,586.52,591.77,586.3,591.86,588.3,587.55,581.83,571.34,581.14,578.82,586.59,583.55,582.56,580.69,582.99,589.97,581.01,585.79,583.63,581.25,585.78,581.46,583.93,583.93,583.49,592.08,583.44,585.89,580.61,582.47,583.27
602.44,605.88,608.95,605.33,605.26,604.6,608.44,606.52,605.12,606.85,609.04,603.37,598.01,607.35,608.04,604.77,605.4,605.51,604.73,601.3,606.18,606.28,606.03,608.51,606.34,609.13,602.72,608.1,599.96,606.08,607.25,601.66,601.61,605.89,599.89,600.87,609.13,605.14,601.41,606.78,604.18,605.75,602.63,606.13,609.55,605.3,608.23,602.71,605.46,600.99,604.16,605.25,608.2,600.24,606.62,603.63,604.04,603.65,605.03,609.48,601.66,607.21,610.24,603.17,607.43,605.33,605.09,605.92,603.51,605.8,602.14,606.14,607.53,609.66,610.34,605.03,603.19,601.63,599.72,606.03,600.06,601.04,601.82,603.26,609.81,605.41,606.63,608.78,608.88,607.37,603.34,609.24,603.9,608.91,610.27,603.24,608.13,611.89,604.34,601.77
608.94,607.98,612.28,610.03,609.63,612.37,617.09,611.52,609.17,615.51,615.5,616.84,608.77,611.27,616.45,616.52,611.93,609.85,606.91,611.48,612.11,611.26,608.58,611.32,610.98,615.95,608.83,616.44,608.23,611.52,609.21,609.9,609.34,620.09,607.18,606.49,612.45,607.73,609.66,612.61,607.81,606.57,607.13,611.54,613.65,610.62,611.02,607.3,609.07,612.95,611.82,606.41,611.45,611.51,615.71,605.11,614.86,608.07,611.12,613.57,611.02,610.51,613.04,608.2,608.6,610.81,607.75,613.81,608.37,615.97,613.66,614.17,612.49,615.55,615.4,610.3,606.92,610.95,606.01,612.45,604.71,608.56,606.85,612.06,615.32,609.59,617.79,610.47,611.95,614.81,613.41,612.46,611.57,612.35,620.68,611.19,611.22,612.26,609.7,609.1
614.03,610.18,623.03,620.84,613.87,618.14,621.85,617.21,614.51,619.04,618.49,621.28,615.36,619,617.61,618.01,615.37,613.7,612.13,618.24,616.51,616.98,618.08,615.29,617.12,617.57,613.73,621.23,610.65,614.9,618.74,615.34,621.1,624.62,610.03,610.38,613.33,610.14,610.21,620.48,614.25,609.83,619.62,616.47,617.03,620.82,614.69,620.69,617.83,614.79,613.09,617.07,617.31,614.47,619.77,613.76,616.15,613.49,613.24,614.96,614.95,612.62,622.7,611.13,619.75,620.53,610.53,616.84,615.55,620.12,615.13,615.09,615.37,619.47,618.2,615.01,608.25,616.48,615.6,619.17,611.22,614.44,613.62,616.92,618.32,616.76,627.84,617.24,613.98,615.68,616.46,615.26,616.08,616.14,622.48,612.93,617.03,616.06,611.13,616.58
624.1,619.69,624.24,630.46,623.83,621.69,625.31,622.3,621.99,622.11,624.59,624.74,618.09,620.96,619.53,627.14,619.01,615.37,616.13,621.45,626.84,619.49,619.74,619.89,624.94,628.14,619.15,625.57,613.51,616.44,627.44,621.43,625.17,626.82,614.6,621.23,619.95,616.22,623.41,626.65,620.38,627.08,622.37,624.14,623.48,624.04,624.33,624.21,621.79,621.03,621.54,623.85,623.16,622.83,624.43,625.69,619.77,625.1,621.1,619.49,626.77,618.12,624.5,615.15,621.69,627.19,621.94,619.9,619.65,621.05,621.54,623.34,623.29,620.94,620.47,619.56,612.62,621.68,619.53,624.4,620.32,623.4,619.79,621.85,623.02,623.72,629.12,625.84,620.42,621.58,617.88,624.23,619.31,624.35,626.26,617.41,624.69,620.82,621.21,621.75
629.75,622.78,631.81,634.78,630.42,630.92,634.97,631.67,628.33,632.9,631.58,631.7,633.1,633.89,634.49,634.31,626.62,626.22,626.9,632.25,631.75,628.79,628.77,626.64,630.52,631.92,630.36,634.72,623.77,624.24,638.89,633.42,631.09,640.17,624.15,624.1,630.3,620.26,626.86,634.69,631.23,632.94,626.8,627.49,637.47,633.85,633.01,633.8,627.91,632.43,627.25,629.86,629.42,631.29,632.4,631.6,632.48,626.12,631.07,626.03,627.7,625.2,637.74,625.01,629.83,636.26,625,626.65,630,633.81,637.24,633.95,641.61,633.38,635.38,629.27,622.79,627.72,630.8,634.43,632.01,630.6,623.42,627.03,631.03,624.7,633.46,633.07,625.75,635.35,630.46,628.36,632.3,634.23,635.36,631.56,633.86,633.11,629.06,631.84
638.25,645.3,637.16,636.05,636.31,642.04,643.64,639.8,638.65,638.59,640.42,647.06,636.91,639.02,642.57,646.98,643,639.04,637.22,641.85,637.01,639.64,641.03,640.07,643.28,643.49,635.31,641.15,629.82,641.09,647.57,638.36,633.79,648.16,635.78,638.22,637.74,640.81,633.66,638.96,634.49,635.53,635,646.66,639.16,644.79,637.05,645.79,636.48,638.16,636.89,639.66,651.78,638.67,643.19,635.83,639.67,638.54,636.5,636.02,634.88,633.32,645.72,638.08,635.55,642.63,633.49,639.02,636.1,638.59,640.81,639.72,643.43,643.52,641.88,638.56,634.18,637.33,633.78,642.28,633.69,641.11,642.8,635.87,638.65,635.65,644.34,635.72,640.96,637.54,639.33,636.77,639.35,639.01,645.21,640.35,639.53,640.18,633.47,640.03
650.98,656.52,664.62,656.55,656.51,657.11,664.05,652.12,653.09,658.33,662.34,651.95,657.08,651.85,658.23,660.42,650.78,649.45,653.97,649.49,658.33,651.07,652.6,648.51,653.66,653.14,654.81,659.88,649.74,648.48,653.08,657.58,652.39,657.54,653.62,643.97,648.43,648.26,650.8,659.03,658.2,660.09,656.79,657.91,656.47,653.39,654.27,652.69,660.21,651.41,655.46,653.69,653.23,653.84,654.19,653.89,653.23,651.68,654.97,654.56,652.73,651.23,653.63,649.63,653.75,652.35,651.74,655.22,656.45,656.49,653.76,649.6,655.01,649.02,655.78,652.8,647.56,652.24,651.34,648.56,648.29,650.3,659.37,656.23,654.52,659.26,657.76,655.01,648.61,659.24,656.13,652.82,652.08,661.26,658.65,653.33,650.09,648.43,651.86,650.28
656.18,661.24,667.17,662.21,659.01,658.71,666.7,658.86,662.95,663.66,663.94,659.17,659.1,658.01,660.99,669.19,655.78,652.58,658.26,651.69,666.49,663.96,659.16,655.09,663.66,662.16,659.68,664.47,656.24,660.92,658.77,666.22,663.85,667.71,654.62,654.64,655.87,658.97,659.53,666.13,662.54,665.59,662.94,665.28,661.38,660.29,657.77,656.59,661.5,658.25,659.28,662.01,659,665.27,664.81,658.65,656.94,657.4,657.95,662.3,663.77,660.18,660.66,656.12,657.82,662.65,655.7,660.7,660.23,661.65,656.51,659.14,661.11,658.77,657.79,660.53,654.05,659.79,661.72,661.74,658.1,654.91,663.31,657.87,664.45,666.28,664.66,664.11,656.3,664.23,659.43,660.58,655.43,664.57,661.17,659.67,656.86,656.96,661.97,653.84
662.31,667.58,671.98,673.32,666.47,664,667.7,663.5,666.17,670.98,667.55,667.8,661.81,664.48,664.27,674.72,665.01,661.03,667.85,664.67,670.51,668.2,666.76,666.44,663.85,670.18,664.46,671.53,659.87,664.17,669.62,669.59,671,670.35,661.62,664.08,668.5,666.05,662.28,668.66,664.99,671.51,664.79,668.43,671.7,664.76,665.55,664.2,665,662.76,665.61,662.78,666.36,668.33,667.99,668.37,665.56,665.56,664.35,673.78,667.12,661.83,666.75,665.32,666.87,670.88,671.73,668.31,669.86,668.14,663.26,664.51,670.43,668.84,667.31,666.66,660.81,662.48,667.81,667.7,663.53,672.54,665.64,664.65,669.72,672.18,669.43,669.78,666.66,665.96,667.74,667.56,660.55,670.59,670.83,662.42,672.75,668.47,668.33,662.55
673.65,683.16,690.03,688.38,691.22,679.17,677.87,687.42,680.49,697.51,686.09,690.44,679.03,688.17,672.79,679.04,681.1,688.5,678.56,681.33,680.91,693.46,683.95,673.82,687.8,690.6,673.01,681.56,675.37,690.45,682.13,683.25,684.38,687.98,686.48,687.37,680.98,671.83,684.54,699.7,678.21,693.24,681.43,692.03,694.58,679.67,686.79,686.37,682.72,681.67,678.19,687.05,691.51,669.38,683,685.18,686.91,685.88,671.38,681.95,682.03,672.13,688.88,686.82,682.54,686.54,689.57,682.58,697.58,677.64,674.3,687.61,691.61,691.1,687.28,684.16,673.91,692.66,691.31,690.84,691.48,690.85,678.6,678.93,679.68,687.36,697.98,691.15,679.83,693.79,690.06,684.12,682.74,697.51,686.29,686.18,687.05,689.92,688.36,678.51
692.19,698.72,705.93,692.5,696.01,692.22,698.3,689.79,699.89,698.72,694.61,693.24,694.7,689.4,698.39,701.26,693.57,695.95,689.44,683.95,699.14,699.34,693.73,683.9,691.95,699.09,691.16,700.32,691.81,694.53,686.58,698.23,702.16,700.05,693.41,689.27,693.12,694.62,694.92,702.79,700.92,699.3,697.21,699.68,700.39,690.79,691.78,689.59,698.09,693.45,692.36,689.47,695.58,696.85,695.63,695.79,697.02,693.35,688.42,696.46,693.21,699.9,693.04,690.62,688.85,689.87,694.98,693.88,700.98,692.65,694.22,691.93,695.54,696.55,690.73,696.43,695.39,699.88,693.55,695.91,695.94,696.59,699.38,703.05,698.42,697.59,699.79,695.01,690.27,705.47,700.76,694.48,693.11,701.9,700.7,692.13,695.24,694.09,696.64,688.81
711.77,713.12,718.68,712.86,713.84,711.96,714.57,715.54,712.24,719.68,713.14,714.27,709.92,706.78,711.33,717.07,709.07,707.34,710.75,705.19,716.69,712.37,707,706.82,712.94,710.85,711.06,718.92,705.41,708.63,711.04,713.35,714.34,719.02,708.22,705.86,708.96,711.31,709.14,719.69,715.46,716.23,708.18,718.91,717.38,712.89,707.68,709.41,712.12,709.42,715.45,711.79,709.2,715.58,712.98,714.1,714.06,707.7,713.52,715.3,710.83,704.54,713.48,707.73,711.96,719.15,714.76,713.31,715.86,715.34,709.72,707.99,711.95,712.35,712.17,709.66,700.01,712.57,713.55,711.7,708.46,711.91,716.46,706.76,719.84,717.83,721.2,715.73,709.57,718.79,716.18,711.23,707.49,716.66,715.19,713.29,713.62,710.11,710.56,706.07
722.69,730.28,737.2,737.78,738.08,728.54,731.4,734.07,732.6,742.39,739.79,734.74,730.85,734.46,724.25,735.9,726.1,730.79,725.96,726.4,737.53,739.13,735.81,724.87,738.21,737.71,722.4,734.56,724.28,732.69,731.95,731.4,734.82,737.69,737.89,726.96,735.89,728.79,732.12,739.03,729.8,745.49,731.65,737.92,742.22,733.39,732.36,729.53,732.24,730.17,728.98,734.08,734.83,726.08,735.18,737.25,727.68,732,726.92,728.06,731.23,724.77,736.42,734.03,734.56,735.84,741.22,734.22,738.24,732.02,724.4,732.6,741.22,735.04,733.81,733.13,723.11,737.7,738.97,734.65,739.2,734.58,737.14,730.49,737.04,741.94,743.84,734.47,724.44,744.8,733.9,729.98,727.49,739.66,737.16,732.2,733.32,733.78,733.67,727.18
750.18,755.92,762.44,757.83,764.84,753.94,759.23,759.89,759.22,764.99,760.57,763.26,754.46,756.97,753.15,765.09,750.26,760.56,753.37,748.39,758.79,765.42,759.28,749.55,757.86,764.98,752.24,762.08,751.46,757.38,753.24,756.61,763.27,762.59,757.86,751.62,760.5,753.46,758.11,769.84,758.19,764.56,755,760.26,764,753.28,754.76,751.44,757.7,752.72,754.29,754.07,761.31,754.5,758.75,758.05,757.15,755.72,750.09,755.3,753.03,753.9,757.6,754.89,757.28,756.17,763.08,756.65,763.72,755.69,751.22,759.83,762.84,763.05,757.54,756.19,749.26,765.97,763.09,757.34,768.4,760.32,758.51,758.65,761.63,763.22,767.8,756.43,749.31,779.7,758.53,755.47,754.17,766.3,766.6,755.26,758.54,760.03,756.41,752.78
2647.5,2646.2,2625.4,2606.4,2631.9,2602.7,2610.2,2613.7,2612.9,2601.3,2603.7,2599.6,2638.8,2644.5,2641.2,2610.8,2604.1,2634.9,2648.4,2641,2633.3,2626.6,2609.5,2619,2628.2,2654.6,2621.6,2601.8,2600.1,2594.9,2635.6,2609.1,2608.4,2606.9,2631.6,2607,2610.2,2616.8,2645.5,2616,2614.1,2599.1,2642.3,2625.4,2630.2,2619.7,2609.6,2616.6,2627.1,2632.9,2641.7,2594,2609.4,2607.7,2621.1,2615.4,2617.3,2619.7,2602.2,2624.8,2632.7,2614.1,2625.5,2651.9,2603.7,2637.1,2628.7,2616.2,2617.7,2599.6,2650.1,2638.9,2606,2607.4,2630.1,2643.1,2621.4,2629.5,2638,2655.2,2620.6,2623.7,2626.7,2602.2,2621.2,2626.9,2628.3,2623.9,2639.2,2647.8,2622.9,2617.9,2607.7,2603.7,2609.4,2625.4,2643.2,2602.8,2596.7,2620
2653.3,2650.3,2639.6,2606.9,2632.4,2650.4,2665.1,2651.3,2643.1,2638.2,2631.3,2639,2657.2,2662.8,2648.4,2638.7,2631.6,2655.3,2649.7,2652.9,2648.6,2643.2,2616.2,2632.4,2648.1,2657.7,2638.6,2629.7,2656.2,2640.2,2644.8,2637,2646.9,2637,2642.7,2633.9,2611,2646.8,2648.1,2652.1,2630.6,2646.3,2649.3,2663.9,2646,2663.1,2620.7,2629.2,2658.4,2644.9,2642.8,2619.6,2633,2653.4,2640.1,2627.1,2661.8,2649.9,2624.9,2632,2653.9,2650.9,2650.6,2654.1,2654.9,2650.4,2635.9,2638.8,2639.9,2628.7,2651,2663.9,2659.1,2626.6,2651.2,2649.6,2639.5,2651.4,2654.7,2665.2,2631.7,2628,2631.5,2646.8,2639.8,2664.2,2658,2662.9,2652,2651.6,2634.4,2632.1,2637.6,2658.6,2627.9,2639.9,2643.5,2654.2,2620.7,2636.1
2745.6,2744.7,2729.1,2773.2,2742.2,2778.6,2753.9,2791.8,2766.9,2761.3,2774.9,2779.6,2731.3,2742.5,2732,2791.2,2770.4,2760.6,2776.6,2732.4,2729.6,2739.2,2744.6,2727.1,2727.8,2745,2749.3,2742.6,2763.1,2748.2,2755.5,2773.5,2769.1,2774.9,2773.8,2786.1,2733.7,2738.6,2769.7,2790.7,2746.9,2789.5,2751.7,2731.3,2732.1,2793.2,2788.8,2726.2,2756.6,2773.9,2782.7,2783.8,2749.1,2786.9,2779.6,2740.1,2779.3,2761.7,2767.3,2787.3,2762.9,2784.8,2732.1,2736.8,2773.7,2774.3,2749.7,2771,2727.7,2744.6,2728.7,2742,2773.3,2753.6,2730.9,2780.4,2790.5,2746.1,2783.1,2774.6,2747.7,2728.3,2736.5,2746.1,2743.9,2752.3,2740.9,2728.3,2727.4,2732.3,2773.5,2750.3,2732.6,2744,2749.7,2778.5,2753,2783.5,2791.7,2742.5
3429.7,3456.1,3441.8,3472.1,3444,3407.7,3462.2,3461.3,3450.8,3436.1,3472.8,3423.5,3412.6,3455.8,3469.7,3475.7,3478,3423.8,3425.2,3482.3,3460.2,3424.6,3442,3425.6,3470.9,3478.4,3483.3,3421,3416.9,3462.1,3483.5,3421,3458.7,3484.8,3472.1,3443.8,3463.1,3415,3467.8,3447,3425.5,3429.4,3463.2,3416.1,3462.3,3432.6,3455.1,3487.7,3448.9,3418.6,3408.1,3442.3,3416,3422.3,3414.3,3404.7,3468.3,3426,3421.9,3407.8,3412.5,3446.2,3442.5,3473.4,3406.2,3474.2,3418.4,3457.8,3415.4,3464.3,3449.4,3414,3434.5,3420.8,3438,3472,3423,3486,3448.6,3424.8,3415.8,3440.7,3405.3,3428.1,3477.6,3464.4,3412.7,3437.1,3468.4,3423.3,3433.7,3456.7,3465.5,3456.2,3436.2,3405.9,3431.9,3439.9,3483.6,3412.3
