14.692,14.605,14.467,14.572,14.446,14.329,14.632,14.429,14.731,14.337,14.538,14.485,14.482,14.461,14.51,14.563,14.672,14.364,14.375,14.569,14.583,14.761,14.432,14.456,14.536,14.414,14.628,14.514,14.705,14.743,14.515,14.415,14.168,14.716,14.565,14.591,14.471,14.657,14.508,14.525,14.6,14.42,14.692,14.327,14.377,14.568,14.278,14.447,14.405,14.576,14.657,14.426,14.177,14.452,14.456,14.437,14.777,14.363,14.538,14.435,14.608,14.679,14.477,14.501,14.34,14.504,14.515,14.699,14.37,14.376,14.535,14.6,14.538,14.542,14.386,14.589,14.367,14.426,14.473,14.538,14.41,14.35,14.526,14.559,14.538,14.327,14.272,14.433,14.571,14.652,14.322,14.526,14.282,14.495,14.713,14.678,14.516,14.242,14.615,14.648
18.565,18.446,18.612,18.764,18.55,18.629,18.725,18.301,18.51,18.787,18.621,18.482,18.622,18.313,18.576,18.787,18.609,18.458,18.629,18.727,18.72,18.477,18.522,18.711,18.566,18.541,18.552,18.455,18.514,18.485,18.57,18.505,18.633,18.64,18.214,18.651,18.513,18.886,18.57,18.675,18.596,18.393,18.415,18.497,18.641,18.534,18.176,18.692,18.546,18.53,18.671,18.429,18.58,18.656,18.662,18.717,18.722,18.569,18.859,18.55,18.485,18.411,18.443,18.174,18.505,18.959,18.689,18.466,18.266,18.41,18.448,18.731,18.763,18.431,18.646,18.433,18.57,18.417,18.467,18.688,18.336,18.558,18.596,18.709,18.543,18.412,18.723,18.423,18.454,18.54,18.424,18.875,18.482,18.528,18.641,18.314,18.437,18.651,18.59,18.872
38.403,38.707,38.692,39.057,38.303,38.226,39.08,38.361,38.383,39.041,38.74,38.684,38.53,38.269,38.414,38.937,38.721,38.247,38.325,38.72,38.301,39.379,38.928,38.296,38.335,38.399,38.717,38.552,39.098,38.763,38.579,38.549,38.748,38.716,38.407,38.726,38.228,38.679,38.582,38.734,38.719,39.17,38.829,38.395,38.781,38.423,38.527,38.137,38.167,38.483,38.747,38.586,38.194,38.283,38.511,38.323,38.842,38.19,38.496,38.5,38.361,38.529,38.926,38.737,38.572,39.196,38.715,38.522,38.263,38.15,38.161,38.602,38.184,38.187,38.637,38.394,38.386,38.409,38.534,38.593,38.656,38.442,38.84,38.588,38.411,38.823,38.805,38.909,38.394,38.899,38.306,38.815,38.176,38.572,38.828,38.565,38.48,38.466,38.629,38.666
67.374,67.438,67.895,68.147,67.385,67.149,67.808,67.221,67.428,67.821,67.777,66.909,67.222,66.548,67.522,68.332,67.524,67,66.991,67.75,67.488,67.482,66.754,67.29,67.26,67.452,67.401,67.4,67.581,67.193,67.736,67.813,67.546,67.711,67.369,67.485,67.544,67.826,67.154,67.712,67.537,67.605,67.25,67.461,67.413,67.362,66.968,67.44,67.357,67.697,67.441,67.498,67.072,67.723,67.059,67.807,67.998,67.019,67.828,67.277,66.858,67.174,67.345,66.553,67.082,68.049,67.881,67.571,67.374,67.224,67.577,67.668,67.551,66.956,68.036,67.493,67.355,66.935,67.392,67.665,67.072,67.762,67.963,67.615,67.429,67.379,67.821,67.414,67.264,67.48,67.168,67.596,67.132,67.268,68.137,67.38,67.082,67.228,67.991,67.904
75.501,75.56,74.865,76.286,74.726,74.607,75.762,74.824,75.208,75.486,74.937,75.045,75.016,74.721,75.017,75.25,75.413,74.961,74.539,74.976,74.208,76.19,75.626,74.551,75.527,74.924,75.018,74.988,75.903,75.478,75.284,75.056,74.871,75.042,75.279,75.168,74.893,75.54,74.695,75.286,76.031,76.486,75.348,74.787,75.047,74.573,74.118,74.405,74.03,74.451,74.479,74.557,74.921,74.557,74.683,75.254,76.416,74.754,75.716,74.676,73.903,74.707,75.312,74.987,74.957,75.824,75.103,74.636,74.882,75.051,74.058,75.437,74.758,74.377,75.422,74.772,75.13,74.809,75.379,74.454,75.315,75.01,75.52,75.533,74.13,75.092,75.377,75.278,74.514,75.597,74.394,75.094,74.776,74.633,75.326,74.937,75.469,75.096,75.008,75.334
91.766,91.68,91.502,91.657,90.975,90.718,91.031,90.643,91.356,91.147,91.75,91.82,91.393,90.009,90.891,91.823,91.99,90.744,90.981,91.635,91.136,92.066,90.941,91.707,91.111,90.494,91.513,91.306,91.393,91.626,91.272,91.512,90.559,91.139,90.067,92.099,90.297,92.101,91.35,91.685,90.834,90.435,91.012,90.917,90.285,90.718,91.206,91.813,90.428,91.572,91.593,90.6,91.229,91.374,91.354,90.998,92.387,91.075,92.169,90.649,91.007,90.804,90.611,90.852,91.17,92.352,91.197,90.478,90.626,90.859,89.847,91.197,92.131,91.022,91.354,90.846,90.865,91.009,90.693,91.671,90.635,90.646,91.32,91.386,91.134,89.834,90.981,90.618,91.142,90.701,91.055,92.126,89.98,90.82,91.57,90.805,90.866,90.59,90.291,91.909
108.04,109,108.39,109.65,108.57,107.81,109.16,109,109.13,109.72,109,108.43,108.15,108.34,108.73,108.96,109.17,108.81,108.62,109.18,107.85,109.94,109.74,108.82,108.08,108.2,108.8,108.77,109.91,109.06,108.71,108.42,109.17,108.97,109.54,108.34,108.66,108.83,108.39,109.08,109.48,110.67,108.75,108.35,108.81,109.96,108.24,107.16,108.56,108.66,108.21,109.22,108.09,108.29,108.83,109.55,109.03,109.08,109.08,108.33,107.95,108.73,109.53,108.74,108.51,109.49,109,108.54,108.68,108.24,107.83,109.09,108.04,108.11,108.91,107.68,107.83,107.95,108.84,108.13,108.88,108.88,108.33,109.01,109.09,108.74,108.45,109.54,107.74,109.1,107.93,108.94,108.7,110.08,109.18,109.28,109.14,109.05,109.04,109.01
134.81,135.51,136.13,136.63,135.49,134.2,135.31,134.88,136.53,135.82,135.6,134.23,134.55,134.47,134.07,136.41,135.52,135,134.43,134.24,134.69,136.2,134.73,134.89,135.57,135.85,134.98,134.58,136.51,134.14,135.29,136.51,135.22,135.38,136.39,135.87,136.46,135.42,134.84,135.21,136.3,135.37,135.49,134.9,134.56,134.72,135.44,134.34,134.51,135.34,134.55,135.32,135.4,135.81,134.06,136.27,136.54,135.26,135.49,135.31,134.7,135.26,135.35,135.29,134.76,136.06,135.54,135.73,135,135.07,135.62,134.82,135.77,134.12,134.93,134.73,135.42,135.68,135.8,135.52,135.43,136.52,137.08,135.46,133.81,135.03,135.63,135.08,134.95,135.84,135.81,134.47,134.15,134.98,136.3,135.46,135.57,136.19,135.59,134.74
142.91,143.23,143.91,145.86,142.08,140.78,144.83,143.35,142.26,144.68,143.05,142.74,141.78,142.44,143.25,144.29,143.2,143.45,142.75,143.06,142.06,144.31,145.08,142.26,143.36,141.9,142.89,142,145.18,145.19,143.16,143.58,143.31,143.8,144.41,143.57,144.35,143.85,142.29,143.95,145.07,146.46,144.67,143.11,143.32,144.18,143.17,142.09,142.02,143.76,142.43,142.99,141.62,142.14,141.83,143.28,143.28,141.68,142.15,143.56,142.02,142.57,144.97,144.31,143.09,144.16,143.29,142.57,141.9,142.96,142.34,143.42,141.36,142.07,143.6,143.34,142.94,142.59,142.1,143.46,146.2,144.14,145.72,144.05,141.87,144.07,143.4,144.53,141.91,143.8,142.59,142.07,143.48,143.34,144.34,143.49,142.26,143.61,143.38,142.51
167.53,168.63,170.8,170.68,167.95,167.72,167.76,167.31,170.29,168.45,168.65,168.56,167.81,166.09,168.05,167.8,168.45,169.34,165.75,167.88,167.05,168.55,167.74,169.49,166.04,168.02,167.43,167.57,168.96,167.83,166.75,170.08,167.25,170.24,169.12,167.12,168.52,166.78,168.39,166.8,168.58,166.61,168.91,167.08,167.71,167.47,168.73,166.39,169.1,165.95,167.8,168.22,167.41,168.69,167.59,169.53,169.56,170.84,168.74,169.04,168.87,168.65,167.94,168.43,168.3,169.45,168.37,169.4,167.7,168.58,168.73,167.72,168.54,167.53,167.84,166.98,167.83,166.96,169.19,169.01,167.81,169.27,168.81,168.67,165.79,168.27,168.15,170.22,167.9,170.44,169.46,166.48,169.3,168.29,168.56,169.91,169.58,170.28,169.15,168.61
173.36,173,171.78,173.08,172.29,171.14,172.56,172.94,174.37,173.38,172.87,170.77,172.74,172.64,171.94,173.05,173.29,173.02,172.78,174,171.78,173.42,173.94,173.35,170.88,171.23,172.11,172.73,173.11,173.44,171.51,174.07,172.69,172.4,171.6,173.19,172.54,173.01,173.05,172.96,172.39,173.32,171.93,171.97,171.65,172.75,172.5,170.56,171.74,172.55,170.48,174.04,172.39,173.41,172.75,172.3,172.72,173.7,174.66,171.64,171.58,174.12,174.15,171.97,172.49,173.67,173.46,171.73,172.19,172.68,171.86,171.65,174.4,171.65,172.67,170.77,172.79,171.15,173.01,173.24,172.13,172.31,171.72,173.22,172.49,172.66,171.78,173.13,172.02,172.46,171.33,171.52,172.85,173.83,172.97,172.55,173.2,171.09,171.54,173.17
211.35,213.77,212.01,213.08,211.03,213.25,213.37,210.8,211.32,215.29,212.71,213.79,210.42,209.93,211.23,214.91,212.32,209.01,210.35,214.26,208.43,214.81,211.08,210.67,210.97,213.81,212.28,211.64,212.67,212.15,212.91,211.96,214.17,211.58,212.99,212.08,208.19,210.39,211.5,212.68,211.78,215.54,211.4,211.65,212.17,209.94,211.19,209.64,212.12,210.35,212.53,212.89,212.15,213.23,213.61,212.39,212.22,209.87,211.3,210.54,211.77,210.06,212.29,210.43,209.11,216.08,213.77,211.42,212.02,210.46,211.14,211.54,211.88,210.47,213.3,210.29,210.69,209.87,212.16,209.41,209.74,211.98,210.78,210.66,213.14,212.2,213.92,213.71,211.64,213.33,210.35,213.93,209.39,213.61,211.89,211.66,213.42,212.39,212.27,211.91
217.15,216.93,216.82,218.29,216.19,216.83,218.9,216.92,216.45,218.63,218.5,215.98,215.76,216.4,217.82,219.47,217.27,217.19,217.6,218.83,215.87,217.49,217.18,216.51,215.89,217.09,217.87,217.48,219.95,218.68,218.07,217.2,218.77,217.86,215.93,218.28,215.12,218.28,217.08,217.86,219.81,218.31,217.23,216.84,214.98,216.14,217.83,214.7,216.47,218.72,217.27,218.56,215.94,217.34,217.11,214.68,215.97,216.98,217.32,217.5,216.46,216.68,218.18,217.09,215.33,219.07,218.09,217.11,212.8,215.21,217.25,217.32,217.74,215.57,217.67,217.13,216.22,216.28,216.17,217.65,218.18,215.45,218.58,218.07,216.36,217.41,218.46,218.56,215.86,216.58,216.33,215.56,215.5,217.46,219.16,217.98,215.47,215.3,217.54,217.18
226.42,228.35,229.45,229.41,228.13,229.78,230.74,228.98,230.14,231.91,230.24,229.01,227.78,228.93,228.1,230.89,229.08,229.06,228.89,229.61,227.41,232.05,230.03,230.06,226.84,228.38,229.27,228.17,231.5,229.3,227.13,228.38,228.79,230.05,226.9,230.31,228.51,229.42,228.85,229.91,230.22,230.47,228.8,226.38,228.97,229.81,229.42,226.71,226.02,228.71,228.71,230.03,228.06,230.26,229.27,227.14,229.61,228.37,228.89,229.02,229.38,228.07,230.6,229.7,227.69,232.05,227.99,229.49,226.26,226.45,227.83,228.36,229.29,229.01,228.92,228.21,228.73,229.45,230,228.15,228.33,229.01,228.91,229.83,229.6,229.69,227.73,230.75,228.23,231.47,227.36,229.12,227.25,229.81,230.2,229.28,227.97,229.61,227.24,230.05
229.28,231.91,232.53,233.01,230.98,232.27,233.18,231.97,233.75,234.11,232.86,232.75,231.11,230.64,230.38,233.51,233.79,233.32,231.39,232.3,231.89,235.49,233.1,232.7,231.17,232.23,232.18,231.28,236.44,231.83,232.21,232.12,233.02,233.33,232.61,233.22,231.83,232.64,232.08,232.79,233.86,234.66,232.35,230.95,231.44,232.5,232.54,229.68,232.29,231.66,232.91,232.54,232.26,232.9,232.54,233.15,232.7,233.07,231.71,231.67,232.34,231.96,233.23,233.16,232.27,235,232.94,233.12,230.71,229.11,231.64,232.09,232.01,231.91,230.55,230.38,232.7,232.31,232.9,233.13,231.78,232.56,232.76,232.94,233.06,231.58,232.73,233.04,230.97,233.81,232.45,235.11,229.81,234.49,232.59,231.85,234.44,233.05,232.45,232.73
247.33,249.61,250.07,247.34,249.18,246.62,251.49,249.64,250.27,248.01,250.3,249.07,247.66,249.79,249.59,247.75,247.27,247,248.78,249.25,248.46,246.7,249.64,249.36,247.02,247.97,248.25,248.03,246.36,250.04,246.7,248.72,248.72,247.34,247.79,247.63,247.93,248.6,248.65,249.67,250.03,246.43,248.28,247.18,248.69,248.43,247.54,247.55,246.52,248.7,249.21,250.37,248.37,249.81,246.87,247.3,249.76,249.35,249.71,248.84,249.33,248.03,249.22,249.58,247.74,250.85,247.24,249.5,246.77,246.81,248.87,248.63,249.11,246.52,246.33,248.34,246.29,245.91,246.46,249.05,246.95,248.21,248.4,248.48,245.24,248.81,246.52,247.05,247.82,248.48,246.63,247.75,248.3,250.5,249.65,249.99,247.96,248.2,247.49,250.21
248.65,250.19,251.63,251.11,250.25,250.48,251.78,253.11,251.87,250.42,251.2,249.84,250.13,250.12,250.18,250.88,249.97,250.15,249.87,249.67,250.17,251.26,251.17,251.07,249.47,249.98,249.51,249.28,251.57,251.02,248.55,250.4,250.9,251.64,249.78,252.35,249.46,252.43,249.53,251.72,252.75,251.14,250.17,247.8,250.09,250.96,250.22,248.75,251.23,250.35,250.38,251.9,249.5,251.16,249.74,247.61,250.38,252.04,250.08,249.8,251.4,249.43,251.05,250.53,250.25,251.8,249.82,251.84,247.82,249.09,250.07,251.77,252.16,250.03,250.19,250.42,248.04,248.88,250.75,252.43,250.78,249.13,252.05,250.6,249.15,250.28,249.95,250.8,251.17,251.42,250.09,249.24,249.54,251.81,250.9,251.3,248.6,250.12,250.25,251.27
253.96,252.5,252.56,253.74,251.22,252.34,255.05,253.44,252.53,252.07,252.96,250.5,251.63,251.46,252.89,253.19,251.11,253.54,251.96,251.39,251.21,251.79,252.03,252.19,251.86,252.86,253.1,251.12,256.27,252.61,253.2,251.2,252.32,252.11,250.8,253.76,250.09,253.14,252.95,252.47,254.82,252.02,250.79,251.19,251.13,251.68,251.43,251.4,253.21,254.17,253.46,255.17,251.58,252.97,250.27,250.52,252.96,254.07,253.1,251.6,252.27,251.39,252.41,252.57,251.67,253.87,255.71,253.58,250.33,250.14,252.85,253.27,253.95,250.75,251.58,252.45,255.71,251.55,254.03,252.71,252.01,250.95,253.55,253.09,250.55,252.86,252,251.82,252.2,253.02,251.31,251.11,251.76,252.95,254.02,252.54,250.94,250.65,252.5,254.08
270.48,270.64,270.18,270.82,271.7,268.65,269.87,269.47,272.89,270.21,270.54,266.8,269.74,269.73,269.8,270.62,272.14,270.54,271.58,274.62,269.83,272.21,268.4,269.59,269.46,269.42,272.47,271.16,273.45,268.95,270.54,269.01,271.21,268.79,268.3,272.3,267.7,270.92,268.74,272.38,272.21,270.34,270.77,269.38,266.09,269.99,271.89,268.58,268.34,271.19,267.62,270.63,269.07,271.15,268.57,266.41,269.58,273.81,272.36,270.47,267.52,270,271.19,271.21,268.84,271.96,269.66,270.65,266.54,272.64,270.65,271.46,273.62,269.46,269.88,266.56,268.97,269.31,270.36,272.19,270,270.77,270.14,272.01,269.55,269.85,270.29,269.4,266.01,266.84,271.29,268.38,267.96,269.27,270.82,271.04,266.47,267.55,268.53,270.43
282.31,282.57,281.55,280.52,283.11,281.29,283.59,284.69,282.5,280.76,283.72,280.27,280.95,281.47,280.78,282.77,279.78,278.76,282.8,281.6,282.23,280.18,281.88,282.14,283.11,282.16,282.99,280.4,281.45,280.98,280.94,281.76,283.15,279.64,280.49,283.68,280.58,282.81,280.32,282.79,284.25,278.48,281.57,280.49,281.28,282.18,280.14,280.17,282.17,281.67,282.47,284.04,281.37,283.45,279.74,282.05,283.31,282.58,282.03,280.74,281.98,280.5,280.73,283.31,279.45,283.2,282.2,282.19,280.57,281.54,281.65,284.03,285.07,278.53,279.49,281.41,278.61,281.04,281.25,282.17,281.29,281.31,282.33,280.81,279.01,282.52,281.27,280.35,283.04,281.56,282.14,281.68,280.39,282.23,283,280.98,280.76,281.6,281.82,282.32
297.11,302.16,302.37,300.36,299.42,298.47,301.27,300.98,302.96,299.92,303.19,299.84,299.43,297.49,300.98,297.9,297.93,300.38,298.74,302.17,299.31,299,300.9,300.41,297.93,299.58,298.72,299.72,299.38,300.3,297.15,301.79,300.81,299.71,300.01,300.05,299.24,300.68,297.89,300.66,302.75,296.32,299.28,296.63,299.4,300.87,298.52,296.82,299.49,300.8,299.65,301.45,299.29,302.31,298.11,297.35,301.9,302.81,300.9,300.99,300.34,299.15,300.37,300.08,299.18,302.3,300.27,301.81,299.14,299.5,300.73,301.59,302,298.23,299.65,299.15,298.53,294.59,300.26,300.84,298.65,298.08,299.02,300.33,295.96,301.24,297.49,298.84,300,301.07,298.48,299.78,301.32,301.38,300.73,300.71,299.37,298.25,299.29,301.46
302.93,302.95,303.49,302.9,303.32,301.17,303.58,305.22,305.4,302.69,304.52,302.68,303.21,304.63,302.03,303.4,304.35,303.02,301.51,303,300.1,303.58,304.03,303.41,300.4,301.48,303.4,301.21,306.69,303.25,301.33,302.31,301.46,304.06,301,302.48,301.23,302.13,304.06,302.54,303.68,302.43,304.04,301.29,302.02,304.83,302.35,301.06,302.25,302.35,301.65,305.55,300.85,303.83,301.69,303.83,303.58,303.9,304.22,301.77,302.47,305.18,303.05,304.92,302.36,303.25,301.8,303.1,301.21,301.75,301.76,302.56,305.17,300.48,301.66,301.48,300.91,302.37,303.17,303.1,301,304.89,302.49,303.21,302.65,303.69,302.09,305.38,303.49,303.9,302.76,301.05,304.27,304.94,302.5,304.59,302.69,303.44,302.97,304.08
344.13,343.5,340.67,343.08,339.59,340.45,341.87,338.6,343.24,340.91,339.76,339.5,340.16,338.79,341.57,343.35,339.01,339.34,339.91,344.63,338.84,341.74,341.99,341.02,344.54,341.78,340.41,341.64,344.02,342.07,340.37,345.77,344.2,339.84,339.89,344.45,337.81,345.19,336.91,343.59,342.43,341.85,342.65,340.18,338.84,339.18,341.57,338.57,337.65,339.78,340.66,340.14,336.99,343.86,341.55,344.35,343.46,340.26,343.35,341.15,342.73,337.69,338.82,340.89,338.79,342.82,345.03,341.29,340,341.65,341.45,342.58,343.56,340.54,339.46,336.59,339.36,339.43,342.81,340.25,340.33,340.14,343.12,342,340.86,341.39,339.45,340.31,339.14,341.21,338.15,339.37,338.14,341.09,341.36,338.06,341.87,340.68,340.28,343.46
350.31,352.42,346.74,351.24,351.54,350.8,353.2,351,351.04,352.92,353.05,348,348.69,350.03,352.08,352.77,351.69,347.81,352.94,352.09,348.09,349.9,352.04,350.65,350.17,351.28,351.47,350.03,352.64,352.03,351.57,348.64,353.9,350.48,348.86,351.34,347.63,350.69,349.11,351.68,353.87,350.53,350.16,350.18,346.79,351.69,349.84,347.79,349.28,351.72,351.9,351.49,350.97,351.82,350.18,350.74,346.47,351.89,351.76,348.82,348.63,349.58,351.42,349.87,346.75,352.98,352.33,349.32,344.73,349.91,348.59,351.53,353.83,348.67,349.79,347.37,347.84,346.85,349.55,348.51,350.57,349.01,350.18,350,350.26,348.32,351.46,350.61,348.75,347.28,349.97,347.53,347.94,352.43,351.64,351.08,348.34,348.56,350.03,350.87
376.17,374.08,373.17,374.55,372.12,373.96,373.33,374.72,376.08,374.15,375.1,373.18,373.63,371.91,374.07,373.61,373.23,374.12,372.2,375.12,371.37,375.45,375.94,373.11,372.38,371.72,371.78,373.57,376.63,376.39,373.15,377.97,373.19,375.93,373.25,376.24,374.53,372.41,373.33,374.61,377.9,374.65,373.07,373.67,372.51,374.92,370.63,372.05,370.76,373.33,375.32,373.13,373.22,371.84,371.59,373.47,377.92,376.86,375.07,369.29,370.91,373.65,375.48,373.8,371.58,376.61,373.63,377.29,373.25,372.75,372.71,373.8,375.34,373.14,369.75,372.48,375,369.75,374.38,373.84,374.5,372.89,376.14,373.49,370.98,371.84,369.76,374.64,372.92,375.43,373.57,373.84,374.55,374.4,372.66,373.74,374.95,372.58,374.22,376.13
385.52,385.69,380.07,384.97,383.76,383.73,386.7,386.26,382.13,384.74,387.82,383.47,382.74,382.8,384.91,383.95,382.36,381.66,382.28,387.73,382.88,387.34,382.36,387.7,378.61,380.12,382.6,384.87,385.11,389.18,383.09,385.73,384.3,382.11,385.08,383,384.73,387.02,384.97,384.4,387.57,381.71,383.7,381.81,381.28,385.15,385.18,379.51,382.1,381.88,383.24,384.14,385.61,386.53,379.76,383.76,385.45,384.18,387.78,387.25,382.4,385.37,384.39,384.35,382.73,387.7,384.61,386.37,379.35,384.73,384.59,382.9,384.35,384.11,384.5,381.37,381.29,381.53,386.73,382.52,382.88,384.38,384.07,385.99,382.71,386.19,380.8,384.77,382.59,384.81,386.03,384.02,386.92,387.11,387.07,387.82,381.53,386.22,380.46,387.66
394.01,398.31,400.22,399.07,396.1,397.88,400.52,398.47,400.35,396.64,402.66,396.38,397.03,394.99,395.5,398.88,399.61,398.31,397.35,395.17,397.96,398.02,395.18,399.83,397.6,398.74,395.68,394.78,400.58,395.93,399.2,401.44,398.17,395.57,398.06,397.61,398.08,397.8,398.16,398.23,400.83,394.26,398.75,393.6,397.55,398.37,397.97,395.59,399.09,400.54,398.29,400.05,400.2,401.41,397.13,397.38,397.65,398.07,398.95,397.63,399.17,398.88,397.11,397.35,398.21,398.37,399.52,399.83,397.2,397.41,398.22,400.33,400.8,392.57,396.93,394.1,394.33,397.16,401.56,398.28,397.06,398.6,399.08,397.31,396.37,397.33,397.78,399.64,397.53,398.62,399.92,397.55,396.2,400.37,397.2,401.04,398.34,401.21,398.94,400.08
425.72,423.9,425.51,426.48,422.91,426.56,425.11,424.55,427.34,424.22,425.19,422.93,422.52,422.75,422.25,424.4,425.37,423.81,421.94,424.57,418.86,425.18,420.7,426.47,423.95,423.07,421.84,424.82,427.16,424.35,422.89,426.37,423.31,426.38,422.9,427.86,424.8,421.38,423.01,427.73,424.4,427.38,422.9,422.64,422.95,424.13,424.42,423.53,421.08,425.26,424.71,421.71,425.07,425.64,422.54,421.3,427.43,424.72,425.64,423.63,424.7,424.03,427.33,424.87,421.79,428.3,425.87,426.4,421.08,422.4,423.21,423.45,424.23,423.4,421.79,422.79,425.41,421.83,423,424.06,425.75,424.82,426.61,424.93,421.74,421.83,421.34,424.3,422.29,424.68,424.32,425.41,424.21,422.68,424.01,422.87,422.92,423.59,424.64,425.76
434.13,429.38,433.3,434.09,430.49,439.83,430.78,439.28,440.11,430.43,431.21,430.22,427.64,432.27,429.15,430.17,434.92,432.44,430.26,430.98,429.65,432.99,427.94,434,429.37,430.75,430.2,432.35,433.42,429.52,433.61,436.05,429.82,437.1,431.78,437.03,434.5,432.78,429.04,435.89,431.58,437.24,428.16,432.5,431.85,430.67,428.23,431.17,430.28,430.73,435.27,428.4,431.16,432.45,427.52,430.27,431.53,435.6,432.62,427.35,428.93,428.32,440.43,433.92,430.3,437.12,435.4,433.02,430.16,429.53,429.34,429.37,434.91,437.5,427.22,431.99,438.28,425.67,429.16,431.46,431.7,431.79,432.57,434.33,429.65,431.98,426.16,428.83,432.44,432.98,436.45,437.55,428.08,431.76,428.98,431.17,433.26,434.13,429.89,436.06
453.55,445.29,449.47,450.19,446.03,456.74,446.73,453.13,448.48,446.09,449.15,446.3,443.29,448.09,444.7,447.07,447.35,445.35,443.6,445.36,437.51,449.64,439.45,449.48,444.3,444.78,445.07,449.02,448.5,444.02,443.65,451.9,446.53,454.06,448.03,449.9,448.1,448.56,445.23,448.86,451.09,454.33,440.27,449.7,442.48,447.75,447.22,450.19,445.34,448.19,453.39,446.7,450.22,448.06,449.13,444.15,437.96,453.49,445.69,444.96,447.66,443.07,450.49,447.73,443.34,450.39,447.91,448.7,441.91,439.84,446.58,444.39,448.61,455.43,443.09,442.95,446.79,442.48,446.72,447.08,449.53,447.38,450.27,447.86,443.93,444.83,442.82,447.14,444.94,446.84,449.4,451.16,444.85,448.66,446.04,445.52,453.46,449.81,446.6,449.97
461.32,459.41,453.03,457.98,454.58,465.73,460.94,463.95,453.73,460.59,459.96,462.67,452.4,466.31,463.81,460.71,456.18,461.68,461.02,456.92,454.74,456.65,457.82,463.3,457.87,456.23,456.75,461.53,465.05,461.9,458.95,466.39,460.25,464.94,456.25,455.97,461.74,463.54,448.86,463.19,465.65,457.51,457.3,465.34,452.36,463,454.44,461.2,461.97,455.57,466.8,457.74,457.05,467.86,462.58,460.86,451.56,467.33,463.42,460.65,463.43,453.49,463.65,458.62,455.08,458.81,459.46,463.09,456.19,457.57,456.62,459.56,460.99,465.07,461.05,456.76,463.26,452.79,455.75,453.99,463.03,455.8,463.64,465.46,457.37,457.64,458.89,462.15,460.16,459.63,459.2,456.63,452.25,460.21,461.05,461.37,463.19,462.27,461.56,466.07
469.89,465.16,470.42,467.84,460.82,472.52,462.64,470.6,466.51,468.25,468.48,464.76,462.62,468.55,467.04,466.88,468.17,466.47,469.23,464.38,464.57,466.97,462.05,467.23,465.31,460.53,464.28,462.62,468.18,464.7,462.52,470.85,464.64,466.94,462.2,469.85,464.37,468.64,462.21,469.43,470.04,467.18,462.06,466.71,461.64,466.98,464.87,467.02,463.87,462.24,471.61,466.34,464.67,468.7,467.22,464.4,460.43,470.31,464.94,462.51,465.77,460.53,469.68,464.9,464.42,468.39,466.02,464.05,461.71,465.39,464.68,466.56,468.04,470.49,462.76,460.98,469.68,462.13,462.47,465.37,466.27,462.96,465.53,468.8,458.87,463.58,460.15,466.31,462.26,470.02,467.09,467.85,457.23,468.97,465.67,464.57,467.37,467.34,465.22,469.75
477.07,474.31,472.42,476.9,470.93,477.33,473.82,473.96,475.14,472.57,477.26,472.16,467.01,473.87,474.05,471.85,468.97,468.6,472.02,467.5,468.51,472.11,470.1,476.64,470.12,470.61,469.42,471.2,476.59,474,469.84,477.17,474.39,475.75,468.72,473.54,469.76,473.67,468.11,474.83,475.81,474.17,468.33,477.02,466.05,472.15,471.64,470.39,471.41,472.23,477.92,472.34,470.64,477.67,473.65,469.05,476.74,476.1,475.01,471.87,474.9,465.27,473.08,470.79,468.57,473.34,473.5,472.56,468.24,466.15,468.76,471.14,472.87,473.43,468.88,466.09,473.91,466.67,470.85,474.41,473.56,470.48,476.35,474.55,468.07,469.96,469.6,476.17,473.17,472.25,468.45,470.86,467.78,476.48,475.52,472.84,475.57,476.28,472.72,476.63
479.56,478.72,478.4,481.08,476.08,482.97,474.53,477.8,476.73,477.81,480.05,475.12,477.1,474.45,480.66,480.48,476.32,480.02,476.3,475.03,476.99,479.08,474.72,478,473.21,472.87,471.81,478,479.63,478.57,475.56,479.25,475.99,480.55,475.07,481.3,478.62,478.33,477.22,479.5,479.82,477.53,476.58,478.34,471.99,478.75,479.55,478.19,474.2,475.24,479.81,478.19,477.91,481.5,476.74,476.95,479.29,481.53,476.82,472.66,479.53,476.8,478.67,477.64,472.72,480.43,477.21,478.99,476.37,475.79,478.44,476.4,476.46,478.06,474.92,478.56,477.24,471.72,479.73,480.38,480.16,476.18,481.74,479.81,472.29,473.99,470.51,477.34,475.13,477.21,476.3,478.41,475.13,479.43,478.43,475.75,478.42,476.63,476.23,479.43
486.53,479.24,481.89,485.4,481.08,484.37,482.47,481.45,479.95,482.34,485.99,479.67,481.1,477.77,481.75,482.66,478.94,481.6,479.03,481.39,480.34,481.07,478.13,483.74,479.66,476.55,477.39,482.1,486.24,482.97,479.26,482.78,478.93,483.06,481.99,484.8,480.58,484.91,480.87,482.09,484.77,478.99,479.3,481.68,478.29,480.56,481.59,481.86,477.83,482.33,485.01,480.91,482.9,485.13,480.07,479.05,483.27,484.27,484.01,481.29,480.71,481.33,484.12,478.47,479.93,485.12,479.99,482.94,478.46,477.61,483.03,477.99,480.88,481.52,479.49,481.11,484.27,474.71,480.27,481.72,481.6,483.87,483.56,484.03,478.13,478.19,478.52,479.88,476.24,478.48,481.74,479.27,480.52,485.73,483.31,478.58,483.71,480.77,478.11,483.37
488.64,488.98,486.45,488.8,483.95,489.44,487.95,491.79,485.29,489.74,495.15,489.72,488.15,488.89,489.2,489.52,485.81,487.5,488.73,491.7,486.14,488.72,487.61,489.08,484.83,482.11,484.64,488.49,490.93,490.95,489.27,495.5,491.52,490.8,491.28,487.42,487.3,490.39,485.59,490.59,493.55,488.67,487.09,489.34,482.04,488.71,490.76,487.52,488.67,492.76,492.19,487.17,490.29,491.8,486.44,485.75,487.57,490.42,489.55,488.27,485.5,485.39,489.86,485.32,483.82,488.26,491.7,493.02,484.39,490.16,492.19,490.46,489.51,496.2,485.03,486.17,493.83,485.61,488.5,490,488.47,485.69,491.11,493.19,485.45,486.14,486,488.94,486,487.23,495.37,486.38,482.74,492.83,491.37,487.54,488.14,495.17,486.26,491.35
507.57,505.85,506.57,503.96,503.29,513.47,507.94,510.75,504.79,514.7,518.99,506.65,506.46,508.22,509.76,509.8,507.5,507.26,510.69,508.19,508,508.88,509.83,508.56,505.09,504.17,503.16,507.52,514.4,510.65,507.23,508.8,512.53,508.88,505.67,506.28,504.37,510.75,504.48,512.07,510.68,508.17,507.57,505.06,503.98,507.27,507.62,506.14,507.59,506.17,510.34,505.3,504.78,511.6,508.52,503.95,504.08,506.39,508.72,503.45,505.87,502.42,511.72,505.05,502.51,508.46,513.24,504.61,502.53,512.64,509.92,511.9,511.67,513.58,504.59,502.72,514.47,506.75,503.64,506.78,508.17,503.89,507.16,512.63,506.62,504.95,506.46,509.85,505.59,506.25,506.89,508.66,500.48,508.12,508.7,505.38,505.83,513.6,506.07,512.18
521.15,517.5,518.1,520.74,514.35,518.82,521,520.7,512.22,521.54,523.13,517.94,514.58,519.14,515.54,517.89,513.3,517.16,521.17,525.94,517.35,512.81,513.89,517.55,510.73,515.71,515.25,516.13,517.45,517.14,517.8,521.63,522.41,514.79,516.59,516.86,520.26,518.8,521.21,518.01,517.51,513.45,512.58,514.68,516.03,516.73,513.13,519.57,521.63,523.7,519.73,515.49,526.29,519.16,517.66,513.55,521.15,512.85,523.43,518.59,513.15,508.99,513.2,511.38,512.96,520.45,519.18,512.98,513.81,518.8,520.85,518.01,523.84,516.6,521.69,508.79,515.84,516.94,515.19,521.72,511.41,521.59,513.07,516.57,511.41,512.01,514.02,515.64,511.7,517.16,527.93,518.59,514.84,519.43,520.49,516.12,517.31,522.42,513.28,519.48
540.53,537.32,545.13,527.64,530.34,538.73,545.23,537.93,544.15,527.59,542.81,540.85,541.64,541.02,537.6,542.8,539.44,541.49,532.45,537.35,535.39,523.05,529.09,536.66,539.26,541.13,520.75,535.11,543.14,540.63,527.8,535.5,533.56,532.17,541.9,538.37,539.54,542.49,538.5,540.71,527.42,541.28,544.27,525.55,540.08,539.33,541.04,535.45,538.11,535.2,535.36,524.01,539.93,538.19,541.27,520.19,537.48,532.66,534.78,535.45,543.81,544.3,541.57,529.36,537.57,529.67,542.62,529.73,545.4,543.81,532.17,534.74,542.99,534.02,525.34,535.83,533.87,538.13,536.94,533.66,533.93,540.7,535,545.36,535.96,534,542.19,533.67,528.95,542.41,537.36,532.32,538.7,540.54,523.4,540.32,528.44,547.32,536.72,538.18
549.15,548.64,549.18,552.73,542.51,543.62,554.47,548.87,554.39,549.06,551.05,556.4,543.76,545.65,545.36,552.66,549.38,549.98,547.34,552.95,544.15,545.56,547.21,546.63,544.91,547.7,547.98,546.39,549.55,544.53,541.31,547.9,545.85,545.11,543.25,550.56,547.26,547.66,544.41,548.74,542.39,549.49,549.49,549.7,548.08,545.97,548.46,543.21,549.17,545.65,545.25,545.95,545.12,547.65,547.12,542.89,548.71,551.19,550.67,547.77,553.74,554.36,549.3,546.21,541.99,555.27,551.09,543.09,549.88,547.03,543.46,545.98,550.56,548.78,545.45,543.42,547.1,549.02,547.66,548.62,541.95,547.51,549.23,550.17,549,549.56,549.6,548.51,543.66,554.29,553.49,551.86,541.12,552.67,542.1,549.51,551.08,553.9,549.22,550.32
561.29,556.21,559.72,556.22,550.57,556.15,558.31,553.91,560.69,556.77,555,560.16,550.77,547.3,557.5,559.12,558.23,562.82,551.87,557.76,549.39,557.37,552.33,554.04,558.8,555.16,554.76,557.21,558.7,556.38,553.11,557.26,558.31,558.64,551.83,557.91,551.98,552.86,554.37,559.97,559.95,559.78,552.1,551.06,549.14,554.01,557.49,545.79,558.63,548.35,550.98,556.77,562.23,557.45,559.78,549.41,554.08,560.26,561.37,554.09,559.36,556.81,555.87,551.86,553.17,557.31,552.8,557.97,558.07,551.39,557.55,556.9,559.76,556.86,556.84,556.58,557.42,552.79,558.01,558.16,552.17,556.08,552.82,563.82,555.92,557.4,557.17,552.83,556.75,559.44,555.55,559.44,548.23,556.41,557.64,551.94,557.26,556.23,554.86,554.77
562.73,561.77,565.01,560.49,557.3,558.93,565.3,560.96,562.56,565.38,559.02,565.9,554.58,558.52,559.86,569.05,559.35,563.45,557.11,561.98,555.3,560.71,556.69,560.42,562.02,556.44,563.17,560.09,560.01,564.11,554.68,560.73,562.52,562.49,555.88,564.43,560.24,560.2,559.83,562.79,565.89,563.89,559.43,563.54,555.48,558.81,567.32,557.5,565.64,554.1,556.08,565.6,565.87,569.56,564.94,557.87,555.04,563.38,563.36,562.55,565.61,559.57,560.08,557.8,557.62,564.44,559.89,560.32,564.95,560.14,563.39,564.08,562.78,560.09,562.07,560.14,566.91,567.91,561.17,559.35,555.5,558.17,558.55,567.46,558.38,557.69,565.59,568.36,558.06,568.12,559.01,564.23,557.67,558.31,561.39,561.57,565.53,562.02,556.8,562.29
570.57,565.27,573.41,575.21,558.34,559.13,569.73,569.27,571.11,568.32,563.75,569.18,562.56,567.95,569.68,571.86,566.62,578.23,568.7,562.56,568.05,565.22,563.55,569.21,571.41,560.87,571.59,563.4,563.78,568.27,562.66,564.43,563.65,564.6,560.95,574.68,565.38,563.36,567.32,572.57,569.21,571.2,567.12,567.35,568.63,566.75,570.93,568.44,567.35,564.92,563,569.67,571.16,578,574.07,564.53,563.81,573.37,564.25,564.44,574.98,565.82,569.48,560.18,563.88,572.5,565.72,563.73,569.52,571.14,565.98,567.42,562.92,572.99,570.29,561.32,570.76,570.25,573.84,569.84,558.16,569,569.72,576,561.68,565.44,567.17,571.46,563.42,578.83,568.38,573.62,560.99,571.67,567.75,564.77,569.58,566.41,560.4,568.84
571.96,573.4,577.97,576.46,564.86,570.48,573.44,572.61,575.95,571.21,572.44,574.85,563.77,574.21,570.46,579.27,572.12,579.44,574.07,571.72,569.32,574.87,568.03,570.9,573,570.28,575.56,567.91,573.32,571.99,571.48,569.16,571.11,573.97,574.62,579.08,568.3,576.05,575.54,575.85,576.64,577.03,569.31,572.11,569.08,576.48,577.61,571.34,575.46,573.55,566.39,574.98,574.95,582.15,575.85,569.03,571.95,575.28,573.08,573.25,581.07,573.5,573.04,567.83,572.05,577.71,574.14,573.56,575.69,578,566.64,568.81,573.63,574.97,572.99,573.8,575.24,574.88,576.24,571.84,568.21,572.52,575.94,579.33,571.3,569.96,572.84,576.06,568.23,581.57,576.39,574.6,565.22,576.58,571.79,571.3,575.96,579.68,574.52,572.62
581.18,576.07,581.99,583.52,574.96,577.09,587.31,577.36,579.93,574.48,578.34,582.85,577.38,577.11,580.81,581.61,575.16,582.73,575.5,577.7,578.77,580.77,571.23,577.25,579.17,575.16,576.09,572.69,577.54,575.94,575.2,574.33,577.97,581.27,580.35,580.92,578.68,577.79,581.75,576.81,578.65,580.71,577.83,574.14,573.43,579.72,578.91,573.17,581.53,574.99,574.56,575.35,577.84,584.73,576.55,574.09,579.93,580.3,573.93,577.77,583.97,579.23,575.87,576.06,575.06,578.83,576.2,575.27,578.71,579.35,576.71,574.5,576.44,575.56,574.92,577.41,577.38,580.02,578.91,580.26,576.61,582.47,576.25,583.41,578.3,574.73,580.07,578.08,570.53,585.6,580.74,577.36,575.55,581.59,575.12,577.81,581.09,582.81,576.08,580.08
583.85,582.43,587.27,586.41,579.23,584.65,593.98,581.92,583.8,575.32,587.59,590.98,582.83,581.24,583.5,590.31,583.58,586.11,583.87,581.81,590.1,581.69,575.15,583.55,583.23,579.07,579.03,578.96,587.71,583.13,586.05,582.27,580.5,582.58,584.95,585.88,583.45,579.31,590.51,583.35,583.06,592.29,583.91,575.25,583.85,580.46,580.9,579.85,583.46,577.59,579.69,577.37,586.17,592.32,581.75,578.68,583.56,582.89,586.67,582.89,589.19,586.8,583.46,582.58,577.55,582.11,584.68,580.45,584.66,580.84,579.31,581.64,585.69,579.44,582.42,584.88,580.01,583.11,584.57,588.91,584.21,586.09,583.15,585.48,581.63,581.62,582.26,579.44,580.81,587.58,582.13,581.34,580.7,585.75,578.51,584.81,582.66,588.67,579.36,584.94
610.19,604.84,608.42,608.1,597.82,603.48,613.09,605.95,604.03,607.31,606.3,607.76,604.54,601.68,607.06,608.17,603.23,606.97,607.7,608.16,602.56,602.95,606.06,606.19,602.43,602.74,609.67,604.35,604.73,608.12,598.93,607.67,606.13,605.14,598.11,605.71,601.63,605.5,606.67,608.42,606.63,603.64,602.11,606.56,603.32,601.39,608.31,600.86,608.15,607,604.84,604.16,607.23,606.48,606.62,603.66,599.31,607.27,610.57,606.24,609.26,602.88,604.91,601.9,604.75,609.58,607.27,601.68,603.68,599.55,603.26,605.84,611.62,607.23,603.61,598.27,607.18,605.21,605.84,609.8,601.59,602.66,605.72,606.65,600.46,606.92,605.83,605.26,601.8,604.99,600.2,603.5,600.94,606.99,603.63,603.34,604.08,603.57,602.59,609.19
614.88,613.6,615.45,617.47,604.24,605.11,614.77,614.18,614.59,615.35,610.15,616.21,606.47,607.42,612.85,615.87,613.38,612.23,613.45,616.27,609.05,610.08,610.66,608.51,609.4,608.37,614.4,608.89,610.77,612.33,608.44,613.35,610.89,608.96,607.3,616.26,605.73,610.69,612.89,613.02,611.71,609.89,611.84,614.32,607.36,610.56,616.28,608.52,614.41,608.34,610.57,615.94,612.61,609.75,609.6,607.27,610.1,619.39,614.27,608.31,614.63,609.36,612.15,613.65,606.27,616.62,613.06,609.18,612.73,613.5,607.33,610.5,614.28,613.97,610.23,605.88,614.13,610.51,608.37,620.57,607.03,608.27,615,614.82,607.51,610.53,612.47,609.62,605.44,618.92,617.44,610.55,605.79,615.15,611.59,608.35,613.1,613.34,606.84,613.39
617.91,619.01,618.42,620.75,610.48,609.64,616.94,617.2,617.91,618.62,613.14,623.3,616,612.36,615.61,619.7,615.53,619.33,616.62,621.96,615.9,614.99,616.15,613.85,615.48,610.34,620.71,613.45,617.04,614.85,610.38,618.51,615.28,613.15,611.94,623.18,608.01,617.62,616.31,616.81,616.79,614.43,615.41,619.03,612.85,612.67,616.7,611.81,615.22,612.89,612.43,618.8,613.6,621.64,619.45,611.92,612.37,621.47,616.32,610.96,619.62,612.42,612.26,616.36,609.23,620.71,618.79,611.36,613.27,619.22,613.44,614.44,617.97,614.48,617.2,610.15,617.38,615.87,615.31,622.27,612.02,615.26,615.33,620.02,609.19,616.33,615.85,615.59,611.89,623.37,620.21,616.83,609.87,618.55,613.41,610.06,615.52,617.44,612.7,613.82
626.66,622.17,624.53,624.98,619.4,614.33,624.17,623.58,623.42,624.93,624.66,626.58,620.15,617.34,623.87,626.16,617.27,625.11,622.37,625.49,621.17,620.11,623.93,622.03,624.75,618.33,625.45,621.44,623.72,623.89,617.24,626.31,625.36,621.92,618.19,628.29,616.96,622.68,629.27,624.69,624.04,620.74,619.34,623.02,618.09,622.2,620.9,623.2,621.54,622.23,620.78,622.2,625.24,625.31,623.91,616.46,627.3,627.49,624.69,618.29,622.16,622.6,618.74,625.99,613.94,624.67,623.07,624.25,621.99,623.02,616.85,620.93,625.71,617.79,625.64,620.8,618.92,619.25,622.33,625.84,620.37,620.99,617.77,622.77,615.81,624.82,620.86,621.77,620.35,628.56,623.7,623.68,615.15,622.24,625.73,622.15,622.16,623.12,618.76,624.23
628.63,632.88,632.98,633.21,630.44,633.08,636.93,633.34,633.35,629.1,630.03,631.55,628.82,625.47,629.21,637.06,633.84,636.06,631.9,632.06,629.31,631.32,626.56,630.09,632.1,629.45,633.1,626.38,632.88,630.09,625.97,629.71,630.73,632.39,629.65,638.41,626.32,630.63,634.02,633.33,631.7,633.82,631.46,627.9,626.68,624.77,630.65,630.79,629.67,630.15,628.32,633.35,628.78,640.03,631.43,624.84,631.56,634.39,632.93,629.75,632.79,631.83,625.18,631.08,620.19,633.06,630.47,633.32,629.41,633.04,627.78,629.8,629.36,628.55,635.23,630.39,626.78,629.06,630.17,632.81,630.54,628.14,633.1,631.76,622.96,627.85,626.16,627.35,626.11,633.65,630.59,629.39,623.13,630.6,631.79,627.02,627.58,630.38,630.15,628.93
642.92,635.12,639.9,644.99,634.19,635.89,642.17,637,641.56,638.7,633.56,640.99,631.76,636.52,641.73,646.64,639,644.48,643.62,650.79,648.63,645.86,637.67,637.57,640.53,640.51,647.04,635.51,640.33,638.22,635.89,643.62,638.88,636.38,633.26,649.13,632.1,644.57,636.73,640.84,646.09,640.48,638.27,640.28,635.74,639.99,642.63,636.7,640.08,638.51,636.53,643.22,637.31,645.08,641.83,634.9,636.64,646.15,638.53,636.65,642.21,633.42,638.73,638.95,636.39,641.63,639.95,638.52,633.82,639.75,638.31,638.45,642.24,637.44,641.54,640.68,645.53,642.86,640,650.66,637.28,643.15,639.79,646.32,635.85,638.97,639.37,642.53,632.91,642.6,640.47,636.86,629.68,642.2,642.75,635.81,638.18,642.25,637.57,640
655.61,657.79,654.61,658.22,653.35,649.5,658.48,660.08,658.55,658.08,658.19,653.67,654.27,649.84,651.58,652.08,652.05,655.24,650.31,657.29,650.21,655.38,651.06,652.85,653.66,654.38,651.08,653.45,653.81,654.99,640.22,656.1,655.23,652.33,648.8,652.64,655.54,655.16,657.04,655.6,657.05,651.3,654.7,654.21,650.28,654.08,656.59,651.34,652.86,647.19,649.75,657.23,656.29,649.84,651.63,650.83,662.29,656.49,657.97,649.67,648.42,648.01,649.31,653.04,649.27,656.26,658.67,652.46,652.57,660.49,648.48,654.99,658.6,651.05,654.14,648.09,654.27,647.4,650.05,658.03,647.25,652.3,654.76,655.43,640.17,653.93,653.54,649.35,651.26,657.79,658.4,657.26,651.77,654.01,655.3,654.98,657.04,657.35,657.78,660.34
660.49,663.03,662.3,662.44,659.65,652.51,661.99,664.63,662.73,661.23,663.57,666.43,660.48,652.62,658.56,662.64,655.12,658.9,656.31,661.74,657.96,659.9,657.41,657.24,657.54,656.21,661.65,658.7,660.5,657.87,661.66,668.75,659.34,658.92,659.78,660.27,663.52,660.13,663.25,656.4,662.45,654.47,657.91,660.98,655.21,658.79,658.54,662.38,661.85,663.05,653.2,658.4,669.2,664.24,655.47,658.98,663.36,664.41,668.45,657.85,660.41,659.94,652.3,659.14,653.28,659.26,664.22,659.7,657.38,663.24,658.86,658.91,664.93,654.85,665.94,657.6,657.45,661.19,660.97,659.12,654.69,663.4,661.24,658.82,649.88,659.55,658.33,656.39,659,664.34,667.72,660.22,660.61,657.64,662.11,656.5,665.72,666.55,659.21,666.67
666,668.04,666.97,666.24,662.25,664.45,671.91,671.89,665.86,670.48,670.48,672.81,663.14,667.59,668.26,668.74,661.37,664.42,667.6,674.78,660.59,668.22,666.24,664.41,664.69,664.32,667.09,663.51,661.57,670.72,664.33,670.51,669.6,664.77,664.77,667.21,664.57,668.52,670.08,667.25,667.06,666.17,663.99,667.55,662.74,667.79,666.6,664.19,671.96,666.09,664.08,666.69,672.77,669.4,667.86,665.09,670.77,668.6,671.53,664.49,666.88,665.41,662.11,666.63,660.73,673.78,668.08,666.31,663.3,664.97,663.29,665.14,671.77,667.3,669.23,662.82,664.93,663.05,670.37,670.44,663.99,667.59,662.12,664.96,663.23,668.4,669.71,664.12,665.16,670.85,669.39,668.02,661.89,669.47,669.18,668.33,667.67,670.71,665.01,667.99
683.85,690.32,686,688.05,690.02,682.22,683.67,680.69,688.45,680.6,692.15,678.15,689.3,675.23,684.9,688.42,691.71,684.73,678.19,688.11,685.83,693.41,673.43,691.82,687.02,684.19,680.96,687.55,683.39,681.52,682.3,690.04,674.28,684.55,686.27,690.44,678.29,691.54,680.68,691.95,678.22,687.99,687.8,692.28,672.3,683.06,688.26,689.42,679.8,684.14,682.07,689.97,688.02,692.08,679.85,687.43,693.75,696.59,695.74,679.57,682.08,686.03,683.95,691.96,685.43,696.68,683.05,683.15,692.08,690.51,684.75,675.44,694.07,687.71,680.33,685.84,692.2,680.82,683.99,692.19,688.9,692.67,689.66,685.96,683.08,675.23,689.36,680.96,685.66,677.35,677.98,688.21,685.35,685.09,692.08,689.58,683.63,678.77,679.9,687.26
698,697.41,692.76,700.88,690.28,688.08,693.67,697.92,705.47,695.53,694.12,698.95,693.79,692.5,692.97,692.46,694.39,696.15,693.72,699.38,690.73,702.1,702.69,695.29,699.66,686.65,694.25,690.38,695.25,700.08,692.3,698.22,689.59,690.72,692.13,699.99,693.19,695.77,693.67,692.29,700.79,694.11,694.53,695.26,689.49,700,701.12,697.2,691.8,691.63,688.24,693.34,699.72,695.02,686.83,695.29,707.59,700.99,704.08,689.54,690.7,694.88,694.08,693.74,688.74,701.32,693.47,698.19,694.12,699.01,688.13,694.06,702.03,694.51,697.83,688.79,693.61,694.33,698.6,696.81,695.36,694.29,695.44,697.82,691.43,690.95,693.18,696.3,689.51,703.55,699.25,694.64,697.15,697.91,694.66,691.85,700.53,697.97,689.12,697.49
708.72,716.97,713.13,713.38,714.53,706.51,720.39,722.03,715.66,717.6,722.06,715.44,712.62,714.75,710.95,713.04,711.94,705.12,714.47,715.11,708.51,716.24,714.41,708.97,712.79,712.67,709.23,708.38,706.23,709.27,705.26,713.61,720.96,710,707.02,708.68,713.16,715.74,715.31,715.73,714.87,710.01,712.47,710.38,709.27,715.7,712.52,711.87,718.03,709,710.87,713.43,717.96,713.27,710.15,707.71,715.25,717.01,716.78,703.96,710.83,715.23,707.84,711.13,705.76,714.67,711.05,705.83,712.83,711.69,707.6,713.87,718.9,707.3,712.33,709.3,709.03,709.85,705.49,715.18,705.85,714.09,710.42,710.73,708.27,713.14,715.31,702.93,711.98,714.61,715.96,716.48,710.72,714.77,714.79,712.15,715.7,713.4,714.52,712.72
733.03,736.36,737.44,734.39,738.02,726.09,727.76,736.97,738.5,727.65,740.84,730.11,735.63,728.01,731.88,737.44,731.77,732.76,727.94,736.04,728.21,734.34,725.09,735.81,730.91,733.92,726.44,732.9,728.13,729.01,729.75,743.95,730.25,726.41,729.12,732.21,735.79,737.69,732.88,733.27,729.81,725.72,729.14,736.51,724.41,734.91,741.26,737.93,725.78,735.19,732.3,737.13,733.49,739.37,727.54,734.34,740.21,737.75,739.15,728.15,735.9,739.38,729.66,736.94,729.58,736.33,737.69,730.32,732.92,737.52,736.36,731.31,742.52,732.49,724.95,733.38,733.52,727.44,732.25,737.04,728.34,737.99,737.05,730.93,730.46,729.99,735.67,725.29,733.81,723.57,729.56,735.45,734.55,735.83,737.09,732.17,734.3,725.64,730.99,739.27
760.16,760.65,758.74,760.43,760.92,749.17,756.09,763.3,769.22,755.48,762.26,753.73,760.7,753.45,754.29,760.74,762.52,757.18,754.15,759.79,752.47,762.61,755.93,762.07,755.61,754.59,752.51,755.24,755.31,755.57,752.82,768.09,755.27,752.45,753.25,763.97,758.38,760.09,756.96,758.91,756.39,752.89,755.73,758.6,749.86,759.26,768.23,757.02,754.37,758.6,752.7,762.08,759.29,768.31,751.52,757.28,763.51,762.1,764.63,751.99,759.91,775.91,764.52,759.7,755.45,761.98,759.72,756.12,757.12,760.99,761.01,754.02,769.86,758.58,755.52,754.88,762.96,753.1,758.14,762.49,755.69,760.68,760.92,757.47,761.07,755.87,756.57,753.68,755.26,756.85,759.03,755.48,759.56,759.87,759.73,756.09,758.28,756.71,754.54,759.54
2607.1,2604.5,2623.8,2606.1,2606.7,2639.8,2595,2607.9,2598.5,2642.6,2650.7,2602,2627.9,2601.7,2603.7,2658.7,2601.6,2631.8,2611.4,2630.8,2613.8,2620.4,2611.1,2625.8,2639.6,2609.8,2622.8,2607.3,2622.7,2639.1,2605.5,2620.5,2610.2,2612.6,2601.6,2616.2,2603.2,2615,2610.9,2632.8,2630.6,2627.1,2608,2606.8,2612.8,2629.7,2630.7,2609.2,2609.4,2618.9,2597,2611.4,2621,2615.3,2608.8,2648.7,2610,2646.3,2625.2,2632.9,2615.1,2622.5,2625.1,2600,2618.9,2631.5,2628.6,2618,2623.9,2624.3,2636.9,2612.2,2647.7,2624.7,2598,2602.9,2621.4,2599.7,2643.5,2627.7,2597.8,2606.7,2618.9,2608.1,2613,2619.4,2619.5,2613.9,2621.8,2637.8,2649.7,2618.6,2606.2,2602.9,2622.9,2638.7,2625.1,2636.3,2599.6,2644.9
2655.7,2648.6,2627.2,2664.6,2630.9,2644.9,2653.6,2631.1,2621.4,2654.7,2662,2661.7,2657.7,2616.9,2656.6,2662.1,2615.8,2638.7,2650.7,2633.6,2649.1,2635.6,2658.8,2641.7,2646.4,2656.7,2656.5,2627.5,2655.3,2645.9,2650,2628.9,2660,2649.5,2654.9,2630.2,2651.4,2616.6,2614.8,2657.4,2643.6,2651.7,2615.6,2617.4,2660.9,2659.7,2655.4,2636.6,2663.4,2626,2654.9,2666.9,2626.5,2634.8,2635.7,2653.6,2633.8,2659.9,2654.9,2634,2640.4,2654.4,2649.4,2643.4,2632.5,2648.2,2646,2631.7,2643,2662.6,2645.1,2630.1,2648.9,2662,2662.3,2642.6,2643.4,2644,2649.5,2638,2643.2,2630.8,2640.3,2626.9,2626.9,2634.3,2632.5,2629.9,2626.2,2655.2,2653.1,2625.6,2623.9,2608.3,2650.7,2660.3,2629.5,2647.1,2627.1,2660.2
2778.7,2810.6,2755.1,2811.3,2783.1,2779.2,2782.6,2747.3,2778.9,2755.8,2788.9,2788.4,2785.9,2769.3,2792.4,2768.2,2757.8,2776.3,2794.6,2802.6,2771,2775.4,2782.6,2783.9,2804.2,2768.3,2780.9,2811,2776.3,2810.8,2785.5,2804,2778.2,2755.6,2805.2,2758.7,2782.4,2777.7,2799.9,2791.6,2812.6,2767.1,2789.3,2760.3,2808.7,2791.4,2793,2783.2,2755.2,2797.6,2754,2786.6,2797,2786,2807.9,2766.6,2786.8,2804.9,2775.3,2780.3,2811.4,2771.2,2813,2752.9,2758.2,2762.6,2812.1,2794.5,2766.5,2780.4,2784.6,2789.6,2807.4,2802.6,2763.9,2770,2780.7,2768,2779.1,2812.1,2798.7,2771.3,2780.1,2805.3,2752.6,2748.7,2770.8,2765.7,2754.5,2797.7,2747.6,2751.5,2761.8,2778,2758.4,2801.4,2784,2786.1,2786.1,2775.1
3417.5,3462.9,3469.6,3426.3,3414.4,3443.6,3483.6,3419.3,3439.1,3432.6,3434.2,3464.8,3465.3,3427.8,3431.1,3427.8,3431.2,3409.1,3462.5,3435,3444.1,3448.8,3443.1,3428.6,3480.7,3403.7,3428.8,3418.2,3469,3424.2,3462.4,3445.7,3453.6,3456.4,3412.9,3443.4,3432.8,3412.5,3470.1,3473.2,3451.2,3434.8,3480.8,3422.3,3458.1,3429.8,3459.8,3484.4,3480.3,3481.1,3476.8,3449.8,3449.3,3417.3,3418.6,3419,3473.7,3449.6,3447.2,3411.5,3412.5,3452.6,3431.2,3415.4,3410.6,3434.9,3426.2,3426.6,3458.3,3480.8,3418.1,3444.5,3467.8,3470.8,3466.7,3426.1,3450.8,3484,3428,3419.3,3436.4,3445.9,3419.5,3440.6,3427.1,3472.9,3468.8,3462.3,3463.5,3422.9,3419.9,3486.1,3412,3463.6,3425,3457.9,3409.9,3404.5,3487.2,3472.6
