17.98,17.789,18.177,17.739,18.187,18.147,17.743,18.067,18.176,18.342,18.124,18.188,18.061,18.03,17.952,18.022,17.904,18.37,18.201,18.039,18.248,17.962,18.104,17.984,17.988,18.076,17.986,17.668,18.145,18.058,18.162,18.057,18.096,18.131,18.252,17.927,18.118,18.149,18.161,18.094,18.209,18.024,18.256,18.161,17.835,18.225,18.065,18.37,17.897,17.804,17.894,18.272,18.14,18.229,18.075,17.779,17.892,17.88,18.209,18.047,17.966,17.906,18.004,18.141,18.235,18.248,18.198,17.786,17.967,18.333,17.707,18.093,18.152,18.152,18.169,17.791,17.871,17.938,17.966,17.766,17.852,18.158,18.095,18.079,18.192,18.256,17.686,18.063,17.803,18.246,17.875,18.043,18.126,18.394,18.017,18.209,17.922,17.943,18.15,18.17
18.665,18.806,18.798,18.699,18.582,18.834,18.602,18.439,18.776,18.744,18.392,18.621,18.761,18.515,18.445,18.924,18.785,18.817,18.53,18.637,18.449,18.502,18.671,18.234,18.527,18.472,18.792,18.393,18.412,18.803,18.806,18.676,18.683,18.733,18.425,18.453,18.744,18.705,18.791,18.65,18.5,18.418,18.568,18.491,18.453,18.602,18.554,18.779,18.653,18.062,18.277,18.772,18.639,18.568,18.506,18.618,18.769,18.312,18.352,18.589,18.785,18.571,18.694,18.552,18.763,18.518,18.5,18.518,18.369,18.671,18.669,18.679,18.502,18.403,18.722,18.819,18.533,18.516,18.481,18.536,18.532,18.616,18.405,18.779,18.463,18.643,18.729,18.693,18.496,18.345,18.62,18.236,18.467,18.676,18.491,18.769,18.579,18.829,18.321,18.592
39.103,38.789,38.866,38.795,38.744,38.745,38.944,39.202,38.451,38.836,39.011,39.079,38.95,38.89,38.309,38.78,38.772,38.468,38.788,38.973,39.389,39.019,38.681,38.788,38.825,39.168,39.119,38.805,38.546,39.114,38.968,38.962,39.007,39.024,39.326,38.978,39.265,39.011,38.602,39.206,38.767,38.701,38.992,38.735,38.495,39.152,38.857,38.813,38.877,38.492,38.949,38.682,39.085,39.323,38.775,38.885,39.101,38.96,38.883,38.691,39.267,38.85,39.166,38.882,39.152,38.998,39.092,38.81,39,39.374,38.625,38.609,38.715,38.651,39.103,38.89,38.597,38.963,38.311,38.871,38.652,39.019,38.773,38.865,39.084,39.088,38.887,38.562,38.883,38.935,38.754,38.596,39.023,38.788,38.926,39.129,39.069,39.05,38.702,38.792
69.751,69.84,69.365,69.43,69.685,69.57,69.093,69.777,69.81,69.945,69.976,69.514,69.956,69.842,69.661,69.801,70.378,69.791,69.346,69.333,69.599,69.142,70.074,68.688,69.382,69.549,69.998,69.133,68.633,69.758,69.776,69.563,69.504,69.747,69.462,69.32,70.434,69.666,69.246,70.083,69.521,69.105,69.667,69.214,69.055,69.31,69.36,69.842,69.499,68.912,69.198,69.992,69.766,69.745,68.747,69.443,69.616,69.295,69.083,69.706,69.691,69.439,69.551,69.017,69.889,69.919,69.411,69.269,69.383,70.244,69.565,69.657,69.596,69.221,69.714,69.774,68.823,69.24,68.787,69.084,68.545,70.109,69.466,69.934,69.662,69.884,69.52,68.778,69.195,69.409,69.799,68.896,69.262,69.888,69.812,69.495,69.703,70.007,69.599,69.438
75.638,75.223,75.567,74.911,75.182,74.727,74.828,75.611,75.32,75.375,75.973,75.764,74.998,75.126,75.048,74.973,75.503,74.916,75.759,75.373,75.669,75.364,74.728,75.023,75.689,75.885,75.818,74.839,74.698,75.382,75.576,75.391,75.763,75.328,76.237,75.69,76.129,75.53,74.64,75.473,75.266,74.964,75.296,75,75.522,75.348,75.338,74.63,75.473,74.463,75.339,75.534,75.686,76.283,75.334,74.863,75.944,75.099,75.853,74.946,75.376,75.015,76.024,74.178,75.602,75.516,75.374,75.376,75.875,76.206,74.993,74.73,74.554,74.695,75.545,75.292,75.139,75.665,74.467,74.676,75.588,75.904,75.118,75.295,75.706,75.178,74.991,74.889,74.871,75.448,75.891,75.247,75.02,75.784,75.375,76.187,75.794,75.584,75.223,75.382
94.563,95.021,94.854,94.144,94.644,95.132,93.473,94.554,95.443,95.231,94.349,95.198,94.238,93.983,93.94,95.087,95.054,96.345,95.259,94.361,94.357,94.605,94.403,93.211,94.812,94.766,94.903,93.506,94.654,95.016,94.477,94.541,95.172,94.682,94.745,94.084,94.789,94.343,94.446,94.395,94.493,94.104,94.878,94.375,94.113,94.847,93.785,95.725,93.895,92.664,93.778,96.074,94.898,94.569,94.874,93.646,94.788,93.107,93.537,94.611,94.562,94.338,94.566,94.533,94.696,94.535,94.702,94.32,93.849,94.768,94.128,94.397,94.325,94.488,95.55,94.904,93.794,93.817,94.391,93.742,93.968,94.817,93.821,94.565,94.485,95.697,94.638,94.922,94.04,94.067,94.525,93.574,94.431,95.498,93.924,95.292,94.542,94.586,94.601,94.334
109.99,109.47,109.85,108.15,108.31,108.43,109,108.09,109.09,108.99,109.64,109.5,109.92,108.23,108.68,108.82,109.24,108.11,109.77,108.99,110.2,109.24,107.89,109.22,109.38,110.16,108.98,108.46,108.8,109.37,108.92,108.96,109.49,109.06,109.26,108.71,109.37,108.59,107.62,109.97,108.08,108.32,108.93,108.66,109.45,109.77,108.97,109.13,109.54,108.45,108.96,109.57,109.22,110.98,108.83,108.23,109.3,109.27,109.6,108.22,110.23,109.2,109.84,108.96,109.14,109.53,109.43,108.92,109.99,109.98,109.2,108.01,108.21,108.74,110.6,108.19,108.59,109.29,108.15,108.71,109.14,110.45,109.24,109.06,109.8,108.43,108.49,108.96,108.83,108.97,109.29,108.94,108.36,109.3,109.94,109.55,110,109.55,108.36,109.18
135.74,136.15,135.01,135.46,134.46,135.26,134.82,136.97,135.79,135.26,136.32,136.13,135.83,134.79,134.52,135.12,135.06,135.1,135.95,135.23,136.33,135.27,134.86,134.87,135.84,136.38,135.77,135.22,134.98,135.43,135.74,134.67,136.11,136.26,136.19,136.43,136.02,135.8,134.07,135.93,135.44,135.18,136.05,134.9,134.97,135.82,135.3,135.44,135.69,135.17,135.41,135.1,135.66,136.33,134.92,134.85,135.69,134.78,134.98,136.4,135.77,135.56,136.3,134.57,135.51,135.72,134.78,136.1,135.2,136.35,135.36,134.21,134.65,135.18,135.93,136.44,134.83,136.12,135.36,134.47,135.69,136.81,136.01,135.99,135.45,136.14,136.04,134.97,135.63,135,136.02,135.49,135.8,135.31,135.19,135.35,136.1,135.34,135.87,134.27
142.49,143.31,142.83,142.15,142.91,142.57,142.02,143.1,142.25,142.02,142.61,143.49,142.22,141.26,141.61,142.15,141.4,141.24,142.76,142.08,145.1,143.04,141.4,141.75,143.22,144.34,142.9,141.56,141.78,143.27,142.75,142.4,143.06,142.96,144.32,143,143.76,143.47,140.65,143.72,140.82,141.57,143.21,142.64,142.51,143.96,142.1,142.16,143.78,141.83,143.73,141.92,144.04,144.63,142.49,141.82,144.15,142.88,143.63,142.33,144.38,143.1,144.38,142.08,143.44,142.49,143.1,142.95,143.97,142.87,142.83,142.3,141.79,142.23,144.96,142.37,142.31,141.69,140.81,142.55,142.41,143.24,142.3,142.74,143.53,142.34,141.97,141.15,143.06,142.51,143.97,142.89,142.75,141.97,142.76,142.71,144.05,142.75,141.41,141.21
168.47,168.88,169.62,169.09,168,168.25,171.08,167.98,168.22,166.83,169.91,168.7,170.5,168.8,167.1,169.05,168.65,166.77,170.83,169.38,170.08,168,168.74,168.02,168.8,169.9,167.27,168.49,168.49,168.42,168.9,168.86,170.68,170.62,167.32,169.44,169.2,167.71,168.46,168.75,167.72,167.09,170.69,168.89,169.53,168.41,168.43,168.81,169.37,167.48,167.43,171.12,167.7,169.66,168.44,167.95,167.16,167.35,169.98,167.6,169.66,168.75,168.82,167.26,167.66,168.48,168.31,169.43,169.87,168.84,168.75,168.08,169.36,169.98,169.65,168.53,167.86,170.05,169.84,168.39,168.44,168.84,168.57,166.74,168.44,167.06,168.39,169.77,167.29,168,169.08,170.52,169.07,168.84,169.05,170.01,168.76,168.91,170.12,168.32
174.43,172.69,173.37,172.66,172.67,171.9,173.33,172.36,173.51,173.84,173.74,173,174.2,173.16,173.21,173.9,173.49,172.12,174.55,172.72,173.96,174.34,171.21,173.13,173.9,174.15,174.6,170.98,173.75,172.28,171.89,172.91,174.95,172.91,173.06,172.95,173.02,172.41,170.68,173.35,172.13,172.9,172.91,172.3,175.66,173.98,172.15,174.31,173.22,173.51,172.15,173.4,172.17,175.15,173.3,171.73,172.16,172.76,172.96,173.4,174.66,173.51,173.24,173.04,173.73,173.16,172.85,173.58,173.92,173.06,173.46,172.95,171.45,173.53,175.34,171.97,171.38,173.1,173.2,173.96,173.39,174.6,173.05,174.12,173.71,172.47,172.33,173.1,172.47,173.11,173,172.38,173.42,174,173.94,174.28,174.34,173.63,173.18,170.83
213.28,209.65,210.8,211.24,209.93,207.43,209.95,211.29,208.24,211.69,212.73,211.3,212.19,210.74,210.2,207.81,213.29,206.94,209.16,212.24,211.01,210.71,210.42,210.34,209.87,212.16,212.71,209.32,209.12,211.05,212.57,210.95,210.89,210.52,213.51,212.59,214.34,210.39,210.78,211.13,211.57,209.93,210.52,209.77,209.61,210.41,212,210.11,209.77,207.54,210.28,208.45,209.03,212.03,209.42,210.78,210.97,211.4,212.39,207.58,212.54,208.59,211.59,209.2,211.68,212.51,210.55,210.9,211.7,211.7,210.91,210.72,212.12,209.67,210.33,211.36,208.88,212.3,209.25,211.04,208.99,211.33,210.58,211.35,212.4,213.32,212.31,209.82,210.57,212.07,210.15,209.02,209.4,211.2,212.52,211.93,211.08,211.95,210.87,212.73
215.98,216.05,215.08,217.01,217.1,216.03,216.93,216.31,216.36,217.84,216.03,216.74,217.22,215.59,215.03,217.08,217.53,215,216.89,216.52,220.14,218.51,216.25,217.25,217.97,217.43,218.94,217.16,217.25,218.48,217.06,217.61,217.75,218.91,218.63,218.43,218.12,216.93,216.53,217.38,217.17,214.05,217.23,216.81,216.89,217.06,219.13,218.43,216.53,216.83,215.58,216.24,216.02,218.95,216.74,215.74,215.6,216.91,218.05,217.74,217.92,218.48,218.3,215.51,217.95,218.69,217.89,216.96,218.67,220.12,217.21,216.76,219.01,216.59,218.18,217.34,215.15,216.37,216.15,216.97,214.41,218.12,217.14,219.05,218.42,219.01,217.12,216.02,216.06,217.22,218.42,216.51,217.97,218.06,217.93,217.19,218.53,218.85,215.85,216.24
230.24,229.15,228.86,228.69,226.82,227.55,230.33,228.86,227.21,228.76,229.64,229.9,230.38,227.47,226.45,228.23,227.66,227.15,228.71,229.11,231.82,229.35,226.99,229.59,229.02,229.6,230.01,228.73,230.23,229.63,229.2,229.83,229.42,229.57,231.18,229.07,230.16,228.64,226.9,229.46,227.72,228.05,228.92,227.9,226.28,230.71,229.4,229.89,228.72,227.8,228.53,226.48,227.34,231.45,228.41,227.69,227.87,229.74,229.62,226.43,231.9,229.61,230.19,229.5,230.01,228.06,230.52,229.41,228.73,231.36,228.14,226.7,227.37,226.98,229.85,229.2,227.5,230.98,227.57,228.25,230.32,230.42,230.43,228.65,228.98,226.59,228.54,228.67,228.81,228.69,228.5,228.03,228.94,228.32,229.2,229.73,229.98,229.79,228.37,226.79
233.86,232.58,232.16,231.06,230.18,232.41,233.66,231.33,230.61,231.53,232.45,232.32,232.93,230.6,229.14,231.81,232.55,229.67,231.56,232.66,235.05,232.1,230,232.57,231.89,233.16,232.74,232.96,233.2,233.14,232.66,232.4,233.58,234.54,233.19,233.82,232.87,231.71,230.72,233.19,231.61,230.82,231.89,231.1,232.45,233.55,232.5,233.48,231.94,230.97,231.07,230.72,231.95,234.22,231.25,230.74,232.79,232.42,232.91,231.62,234.86,232.71,233.38,232.51,233.06,234.59,233.08,232.68,232.14,234.17,232.22,230.75,233.39,230.81,233.25,232.72,231.05,234.18,231.58,231.55,233.06,234.74,233.98,231.79,232.69,233.75,232.94,233.95,233.25,232.16,231.25,232.37,232.81,232.03,233.66,233.18,233.47,232.62,231.14,232.22
247.51,249.34,245.27,248.84,248.18,247.43,250.06,247.81,248.97,248.76,248.72,249.77,247.32,247.33,246.5,247.18,249.28,248.61,249.96,249.15,250.49,249.7,247,245.54,250.15,249.78,248.81,246.59,247.9,248.57,246.33,246.56,252.74,251.05,246.97,249.14,249.34,246.75,247.91,248.33,247.48,244.14,249.4,248.98,248.1,249.81,248.87,250.21,249.71,243.89,247.28,249.45,248.84,250.38,248.74,246.09,246.72,248.38,250.2,248.95,248.07,248.99,249.92,246.55,248.79,247.82,249.06,246.45,249.52,248.8,248.56,247.06,247.72,249.49,245.66,247.66,246.94,250.42,247.91,248.82,248.39,249.86,249.32,249.73,249.31,246.12,247.63,248.05,249.45,246.92,248.66,246.83,249.29,247.99,250.27,248.47,249.5,248.99,247.43,247.3
248.89,250.32,249.57,250.54,248.5,249.5,250.89,249.29,250.67,251.11,250.98,250.17,250.15,248.83,249.09,250.38,250.56,249.49,252.26,250.15,253.52,250.8,250.34,249.86,251.45,250.64,252.35,250.16,251.72,251.78,249.7,251.28,253.22,251.82,250.75,249.54,251.5,251.3,249.23,250.82,248.71,248.76,250.63,249.24,249.28,251.15,250.31,253.17,250.54,249.95,248.59,250.96,250.67,252.52,249.77,247.45,248.11,250.56,251.33,250.71,252.27,251.09,250.67,248.93,252.1,250.27,251.4,250.78,252.45,252.07,249.59,251.11,248.71,250.21,251.01,250.24,247.9,251.43,251.28,249.5,249.11,250.39,250.85,252.29,250.75,249.09,249.68,249.51,250.47,249.27,249.74,249.69,251.53,251.21,250.83,249.75,251.63,250.32,250.84,247.93
251.52,250.93,252.44,251.01,250.1,252.3,251.86,251.82,253.7,254.05,251.37,251.71,253.4,250.76,251.16,252.07,252.14,249.6,253.86,251.54,254.56,253.75,251.45,250.76,251.94,251.46,254.2,252.83,252.64,253.31,251.77,252.59,254.44,255.75,251.61,252.59,254.11,252.04,249.64,252.85,251.89,250.13,251.67,252.24,251.74,251.23,251.83,254.41,251.23,251.04,250.76,251.54,250.91,254.43,254.51,249,250.78,252.56,251.96,253.47,253.95,251.97,253.34,250.44,252.86,254.07,252.6,251.48,253.3,254.32,252.54,252.1,252.51,251.11,253.55,252.97,250.56,254.55,252.02,251.49,251.04,253.74,254.87,254.17,252.82,254.3,252.49,250.11,251.93,251.21,253.5,250.58,252.12,254.3,252.65,252.95,252.93,252.8,251.29,250.75
267.99,270.74,265.92,270.5,269.28,268.08,269.45,267.28,269.23,272.97,271.02,267.22,271.91,268.24,269.07,268.84,269.27,270.01,271.09,270.39,272.19,268.88,267.33,269.22,270.07,269.54,269.37,270.58,267.8,271.36,269.62,268.51,271.79,272.23,269.35,269.81,269.72,266.14,270.84,268.31,269.95,265.58,268.36,270.77,269.62,269.62,272.49,271.6,270.09,269.43,267.52,270.72,268.72,268.49,266.71,269.24,266.82,270.87,268.43,271.6,269.19,271.69,271.16,269.94,269.85,272.09,270.62,268.85,270.43,272.38,269.7,269.37,270.55,267.69,271.63,269.24,269.62,270.51,270.86,267.95,264.56,271.32,271.07,272.79,271.91,268.73,268.47,268.75,267.66,270.1,271.49,268.58,269.4,273,270.45,269.57,270.97,270.35,270.16,270.38
278.54,282.97,278.23,281.88,280.46,279.92,281.45,277.76,282.29,281.58,280.3,280.83,278.59,279.42,278.17,277.86,280.15,281.38,282.43,281.26,281.88,281.68,279.96,276.61,282.26,280.48,281.68,279.38,280.09,280.97,280.18,278.06,282.62,284.74,279.66,281.57,282.47,281.16,279.39,280.44,279.56,278.3,280.86,279.72,278.03,280.46,279.91,283.22,280.49,274.99,278.56,279.34,281.78,281.24,280.64,278.18,278.88,280.24,281.72,280.33,282.15,279.53,282.7,279.5,281.29,280.84,282.06,279.64,281.7,279.39,281.05,279.82,279.05,279,278.82,281.36,278.99,282.69,281.52,280.41,279.12,282.86,282.24,284.86,282.08,280.65,280.75,279.99,281.54,278.01,281.04,276.39,280.51,282.32,280.49,277.95,282.4,280.77,280.23,279.29
300.85,301.15,298.69,301.81,298.95,300.83,302.62,298.4,301.86,301.38,301.48,300.95,300.03,300.54,300.27,301.57,301.99,301.26,304.37,302.21,303.37,302.34,300.13,298.45,303.32,302.21,302.76,297.61,301.09,301.63,299.64,298,306.11,303.41,297.05,300.42,302.25,298.11,297.92,301.28,298.76,297.9,301.52,301.02,302.01,300.23,298.87,302.41,301.24,297.36,299.9,303.42,300.75,302.87,302.77,296.01,299.07,299.73,304.31,300.57,302.97,300.96,300.81,298.91,301.04,302.19,302.98,300.53,303.82,298.02,303.59,300.77,300.9,302.37,300.49,299.34,298.48,303.51,303.43,301.25,300.08,302.09,302.59,301.81,302.19,297.99,299.28,299.72,300.65,299.06,299.92,297.93,300.68,303.5,302.06,299.99,300.67,303.25,303.68,299.87
305.3,306.19,306.4,303.08,304.47,304.26,306.81,302.5,305.17,305.17,307.5,305.99,307.82,305.6,303.22,304.33,304.3,303.16,307.68,305.21,307.74,304.45,302.79,304.66,305.01,305.52,304.35,306.93,306.77,305.07,304.36,306.07,307.43,309.05,306.77,305.43,305.19,303.83,304.03,305.62,303.41,303.85,306.47,303.87,304.82,306.63,306.57,307.79,304.34,302.04,302.49,307.49,306.57,308.08,303.86,303.21,302.02,304.57,306.03,304.05,307.36,304.95,306.16,303.69,305.92,303.53,305.33,305.36,305.5,308.95,303.73,302.89,303.49,306.07,307.07,304.07,302.51,307.33,306.16,305.52,305.04,307.49,307.64,304.95,305.48,302.48,303.2,306.05,302.47,303.31,306.06,306.72,305.6,305.09,306.7,306.92,306.87,304.14,305.64,305.76
343.3,342.8,341.74,344.78,344.92,340.03,344.69,340.77,343.99,347.17,343.8,342.29,344.64,343.24,342.6,341.26,344.69,342.06,344.45,346.5,346.05,346.38,344.56,341.49,343.6,344.57,346.18,344.59,342.06,345.93,345.45,343.48,344.17,348.75,345.6,346.76,345.32,344.89,346.82,343.85,345.86,340.57,344.17,342.73,342.12,342.72,347.29,345.95,343.77,341.48,342.89,341.8,343.92,344.55,341.01,345.17,339.14,345.76,344.85,344.32,344.92,343.45,346.11,343.06,345.7,346.91,344.91,343,347.23,346.43,342.62,341.8,343.64,341.19,345.37,344.92,341.9,345.33,343.75,344.38,336.47,345.54,343.5,347.62,348.44,344.46,344.52,343.52,342.18,343.89,345.92,341.61,343.89,346.11,344.06,343.2,346.58,343.06,343.08,344.25
351.64,351.82,350.22,349.18,348.73,349.46,350.26,348.74,353.65,354.5,350.74,350.81,350.66,348.13,352.11,349.99,350.5,351.3,354.39,350.9,352.77,353.19,347.18,350.33,351.46,351.76,353.6,348.04,353.95,352.53,350.8,350.6,354.62,351.41,354.41,352.42,351.66,349.6,348.41,352.27,349.86,349.82,350.51,350.11,352.96,352.69,351.99,353.41,350.25,347.45,347.78,351.33,351.06,354.24,351.82,348.31,351.66,349.9,352.35,351.11,351.29,349.76,352.9,351.19,351.54,352.02,349.74,350.6,351.05,353.41,352.22,349.59,351.31,351.26,354.27,350.35,348.13,350.94,351.56,350.35,350.55,355.84,350.9,353.71,351.59,352.92,348.94,350.14,349.58,349.63,351.55,349.24,350.2,353.76,352.26,354.68,351.43,352.26,348.16,351.19
379.12,377.98,379.68,378.33,379.7,379.17,378.95,377.61,380.29,381.78,380.33,381.72,379.99,378.15,379.34,378.38,380.7,376.81,380.32,379.47,382.25,381.28,379.78,378.03,380.93,382.12,382.5,375.8,381.4,379.19,382.18,378.87,382.59,381.15,378.59,380.72,381.5,381.96,379.72,378.55,381.22,378.8,379.39,380.19,380.55,378.68,380.49,381.24,380.4,378.24,377.82,381.47,378.61,382.12,380.9,376.78,378.07,379.34,383.07,377.34,379.49,379.95,379.38,373.28,381.64,380.71,379.74,379.55,381.66,380.46,377.24,378.21,379.99,379.97,379.53,380.66,376.67,383.16,378.02,378.77,378.9,380.85,380.31,380.49,381.46,378.06,377.99,380.39,379.92,378.61,379.3,379.51,378.7,381.64,382.16,383.51,379.65,376.47,377.95,377.49
382.77,387.53,380.55,382.73,382.25,384.04,382.79,382.95,387.66,384.53,385.93,383.38,383.81,382,385.77,383.86,386.57,382.4,385.47,382.7,386.05,385.74,382.15,382.84,383.64,387.38,384.08,384.68,383.18,387.23,386.53,381.24,386.4,389.49,387.75,383.18,383.62,383.53,383.3,387.08,384.32,385.26,385.2,382.33,384.04,383.8,387.35,384.44,386.01,383.65,381.5,382.2,379.81,384.36,384.08,383.26,382.4,381.89,384.54,382.42,389.27,386.74,388.03,381.29,383.7,383.92,384.35,381.42,383.39,389.41,387.96,386.82,384.15,380.46,386.16,387.59,384.41,387.79,385.02,382.75,382.22,384.75,387.08,387.96,384.89,386.73,384.25,382.11,381.16,382.46,381.93,384.58,384.47,385,385.03,384.63,385.6,388.33,380.96,381.88
396.53,398.75,397.29,396.51,395.96,398.49,398.21,396.88,399.21,397.96,399.32,400.13,398.06,395.2,394.01,394.23,398.61,395.7,399.47,397.37,399.24,398.96,395.62,394.48,397.04,397.95,399.83,399.18,399.64,398.99,397.19,397.37,398.41,399.78,397.27,396.98,400.77,396.63,397.12,400.94,397.04,393.95,399.06,394.56,398.52,397.84,398.13,402.3,398.06,395.56,396.34,400.23,399.08,400.5,399.7,396.37,393.18,397.33,397.46,397.51,400.15,397.52,400.49,395.42,399.17,397.3,398.67,397.86,399.17,400.84,398.01,395.82,398.32,398.54,397.74,399,395.55,400.34,399.09,396.64,397.44,400.61,397.79,398.69,398.16,398.53,400.43,398.17,398.46,395.38,398.07,398.33,399.06,397.26,398,397.59,399.47,395.97,397.21,396.73
427.43,427.11,427.8,428.94,428.8,429.83,431.47,426.73,428.33,430.16,427.07,428.97,427.25,426.75,428.62,426.2,428.14,430.23,428.51,428.75,431.83,427.95,427.25,425.79,428.26,429.83,430.84,425.27,429.79,429.21,429.52,427.66,432.21,431.76,427.08,430.66,430.9,430.29,428.43,428.94,428.38,427.23,428.39,427.28,429.66,428.5,427.21,431.17,429.3,427.39,425.7,426.9,424.05,429.84,428.33,427.17,424.75,429.45,429.73,426.8,430.79,427.95,429.61,424.78,430.43,429.67,428.85,429.01,428.49,427.69,425.8,429.04,428.73,427.46,429.82,429.16,425.81,430.33,427.42,422.91,428,428.3,428.51,431.31,428.92,426.8,428.67,428.63,428.05,427.42,427.26,428.89,426.63,428.4,429.22,430.22,429.11,428.03,428.48,425.38
430.36,431.59,430.66,433.4,433.65,432.43,433.95,436.66,437.65,437.44,433.33,431.49,430.29,430.7,431.28,428.85,432.87,432.59,430.41,435.47,437.87,430.47,432.53,431.75,431.08,431.6,433.2,429.54,432.41,433.49,430.96,435.01,437,434.93,432.94,439.75,438.65,431.91,432.75,432.94,434.31,434.61,434.01,438.38,437.71,432.17,428.88,437.8,436.18,433.92,428.98,434.23,428.5,434.87,434.73,429.58,435.96,439.31,436.56,431.62,433.79,429.83,435.33,426.46,435.69,440.11,430.73,434.39,433.31,429.8,434.07,440.48,439.72,431.5,434.7,434.69,433,438.76,435.33,429.26,432.68,432.58,433.72,435.71,436.76,433.52,432.51,433.21,437.6,440.84,431.38,434.49,429.69,432.14,440.5,439.01,431.06,431.51,433.66,431.21
444.65,445.87,444.63,446.27,446.54,447.78,448.67,442.39,450.09,450.24,443.7,446.16,441.36,447.41,445.11,442.43,451.89,446.65,443.07,448.49,451.62,445.39,450.99,444.96,447.23,447.6,449.13,442.64,450.43,447.68,445.22,443.67,445.93,451.45,447.26,452.88,447.12,449.04,449.12,448.14,446.75,448.21,447.28,447.47,451.17,444.43,444.9,448.39,450.34,450.91,445.87,446.95,440.43,447.89,450.61,443.26,444.14,450.83,448.35,443.85,451.94,446.22,451.43,437.05,449.25,453.43,445.37,449.95,450.06,442.98,445.01,450.18,455.3,449.45,449.83,446.16,443.93,452.74,448.97,443.97,445.03,441.99,446.94,449.94,450.34,448.08,448.3,447.62,448,448.03,446.42,454.19,442.88,445.74,454.57,449.38,447.02,446.81,448.05,442.11
458.71,454.13,454.49,457.09,457.87,454.76,462.61,446.93,459.52,457.01,454.21,460.46,448.05,455.1,461.58,462.14,468.35,459.9,453.9,462.25,462.08,460.67,457.07,454.89,457.86,462.06,460.99,455.87,462.9,454.59,453.32,461.6,453.01,468.88,460.65,463.99,452.98,463.06,454.76,461.12,453.93,462.21,465.96,453.07,454.47,458.16,464.46,454.9,454.94,456.63,456.16,455.16,457.05,460.71,458.85,459.81,446.85,461.39,464.49,455.8,459.23,463.13,459.24,451.38,461.22,461.25,457.83,456.99,464.98,459.84,456.9,454.99,465.33,452.71,463.33,458.83,458.1,461.36,462.85,459.14,449.91,455.86,453.35,458.12,466.53,458.96,456.37,456.63,460.85,460.88,465.16,461.62,455.75,456.52,460.39,452.5,459.44,459.9,455.28,451.98
466.64,465.72,464.05,468.72,468.75,466.31,468.67,464.56,470.69,469.83,463.37,462.01,464.69,464.4,465.76,468.81,470.94,466.53,465.01,469.42,471.28,465.33,464.7,462.2,467.05,466.64,468.8,463.36,465.97,464.82,465.9,467.63,470.36,470.03,467.75,468.76,466.92,465.7,468.99,462.95,467.95,464.87,467.45,466.37,469.01,464.92,470.81,466.54,467.65,466.04,464.93,465.63,462.35,467.33,466.3,463.44,460.85,468.34,469.69,466.15,469.8,466.99,470.08,462.06,468.54,467.95,464.95,468.03,468.75,469.23,464.55,464.78,471.28,463.34,469.28,464.07,467.32,471.31,472.15,464.81,464.84,462.66,468.59,468.8,468.37,464.7,464.45,465.16,468.61,465.71,467.21,467.83,464.12,466.81,469.74,466.84,468.05,467.24,466.21,461.51
473.3,469.02,469.81,471.24,472.44,473.7,474.21,469.57,474.86,472.87,471.74,472.39,469.65,472.68,470.51,471.6,476.64,475.15,469.25,474.27,475.61,475.21,473.32,469.4,473.46,472.51,476.21,470.87,474.49,473.24,475.51,474.4,475.58,480.49,470.28,476.68,471.8,476.47,473.86,473.44,472.31,474.28,478.12,470.65,471.52,472.21,476.01,472.53,474.16,470.89,469.67,470.65,469.13,474.1,474.07,471.98,469.39,473.07,475.54,470.98,472.4,478.12,473.84,465.48,474.8,476.46,470.9,472.6,477.48,478.22,470.45,474.04,477.82,473.11,475.55,473.43,469.2,476.23,475.45,476.57,469.44,470.42,475.63,479,477.94,473.68,473.63,473.74,473.99,474.63,474.58,476.31,471.38,472.75,476.78,474.11,474.11,471.36,471.52,467.87
475.55,480.88,474.05,478.62,477.27,474.55,478.07,479.19,477.15,480.81,478.95,477.58,479.42,475.57,478.41,477.5,481.28,478.61,477.29,476.4,483.13,479.47,479.07,473.05,480.29,480.43,482.71,472.47,480.77,476.09,478.84,477.77,480.74,481.6,477.44,478.94,478.78,482.15,480.04,475.54,475.39,475.79,480.41,476.73,480.21,474.51,477.51,478.84,480.28,475.23,474.71,477.23,474.91,476.39,476.01,476.82,476.38,478.59,479.33,474.05,478.53,480.34,476.58,469.43,479.42,479.18,474.04,477.79,480.6,479.68,474.67,480.98,481.38,478.39,479.69,477.91,476.39,482.1,479.26,479.09,476.8,475.81,476.03,481.91,481.15,475.5,478.86,475.86,476.36,475.61,477.17,477.76,475.42,479.48,479.78,478.91,477.8,476.12,479.22,475.32
480.42,483.67,479.59,482.48,481.29,480.17,481.07,480.8,483.72,484.44,479.21,480.94,481.12,479.27,480.89,485.59,484.81,484.24,483.01,481.25,483.96,481.15,485.52,476.4,483.3,484.46,485,477.57,482.11,479.99,484.03,480.46,485.44,485.12,478.91,481.41,482.56,483.35,481.24,480.98,477.01,478.36,483.99,482.48,480.98,480.24,480.76,483.37,482.74,479.59,477.21,481.3,477.47,481.85,482.78,478.44,479.69,482.24,481.52,479.57,483.79,482.93,479.99,478.29,483.66,482.48,480.02,479.25,482.21,484.8,481.07,482.39,482.5,480.44,485.45,481.3,479.45,486.2,481.02,481.81,478.69,482.39,479.82,485.92,481.87,479.25,481.83,478.58,482.07,482.51,481.07,482.45,483.75,480.61,482.5,481.45,482.35,487.04,482.67,476.15
484.37,490.1,484.41,490.31,486.75,485.32,486.67,487.71,489.65,485.72,487.56,487.8,485.84,481.51,491.14,486.78,493,488,486.73,485.35,493.88,488.99,491.28,482.75,486.96,490.46,491.22,488.11,486.23,488.66,488.78,487.25,486.59,493.06,490.5,489.23,484.8,486.57,486.63,487.55,486.12,488.73,489.7,484.34,484.45,487.08,492.06,488.6,483.69,488.74,483.94,483.55,481.99,489.33,486.8,485.26,482.45,487.54,488.32,484.77,489.59,488.99,487.62,484.1,486,487.37,485.16,485.3,491.31,490.38,488.18,487.47,489.57,485.38,491.66,489.25,485.23,490.09,492.77,487.39,479.95,486.39,489.23,491.51,491.55,491.01,487.38,481.41,486.27,488.02,488.45,487.43,485.27,484.89,490.75,482.57,490.66,488.84,485.06,480.33
502.64,505.02,502.35,507.81,505.91,504.02,504.86,502.25,506.75,507.22,504.42,505.59,501.09,501.94,503.37,502.23,509.07,503.75,505.12,506.65,510.9,506.49,506.83,501.45,504.17,503.87,510.89,500.87,506.12,503.99,502.13,507.52,506.32,508.58,510.94,508.92,508.76,505.32,505.12,506.01,502.95,502.58,508.27,505.01,507.05,506.91,507.57,509.09,504.78,505.31,502.01,503.21,500.1,507.53,505.62,505.2,502.47,507.01,505.84,502.4,506.79,506.56,508.23,501.51,507.83,509.54,505.02,505.31,510.4,508.41,503.72,506.88,508.74,503.05,506.04,505.93,502.8,506.75,508.24,509.61,499.09,505.69,501.3,509.07,513.08,507.56,504.53,503.39,508.02,508.27,507.99,505.3,503.45,505.62,510.04,507.28,508.55,506.07,502.81,502.49
514.25,519.65,516.35,514.41,512.37,525.07,509.04,516.88,526.05,515.85,516.57,519.15,517.19,510.2,520.12,522.32,524.58,516.27,513.01,510.13,513.78,519.96,522.89,511.19,515.04,519.76,519.09,519,513.44,521.51,515.62,512.13,520.77,525.48,516.49,513.17,522.02,515.71,514.84,519.84,512.26,515.71,515.05,516.33,518.55,520.96,518.88,522.31,518.9,514.08,515.21,516.62,514.38,518.51,519.03,516.27,514.81,511.15,509.53,519.69,523.44,523.26,522.01,506.95,518.92,522.07,511.66,517.18,514.17,516.82,526.82,522.12,515.78,508.01,512.29,529.93,510.6,514.71,516.81,516.58,512.02,516.02,514.67,527.3,519.53,522.39,521.68,521.3,516.53,509.92,517.97,511.22,510.5,520.62,518.18,518.46,519.27,517.79,511.36,510.98
539.07,528.28,546.15,538.78,539.19,540.25,540.85,539.53,542.01,539.23,543.64,544.54,538.55,532.96,541.01,538.66,532.83,545.03,542.42,547.51,541.74,541.31,529.77,536.89,537.06,540.25,549.49,536.49,539.57,536.83,543.5,535.03,546.41,531.98,533.75,531.38,552.5,537.2,546.58,536.79,544.06,527.97,535.37,531.61,548.82,539.84,541.24,544.57,539.62,544.65,537.1,542.83,536.02,532.05,536.44,534.32,534.65,543.43,541.9,537.05,536.95,541.1,530.09,535.33,533.61,541.63,535.37,536.23,538.87,531.86,528.47,548.7,537.35,545.73,540.67,544.56,540.51,539.24,531.61,532.02,551.02,543.24,530.21,541.74,538.86,533.82,539.51,540.58,543.97,537.27,539.47,544.04,531.45,535.65,539.94,544.28,541.85,533.54,543.61,540.55
547.55,548.12,556.22,552.15,551.97,543.5,549.09,552.54,550.17,551.33,556.65,550.26,551.33,544.62,546.27,551.89,555.5,549.75,546.69,554.11,552.26,547.21,550.08,551.47,553.41,549.84,557.11,546.73,547.21,542.35,555.64,547.37,553.05,550.51,549.31,555.85,558.83,548.96,554.38,545.93,558.08,545.24,552.28,555.75,553.73,551.37,554.87,553.49,547.59,556.25,544.67,548.7,542.1,553.2,548.96,538.56,547.87,549.01,557.33,546.63,550.45,551.74,552.25,545.91,549.85,543.77,546.84,556.51,555.9,546.3,548.38,553.27,553.42,547.59,557.66,551.67,548.51,551.37,551.87,551.65,559.26,552.38,551.3,553.22,554.68,552.18,550.26,549.02,550.51,553.1,551.29,553.27,548.81,551.54,552.73,550.24,554.17,555.53,553.89,553.95
559.65,555.81,562.46,559.06,554.72,558.89,561.42,554.85,555.44,556.04,559.93,555.4,559.73,552.38,554.48,556.11,559.85,557.84,556.86,558.81,560.94,555.97,555.95,556.81,561.18,558.52,562.28,556.37,560.03,557.12,560.03,558.38,560.45,559.16,556.33,559.85,562.94,555.29,557.62,552.9,559.18,548.55,557.56,560.73,564.25,556.31,558.83,557.54,557.11,557.47,547,555.91,552.56,557.46,556.19,551.55,556.05,555.04,560.33,552.43,561.08,558.5,556.58,550.57,557.99,555.13,560.7,557.98,560.6,552.84,553.36,556.75,556.11,554.89,558.85,557.32,555.89,556.13,553.48,554.26,563.51,561.66,554.26,559.71,558.62,558.54,554.22,560.63,558.71,556.61,558.7,563.79,558.71,560.18,559.02,562.01,561.96,560.42,557.25,557.17
563.36,560.2,564.46,562.89,557.7,561.06,562.36,561.5,565.27,562.79,565.03,558.92,564.08,554.46,561.35,562.54,565.03,560.57,558.86,564.19,562.73,559.54,558.97,558.39,564.92,563.49,565.81,557.37,562.51,561.01,565.81,560.33,564.76,560.82,560.83,565.28,568.2,557.68,561.64,556.13,562.58,553.27,560.33,563.77,565.51,561.12,563.94,562.19,559.68,559.21,558.05,562.83,555.47,561.95,559.28,557.35,557.31,557.93,563.62,557.76,569.88,560.1,560.1,559.69,560.12,562.85,562.27,560.3,567.52,559.6,559.46,564.24,564.41,561.18,565.57,562.58,562.48,560.26,556.45,555.65,567.61,562.37,562.2,561.2,561.73,559.81,559.02,562.83,560.93,559.82,560.81,565.3,560.28,566.94,562.38,562.66,566.28,561.36,566.37,559.13
570.52,569.31,573.42,571.24,562.69,563.05,571.09,562.98,571.19,569.67,571.03,563.39,568.88,561.03,565.14,570.05,569.34,565.12,563.83,570.9,566.75,562.47,560.19,560.8,570.7,567.27,567.87,570.11,566.82,565.55,575.47,571.74,572.25,567.09,566.61,568.5,570.42,566.35,570.93,563.01,573.84,562.77,569.4,567.96,568.4,567.75,574.2,563.56,564.93,562.66,563.52,565.25,559.02,563.71,562.88,560.69,561.88,566.49,565.25,561.3,572.49,571.38,569.14,565.48,568.97,567.2,571.42,566.02,573.6,565.71,561.28,567.8,572.64,566.42,573.66,565.1,574.04,571.59,569.69,571.3,578.73,565.58,568.31,563.14,563.49,566.43,567.69,569.69,569.54,565.44,569.67,576.64,568.92,573.77,564.03,567.19,570.19,567.9,567.57,562.94
573.96,573.14,575.32,572.54,573.49,571.61,580.59,573.38,575.11,575.13,577.77,567.86,573.59,563,567.27,573.9,575.44,577.42,570.24,575.24,573.57,566.96,568.55,567.58,575.24,577.15,573.38,573.87,569.8,575.08,579.13,577.08,578.64,573.65,573.04,577.58,575.29,574.12,577.68,566.94,575.81,563.46,572.11,571.5,583.19,570.3,576.76,570.6,574.14,572.05,571.71,569.58,568.68,571.65,569.33,570.18,569.41,570.56,575.78,569.22,578.06,573.48,577.76,568.44,575.99,575.1,572.71,574.16,576.66,570.3,569.99,574.74,576.66,572.36,577.1,570.58,577.6,579.44,573.07,572.56,580.58,569.33,572.47,568.17,571.93,567.66,577,571.56,576.5,573.93,573.46,580.92,574.3,574.49,571.09,570.3,576.24,574.6,573.18,572.83
578.25,573.81,578.91,581.4,578.55,580.75,581.46,577.08,577.98,579.53,580.21,581.03,579.58,568.1,577.7,579.22,576.82,581.11,578.67,579.27,581.36,577.63,578.1,573.37,576.19,581.71,584.99,576.77,578.76,577.3,582.53,583.87,583.78,582.52,574.98,581.07,589.04,579.27,578.98,579.6,579.42,569.82,577.8,577.08,586.17,575.77,583.59,581.97,580.28,578.08,579.34,576.98,574.13,578.16,573.27,577.05,574.53,575.79,581.58,572.37,584.23,577.56,579.1,576.03,578.41,579.44,579.73,579.54,579.69,577.92,571.59,582.02,579.27,579.47,577.84,580.77,578.36,581.47,580.81,576.25,585.33,577.73,579.7,582.78,577.83,579.31,578.35,578.3,581.99,577.55,575.94,582.87,580.13,577.69,578.61,580.81,581.37,581.25,581.53,577.21
580.61,579.52,585.77,590.26,587.2,588.36,600.57,582.85,588.66,581.72,583.03,583.6,591.49,577.67,580.03,584.62,579.07,592.44,587.86,587.03,586.07,582.5,584.27,578.63,582,584.04,595.82,594.37,587.02,585.83,584.34,592.18,586.95,589.04,579.1,584.92,594.58,585.29,585.04,581.73,582.94,576.18,580.95,584.32,587.04,578.36,592.33,587.94,581.78,590.13,580.66,583.79,579.46,579.89,584.85,581.63,578.8,588.6,585.06,577.78,587.63,583.16,583.62,581.58,580.07,584.82,585.28,580.73,583.28,582.21,579.55,588.77,581.96,583.67,579.12,583.81,585.69,590.56,585.17,577.49,587.65,584.87,582.46,589.29,581.15,583.28,582.2,583.14,586.58,582.59,581.17,585.59,583.46,586.09,582.21,583.79,583.35,583.79,587.25,579.24
601.14,606.77,609.2,605.77,604.04,598.33,602.87,605.55,611,608.4,604.84,604.59,604.64,599.87,602.01,608.93,607.59,605.07,607.01,606.27,607.31,605.06,605.8,603.31,607.85,605.73,609.15,608.2,603.46,602.31,606.25,609.43,610.3,606.77,606.05,606.54,611.48,604.72,603.18,597.16,606.56,595.1,603.72,607.36,607.57,601.47,609.79,610.72,605.74,604.31,603.12,604.04,601.69,607.6,604.98,599.89,602.75,600.85,603.22,604.45,611.89,609.94,607.28,605.28,603.69,603.64,606.34,604.23,608.55,605.3,605.96,609.97,605.9,604.09,606.93,608.86,601.19,601.51,602.99,601.33,610.57,608.3,601.94,609.19,604.8,607.32,605.2,605.78,603.95,601.71,609.5,604.06,606.87,611.76,606.37,606.88,610.82,605.37,605.28,602.87
606.67,613.89,613.03,615.68,610.92,608.72,614.19,609.32,615.59,614.65,613.97,607.11,618.09,604.46,607.65,613.36,610.93,608.55,612.82,613.49,613.65,612.26,611.54,606.29,616.81,608.97,615.4,611.51,608.93,612.21,615.48,612.35,616.34,617.9,608.11,611.83,617.5,611.54,612.41,603.16,613.09,607.1,611.35,614.82,613.08,613.11,613.89,615.08,609.55,609.8,608.93,608.34,604.59,611.79,607.96,603.38,604.74,608.98,610.56,609.98,620.27,612.36,615.65,613.52,610.94,607.17,612.16,613.43,617.74,610.03,608.46,613.03,614.09,606.01,615.81,612.2,615.73,614.78,615.81,613.38,612.28,611.05,615.68,614.38,611.82,612.25,609.15,610.08,614.39,611.32,612.46,617.17,610.09,615.12,609.17,613.45,615.34,612.69,612.38,614.92
617.9,616.39,616.15,616.82,612.8,613.31,621.78,617.15,619.46,618.73,621.29,614.3,621.92,612.32,614.1,617.58,618.86,617.98,622.9,620.62,622.15,616.59,619.83,613.02,622.14,621.52,616.59,614.23,619.09,616.82,618.83,617.57,620.82,619.78,615.04,616.48,622.49,613.6,620.04,613.1,620.52,609.6,619.82,620.6,618.82,619.39,620.03,619.75,617.25,612.7,611.31,619.03,614.77,618.2,617.37,609.91,612.91,613.2,617.89,611.31,625.04,614.42,617.95,615.2,619.38,619.57,618.96,621.98,619.79,613.99,612.73,619.25,616.19,618.85,624.39,613.75,617.57,618.35,618.48,616.23,616.31,618.8,619.39,617.8,621.78,621.95,614.64,615.59,615.1,616.18,616.55,618.89,613.7,622.59,616.85,618.81,619.19,618.36,619.07,619.68
620.45,622.62,620.33,620.94,619.46,622.84,625.7,619.94,627.69,622.14,624.03,624.92,624,616.09,622.77,621.01,624.42,619.32,627.76,629.1,624.54,621.8,621.53,621.42,627.5,624.61,619.76,618.56,620.55,622.48,621.21,621.01,631.8,624.76,620.31,628.12,626.13,617.22,624.27,622.82,627.89,617.79,622,627.02,622.35,625.21,622.41,626.5,619.12,618.51,616.03,630.34,621.64,622.79,623.08,614.7,620.18,616.85,622.23,622.12,627.97,618.18,621.41,622.75,625.89,622.28,624.28,624.92,628.79,616.1,618.85,626.16,620.17,628.1,628.3,618.28,622.54,619.51,618.8,624.53,619.91,621.38,620.43,619.4,628.99,624.81,621.86,618.64,621.08,621.27,620.08,625.73,620.76,625.98,623.52,624.77,630.2,624.39,625.27,621.72
628.72,629.51,626.74,635.67,633.08,630.88,638.06,630.34,629.18,633.42,627.54,630.75,633.36,623.43,627.5,630.2,625.61,632.58,633.75,631.21,634.02,630.18,632.54,623.82,632.28,630.81,628.82,633.98,632.27,631.96,628.05,628.65,635.72,635.3,626.04,631.94,636.05,628.33,631.65,627.19,628.8,622.95,630.82,632.76,628,628.71,630.51,636.24,630.13,627.16,623.29,632.55,627.91,631.39,629.97,626.3,625.97,630.87,631.17,625.71,635.38,622.46,632.37,629.88,630,632.45,633.06,630.85,632.03,622.91,622.48,635.72,628.95,631.81,632.32,625.5,629.34,631.62,630.03,629.65,627.98,628.57,633.55,636.34,630.74,625.41,628.78,627.22,628.17,626.93,627.5,632.71,625.78,633.54,630.92,630.57,634.25,635.01,633.15,627.42
635.33,637.93,636.52,641.14,635.61,636.18,645.62,634.87,639.4,642.08,639.54,634.05,644.2,632.68,631.06,642.02,637.84,639.83,636.26,638.43,640.91,635.97,640.13,634.53,640.35,639.29,638.3,641.32,638.75,638.21,645.11,640.95,643.1,641.73,637,641.11,639.82,637.08,639.86,628.88,640.54,630.02,635.06,637.87,639.43,636.97,648.24,639.8,640.88,636.4,634.85,634.68,635.94,635.81,633.14,635.04,631.34,636.46,635.99,642.04,647.35,643.55,641.28,639.99,639.64,637.32,639.24,637.72,643.14,646.48,634.25,637.56,641.8,633.39,643.48,636.61,643.42,645.68,643.11,636.98,637.17,638.55,642.76,640.25,638.38,642.58,637.17,636.95,641.04,637.61,642.33,642.99,644.32,643.37,635.26,638.97,643.05,638.16,637.84,640.29
652.66,656.66,650.04,655.48,643.27,654.41,654.16,653.21,661.69,648.44,661.15,657.73,655.74,651.73,656.01,654.44,661.72,653.67,660.38,653.06,655.3,650.72,653.61,650.61,657.56,657.74,650.98,652.23,654.73,653.91,651.81,653.07,657.62,658.37,656.45,654,661.95,649.22,649.15,656.62,656.9,646.85,656.86,657.68,660.68,654.88,652.83,654.42,654.96,645.06,644.55,663.6,654.43,656.09,656.36,651.27,655.85,648.06,651.21,656.07,653.11,651.9,657.34,648.99,656.17,656.52,653.29,656.55,656.36,650.92,648.32,653.38,648.28,655.17,652.1,653.77,654.01,655.72,656.4,650.35,654.98,656.2,657.41,660.11,657.21,660,647.72,649.56,656.71,646.41,651.99,654.33,650.02,662.41,657.68,659.27,660.71,657.57,657.06,653.46
660.31,661.17,654.07,657.85,659.8,661,662.91,661.59,668.21,663.71,663.94,660.75,662.26,656.24,660.84,659.57,664.74,660.87,665.67,662.79,660.09,657.19,658.64,655.33,664.91,661.66,660.98,657.44,656.89,658.15,657.45,656.36,666.57,664.62,660.04,661.55,666.77,656.17,659.72,662.1,662.92,655.81,662.75,660.59,664,661.06,658.34,660.41,665.83,657.76,655.42,667.28,657.71,660.81,658.11,655.69,657.89,653.1,657.58,660.11,659.85,656.3,660.49,652.57,661.01,660.31,656.42,661.21,657.55,657.6,661.45,662.68,654.48,662.42,660.63,662.04,660.22,661.73,657.93,655.66,660.8,667.15,662.06,665.17,664.35,662.58,659.1,661.93,659.21,654.49,659.59,663.45,655.4,666.65,661.51,662,663.76,660.36,666.85,658
667.82,667.05,665.59,666.79,663.18,667.96,666.75,671.77,671.99,665.7,667.84,666.55,668.39,663.76,666.02,669.29,670.66,662.46,669.85,669.72,665.71,665.74,667.58,664.8,670.51,667.73,668.53,665.4,664.67,669.21,665.22,665.06,674.27,667.63,667.72,670.3,672.29,660.29,667.09,665.18,667.07,657.77,663.95,665.48,672.59,664.22,668.26,668.01,667.74,662.1,662.64,668.86,660.3,669.91,666.86,660.2,664.64,656.57,666.46,671.36,674.93,667.4,669.82,663.66,664.42,670.4,666.97,669.96,666.61,668.28,669.74,670.73,665.39,667.71,666.07,669.52,662.36,665.8,667.23,664.88,667.59,668.13,666.01,669.69,668.88,671.24,664.67,666.52,665.45,661.25,669.09,665.38,663.22,674.03,667.29,669.18,671.99,669.22,670.43,662.23
690.99,690.89,684.59,689.01,686.86,685.03,685.17,688.09,690.61,688.84,686.73,681.75,691.74,685.08,690.41,691.2,696.84,692.22,700.95,688.48,685.55,687.31,684.41,677.63,697.62,694,691.92,682.77,688.21,683.44,684.16,678.21,694.88,680.37,681.64,687.87,684.57,682.68,679.52,680.08,688.65,683.44,685.66,680.06,683.24,683.27,674.98,691.45,681.83,686.65,679.45,692.98,686.12,678.48,675.55,680.58,683.93,684.73,680.95,690.34,685.73,688.98,680.37,684.74,680.08,684.56,686.85,692.33,683.04,690.08,685.77,687.52,685.96,691.45,695.71,693.58,685.89,681.74,689.78,680.3,680.12,696.6,688.47,685.13,684.11,690.28,687.35,693.59,682.72,685.3,693.51,681.06,689.13,687.16,682.98,677.91,697.03,685.73,695.82,673.66
695.98,694.23,697.72,691.48,691.9,691.11,697.53,692.66,699.59,694.57,702.14,697.03,697.17,694.03,697.06,694.24,699.64,696.14,705.97,696.69,697.12,695.34,690.47,694.81,702.38,699.13,695.23,685.78,695.44,692.89,695.08,689.82,702.4,693.47,695.53,696.75,697.18,691.63,686.83,693.5,696.66,688.68,691.81,696.07,702.58,694.98,693.18,693.58,696.05,687.03,690.22,707.16,694.88,700.19,697.79,681.79,696.91,685.62,700.68,695.76,691.41,692.53,695.94,689.26,693.77,696.52,698.09,702.68,697.28,692.73,696.02,689.13,689.25,694.97,702.04,696.36,693.42,699.59,696.51,689.65,700.22,701.98,692.37,686.95,693.41,697.69,694.07,698.36,696.08,692.85,698.83,699.69,690.14,703.54,695.59,705.59,697.89,693.9,700.64,693.07
713.31,709.3,709.04,710.67,706.43,714.45,709.59,715.43,720.44,711.6,714.02,713.33,711.87,708.81,709.18,714.45,717.46,711.47,717.92,713.66,711.79,711.66,714.4,705.25,719.34,714.55,713.25,708.53,709.65,709.49,707.31,704.91,721.71,714.24,712.11,713.88,717.98,705.39,707.93,714.09,713.44,706.4,710.64,709.38,719.36,714.19,708.01,714.36,714.56,705.04,704.32,715.7,711.66,715.06,708.97,706.52,710.25,705.13,709.4,717.66,713.56,710.46,711.94,707.43,712.62,713.95,713.19,715.79,708.88,710.73,712.47,715.22,707.26,713.42,714.74,715.75,710.72,712.03,717.91,708.6,713.11,718.73,712.86,720.64,718.31,718.91,709.95,713.36,713.74,705.11,710.8,710.41,710,717.96,712.75,713.98,716.85,709.19,720.61,707.92
732.96,739.75,723.79,736.12,729.93,731.47,733.14,736.94,740.93,731.85,736.92,730.84,738.29,731.52,734.78,735.33,744.61,736.48,741.31,735.42,730.69,732.4,728.43,725.49,740.64,735.98,733.48,731.71,731.45,732.26,728.62,729.18,743.3,728.56,733.72,735.35,733.5,723.83,729.83,728.2,736.68,730.86,733.73,726.68,744.54,732.4,726.99,736.48,731.27,733.86,726.2,742.25,731.36,732.77,728.13,729.72,732.96,728.42,728.47,744.58,734.77,735.65,731.3,730.62,727.62,732.52,734.76,736.48,727.97,734.82,735.32,738.07,731.09,738.28,736.02,738.73,730.09,729.54,742.76,730.57,730.45,743.19,733.12,742.24,730.37,740.59,733.76,734.68,733.1,725.51,735.03,726.99,731.55,733.29,727.91,729.54,737.89,735.69,742.47,726.25
757.9,760.29,752.73,758.24,755.97,754.14,757.58,761.95,763.71,757.22,762.15,755.38,761.27,756.83,758.83,760.77,763.58,766.56,765.54,759.28,756.92,760.84,752.66,752.54,764.51,760.89,765.86,752.88,759.69,754.08,753.28,751.73,768.37,756.73,758.57,762.15,758.52,750.29,749.94,754.47,758.66,759.65,755.64,752.95,770.27,759.38,752.58,761.48,756.29,763.27,751.33,763.91,754.68,758.16,754.72,750.59,756.09,751.78,755.79,766.91,760.13,759.49,756.36,763.9,754.75,755.19,756.03,763.38,755.18,756.57,759.94,758.15,752.37,762.14,770.91,761.33,753.05,757.16,766.85,758.19,757.27,767.38,757.13,762.41,755.58,762.9,761.53,759.84,755.48,754.12,759.27,754.38,763.18,759.92,755.61,757.94,761.48,757.08,764.59,750.33
2631,2619,2609.7,2614.1,2601.6,2656.3,2602.6,2627.2,2604.7,2611.9,2616.4,2617.5,2635.4,2627,2623.8,2624.9,2606.6,2602.6,2604.2,2603.3,2614.7,2597.4,2636.4,2598.7,2620.9,2638.3,2644.6,2612.5,2614.1,2611.3,2617.3,2607.9,2612.2,2613.9,2641.9,2617.1,2633.8,2646.5,2608.9,2611.2,2626.5,2624.4,2619.7,2614.6,2607.5,2639.6,2609.5,2616.5,2648,2605.9,2624.5,2625.3,2596.2,2596.5,2621,2612.5,2621.6,2609.3,2605.2,2605.1,2628.5,2603.1,2633,2602.2,2645,2604.4,2635.6,2612.5,2610.3,2606.8,2628.4,2617.1,2603.9,2623.4,2630.9,2600.3,2612.3,2607.2,2596,2637.1,2626.2,2608.8,2618.7,2627.1,2598.7,2618.2,2607.9,2609.8,2635.3,2616.5,2610,2606.1,2621.3,2615.4,2624.5,2608,2613,2626.6,2625.5,2612.3
2632.2,2650.5,2647.2,2635.4,2619.3,2659.4,2603.1,2647.9,2618.1,2618.5,2666.5,2639.6,2635.8,2633.8,2625.4,2650.9,2663.7,2608.4,2634.2,2630.5,2616,2633.8,2648.7,2631.5,2634.8,2654.8,2647.4,2640.4,2646.3,2642.9,2629.3,2635.2,2630.8,2654.5,2650.5,2628.3,2656.6,2648.5,2611,2636.2,2643.1,2627.6,2632.3,2639.4,2608.6,2658.1,2640.5,2628.2,2654.5,2619.6,2630.6,2636.7,2658.1,2626.1,2632.5,2655,2630,2638.9,2645.3,2623.6,2656.2,2620.2,2641,2611.8,2668,2638.7,2638.2,2654.8,2612.9,2625.8,2660.7,2660.2,2645,2659,2649.8,2630,2661.6,2631.4,2649.8,2639.7,2655.7,2641,2650.1,2650.5,2626.5,2640.6,2609,2646,2641.3,2639.9,2611.6,2647.2,2652.6,2621.7,2662.9,2630.3,2632.5,2661.8,2638.4,2615.9
2652.6,2679.3,2682.8,2674.1,2643.6,2673.4,2677.3,2655.3,2684.1,2668.7,2672.8,2648.3,2636.8,2635.5,2672.5,2668.1,2670.4,2684.5,2657.9,2672.3,2694.1,2673.8,2679.9,2689.8,2687.7,2666.2,2660.6,2675.6,2669,2693.9,2632.8,2647.6,2667.9,2664.2,2663.4,2682.5,2675.2,2693.7,2631,2670.6,2674.7,2677.4,2640.5,2644.1,2663.6,2685,2652,2639.4,2656.1,2642,2662.1,2652.1,2678.6,2647.6,2659.9,2658.4,2684.2,2640,2649.6,2631.3,2669.7,2657.5,2650.3,2684.5,2669.7,2641.6,2662.7,2662,2676.1,2680.7,2665.4,2664.9,2682.8,2692.4,2652.2,2636.3,2680.8,2660.3,2694,2642.3,2665.2,2677.6,2656.3,2688,2688.7,2643.4,2636.4,2669.6,2643.5,2688.5,2680.1,2653,2653.3,2680.1,2668.6,2672.2,2643.6,2665.9,2682.1,2666.7
3480.3,3409.9,3475.8,3481.3,3415.2,3406,3457.8,3449.2,3470.5,3466.1,3457.1,3422.9,3439.1,3474.5,3422.1,3455.2,3405.8,3462.4,3457.5,3427.4,3417.2,3427.7,3481.2,3406.2,3444.7,3433.6,3408.2,3482.3,3429.3,3464.2,3481.3,3468.5,3422.3,3420.4,3461.3,3467,3444.5,3428.4,3481.1,3430.5,3409.6,3415.2,3457.2,3435.9,3452.9,3449.8,3441.1,3429.2,3461.4,3417.1,3443,3448.7,3456.7,3464.9,3467.7,3447.2,3428.1,3461.3,3473.7,3449.2,3466.8,3410.8,3469.9,3406,3424.3,3405.3,3426.4,3437.6,3436.8,3468.6,3418.8,3437.7,3423.6,3460.1,3441.3,3409.9,3429.8,3426.7,3476.5,3457.3,3462.7,3444.5,3467.4,3414.8,3469,3437.9,3408.9,3434.7,3431.8,3479.2,3430,3470,3471.4,3418.5,3452.4,3480.4,3444,3446.1,3457.7,3465.8
