12.966,13.049,12.85,12.865,13.074,12.806,12.735,13.06,12.819,12.908,12.865,12.908,12.918,12.902,12.884,12.861,12.863,12.967,12.838,12.923,12.746,12.875,12.838,12.864,12.8,12.989,12.957,12.927,13.008,13.12,12.889,12.895,13.014,12.851,12.796,12.86,12.871,13.053,12.97,12.843,13.09,12.982,13.06,12.696,13.005,12.852,13.03,12.907,13.078,12.966,12.779,12.958,12.957,12.774,12.99,13.005,12.959,13.065,12.829,12.69,12.921,12.92,12.877,12.848,12.95,13.078,12.945,13.017,12.916,13.037,12.71,12.972,12.936,12.784,12.851,13.021,12.865,12.836,12.935,12.851,12.972,13.021,12.985,12.895,13.009,12.934,12.92,12.797,12.881,12.904,13.032,13.128,13.052,12.938,12.928,13.144,13.029,13.045,12.777,12.903
18.63,18.759,18.458,18.875,18.612,18.487,18.563,18.672,18.571,18.404,18.674,18.532,18.708,18.622,18.592,18.744,18.893,18.46,18.396,18.509,18.72,18.405,18.714,18.289,18.947,18.384,18.377,18.335,18.68,18.727,18.574,18.561,18.927,18.289,18.371,18.348,18.755,18.825,18.499,18.619,18.518,18.911,18.443,18.532,18.734,18.69,18.429,18.592,18.735,18.691,18.641,18.165,18.431,18.54,18.623,18.77,18.655,18.51,18.715,18.607,18.954,18.792,18.673,18.702,18.623,18.856,18.284,18.441,18.711,18.643,18.292,18.481,18.422,18.429,18.667,18.802,18.468,18.2,18.577,18.487,18.887,18.703,18.704,18.644,18.417,18.922,18.583,18.658,18.637,18.421,18.652,18.783,18.758,18.643,18.536,18.905,18.615,18.936,18.589,18.503
39.103,38.975,38.927,39.065,39.288,38.887,38.888,39.114,38.966,38.919,38.793,38.792,38.839,39.124,38.934,38.955,38.713,38.931,38.867,39.571,39.022,38.717,38.872,38.824,39.33,39.423,38.627,39.259,38.909,39.283,38.885,38.972,39.173,38.933,38.983,38.745,38.865,39.177,38.813,38.908,39.089,39.282,39.098,38.881,39.389,38.627,38.99,38.778,38.863,39.141,39.046,38.813,39.329,39.341,39.223,38.929,39.23,39.272,39.006,39.311,39.032,39.012,38.819,39.228,38.94,39.177,39.094,38.634,39.034,38.807,38.887,38.848,38.871,38.665,39.02,38.765,38.816,38.438,39.047,38.812,39.178,39.134,39.073,38.917,39.103,39.557,39.503,38.967,39.033,38.921,39.037,39.212,39.472,39.121,38.605,39.244,39.16,38.962,39.499,38.862
67.975,68.027,67.368,67.818,67.924,67.089,67.353,67.64,67.26,67.278,67.35,67.533,67.625,67.551,67.194,67.923,67.992,67.752,67.023,67.71,67.515,67.06,67.663,67.212,68.013,67.669,67.46,67.175,68.241,68.276,67.931,67.514,68.677,67.24,67.371,67.078,67.634,68.076,67.559,67.454,67.802,67.706,67.29,67.128,67.845,67.179,67.507,66.825,67.509,68.057,67.375,67.232,67.464,67.071,67.604,67.679,67.873,68.444,67.555,67.875,67.832,67.372,67.295,67.708,67.517,67.888,67.547,67.134,67.2,67.68,66.451,67.095,67.043,67.202,67.421,67.361,67.259,66.407,67.849,66.963,68.213,68.266,68.143,67.631,67.763,68.344,67.105,67.238,67.251,67.385,67.449,68.149,68.483,67.853,67.331,68.363,67.597,68.058,67.477,67.325
75.809,76.644,75.677,75.813,76.466,75.827,75.743,76.506,75.73,75.987,76.23,75.634,76.415,76.139,75.911,75.9,75.837,75.643,75.587,76.646,76.237,75.833,76.508,75.87,76.453,75.687,75.693,76.019,75.813,76.345,76.342,75.501,76.569,75.727,75.943,75.677,75.688,75.871,75.781,75.408,76.372,76.354,76.533,75.334,76.659,75.112,75.407,74.929,75.678,76.455,76.191,75.909,75.834,77.005,76.482,75.688,76.911,76.663,75.822,77.025,75.493,75.531,75.686,76.674,75.235,76.705,75.983,75.821,75.677,75.543,75.921,75.604,75.376,75.652,75.795,75.617,75.077,75.561,76.252,76.002,76.163,76.554,76.071,76.045,75.977,77.237,76.639,75.626,76.22,76.413,76.137,76.461,76.969,76.654,75.502,75.995,76.241,75.814,76.652,75.433
85.004,85.944,85.31,85.815,85.607,84.509,85.014,85.403,85.306,84.476,85.751,85.204,85.15,84.963,84.583,84.143,85.528,84.348,84.383,84.976,84.365,84.126,85.313,84.21,86.06,84.616,84.919,84.667,85.032,85.654,84.165,85.257,86.111,83.517,83.784,83.885,84.796,85.197,84.616,85.856,85.466,85.971,85.586,84.277,86.243,85.641,85.541,85.449,85.333,85.455,84.646,84.235,85.214,85.4,85.629,84.902,85.476,85.186,85.25,84.181,85.362,85.232,84.896,84.977,85.181,86.893,84.99,85.822,85.575,85.663,85.451,85.245,85.237,84.374,85.447,85.531,84.892,84.625,85.481,85.292,85.403,85.772,86,85.181,84.63,85.143,85.523,85.148,85.251,85.16,85.23,86.039,85.15,85.235,85.142,86.209,85.372,85.868,85.438,84.804
110.81,110.32,109.63,110.08,110.76,108.96,110.25,110.27,109.88,109.55,110.31,110.64,110.02,109.92,109.13,109.82,109.58,109.91,109.24,111.22,109.58,109.88,111.04,109.84,110.2,110.86,109.72,109.98,108.85,110.66,111.29,109.9,110.7,110.44,109.97,109.47,109.7,109.97,109.52,109.91,110.48,110.17,110.34,110.16,111.36,109.25,109.51,109.14,110.06,110.31,110.58,110.65,110.34,111.29,110.91,109.52,111.04,111.25,110.21,110.81,109.85,110.48,110.29,109.72,109.75,109.57,110.32,109.92,109.92,109.93,109.98,110.44,110.21,109.75,110.41,109.36,110.1,108.67,109.97,109.87,110.83,110.12,109.78,109.85,110.23,111.67,110.58,109.93,110.87,110.17,110.53,111.19,111.12,111.07,109.56,110.91,110.65,110.4,111.1,109.57
135.47,135.99,135.54,136.21,135.35,135.39,135.99,135.36,135.53,135.1,135.12,136.17,136.35,134.93,134.49,134.82,136.02,134.87,135.61,137.14,135.66,134.78,136.4,135.55,137.08,135.81,136.27,135.55,135.53,135.64,135.42,135.6,137.63,135.04,135.27,135.14,134.96,135.28,135.35,135.55,136.65,135.55,135.91,135.55,136.67,133.86,134.58,134.49,135.06,136.34,135.51,136.08,135.85,136.71,135.67,134.97,135.5,137.14,135.24,136.19,134.92,135.51,134.52,136.35,135.09,136.98,136.59,135.64,135.21,134.71,136.09,134.74,134.64,135.56,135.44,134.51,134.58,135.3,136,135.22,134.7,136.28,136.17,136.43,135.4,136.61,135.1,135.6,136.18,135.8,135.11,135.65,137.03,136.07,135.22,135.94,135.52,134.2,136.84,135.3
142.71,143.42,141.39,142.56,143.18,143.13,142.57,142.75,143.86,142.45,142.09,142.38,144.89,142.59,141.82,142.9,140.77,141.38,141.7,143.05,143.48,142.41,144.65,143.76,143.58,142.58,140.82,141.85,141.42,142.98,142.49,142.26,144.19,144.12,142.59,143.34,141.51,143.06,141.92,141.34,142.78,142.88,143.35,143.19,145.1,141.51,141.21,140.74,143.24,143.06,143.46,142.12,142.16,145.51,142.42,140.88,145.02,146.18,141.64,143.36,141.58,142.71,141,143.49,141.14,143.39,143.98,141.03,142.86,142.18,143.36,141.85,142.45,142.08,142.46,141.72,143.13,142.11,142.79,142,143.33,143.96,142.67,141.48,142.74,144.56,144.37,142.45,142.39,142.38,143.33,144.04,143.77,142.99,142.64,142.87,142.39,141.28,144.05,141.77
168.02,167.72,166.58,170.18,168.83,167.31,169.15,166.94,168.49,168.31,169.59,171.2,167.66,171.62,167.43,168.57,168.15,167.43,168.54,171.43,168.78,168.85,169.95,168.52,168.23,169.38,168.33,167.75,168.97,168.5,169.36,170.06,168.06,170.03,167.81,168.89,168.18,168.14,168.66,169.63,168.55,169.57,167.7,169.38,171.41,166.39,169.28,168.39,168.36,168.68,169.34,169.97,170.77,170.71,171.2,168.41,168.67,169.37,167.8,169.07,169.78,170.08,171.26,168.86,168.28,168.7,168.08,169.8,169.97,166.94,168.36,168.59,169.8,169.31,169.18,170.39,169.21,168.87,169.9,170.48,168.73,167.07,169.16,169.65,168.74,169.67,168.59,169.17,169.85,169.26,168.09,170.31,171.71,170.36,167.18,168.45,169.33,169.24,169.91,167.16
172.54,170.29,172.09,172.25,171.42,169.43,171.21,171.3,172.49,171.33,172.95,173.08,172,173.14,169.14,171.63,169.61,172.16,170.66,172.69,171.27,171.22,173.1,170.58,171.2,172.89,171.75,171.71,170.05,172.39,172.63,172.29,172.14,172.16,171.83,170.46,170.09,171.54,171.21,170.68,173.34,172.02,172.47,171.71,173.24,171.04,171.09,171.61,172.79,172.2,172.37,173.44,173.23,173.13,172.9,170.49,171.58,173.66,171.46,171.12,170.43,172.49,172.93,169.66,170.56,172.11,171.36,173.51,171.83,172.37,171.23,172.63,171.74,171.25,172.19,171.89,171.29,169.71,171.95,172.9,170.47,172.22,171.85,172.45,170.56,174.07,171.94,172.2,172.33,173.18,171.72,172.77,172.76,172.92,170.78,171.51,171.17,172.38,171.76,170.68
217.86,216.38,214.43,215.87,216.74,213.93,215.69,216.94,213.65,216.61,217.09,217.38,214.5,215.61,216.43,216.34,215.38,218.55,215.96,220.8,215.89,215.34,216.22,213.74,215.48,220.12,213.8,217.12,215.23,217.02,218.59,216.37,217.66,216,216.63,214.92,216.19,215.82,215.7,215.49,218.65,217.19,214.61,216.11,215.94,214.17,215.94,215.27,214.18,216.41,217.83,217.2,219.73,217.17,218.46,216.96,215.89,217.13,217.48,218.81,217.47,215.88,216.92,217.04,217.55,214.75,216.78,214.92,215.23,215.08,215.18,215.61,215.38,216.4,216.13,215.15,216.17,212.56,216.04,216.05,218.95,215.13,216.58,216.03,217.73,219.63,217.73,214.97,217.68,217.43,216.82,216.44,218.81,218.2,214.46,216.95,218.85,215.72,218.2,215.12
219.93,216.62,218.46,218.6,219.84,218.08,216.51,217.96,218.8,219.62,218.04,218.28,218.42,219.71,218.15,219.42,216.78,219.4,218.03,221.23,218.8,217.37,218.77,217.92,219.79,221.88,217.46,218.47,217.88,217.91,220.71,218.06,218.46,219.88,219.23,217.5,218.29,219.5,217.5,218.23,220.84,220.55,218.67,219.79,220.69,217.73,218.91,217.18,220.69,219.12,219.73,217.63,220.78,219.26,220.33,218.34,219.37,220.32,218.78,219.15,218.78,217.67,218.49,218.66,218.99,218.01,220.27,218.69,217.87,217.27,217.13,218.37,219.12,217.87,217.9,217.39,219.62,216.79,220.54,217.49,220.02,217.76,219.23,218.13,218.28,220.22,218.4,220.06,218.32,218.58,217.9,218.72,220.11,219.21,215.82,218.8,220.32,218.54,220.86,217.4
225.78,226.6,228.46,229.21,229.01,230.19,228.95,230.29,229.68,229.72,228.12,228.23,229.27,230.78,228.59,228.52,228.38,228.8,230.19,232.08,229.63,228.41,228.73,230.24,227.06,230.88,227.48,231.06,228.3,228.89,227.65,230.18,228.07,230.36,230.31,227.55,228.29,229.29,228.84,229.25,231.76,230.72,230.75,228.94,230.45,225.45,229.06,230.26,230.96,230.82,231.94,229.27,230,232.15,230.08,228.31,229.5,230.4,227.67,229.22,228.33,230.86,227.57,228.12,228.48,229.67,229.71,230.46,230.4,228.41,229.2,231.7,230.63,227.51,230.27,228.18,230.37,228.8,230.72,226.6,228.15,229.2,228.47,230.46,229.33,229.8,230.7,231.22,230.54,229.01,230.23,230.96,230.73,229.73,226.95,231.22,229.7,228.84,230.81,228.84
237.72,234.99,235.65,235.59,236.52,233.1,234.37,234.88,233.42,237.03,235.77,235.47,232.84,235.52,233.77,235.11,234.7,236.09,234.84,238.83,235.13,234.19,234.54,233.31,236.74,239.71,234.51,236.84,235.19,234.35,238.22,236.36,236.35,234.82,236.39,235.6,234.7,235.34,235.5,236.69,238.38,237.21,232.85,236.63,234.64,232.92,234.62,234.36,234.06,235.72,236.48,233.96,239.46,236.63,239.13,234.53,234.11,235.57,234.83,238.13,236.38,234.93,237.08,237.3,237.18,234.72,236.56,234.11,234.91,233.06,234.44,234.87,234.5,235.02,236.29,235.03,234.94,232.5,236.66,235.18,239.04,233.98,237.05,235.46,236.31,238.01,236.07,234.85,236.04,236.24,235.31,235.08,239.02,237.09,233.31,234.2,237.25,234.06,239.09,233.44
245.56,240.75,243.94,244.93,244.9,245.4,244.06,245.79,244.86,247.75,245.5,247.97,243.76,248.24,244.72,245.1,243.99,246.31,245,248.57,244.81,244.31,245.78,245.12,243.33,247.61,247.19,245.63,245.29,245.78,249.51,243.86,244.6,249.45,244.38,245.31,243.56,247.22,245.17,244.53,246.58,246.12,246.01,246.45,247.74,245.12,245.67,243.2,246.79,247.03,244.82,245.52,248.09,244.93,248.54,244.42,245.57,245.95,243.8,244.89,245.97,243.75,246.32,245.11,241.23,246.97,247.81,247,245.75,245.12,244.09,245.33,247.55,245.89,243.7,244.64,247.32,246.14,246.71,244.07,243.86,243.33,245.41,246.26,244.55,244.34,246.02,244.83,244.93,245.4,244.62,245.94,248.13,247.75,244.36,247.58,246.4,243.12,243.49,244.88
248.34,246.64,248.87,249.21,250.34,249.48,248.19,250.3,250.68,249.58,248.5,252.03,249.57,249.57,247.58,247.59,250.07,248.98,249.43,252.71,249.49,249.43,249.46,250.6,247.61,250.67,249.12,249.93,248.45,249.43,250.16,249.6,248.47,249.98,251.36,247.7,249.32,249.88,248.41,249.32,251.89,250.15,251.6,250.25,250.95,247.45,250.78,247.87,251.65,250.4,251.26,251.6,250.47,251.97,250.47,247.94,248.73,249.66,248.3,249.76,248.76,251.12,248.98,247.46,248.28,249.51,250.96,252.26,249.85,248.97,248.75,249.33,250.92,248.16,250.64,248.74,251.64,249.47,251.44,246.49,248.19,248.78,248.69,250.49,249.02,249.04,250.35,250.35,251.04,249.86,249.04,251.33,250.58,250.79,247.07,252.02,250.21,248.3,250.44,249.83
254.13,249.9,249.15,252.09,251.42,251.13,251.81,251.34,252.06,252.33,251.11,252.85,250.06,253.79,250.4,252.22,250.74,250.36,250.17,254.25,250.1,253,251.16,252.46,252.97,253.08,253.87,251.54,251.53,250.11,254.27,250.95,252.8,254.58,252.13,252.23,250.55,253.16,250.11,250.94,252.29,251.81,252.39,252.14,252.38,249.25,251.54,251.06,254.54,252.96,252.55,251.98,253.46,252.88,252.53,251.89,252.61,254.83,248.55,251.63,251.71,252.19,251.55,251.95,249.29,251.86,253.3,254.95,250.85,251.62,252.4,253.15,253.66,251.62,251.78,250.87,253.01,251.5,252.33,250.49,249.32,250.48,251.14,253.43,251.85,251.01,250.65,252.92,252.02,250.72,251.81,252.01,253.84,252.34,249.41,252.93,250.91,252.37,251.73,251.31
271.98,271.46,270.53,273.75,272.59,270.44,271.96,272.48,271.79,274.64,272.54,275.97,272.83,273.1,268.99,272.92,273.85,273.14,271.4,274.94,270.92,271.3,272.36,272.99,271.08,273.18,274.02,269.88,270.57,274.78,277.19,274.29,273.32,272.56,270.68,271.59,273.89,272.96,271.45,272.26,276.42,275.68,272.4,271.89,273.02,270.96,274.73,272.36,275.52,270.94,272.85,273.8,273.69,274.66,273.26,272.86,273.87,274.17,274.69,275.3,273.43,271.64,271.4,272.01,271.3,270.83,273.38,275.22,272.21,272.68,272.47,272.54,272.28,272.96,272.64,268.06,270.2,272.2,274.21,270.28,273.83,272.12,275.43,272.55,274.12,272.85,267.88,275.54,274.41,273.69,273.21,273.81,273.16,276.42,269.84,272.18,271.48,273.7,273.94,273.74
278.83,276.18,274.99,277.33,278.12,278.55,278.1,280.65,277.06,281.14,277.55,280.97,278.64,277.75,276.69,277.74,277.66,278.65,277.24,280.75,276.16,276.7,279.42,279.4,279.59,279.6,279.46,279.63,275.87,279.68,281.89,277.2,278.45,281.85,276.71,277.42,276.28,280.25,279.15,277.59,279.46,278.55,278.52,277.3,279.72,276.44,277.73,276.72,279.47,279.82,277.44,280.09,279.91,280.18,279.46,276.97,278.4,277.61,279.01,277.53,277.77,278.45,279.1,277.48,275.49,279.39,280.78,279.23,277.5,276.33,279.12,278.5,280.38,276.57,275.42,274.99,277.46,279.54,278.16,275.39,278.27,278.63,279.11,278.99,278.4,277,277.94,278.25,279.17,278.58,278.28,278.4,280.39,279.32,277.56,280.82,279.18,275.93,277.7,278.5
300.86,296.34,298.81,300.03,299.1,299.22,300.24,303.22,300.94,300.42,302.61,303,299.33,305.68,298.29,298.51,299.29,300.83,298.1,304.29,299.17,299.91,303.28,303.19,301.71,300.96,301.9,299.91,297.94,302.85,304.16,301.57,298.46,304.58,300.11,300.99,299.55,301.57,299.68,299.7,300.46,300.99,301.78,299.98,304,299.18,302.4,298.3,303.65,303.39,301.83,303.21,303.34,304.14,301.94,299.56,300.83,300.5,301,299.87,300.33,302.24,303.3,298.04,295.76,300.92,301.94,303.98,300.26,300.55,300.54,301.15,304.43,299.25,300.36,298.52,301.86,300.47,302.23,299.63,298.02,298.52,301.66,301.22,299.54,300.25,300.23,301.16,299.83,302.92,300.31,302.74,301.67,302.89,297.41,302.16,301.82,301.04,297.59,301.3
303.91,302.7,301.56,306.49,306.56,304,306.35,303.96,305.05,305.81,305.73,308.74,303.74,306.99,301.95,304.67,305.15,303.73,304.14,308.69,304.2,306.06,305.6,304.48,302.97,306.19,304.49,304.92,304.88,303.83,307.24,305.27,304.35,305.2,303.51,302.89,304.3,303.8,304.25,307.09,306.13,306.05,304.88,305.77,307.42,302.45,304.4,305.61,306.94,304.11,306.56,307.68,306.43,308.65,308.85,302.98,303.16,305.77,302.96,305.14,305.03,306.95,307.89,304.19,303.09,303.76,304.36,306.98,307.04,301.79,304.24,307.72,306.31,304.94,305.08,306.58,306.02,306.44,306.18,304.24,305.37,302.55,303.88,307.42,305.43,306.94,305.68,306.31,308.3,305.47,306.2,307.78,309.48,307.38,302.67,306.31,306.44,306.4,306.15,303.37
349.94,348.75,347.37,351.19,351.66,347.57,347.73,349.62,347.61,348.12,348.37,352.16,347.93,348.95,345.58,350.57,348.97,349.56,348.76,350.93,347.39,348.22,349.2,347.91,349.9,352.1,348.5,348.27,347.82,352.79,350.64,349.75,353.24,349.52,348.57,347.76,348.59,351.09,349.28,348.21,353.33,351.78,347.94,347.96,348.43,346.87,347.95,347.99,351.47,347.75,349.14,350.66,350.49,350.47,351.38,347.89,349.92,350.66,350.74,351.2,348.53,348.34,350.55,350.3,347.16,347.6,350.64,350.08,347.62,346.96,346.68,347.31,348.19,347.92,348.41,345.89,345.79,344.69,351.82,347.99,350.8,348.43,351.43,350.72,350.78,351.5,348.08,350.28,348.4,349.26,349.43,348.34,351.85,353.04,344.85,351.18,351.9,349.92,350.54,350
354.32,351.2,351.35,352.02,352.86,349.56,349.88,352.47,350.2,352.58,351.93,353.89,352.62,351.77,349.36,352.71,350.12,352.88,351.44,356.21,350.24,351.37,353.81,350.51,352.76,355,353.8,350.71,350.92,353.32,356.3,351.4,355.81,352.22,350.58,351.13,351.73,351.85,349.72,350.74,356.41,354.41,351.87,351.48,352.81,351.12,352.56,350.14,353.42,352.84,351.18,351.91,355.02,353.35,355.84,351.4,351.91,355.47,354.93,353.92,352.08,351.52,352.43,351.06,352.11,353.14,353.94,354.18,351.98,352.74,348.52,352.83,350.09,350.25,350.61,351.64,352.35,350.26,353.01,351.6,354.58,352.27,352.51,352.7,351.8,354.84,353.38,351.73,351.27,352.01,353.06,352.72,353.78,353.97,350.14,353.26,353.58,351.25,354.61,350.36
381.48,381.6,377.09,382.98,380.35,376.7,377.69,381.84,378.65,382.19,382.12,380.39,383.51,380.49,378.5,379.75,378.57,378.41,379.41,382.2,380.64,380.26,385.95,379.19,380.13,378.77,375.98,380.56,379.33,381.57,383.45,380.65,382.14,381.36,380.39,378.73,379.62,382.2,380.73,378.58,383.23,382.47,379.18,377.79,382.06,372.93,376.35,379.34,383.46,382.4,383.58,381.53,383.12,381.42,383.76,379.21,382.63,384.47,380.84,380.9,383.75,382.16,382.32,383.99,377.45,383.69,379.25,383.68,381.05,377.32,378.23,379.64,380.79,380.66,381.26,382.87,378.93,378.32,381.63,379.56,379.29,381.88,379.63,380.42,377.41,382.37,380.37,380.99,381.35,382.73,379.86,381.91,383.12,382.81,376.9,379.77,381.13,381.17,382.4,377.32
390.77,385.21,382.23,386.03,382.39,381.73,387.23,386.24,384.04,384.04,385.49,390.76,387.05,389.3,379.29,385.78,384.9,387.74,388.78,387.83,381.86,384.82,386.95,384.04,388.12,388.57,389.18,386.89,380.91,383.8,389.81,384.49,386.62,390.27,383.69,386.07,384.12,387.7,387.81,386.12,388.34,387.55,383.97,383.34,387.49,387.39,388.36,384.71,386.94,390.98,387.2,388.34,388.92,386.26,390.51,386.45,385.39,389.03,384.05,384.4,384.12,389.77,384.9,385.26,383.17,387.68,387.83,389.43,383.64,384.4,387.63,385.36,385.82,381.78,386.26,387.69,390.69,387.11,385.72,386.76,384.96,386.89,384.16,388.15,388.77,386.42,386.14,386.64,386.31,388.61,387.72,387.07,386.74,385.73,380.07,389.34,383.56,383.66,383.15,381.92
407.14,400.15,402.46,405.76,402.92,403.66,405.85,401.9,404.31,405.1,405.2,407.17,402.65,404.61,400.01,403.65,404.94,401.44,405.24,409.83,403.53,403.76,403.69,401.89,406.36,408.67,406.56,404.52,403.63,403.36,406.21,407,406.7,405.1,404.65,399.18,403.44,403.57,404.31,407.93,405.86,398.36,400.46,406.37,406.83,402.19,404.93,404.83,403.02,404.42,401.24,406.54,408.26,405.82,408.87,400.59,402.36,403.61,404.79,406.56,404.63,405.95,406.23,404.77,401.61,404.6,402.15,406.84,404.89,400.32,400.19,401.81,402.75,403.75,403.73,406.27,404.39,401.93,406.67,402.52,403.34,401.52,405.82,408.01,404.78,406.22,403.26,403.38,404.62,405.28,403.89,404.8,408.97,407.42,400.68,407.94,405.22,402.47,407.87,403.55
420.48,427.99,425.67,418.55,406.01,425.17,414.32,425.8,408.28,430.23,416.96,415.59,430.96,415.87,426.61,413.51,418.6,429.1,429.43,426.62,430.64,420.19,423.71,412.91,426.53,424.79,427.16,418.73,423.63,423.5,430.46,415.05,427.25,409.13,420.52,405.38,427.84,424.66,418.89,425.09,431.95,406.42,418.45,416.62,428.79,427.97,428.02,422.84,411,426.63,418.96,414.84,428.98,413.68,430.33,421.59,412.24,422.72,430.35,418.83,421.07,409.22,415.34,413.54,412.52,431.67,407.28,408.59,413,418.16,409.2,423.48,407.64,407.19,427.5,409.02,418.34,428.13,411.54,428.29,428.9,413.93,418.59,413.01,420.93,417.48,421.8,422.32,418.52,407.34,415.99,427.61,419.64,428.81,427.21,415.07,419.77,422.33,411.9,416.9
431.23,428.28,434.15,430.9,430.47,425.51,426.34,430.64,430.21,431.59,428.98,432.1,439.44,426.3,429.88,427.57,428.14,431.29,431.16,431.71,439.27,427.98,430.17,430.34,430.63,428.45,430.63,430.75,427.46,430.82,434.17,430.8,431.45,430.7,431.32,429.24,433.62,430.93,427.3,429.19,433.29,433.56,429.08,429.17,431.64,431.21,429.15,430.42,431.02,433.31,430.45,430.5,433.32,430.63,434.58,426.61,429.9,433.16,433.88,428.72,429.16,430.62,430.51,429.59,428.62,441.46,432.67,433.08,429.77,428.92,429.48,431.17,429.75,427.69,427.88,430.64,429.71,428.85,432.87,430.35,429.81,430.39,430.45,431.81,428.53,428.44,429.85,431.69,429.31,430.38,428.45,431.45,433.78,432.1,431.74,430.57,430.47,429.25,432.3,427.38
440.35,441.96,435.43,441.33,435.99,430.07,435.23,436.19,433.41,442.92,438.29,443.6,442.09,435,436.02,439.67,436.1,445.7,435.19,437.02,442.64,439.56,440.38,434.5,433.09,433.06,436.18,435.76,441,437.02,441.29,440.32,438,438.77,438.25,436.61,439.85,438.55,439.23,437.08,446.32,437.21,432.91,431.27,432.2,431.71,433.95,435.41,436.02,437.37,441.03,431.39,444.89,434.87,443.15,433.39,443.59,440.78,434.63,439.83,442.36,439.24,442.57,443.53,433.65,441.77,439.17,441.18,438.54,435.11,436,434.65,442.56,445.32,434.56,435.36,431.34,436.13,435.17,434.82,434.32,437.28,438.15,432.41,430.24,435.69,436.3,434.53,439.25,442.34,435.38,437.21,442.17,441.23,432.58,431.51,435.41,433.22,443.34,436.63
449.64,457.04,450.49,460.05,456.94,443.19,448.99,448.78,451.69,461.78,456.29,452.59,452.81,447.53,446.12,448.69,451.59,450.26,448.36,454.39,457.45,453,451.45,451.11,459.37,450.64,451.08,453.1,448.57,448.4,457.22,450.41,453.67,460.52,454.67,454.83,457.62,456.04,454.33,449.17,455.49,463.36,450.61,458.13,447.22,454.12,450.39,449.49,454.46,452.36,458.07,445.4,457.68,454.33,454.25,450.11,454.68,455.16,446.65,454.54,457.48,451.3,457.22,453.71,454.83,455.87,456.36,452.25,454.15,446.69,456.97,447.53,460.34,458.56,449.96,453.02,455.41,450.6,461.47,456.06,452.79,451.11,451.85,452.71,448.92,452.01,447.2,455.4,444.26,453.19,450.96,458.38,453.15,459.88,450.01,442.63,451.69,446.42,454.04,448.77
456.56,460.32,453.55,462.16,461.82,449.88,455.61,455.66,453.78,464.77,458.07,460.64,454.64,458.11,458.69,461.94,455.2,458.82,460.04,460.1,461.92,459.42,462.76,454.19,461.99,452.91,459.05,454.95,454.78,458.76,460.97,460.09,462.76,466.04,463.12,458.2,462.19,459.8,462.18,451.48,459.22,466.32,457.34,460.26,452.12,457.97,456.55,457.54,465.21,461.99,461.41,453.89,460.51,458.91,459.53,457.43,465.09,462.23,463.5,459.42,458.34,457.81,464.87,454.98,458.89,458.89,462.1,457.79,463.82,448.54,458.99,453.56,466.54,464.08,463.81,456.04,461.53,457.55,467.44,459.41,459.83,456.08,455.66,456.3,453.85,460.08,456.85,462.01,453.67,454.46,451.73,463.79,465.71,461.86,452.52,458.54,459.25,453.42,468.74,452.41
468.09,467.53,468.44,470.74,467.16,465.62,463.19,465.4,463.85,474.52,471.68,470.27,469.74,465.77,466.41,467.01,467.92,466.43,467.26,469.87,471.3,469.77,469.25,470.24,466.95,464.75,467.12,467.11,468.46,468.84,469.97,468.96,467.88,473.3,467.76,468.74,472.82,471.79,473.36,463.24,474.2,473.79,467.19,469.85,459.66,466.37,467.02,465.55,470.3,472.17,472.58,462.74,466.86,468.73,473.42,467.69,473.2,474.26,466.41,469.78,470.85,466.75,469.15,469.09,468.11,470.38,470.87,470.14,467.46,463.67,471.9,466.4,469.98,468.88,470.62,469.21,470.7,466.4,471.44,469.02,471.18,469.76,468.67,468.06,467.03,467.94,463.34,470.62,465.61,469.73,463.65,471.54,472.87,473.71,466.55,463.69,467.93,464.29,477.6,465.69
476.02,474.35,468.5,477.36,473.4,467.65,469.03,471.69,471.42,477.98,475.54,478.63,475.02,474.69,471.47,474.91,468.7,473.47,473.18,473.65,473.65,472.2,476.38,471.56,473.38,470.12,470.94,474.31,471.91,473.49,473.67,472.42,473.33,477.28,473.98,471.2,475.56,477.45,477.31,470.1,478.71,477.1,469.51,473.33,472.1,470.31,471.75,471.07,477.58,475.07,476.88,473.7,477.13,472.83,475.89,470.74,477.07,477.86,475.29,474.83,476.95,474.82,475.68,474.96,472.39,474.98,474.36,476.46,474.81,470.38,472.36,471.78,476.81,475.24,472.74,473.58,473.43,470.28,477.88,471.14,471.46,474.96,472.21,475.42,468.92,473.65,470.51,472.17,474.83,475.9,473.23,475.12,478.82,476.9,468.14,473.01,476.13,470.11,480.8,469.7
479.06,477.19,475.29,479.12,477.58,473.15,475.46,479.02,478.93,481.38,478.53,482.99,478.02,475.52,474.71,476.45,476.58,475.64,478.34,478.33,476.06,476.47,479.95,477.72,477.26,476.32,476.02,479.03,476.37,480.97,480.61,480,479.26,479.65,476.04,477.27,477.26,478.45,481.82,476.69,483.49,479.5,476.5,474.25,475.9,471.84,474.12,476.67,480.04,480.66,478.4,478.01,482.42,476.3,484.83,474.18,480.92,481.64,476.43,476.81,478.79,475.89,479.24,477.17,474.01,482.46,482.27,482.61,477.17,476.59,476.86,477.37,482.78,478.52,475.45,476.54,479.3,477.8,480.14,476.87,475.27,478.12,478.06,476.59,475.92,474.26,477.13,480.58,478.69,480.94,476.04,477.67,481.84,479.37,473.63,477.37,477.64,478.41,480.94,474.3
480.44,483.42,481.06,479.71,483.98,475.16,478.62,479.78,480.42,483.61,482.88,483.72,480.69,481.62,479.71,481.95,477.81,478.88,479.55,483.22,480.25,478.14,483,480.09,481.62,482.04,481.49,480.46,479.16,484.17,482.67,483.48,480.66,482.15,481.02,480.03,479.86,483.16,483.59,481.39,487.98,484.19,480.34,478.55,484.68,481.47,485.41,480.24,483.26,483.89,481.89,481.39,486.92,480.77,485.61,476.32,482.83,488.02,478.71,478.39,480.3,480.68,482.86,482.75,478.69,484.65,484.6,485.29,481.3,480.46,484.89,480.99,485.92,485.33,480.38,477.63,485.47,480.86,483.73,479.19,479.05,483.49,480.52,480.33,481.91,478.49,479.92,484.21,479.52,482.17,480.85,481.49,484.45,482.69,478.71,481.53,481.04,479.29,484.49,478.85
489.65,488.28,483.59,489.19,485.39,482.93,484.85,484.2,483.49,489.27,486.46,489.48,488.42,488.05,481.62,489.7,484.41,486.84,488.91,494.94,486.23,485.91,491.58,484.25,492.46,486.29,485.74,486.93,482.04,486.07,490.17,486.96,492.96,491.98,487.45,488.39,485,487.83,492.92,486,490.76,490.57,487.06,487.91,486.23,485.62,486.82,484.32,489.77,490.74,486.87,486.83,491.17,487.25,486.7,485.45,491.04,498.65,488.27,483.46,486.81,487.19,490.17,487.81,488,489.67,492.15,492.18,487.45,484.12,488.83,482.85,489.81,487.54,489.69,489.27,492.28,484.81,492.52,487.76,488.66,489.91,488.81,490.13,487.33,485.63,487.83,491.51,484.35,486.8,486.51,490.63,485.96,486.64,486.63,487.91,490.26,481.8,494.86,481.76
511.18,510.26,505.5,511.42,512.33,501.91,504.7,506.11,507.21,515.81,511.69,511.51,508.31,509.41,505.7,511.45,506.48,508.43,507.55,511.46,513.59,510.67,507.81,505.19,510.07,508.65,510.61,507.57,508.34,507.22,515.21,511.49,510.81,515.32,511.47,508.54,510.04,511.52,512.96,506.05,515.25,518.78,506.01,510.63,502.96,505.97,507.7,506.73,509.3,510.88,511.13,503.35,513.16,511.24,515.33,505.36,514.14,517.28,508.81,512.58,512.26,508.62,516.45,512.15,509.66,511.18,510.95,508.89,512.65,503.79,506.92,505.77,512.38,514.06,512.08,508.5,512.85,508.53,514.26,509.78,511.7,507.99,513.36,505.97,506.38,508.18,508.81,507.55,506.74,509.66,506.03,513.47,515.7,514.36,506.79,506.63,508.02,503.14,518.7,507.6
549.73,531.29,537.46,529.83,533.75,536.42,534.59,534.33,533.25,539.38,538.93,546.64,534.81,535.74,523.09,520.13,531.84,535.08,547.85,543.41,541.49,537.43,527.28,539.63,539.1,539.31,545.09,527.06,538.06,526.96,536.94,545.8,536.1,545.7,547.42,533.56,540.41,535.45,537.65,535.38,549.38,551.79,543.22,535,540.94,533.22,529.35,542.53,536.51,548.12,533.69,537.66,523.39,547.58,551.24,532.12,540.75,544.13,528.91,544.54,539.89,537.04,535.73,545.65,537.87,544.42,538.88,542.93,541.66,531.69,527.08,533.75,538.01,543.34,543.58,538.53,544.54,537.29,542.13,524.02,542.71,540.69,544.71,539.85,540.88,532.71,535.66,525.67,531.79,540.86,539.48,528.17,541.49,553.88,538.36,547.11,543.07,541.18,547.1,544.07
559.39,551.96,553.09,551.52,546.94,544.21,549.42,549.78,548.78,552.41,551.76,555.48,548.24,553.67,539.64,544.29,548.98,550.38,548.45,561.26,549.05,550.96,552.08,545.79,557.11,552.37,555.25,547.36,549.67,544.72,556.38,550.2,553.15,556.66,554.2,551.88,548.95,553.63,551.8,547.71,558.76,554.63,551.67,553.74,551.79,545.64,553.88,548.16,550.05,555.66,550.99,552.33,550.97,552.01,559.17,549.98,550.83,554.9,544.8,549.79,551.17,544.42,548.45,558.4,551.22,557.74,556.35,549.11,550.01,549.76,551.98,549.81,550.2,551.85,554.34,553.1,555.41,552.27,552.88,546.57,552.14,547.21,550.19,554.77,554.18,550.02,547.24,549.61,547.46,553.43,551.84,545.53,552.08,555.26,546.76,552.36,552.28,546.46,552.16,553.04
564.13,555.74,556.18,556.19,549.51,556.76,555.69,554.14,551.47,560.86,559.28,562.27,558.18,562.24,555.31,557.07,557.35,557.1,555.12,564.68,557.33,557.11,559.68,550.88,559.46,556.89,555.9,553.75,555.28,547.76,561.09,556.32,556.36,559.08,556.29,556.87,554.02,556.35,556.97,555.54,562.16,562.92,554.23,556.27,554.72,552.03,559.08,553.98,559.17,558.93,562.32,558.56,554.28,561.46,562.59,558.95,558.78,563.32,557.1,558.91,560.88,552.48,550.22,560.98,560.53,558.98,559.09,562.86,555.89,556.38,559.29,556.44,557.34,561.09,558.28,560.32,556.94,556.25,559.69,555.86,562.72,556.94,558.13,559.27,559.44,558.4,550.09,555.74,560.3,558.21,557.46,551.71,559.35,563.6,555.52,557.1,562.34,558.56,561.8,553.85
565.72,558.36,558.39,559.1,554.7,564.63,557.22,558.98,555.63,572.7,569.19,568.25,565.16,565.11,564.6,563.04,560.43,562.27,562.9,572.07,564.05,559.29,566.29,559.34,562.47,560.48,559.29,559.64,563.08,558.01,567.23,562.67,557.57,562.04,563.14,565.64,558.42,559.92,560.49,562.59,572.2,567.39,559.94,564.92,563.56,557.92,560.34,558.44,567.96,563.95,567.02,560.8,560.3,564.14,565.86,565.03,563.9,565.39,558.38,565.11,566.56,560.07,560.43,562.71,566.24,563.06,563.86,569.3,560.98,564.43,565.28,565.47,561.59,565.41,563.94,563.61,561.55,559.6,566.64,562.84,567.39,558.17,563.11,563.93,562.25,568.41,557.89,568.05,564.93,568.69,561.01,561.17,562.45,565.89,561.02,561.69,571.38,560.06,568.22,557.03
571.18,564.4,570.26,564.71,556.8,568.17,560.45,566.95,563.1,573.51,571.45,571.77,568.21,569.44,566.73,564.64,570.55,568.33,571.69,573.86,569.82,562.92,569.97,567.13,568.77,571.02,564.61,564.35,563.86,568.62,570.07,571.55,562.72,572.13,569.05,566.56,566.86,570.2,571.63,567.52,578.68,574.73,566.24,567.91,571.27,563.06,567.44,565.64,570.73,576.28,571.1,564.92,573.9,566.82,577.44,566.59,573.42,574,561.02,570.03,569.41,563.29,565.47,565.8,571.51,570.99,569.95,571.35,570.38,569.45,570.03,569.19,569.57,569.56,571.55,566.7,566.29,566.16,569.41,565.83,574.13,566.77,565.23,573.07,571.86,570.96,560.88,569.51,568.26,575.21,567.68,572.03,565.14,576.5,564.67,564.46,572.76,566.89,573.25,562.3
574.77,571.89,574.34,569.55,569.01,572.5,567.69,572.61,569.45,578.33,574.79,574.97,569.24,572.52,568.18,570.36,575.8,573.12,573.2,577.81,573.5,570.92,570.59,577.32,571.07,580.22,571.05,567.29,568.9,570.99,574.91,587.05,572.81,575.68,573.04,571.7,573.99,574.62,576.85,574.57,582.61,577.96,570.35,573.74,575.98,566.72,573.24,566.88,572.11,577.52,574.45,570.92,576.63,573.21,584.75,572.09,575.52,576.83,568.36,576.11,571.41,572.67,571.59,573.91,574.53,574.66,571.97,574.32,571.15,576.4,579.28,572.22,571.28,571.11,577.24,572.04,574.43,566.88,573.27,572.47,574.3,573.34,576.44,575.21,578.8,572.85,571.95,578.02,572.51,579.72,573.88,575.72,574.73,580.5,573.01,571.87,579.23,569.67,574.78,568.58
579.9,574.42,578.07,571.22,579.52,575.48,573.06,579.98,578.02,584.34,575.83,584.07,573.76,577.2,575.31,571.17,579.36,574.97,585.47,580.63,583.41,581.48,575.64,580.83,574.68,580.7,571.88,576.42,572.78,575.77,578.12,592.31,574.74,580.47,583.62,575.44,580.2,580.23,579.32,577.84,585.86,587.35,576.84,580.62,578.2,575.69,579.37,581.24,573.91,585.76,575.25,579.47,579.05,584.2,587.14,576.45,579.56,579.65,577.2,578.75,575.18,575.14,579.68,578.73,576.98,581.7,582.46,582.33,576.79,580.57,586.12,579.04,573.71,577.24,579.89,572.87,579.42,573.65,581.92,574.64,584.61,573.71,578.27,578.37,583.8,576.89,578.98,581.05,581.93,582.37,576.73,580.86,584.86,583.48,578.15,578.54,581,578.73,584.64,573.93
586.03,583.86,578.92,577.5,584.18,581.8,576.11,581.86,579.8,590.33,589.69,590.16,585.72,594.02,576.5,583,582.78,583.2,590.1,590.84,588.55,585.45,583.79,588.83,582.69,589.99,585.79,582,579.18,578.71,587.34,592.99,581.89,593.09,593.27,587.93,589.16,584.4,592.02,589.73,594.61,589.56,581.98,592.57,585.77,580.13,579.76,585.36,584.53,592.29,590.58,586.53,590.99,589.36,595.25,578.44,581.81,586.55,578.97,581.81,584.41,591.51,585.96,587.99,586.44,587.27,591.97,588.45,584.8,585.95,587.1,585.09,583.02,586.66,590.35,590.91,593.5,587.95,592.54,587.45,590.39,587.37,593.26,580.81,591.27,583.37,581.73,590.68,591.89,585.39,587.66,587.24,587.24,588.03,586.27,583.16,585.48,591.22,588.76,581.09
602.92,589.9,588.49,593.39,588.01,586.37,590.73,589.97,592.2,593.11,595.47,597.89,589.3,595.03,581.74,588.61,589.53,591.25,596.86,599.59,595.13,592.25,591.48,589.12,594.61,592.94,596.72,584.95,591.27,585.83,595.91,599.8,590.84,597.37,598.17,597.32,592.65,591.03,592.57,592.35,602.56,598.67,592.85,596.4,594.33,584.54,593.11,591.67,589.85,596.83,598.51,593.56,594.15,596.03,600.62,590.22,590.61,595.49,586.09,594.43,595.19,593.56,592.93,596.49,591.84,597.79,598.4,596.77,593.19,587.13,587.61,594.21,593.35,596.88,597.76,592.24,594.61,594.32,597.19,589.72,600.41,591.54,594.64,595.08,595.86,591.55,590.04,593,594.35,597.27,588.35,591.82,596,601.1,592.13,596.01,592.69,594.32,594.53,593.92
613.18,608.34,612.05,610.7,605.43,615.51,606.19,608.97,608.88,619.18,615.26,617.15,610.72,613.7,611.23,610.22,614.28,618.14,607.26,617.09,613.07,615.32,611.58,608.01,609.49,614.05,609.68,607.61,612.53,607.48,619.1,613.85,610.57,616.19,611.36,616.92,609.03,617.1,611.19,608.45,619.95,619.47,611.64,616.26,609.06,607.33,613.77,608.76,615.82,612.82,612.54,611.85,609.81,614.63,621.86,611.41,612.79,614.7,609.64,613.85,617.76,605.24,603.12,609.66,617.31,611.51,613.33,610.52,609.9,619.92,614.76,614.41,608.98,613.63,615.21,606.2,612.2,613.8,613.71,609.31,616.42,609.59,613.65,615.56,615.46,611.41,602.51,618.82,614.15,619.4,611.18,609.95,611.47,619.46,612.81,612.22,615.3,613.38,621.91,609.01
624.23,618.88,621.15,620.7,621.66,617.79,615.31,617.63,624.68,620.97,623.15,620.29,617.49,627.01,614.07,614.13,617.61,620.44,615.92,626.97,614.65,619.04,620.91,612.75,623.2,618.33,611.35,614.43,614.99,625.67,622.55,616.82,624.28,619.99,616.43,619.25,616.03,625.58,618.95,621.16,621.76,627.53,623.87,617.03,626.76,610.41,624.13,615.65,626.59,620.43,620.81,620.17,621.27,623.91,625.3,621.12,623.68,620.19,622.25,617.08,626.85,620.32,626.74,623.27,621.92,622.29,620.07,620.56,626.41,623.27,617.8,619.78,621.65,621.18,620.38,621.18,615.86,618.93,619.61,616.77,623.12,621.3,622.3,619.52,619.81,617.59,620,621.99,616.1,620.58,622.89,623.41,617.89,625.25,617.25,626,621.31,626.22,625.9,619.15
628.3,623.11,625.62,627.38,626.96,627.35,621.1,628.89,626.45,630.14,627.64,629.33,626.35,628.47,621.87,625.66,624.43,625.71,625.72,632.26,625.04,625.19,627.86,625.08,625.07,627.04,621.96,621.79,624.98,629.03,627.94,628.88,627.15,626.15,626.22,627.36,619.14,630.47,625.96,626.99,629.16,633.3,625.51,630.07,634.5,622.7,628.61,624.57,629.57,628.55,625.99,623.63,630.96,629.15,631.88,627.08,630.41,625.56,625.75,625.38,628.38,622.46,631.44,627.41,626.92,630.55,625.84,627.75,628.89,628.99,630.04,629.34,628.98,629.81,625.64,625.19,629.09,623.59,628.02,622.62,629.91,623.03,627.92,626.17,626.74,627.59,626.67,630.21,626.83,628.8,627.29,628.87,629.08,630.91,625.04,627.18,632.11,627.65,630.85,625.89
630.52,628.85,633.79,630.24,632.68,631.55,630.1,635.25,631.9,639.91,633.07,638.85,630.71,634.38,626.66,631.5,635.04,634.94,634.3,637.59,635.6,632.35,630.23,634.09,630.6,633.17,634.55,632.71,627.34,636.89,638.76,640.32,629.91,635.09,638.61,633.18,629.08,635.59,635.53,635.09,640.47,639.03,633.19,635.6,635.41,630.81,634.71,632.38,636.06,637.32,633.17,634.57,637.63,634.96,641.4,633,634.84,634.73,634.92,632.65,633.23,628.76,632.78,630.35,635.15,636.58,636.98,638.68,630.93,639.82,636.94,637.91,633.51,630.93,634.88,638.44,633.23,635.2,635.79,630.69,633.86,630.94,635.56,635.14,636.72,632.51,629.75,640.71,634.12,637.86,633.53,636.57,638.91,638.77,631.22,634.52,632.51,634.3,640.22,629.67
645.62,639.34,639.5,641.49,639.65,642.33,635.6,638.07,642.4,649.68,647.56,646.11,639.4,645.44,638.44,641.31,641.53,644.83,638.29,653.29,640.04,640.55,647.88,640.32,642.57,645.42,644.25,634.83,642.29,640.14,649.69,646.87,643.9,645.33,646.93,643.33,639.56,642.2,640.7,640.56,649.23,643.31,638.1,644.19,648.17,634.26,642.31,634.11,644.77,642.02,640.93,645.57,650.2,640.45,644.57,645.17,645.69,646.93,637.68,643.38,643.07,639.72,639.15,642.23,642.39,647.31,643.12,647.34,638.07,644.79,642.32,641.74,640.48,647.28,643.85,642.42,641.29,639.1,642.53,642.29,638.38,641.97,645.67,644.62,641.75,642.44,632.5,644.71,642.38,646.33,640.09,644.56,642.78,646.05,636.7,643.25,643.56,639.4,644.91,642.17
656.06,653.28,652.65,655.46,653.85,651.57,651.69,652.4,652.88,651.04,656.31,659.89,656.94,659.06,648.77,653.31,651.81,656.85,655.37,663.95,649.61,656.13,657.48,643.24,656.84,650.32,647.7,651.28,648.99,651.16,659.21,650.44,655.06,657.74,650.48,652.73,651.87,654.16,655.42,654.77,654.02,661.21,654.33,653.27,661.56,647.96,654.27,647.5,656.78,656.72,654.22,659.81,659.19,657.52,659.37,655.84,657.33,658.62,656.14,650.4,655.4,653.61,655.11,658.86,656.24,659.14,658.24,649.42,655.55,653.91,656.29,652.49,654.25,657.48,651.99,658.71,652.31,657.1,656.35,655.88,655.83,653.72,657.03,655.31,655.21,655.88,655.27,652.94,654.61,655.66,655.64,659.66,658.86,658.25,652.42,657.86,655.16,654.49,659.71,653.24
659.41,662.42,658.21,659.73,659.81,662.11,654.36,655.02,657.75,658.67,660.9,663.94,663.63,664.93,652.02,657.86,656.4,660.09,661.14,666.66,656.17,660.94,661.97,654.54,660.61,665.08,653.77,653.81,654.16,659.45,664.78,657.14,659.63,659.32,658.08,660.79,654.77,663.77,660.31,662.7,661.33,661.92,662.22,659.37,667.46,651.5,661.06,654.24,663.13,660.93,668.01,666.43,663.76,661.6,662.93,658.57,663.99,662.29,659.45,656.51,659.41,662.9,663.34,662.93,658.39,667.87,660.89,662.82,663.31,656.24,663.6,656.22,657.94,662.12,659,665.09,660.59,664.15,658.4,660.3,657.65,665.52,660.29,661.94,659.62,656.93,661.29,658.69,662.07,665.12,659.78,662.87,660.99,662.91,655.22,662.4,660.87,658.3,660.7,654.66
667.52,666.43,659.94,663.13,667.51,668.1,662.78,663.04,659.94,672.27,667.99,673.58,672.98,673.67,659.44,671,665.59,669.42,671.58,674.3,662.67,666.47,672.24,663.79,668.45,675.75,666.46,661.59,662.56,660.42,670.68,669.27,667.04,675.34,665.79,671.25,663.29,668.81,676.93,670.31,678.54,669.9,665.35,673.37,669.14,664.92,668.37,662.64,670.11,667.02,673.09,669,673.68,670.08,669,664.32,668.72,665.45,667.67,661.43,666.66,678.88,672.17,665.52,666.83,669.54,677.05,667.3,666.8,663.49,665.89,662.99,673.27,667.21,665.51,669.06,671.17,667.21,674.08,668.27,681.69,673.78,678.15,667.01,678.61,664.59,666.89,669.93,674.52,668.87,671.39,670,669.05,668.02,672.24,670.33,667.85,669.43,669.17,660.47
682.34,683.38,690.72,685.91,681.52,680.36,687.58,681.84,693.05,679.84,693.43,688.28,687.45,681.84,673.51,673.93,681.64,684.24,682.41,684.34,668.58,676.67,689.48,684.39,692.54,685.88,686.41,687.22,681.43,686.66,684.9,689.57,688.14,681.02,678.31,672.79,675.8,682.16,681.77,688.61,693.23,681.57,695.06,683.49,696.54,678.82,686.76,683.89,686.23,689.63,685.26,684.84,686.41,695.07,689.64,677.71,680.27,696.89,681.19,676.96,677.45,685.7,679.99,676.43,680.63,692.67,688.1,691.57,687.94,686.68,692.97,690.23,690.01,678.57,683.98,680.3,684.32,690.65,692.06,682.4,683.15,690.29,691.97,688,683.78,673.81,683.02,688.57,687.17,683.7,681.42,684.45,682.33,687.01,689.64,684.08,678.68,683.43,690.18,682.34
691.38,697.49,692.99,690.96,691.78,688.59,688.86,692.79,693.79,696.98,703.9,692.63,699.18,701.25,689.76,688.53,692.18,687.42,690.67,698.36,692.38,693.5,707.42,689.15,693.55,688.82,688.28,691.35,685.63,692.88,700.05,693.93,697.26,693.02,691.03,694.7,684.16,691.91,692.78,695.33,697.64,697.69,697.63,686.28,702.9,685.79,693.61,688.47,697.13,695.5,696.45,700.49,692.96,703.72,700.42,691.49,701.99,699.07,689.86,693.43,689.87,694.41,698.77,697.73,688.6,702.7,695.43,698.78,694.49,691.47,705.81,694.75,692.63,694.92,694.78,697.93,691.11,692.14,695.27,698.61,690,694.53,697.43,695.54,689.69,697.95,695.55,689.67,694.46,701.43,698.28,698.79,694.87,700.62,692.92,692.02,694.33,692.11,695.01,689.72
713.73,704.3,706.83,707.43,704.82,703.66,704.13,713.05,706.87,710.02,709.17,708.63,707.62,706.21,696.8,701.6,705.2,707.58,703.86,712.23,697.26,703.42,708.16,701.49,713.93,705.34,707.97,706.56,702.84,706.89,713.89,708.99,706.52,706.71,703.1,702.4,701.28,708.05,704.76,707,712.5,705.71,713.71,702.63,709.48,702.06,707.29,708.14,709.37,711.7,706.75,711.65,711.15,713.95,709.85,706.03,706.26,711.2,703.39,707.89,703.65,709.16,709.54,708.32,696.72,710.82,709.8,706.3,705.26,705.25,711.29,703.99,702.73,706.61,701.54,709.67,703.56,705.46,704.55,701.65,699.68,709.17,709.34,708.53,703.97,708.44,708.05,706.06,710.69,708.09,703.62,703.72,707.75,710.28,705.04,706.11,708.13,702.9,705.39,704.1
733.62,731.07,731.78,735.31,731.04,728.79,734.28,728.16,735.15,728.86,736.11,740.2,733.2,735.6,718.76,727.41,727.19,731.34,731.04,731.46,720.42,722.98,732.81,726.94,737.86,733.56,735.35,730.76,728.06,732.02,725.19,732.3,735.09,727.67,723.67,724.29,725.09,732.35,730.86,739.72,732.92,730,740.15,727.92,742.82,730.94,738.71,726.85,730.54,736.55,736.06,736.38,739.46,738.34,736.97,723.73,731.06,742.8,734.15,725.61,728.95,734.1,738.26,728.08,727.14,736.47,739.42,735.94,736.01,730.27,745.93,732.59,733.55,729.8,730,731.42,737.07,737.41,735.97,734.99,726.22,734.76,737.39,733.78,731.48,733.29,735.17,730.18,732.07,733.53,726.42,729.21,730.5,730.01,730.04,736.69,726.66,729.14,731.89,726.49
755.86,755.58,765.48,759.5,752.43,751.19,755.28,755.19,759.33,753.87,760.17,764.41,757.74,761.07,743.19,751.76,751.01,753.4,754.47,758.16,747.27,750.79,760.14,753.88,763,762.23,763.51,756.22,750.68,756.94,757.63,763.84,762.02,755.99,751.17,751.92,746.75,754.41,753.96,762.38,768.49,754.95,763.93,753.62,764.07,758.76,759.49,761.7,759.82,759.99,757.07,761.06,762.04,766.81,762.17,749.41,754.26,765.06,756.39,752.3,749.96,759.72,761.93,752.59,748.58,764.89,760.39,767.95,760.12,757.96,770.4,758.44,755.94,754.12,756.42,755.56,756.38,757.82,761.69,764.56,748.02,759.87,764.77,760.58,753.08,762,758.61,759.31,755.99,758.96,754.08,755.14,756.03,757.75,757.46,756.81,754.02,753.83,757.59,752.25
2605.4,2600.4,2608.3,2624.4,2595.4,2611.2,2601,2626.9,2625.2,2607.5,2602.8,2612.6,2617.9,2626.6,2600.2,2604.3,2622.1,2612.9,2624.2,2599.1,2612.8,2616.1,2648.6,2598.7,2602.3,2608.1,2605.8,2631.1,2644.7,2596.5,2601.7,2611.7,2603.5,2598.5,2618.1,2643.7,2609.6,2603.3,2602.7,2603.1,2608.9,2604.8,2609,2613.4,2608.7,2633.6,2617.3,2628.4,2618.5,2641.8,2598.5,2612.2,2615,2626,2616.3,2608.9,2622.8,2597.9,2630.1,2600.9,2599.2,2608.3,2636.2,2596.4,2618.1,2602,2598.1,2628.8,2631.1,2597.5,2605.2,2612.2,2646,2611.6,2632.4,2598,2600,2626.4,2621.6,2602.7,2609.3,2631.9,2621.2,2605.5,2623.4,2625.1,2616.1,2609.6,2611.6,2618.7,2605.3,2595.8,2609.7,2603.1,2600.8,2613.2,2603.7,2605.6,2619.7,2609.9
2612.2,2606.5,2632,2642.1,2623.3,2641.1,2650.3,2634.3,2636.9,2607.9,2602.9,2625.8,2627,2643.6,2602.3,2633.8,2633.8,2615.6,2625.1,2617.5,2632.9,2634.9,2650.3,2637.8,2616.5,2611.5,2627.8,2638.4,2647.4,2623.8,2605,2613,2636.3,2636.2,2633.8,2646.3,2615.8,2609,2631.6,2639.7,2632.4,2611.7,2645.3,2638.4,2654.5,2637.7,2627.2,2648,2626.6,2642.1,2642.1,2633.7,2640.5,2644.7,2620.7,2612,2652.7,2616,2631.5,2611,2620.2,2621.6,2650.1,2633.2,2621.4,2637.5,2615.6,2635.4,2647.2,2609.4,2627,2614.8,2654.1,2611.9,2635.5,2615.5,2635.1,2637.7,2647.7,2609.9,2614.2,2648.9,2650.7,2635.1,2632,2635.7,2626.1,2635.8,2632.3,2628.7,2632.4,2639.5,2633,2607.9,2631,2634.5,2608.9,2615.6,2637.2,2621.5
2613.1,2639.9,2644.2,2658.4,2648.5,2655.4,2657,2635.7,2656.5,2617.6,2658.6,2646.1,2650.2,2661.3,2624.4,2649.4,2653.8,2654.3,2637.2,2636.6,2647.8,2639.6,2658,2657,2647.5,2649.4,2661.7,2657.5,2654.9,2647,2646.3,2634.4,2649,2640.5,2640.4,2650.9,2651.4,2643.5,2653.9,2649.5,2636.3,2614.9,2652.3,2640.7,2655.6,2651.2,2645.4,2649,2642.9,2649,2642.5,2664.9,2644.3,2650.5,2660.7,2639.1,2653.3,2618,2633.4,2653.7,2654.7,2640.3,2655.9,2651.9,2637.3,2657.5,2645.9,2664,2664.9,2631.7,2650.5,2641.5,2654.9,2644.7,2645.3,2648.2,2657.6,2651.4,2654.6,2623.9,2657.5,2656.6,2653.4,2651.2,2640.2,2651.4,2642.9,2641.8,2648.1,2656,2634.3,2648,2649.9,2646.7,2649.7,2661.2,2615.9,2646.3,2638.4,2646.4
3418.5,3427.4,3404.1,3460.5,3460.5,3429.3,3434.1,3431.1,3472.9,3456,3469.7,3461.1,3451.7,3480.6,3416.1,3416.8,3481.2,3479.8,3461.4,3479.6,3457.8,3405.8,3452.7,3435.9,3439.7,3471.5,3425.7,3413.3,3459.4,3479.9,3438.5,3442.6,3459.2,3451.6,3470.1,3431.7,3407.2,3419.4,3406.4,3456.5,3466.6,3473,3422.1,3481.4,3445.2,3412,3405.1,3405.5,3442.4,3483.2,3472.1,3454.1,3410.2,3455,3486.6,3439.7,3430.3,3439.5,3469.2,3451,3437.8,3454.5,3435.2,3471.5,3484,3407.5,3466.4,3473.9,3458,3432.9,3465,3468.5,3457.3,3435.7,3433,3469.1,3428.5,3410.2,3458.7,3467.3,3441.5,3434.5,3450.6,3462.5,3434,3428.5,3425,3444.3,3444.6,3459.4,3455.1,3473.7,3454,3471,3438.7,3477,3425.5,3464.8,3419.2,3435.5
