13.064,13.241,13.147,13.199,13.169,12.787,13.307,13.047,13.326,13.159,13.236,13.02,13.085,12.961,13.317,13.365,13.11,13.171,12.864,13.248,12.931,13.182,13.186,13.317,13.147,13.209,13.092,13.455,13.164,12.952,13.217,13.33,13.31,13.099,13.243,13.328,13.144,13.081,12.904,12.92,13.159,13.137,13.126,13.354,13.149,13.174,12.938,13.102,13.17,13.079,12.985,13.225,13.009,13.036,13.171,12.955,13.17,13.307,13.354,12.986,13.139,13.468,12.967,12.904,13.34,13.283,13.206,13.318,13.158,12.925,13.135,13.34,13.142,13.05,13.093,13.166,13.119,12.977,13.021,13.29,13.256,13.335,12.981,13.04,13.13,13.171,13.014,12.999,13.193,13.182,13.187,13.254,13.045,13.091,13.223,12.954,13.164,13.23,13.263,13.216
18.699,18.741,18.6,18.57,18.602,18.389,18.672,18.617,18.754,18.401,18.342,18.521,18.547,18.469,18.693,18.603,18.506,18.474,18.507,18.544,18.368,18.502,18.694,18.68,18.491,18.555,18.614,18.752,18.409,18.409,18.493,18.362,18.62,18.475,18.525,18.756,18.451,18.678,18.395,18.151,18.52,18.692,18.55,18.643,18.435,18.747,18.54,18.628,18.459,18.778,18.46,18.836,18.665,18.783,18.631,18.228,18.613,18.63,18.716,18.339,18.668,18.663,18.35,18.573,18.681,18.882,18.559,18.757,18.55,18.338,18.831,18.526,18.513,18.434,18.585,18.652,18.622,18.644,18.644,18.653,18.5,18.297,18.429,18.383,18.53,18.411,18.735,18.353,18.577,18.513,18.453,18.777,18.395,18.499,18.797,18.268,18.474,18.628,18.397,18.703
38.771,38.358,38.402,38.565,38.154,38.727,38.653,38.355,38.951,38.757,38.085,38.628,38.036,38.918,38.846,38.61,38.398,38.219,38.669,38.368,38.266,38.29,38.247,38.545,38.418,38.653,37.997,38.596,38.261,38.263,38.411,38.593,38.209,38.437,38.495,38.664,38.204,38.099,37.645,38.544,38.65,37.999,38.387,38.221,38.688,38.452,38.302,38.471,38.487,38.169,38.652,38.904,38.225,38.511,38.21,38.501,38.263,38.087,38.393,38.302,38.496,38.585,38.435,38.537,38.488,38.633,38.657,38.342,38.635,38.559,38.343,38.706,38.446,38.399,38.943,38.254,38.464,38.379,38.458,38.818,38.532,38.758,38.324,38.297,38.501,38.498,38.351,38.074,38.052,38.403,38.428,38.455,38.453,38.709,38.471,38.657,38.345,38.438,38.62,39.115
66.772,66.711,66.656,67.101,66.639,66.337,66.677,66.484,67.28,66.758,66.661,66.349,66.422,66.74,67.518,67.179,66.134,65.866,66.486,66.701,66.444,66.429,66.942,67.123,66.806,67.058,66.611,66.95,66.453,66.106,66.417,66.832,66.579,66.94,66.323,67.066,66.321,66.488,65.925,65.903,66.338,66.713,66.387,66.69,66.639,67.301,66.507,66.095,66.305,66.76,66.635,67.062,67.197,67.094,67.22,66.653,66.619,66.857,66.659,66.379,66.84,67.038,66.619,66.173,66.877,67.088,66.673,67.497,66.675,66.179,66.955,66.939,66.373,66.491,67.077,67.101,67.273,66.978,66.732,66.986,66.824,66.728,65.844,66.391,66.457,66.266,66.521,66.365,66.642,67.246,66.153,67.132,66.739,66.715,66.832,66.695,66.265,66.859,66.362,67.373
76.189,75.023,74.728,74.679,74.075,75.748,74.495,75.119,75.556,75.417,75.313,74.699,74.255,75.642,75.624,75.163,74.907,74.47,75.054,73.639,74.228,75.373,74.24,74.853,75.358,75.121,74.376,75.224,74.057,74.866,74.618,75.441,73.963,75,74.636,75.391,74.053,74.669,73.315,75.34,74.88,74.688,74.027,73.989,75.329,74.879,75.004,74.692,75.521,74.656,75.356,75.243,74.073,75.431,74.705,74.908,74.469,74.464,74.006,74.861,74.559,75.566,75.206,74.257,75.143,74.678,74.791,74.822,75.197,74.699,74.348,75.605,75.041,74.748,75.594,75.02,75.105,74.652,74.479,75.567,74.516,75.616,74.648,75.008,74.989,74.656,74.614,74.13,73.932,75.323,74.46,74.768,74.582,75.148,75.251,75.834,74.855,74.873,74.679,75.368
90.482,90.632,90.381,90.351,90.458,89.645,91.333,90.838,91.012,90.113,90.414,89.79,90.133,90.369,91.857,90.489,90.248,90.637,90.44,90.382,89.038,90.52,90.504,91.317,89.676,90.64,89.393,90.701,89.449,89.477,90.365,90.705,90.31,89.931,90.414,90.819,90.061,89.908,90.012,89.298,90.156,90.514,89.691,90.364,89.418,90.856,90.946,90.795,89.519,91.401,89.743,91.385,89.401,90.738,90.134,89.797,89.684,90.399,90.389,89.607,89.768,90.742,89.949,89.656,90.67,90.901,90.018,91.139,90.041,89.68,90.376,90.676,89.855,89.935,89.959,90.197,90.361,90.103,90.259,90.619,90.333,90.071,90.279,90.509,90.158,89.67,90.65,89.857,90.344,90.255,90.745,90.893,89.367,90.619,90.545,89.255,89.986,90.548,89.915,90.716
109.01,108.36,108.91,108.97,108.02,109.34,108.26,108.46,109.07,109.54,108.99,107.98,107.49,108.9,110.59,109.48,108.35,108.19,109.3,108.27,108.73,108.7,108.33,109.21,108.76,109.07,107.99,108.67,107.73,108.01,108.75,109.4,108.47,109.11,107.91,108.97,107.71,109.12,106.7,109.25,108.75,107.39,108.66,108.69,108.85,109.49,108.98,108.95,109.33,107.84,107.96,108.63,108.63,108.27,109.03,109,108.42,107.96,108.56,109.04,108.7,109.14,107.96,107.85,109.13,108.35,108.38,109.06,108.42,108.7,108.61,109.64,109.07,109.89,108.54,108.62,109.83,108.7,108.69,109.12,109.2,109.43,107.54,108.5,108.61,107.57,108.24,107.84,107.55,108.95,107.72,107.95,108.91,109.11,108.8,108.79,108.48,109.41,108.5,109.87
135.58,134.08,134.87,135.56,133.75,136.27,134.94,135.45,135.09,136.13,135.67,134.1,134.77,136.36,136.37,135.83,134.15,133.19,136.05,133.77,136.13,135.01,135.5,135.4,135.45,135.9,135.57,134.85,134.06,135.28,134.2,135.36,134.29,135.77,134.38,135.26,133.83,134.73,133.78,133.94,134.51,134.72,134.76,134.91,136.24,135.9,135.24,134.5,135.16,134.09,135.69,135.54,135.37,135.75,136.59,135.7,134.92,134.85,134.39,134.72,135.07,135.96,134.83,134.83,134.42,134.99,135.82,136.5,134.85,134.92,134.19,135.77,134.67,134.57,136.29,135.35,136.3,135.47,133.95,135.45,135.77,135.69,134.75,135.03,133.87,134.85,134.18,133.67,134.99,136.34,133.3,134.98,135.15,134.98,135.27,137.05,134.79,135.53,135.57,135.36
144.92,142.16,142.69,144.29,143.22,144.36,143,142.67,145.56,143.83,144.08,142.89,141.15,144.18,144.21,143.83,143.39,140.92,144.48,141.36,143.07,143.19,144.09,143.82,143.68,144.3,141.16,142.77,142.56,142.74,144.06,143.81,141.39,143.78,142.29,144.34,141.33,143.67,140.71,143.72,144.18,141.12,143.69,142.4,143.64,143.17,143.03,143.54,143.85,141.29,144.32,145.05,141.9,143.16,143.76,143.8,142.25,141.39,142.06,144.15,143.65,143.98,143.92,142.5,144.28,143.17,143.05,143.92,143.13,143.07,141.48,145.54,142.27,144.12,145.66,142.6,143.36,142.99,143.15,143.16,143.5,144.74,141.13,143.7,142.44,142.35,141.6,140.92,142.64,143.84,142.3,142.53,144.02,142.13,142.64,145.7,142.94,142.66,143.71,144.18
168.35,166.22,170.42,169.75,165.7,169.57,168.73,166.94,166.21,168.02,170,167.53,167.3,168.41,169.35,169.67,168.1,168.39,171.92,168.79,168.12,168.5,170.29,169.73,169.59,168.5,169.56,168.33,167.45,169.87,167.87,167.4,168.19,168.75,165.58,169.69,166.02,167.74,168.95,168.63,167.86,168.64,167.74,169.96,168.3,169.83,169.31,169.71,169.22,167.18,169.85,167.82,169.62,168.55,168.71,168.48,170.27,168.75,168.29,167.99,168.58,167.88,167.03,169.12,169.43,167.79,167.79,169.27,166.22,169.61,168.65,168.59,169.37,170.3,168.92,167.64,170.57,170.64,167.52,167.81,167.29,167.92,167.58,169.31,166.48,166.63,165.53,167.98,167.33,168.47,164.91,167.6,167.64,165.67,169.75,169.16,168.94,168.72,168.38,169.82
172.47,170.17,172.96,171.14,172.02,174.81,172.89,171.67,171.08,172.17,174.85,170.75,170.81,173.38,174.06,172.5,172.46,173.5,173.67,174.75,173.74,173.48,172.03,173.17,172.76,171.6,172.14,171.1,170.29,171.91,173.13,173.66,171.89,173.13,170.22,174.31,170.22,172.5,169.82,174.2,173.01,172.22,171.67,172.59,173.01,173.78,174.44,173.07,173.86,171.92,170.96,172.23,172.18,170.69,172.94,173.19,171.93,172.86,172.67,173.25,171.49,172.19,171.64,171.4,172.52,171.3,172.96,172.77,169.92,172.6,172.21,173.27,173.03,174.79,171.25,172.66,173.22,173.5,171.46,173.27,173.37,172.58,172.32,172.74,172.65,171.1,172.94,171.91,170.08,173.13,170.71,172.16,172.97,173.02,170.93,172.38,173.26,173.27,172.21,172.48
212.5,213.58,211.98,213.45,211.13,211.51,210.8,213.29,211.08,215.01,208.3,211.5,211.5,212.78,214.98,214.71,212.91,212.46,212.88,211.76,210.87,211.56,209.43,212.77,212.76,211.35,209.01,211.67,211.27,211.27,211.59,213.33,212.51,211.03,211.28,213.67,212.5,210.18,207.72,213.25,210.31,210.35,210.1,212.76,211.6,214.16,212.89,211.64,210.05,211.78,209.31,211.62,213.12,210.82,210.08,212.28,211.16,211.01,211.89,209.85,211.76,211.47,210.34,211.67,210.52,211.94,212.82,210.07,211.94,213.5,213.75,209.79,214.58,211.23,211.78,212.81,214.12,212.76,212.05,213.92,211.68,210.54,211.15,209.29,212.65,212.08,212.86,211.16,209.03,214.38,210.29,211.18,211.17,213.44,213.62,210.87,212.9,213.84,210.05,214.24
216.9,217.87,217.79,217.05,216.29,216.62,215.24,216.15,218.28,218.35,214.76,216.49,216.42,217.14,218.32,217.84,217.5,216.1,216.04,216.26,216.03,215.66,216.68,216.21,215.28,216.15,216.69,217.91,215.23,217.46,217.53,217.69,216.91,216.79,215.53,219.06,214.53,216.01,213.65,218.13,219.76,216.58,217.19,216.49,214.12,216.11,216.68,218.58,217.37,214.96,218.91,218.19,215.88,218.21,214.82,219.37,216.57,214.56,217.4,216.27,217.22,216.68,215.58,216.28,217.55,219.36,216.27,215,217.72,215.88,216.78,218.02,217.54,216.52,218.53,215.65,217.18,217.33,215.71,219.58,218.32,217.97,213.82,216.5,217,218.25,216.24,214.92,214.91,216.99,218.08,217.17,217.96,214.52,215.56,217.44,217.54,216.11,215.98,218.12
230.85,228.47,230.91,229.55,227.44,229.69,229.51,228.87,228.89,227.71,226.71,228.23,229.27,231.38,232.66,228.46,230.19,228.78,230.06,229.81,229.99,228.11,227.31,227.26,229.14,228.83,228.8,229.22,226.85,229.23,229.65,229.06,230.1,229.7,229.47,230.19,228.54,229.18,224.73,228.6,229.48,227.96,230.34,228.21,230.42,230.12,227.3,231.12,230.41,228.47,227.21,229.35,228.56,229.17,228.43,229.39,228.28,226.4,230.29,227.53,230.59,230.16,226.44,229.86,228,229.79,230.55,228.07,228.69,230.85,228.11,229.67,229.66,229.32,229.73,227.33,228.83,230.33,228.34,230.66,231,229.27,229.21,227.44,228.73,229.88,227.76,226.87,226.58,227.28,228.3,229.52,229.31,229.98,228.52,229.13,230.5,230.73,229.89,231.1
234.11,232.12,232.74,232.23,229.59,232.87,232.79,233.2,231.69,235.6,230.05,231.12,231.88,233.44,235.58,235.32,232.35,232.43,233.8,232.06,232.6,230.63,230.61,233.16,231.31,232.47,231.76,233,230.38,232.96,231.73,233.08,233.24,233.27,232.24,233.14,231.58,233.05,228.98,231.65,231.94,230.57,232.33,233.52,233.96,233.92,232.81,234.09,232.95,230.41,231.18,232.15,232.55,233.01,232.71,234.11,231.74,229.59,232.76,230.37,233.45,233.21,229.86,233.17,231.13,233.19,232.7,233.72,232.58,233.27,232.76,231.76,234.27,233.2,234.08,231.2,234.65,233.13,230.66,233.37,233.76,231.89,233.03,231.26,231.2,231.52,231.49,229.91,230.33,232.67,229.55,231.66,231.8,232.25,233.79,232.75,232.61,234.34,234.49,235.07
249.53,247.67,249.42,249.32,244.32,250.44,248.1,248.2,247.86,247.65,247.36,246.15,248.83,250.46,246.73,248.55,249.1,247.11,248.8,249.25,248.78,247.49,247.91,247.78,246.59,247.14,248.2,251.11,246.43,250.33,247.93,249.76,248.24,250.6,243.63,249.88,247.31,246.84,244.43,249.27,250.19,248.99,248.19,247.94,248.28,248.55,249.84,248.55,250.53,249.09,244,248.28,249.07,249.48,247.1,248.86,248.82,245.77,248.86,249.44,248.48,247.99,248.19,249.36,250.72,249.31,248.01,247.5,248.06,246.61,248.21,248.89,249.53,249.45,249.18,245.24,249.7,250.34,245.91,245.93,248.58,248.81,246.61,249.71,245.9,247.64,246.53,246.83,246.61,247.15,246.92,245.86,248.45,248.37,249.48,249.75,249.99,249.13,249.25,251.73
251.87,248.77,252.07,250.87,248.12,251.8,249.1,249.66,250.18,248.14,249.22,248.39,250.18,251.97,251.7,248.71,250.2,249.17,250.33,250.95,251.03,248.96,252.77,250.27,249.26,250.06,249.98,252.72,247.63,252.09,251.52,250.58,250.93,251.58,248.47,251.28,248.33,248.53,245.74,251.3,250.87,250.7,250.78,251.59,249.35,250.45,250.36,252.19,251.49,249.7,249.08,250.28,250.78,252.08,250.22,251.01,251.82,249.85,249.03,249.66,251.84,250.44,248.91,250.94,250.97,250.65,250.06,250.02,250.16,249.42,250.32,250.44,250.37,250.76,252.93,248.23,251.48,251.54,248.8,251.82,251.66,250.58,250.22,250.52,248.58,250.15,247.43,248.77,247.97,248.62,248.87,250.9,251.49,250.8,249.72,251.37,251.72,251.01,250.11,253.57
253.97,251.37,252.87,251.95,251,253.51,251.95,250.58,250.77,251.71,251.29,251.33,250.73,254.26,253.23,252.24,251.83,253.45,252.69,251.69,253.07,249.71,253.53,251.94,251.5,253.11,252.11,253.73,249.17,254.43,252.37,252.51,252.17,253.75,252.32,253.03,249.74,253.72,247.65,251.7,254.27,253.84,251.54,252.49,253.71,252.55,251.66,252.74,252.48,251.62,251.6,251.83,252.53,253.14,251.95,253.69,252.51,251,253.35,250.87,252,252.89,249.27,252.89,251.36,255.49,252.08,252.33,253.07,251.62,252.12,252.59,251.61,253.54,253.59,251.38,252.37,253.96,250.4,255.73,253.02,251.22,253.24,252.54,249.44,252.58,250.11,250.29,250.58,251.56,250.8,251.14,253.36,251.93,251.44,254.49,252.12,252.97,253.82,254.53
268.74,270.62,271.25,269.32,267.99,268.39,268.06,268.65,268.29,271.22,266.9,267.43,268.75,268.74,271.84,271.78,270.3,272.55,268.29,270.9,267.22,268.69,270.07,269.98,266.64,271.94,268.66,270.13,270.01,272.75,271.81,272.53,274.36,270.2,268.65,272.86,270.11,270.06,268.82,270.67,270.94,272.49,270.55,271.93,268.2,267.8,269.96,271.74,269.12,271.94,271.16,270.48,268.21,272.01,269.86,273.43,270.2,267.48,271.91,267.88,269.86,268.31,269.31,269.63,269.29,270.53,269.08,267.35,270.17,266.44,267.12,270.91,270.64,273.64,268.92,269.99,274.01,269.83,267.41,271.73,272.44,271.81,269.12,272.65,269.78,269.97,268.97,268.24,266.34,270.54,271.04,270.57,270.94,268.84,267.77,268.96,274.28,270.9,269.02,273.77
282.52,281.63,280.43,283.53,278.79,284.02,281.14,281.39,280.74,280.82,279.82,278.7,280.16,283.68,279.66,279.98,281.31,282.13,280.39,280.59,279.53,278.9,284.58,280.39,279.35,282.09,280.82,283.9,280.72,283.59,280.89,282.89,280.77,282.06,278.74,283.38,279.99,281.01,278.7,279.82,281.66,282.58,280.16,282.59,282.91,281.93,281.29,280.94,280.76,280.91,279.17,281.81,281.16,283.95,283.58,282.36,282.88,280.3,282.38,281.68,283.79,281.74,279.78,282,281.95,285.02,281.38,281.28,281.48,279.26,280.34,282.31,281.92,281.85,282.91,278.87,282.66,284.85,278.03,278.96,283.08,280.43,282.84,283.34,276.45,281.38,279.71,279.59,280.13,280.97,279.02,280.29,282.78,282.07,281.69,282.48,283.42,282.17,282.34,284.56
299.45,297.05,301.52,300.24,295.47,301.78,298.28,298.17,296.41,297.37,298.49,297.5,299.27,301.45,299.02,298.82,298.14,300.04,301.3,299.67,298.57,297.34,300.28,300.36,297.77,298.53,298.36,300.15,298.63,301.32,299.72,299.99,297.61,301.76,293.2,301.55,296.42,298.33,295.47,300.11,299.42,300,298.99,301.72,299.27,300.54,299.79,299.98,301.39,299.81,296.99,299.32,300.52,298.27,298.64,299.15,299.11,297.17,299.76,298.24,299.62,299.38,296.91,301.11,299.48,297.46,299.7,298.31,298.93,297.75,299.49,298.87,301.61,299.79,300.13,297.85,300.58,301.52,296.32,300.04,299.6,298.68,300.39,302,297.2,296.4,295.68,297.27,295.54,297.48,295.07,297.28,300.24,299.4,298.91,299.91,300.42,301.7,299.6,303.64
303.79,301.96,304.7,302.67,299.01,304.51,303.41,302.87,301.32,300.51,304.21,298.81,300.55,302.63,304.87,302.58,304.01,304.97,304.64,305.02,301.71,301.33,304.06,301.31,302.81,304.5,303.04,303.23,299.56,305.8,303.08,302.66,303.6,303.05,299.68,303.37,300.21,303.42,299.4,303.32,304.27,302.82,301.03,302.41,303.03,303.19,303.95,304.79,304.17,301.32,299.8,300.91,302.28,304.07,305.03,304.53,304.06,305.22,303.06,303.96,302.55,300.29,301.57,301.52,304.31,304.55,301.2,303.32,300.09,303.78,301.25,304,302.05,304.37,303.85,299.89,304.74,306.42,299.92,301.22,302.8,301.67,303.34,302.32,299.11,300,301.89,300.54,300.75,300.92,299.86,301.21,303.29,301.37,303.36,302.14,304.81,303.93,304.45,306.89
343.45,340.22,337.15,340.42,337.02,340.85,340.15,340.13,338.88,340.16,338.56,337.84,336.36,338.38,339.5,340.14,340.44,339.11,339.46,338.01,338.36,338.11,338.88,341.8,339.73,341.74,337.28,341.62,338.55,340.32,340.9,342.55,339.24,337.27,337.89,345.5,336.33,338.96,336.77,339.84,337.83,338.61,340.63,341.08,340.9,342.12,339.31,337.94,337.81,338.02,336.84,339.05,338.98,338.37,339.25,338.74,336.6,338.8,338.79,339.9,339.86,339.24,340.28,336.39,338.86,335.47,339.59,335.5,339.5,338.52,332.43,339.93,342.61,338.35,343.41,340.12,339.64,337.75,337.8,342.52,340.08,340.65,338.79,340.89,334.78,337.42,338.4,336.73,336.52,341.25,332.75,337.57,339.17,342.37,337.64,340.39,339.97,341.93,339.25,341.52
349.54,352.21,351.79,350.86,349.4,349.63,346.6,350.13,349.02,353.32,347.12,348.52,349.47,349.05,352.77,352.38,351.43,349.26,348.4,347.23,349.24,349.09,350.61,350.38,346.77,348.16,347.65,350.99,347.02,352.34,350.64,353.52,353.07,349.94,348.88,352.67,348.58,347.75,347.46,351.48,354.02,350.6,350.65,349.86,345.62,350.14,351.07,354.49,349.62,349.84,349.65,350.44,349.08,349.4,347.57,351.6,352.21,348.71,350.65,348.56,347.64,348.95,347.06,347.69,351.93,354.1,348.35,350.86,350.43,348.89,351.36,348.74,350,351.87,348.78,350.36,353.34,349.79,347.07,353.8,352.37,350.11,346.24,349.72,350.3,350.36,350.97,345.62,347.29,349.66,349.9,350.7,351.54,348.02,348.73,347.56,352,351.35,347.14,352.24
375.28,371.88,372.41,373.23,368.38,373.19,371.71,373.84,371.69,371.61,376.2,372.63,370.84,373.55,374.41,374.66,372.94,371.49,374.86,371.92,371.06,375.97,372.78,373.98,373.99,372.86,372.98,372.35,369.67,370.82,372.64,373.36,371.66,372.93,371.91,376.13,366.15,374,369.11,372.63,373.78,373.21,367.98,371.99,373.88,373.38,373.58,372,370.49,372.39,372.04,374.9,371.19,372.94,372.1,372.04,372,373.05,373.1,371.91,371.23,372.93,373.72,371.76,372.98,371.9,372.36,372.85,370.26,373.51,372.87,373.3,375,373.38,371.83,372.5,371.8,374.22,370.19,373.12,374.16,372.95,373.15,372.86,370.39,371.52,370.82,369.65,370.41,374.04,369.19,371.96,372.62,372.3,371.12,375.28,375.1,374.03,371.71,373.16
386.03,382.32,384.95,387.01,379.1,386.37,384.35,383.35,386.64,389.42,381.64,382.26,386.65,387,390.39,383.77,381.31,385.43,382.65,386.78,388.08,386.59,385.09,384.65,387.13,382.83,385.36,385.23,381.38,385.25,380.46,386.42,384.21,384.81,383.27,386.35,385.43,381.77,380.06,379.56,383.91,386.09,384.15,384.64,383.73,385.27,385.89,387.19,384.76,383.51,382.42,381.2,383.61,384.83,384.67,384.2,389.58,384.94,384.84,380.65,382.04,378.94,379.62,385.89,386.01,387.72,378.05,387.09,382.89,385.07,384.11,381.74,384.83,384.41,382.89,383.7,386.83,387.87,383.42,385.42,383.7,383.2,385.02,386.44,381.88,384.58,382.69,382.53,379,383.35,383.24,386.17,382.56,383.94,386.23,384.4,384.34,385.67,383.78,387.07
399.61,397.84,399.07,399.85,396.1,400.46,395.48,399.28,396.26,396.92,397.61,395.86,397.46,399.76,399.77,398.17,397.69,394.75,400.63,397.97,398.12,395.18,401.71,399.33,395.09,397.3,398.03,396.8,397.44,400.39,396.48,398.72,395.94,398.78,393.42,399.93,395.85,396.26,397.36,396.67,396.82,394.22,395.87,398.96,397.29,402.99,399.22,400.86,394.15,399.1,397.84,399.81,402.46,400.86,402.14,399.85,402.43,395.71,398.45,397.13,398.89,397.62,395.4,400.06,400.28,401.53,396.57,400.98,397.25,399.66,398.45,396.31,398.74,401.75,399.74,396.32,402.28,402.22,393.01,396,398.41,396.18,396.66,400.04,394.55,396.35,397.18,394.36,398.55,398.82,391.48,397.77,398.34,396.28,398.49,398.24,399.33,401.52,399.9,403.28
426.64,421.97,424.24,423.32,419.8,421.84,424.94,423.77,422.95,423.69,421.5,421.75,422.99,427.05,427.62,425.94,424.87,422.89,422.58,426.57,423.98,422.76,424.45,427.7,423.18,423.6,423.89,420.47,420.46,423.88,423.76,425.26,423.97,422.24,421.65,427.75,420.78,419.77,420.01,422.96,421.73,423.03,421.72,423.71,425.23,425.36,426.16,424.86,419.69,424.6,419.26,423.16,423.06,423.55,422.85,424.28,424.56,419.55,422.8,422.4,424.7,422.21,423.9,424.44,423.25,424.27,422.42,426.74,422.68,425.33,422.26,422.88,424.79,426.19,425.76,424.32,425.12,426.06,419.77,423.23,425.68,420.98,424.2,421.8,421.36,424.03,422.18,421.62,420.76,424.43,420.44,424.91,424.28,423.95,422.51,426.78,425.74,427.29,424.86,427.1
438.32,430.68,429.06,432.07,429.49,426.93,428.88,431.93,429.03,437.25,432.88,427.78,428.04,437.24,434.79,439.96,437.99,437.62,429.88,432.91,430.15,431.63,431.19,436.72,434.75,429.24,433.54,429.49,426.44,431.08,438.25,432.53,440.15,431.8,432.53,439,433.37,429.89,426.74,426.32,428.42,433.34,431.23,431.87,434.55,432.63,436.33,430.49,427.24,432.06,425.97,431.65,427.72,433.2,433.72,430.71,433.39,427.09,428.16,431.05,441.57,433.97,429.37,432.77,429.52,432.93,432.97,434.76,426,431.56,430.53,430.23,432.84,439.47,433.6,432.58,434.9,436.26,432.13,430.94,434.37,428.83,430.17,432.29,430.71,434.19,426.95,432.16,431.19,434.75,428.89,431.84,430.38,432.6,434.47,436.76,438.72,434.85,432.54,440.07
450.74,446.79,447.79,445.78,444.28,442.69,447.23,443.68,447.29,452,445.01,444.28,447.75,455.07,449.49,453.12,452.9,452.14,446,448.51,448.25,450.45,449.22,454.27,448.43,447.07,452.07,443.98,443.61,448.34,449.38,450.2,448.64,442.92,444.9,453.8,443.81,442.25,443.94,444.14,444.04,451.2,445.22,449.19,447.19,447.79,453.83,451.48,439.43,447.38,438.12,446.16,444.2,443.95,445.82,455.21,448.52,447.82,447.08,445.39,449.26,449.51,448.64,445.47,449.29,451.19,442.95,446.61,450.01,448.65,443.7,447.28,451.52,456.41,449.14,445.3,449.98,451.73,444.59,442.61,452.94,442.6,447.18,446.05,442.99,448.68,442.7,449.44,446.13,452.13,444.41,447.36,445.52,445.72,449.16,455.76,451.26,452.92,449.53,450.39
463.47,462.24,461.49,461.69,457.87,458.89,454.59,464.36,462.81,462.89,462.19,455.73,462.7,460.37,460.28,465.18,468.34,461.03,462.88,459.64,464.08,461.02,461.84,465.73,459.93,454,461.55,458.55,454.08,466.38,459.79,465.07,462.4,458.26,461.23,463.13,456.46,460.66,461.13,457.33,464.47,462.37,460.81,453.71,449.26,462.28,463.59,463.78,451.57,452.48,455.16,465.52,452.75,458.14,462.17,464.7,463.2,458.31,459.89,460.26,462.32,462.33,462.42,453.07,458.36,463.88,456.42,458.9,462.02,462.31,458.63,456.14,463.46,464.49,463.97,454.97,462.45,462.12,460.38,461.1,461.36,460.53,457.23,458.28,456.06,463.82,455.71,455.76,463.31,456.79,459.56,460.6,462.44,450.44,455.34,460.1,460.86,463.52,463.25,462.41
470.59,466.65,468.78,462.91,464.87,462.02,461.06,466.49,466.53,466.42,464.85,461.2,466.86,468.89,466.17,468.43,471.28,467.5,464.46,468.93,467.18,466.8,465.46,473.41,466.32,464.89,469.29,463.39,462.9,471.58,468.2,468.88,471.61,464.15,466.3,467.02,464.35,464.94,463.42,465.2,468.72,467.75,466,465.44,464.58,464.67,473.66,465.29,460.37,464.5,460.9,469.44,459.72,466.48,464.81,467.46,466.81,464.3,466.24,461.45,466.89,468.32,465.02,465.56,466.57,466.98,462.41,464.07,465.56,468.28,460.73,462.32,467.23,472.83,466.48,463.91,469.15,468.47,463.8,465.7,467.65,466.84,464.84,466.19,461.39,468.15,462.91,460.68,464.66,464.62,465.93,466.32,464.14,462.64,466.31,470.66,470.96,470.58,469.26,470.83
475.86,475.1,472.23,471.13,466.64,469.85,469.51,473.47,474.24,473.76,470.19,471.06,476.97,471.66,474.09,475.55,477.46,475.72,471.69,470.73,479.07,472.07,474.77,474.2,475.24,468.14,472.28,474.76,470.25,475.29,471.06,476.82,474.51,470.49,472.27,476.84,468.08,474.48,470.57,470.64,471.85,474.41,473.44,472.08,471.91,471.69,477.89,474.35,468.42,469.81,468.55,476.42,470.13,469,472.92,472.88,475.27,474.4,473.74,471.97,471.44,469.37,472.38,468.03,475.32,472.38,466.06,468.69,473.04,477.07,471.96,469.98,476.77,474.81,477.03,468.54,471.64,474.81,470.52,468.77,473.71,469.28,469.83,472.58,465.32,473.53,472.68,468.75,471.99,472.45,466.4,475.17,473.35,467.01,473.35,471.02,474.26,474.15,475.64,473.4
480.12,480.12,480.04,478.21,473.38,479.09,474.32,478.3,478.92,478.64,477.39,474.78,477.1,479.35,477.56,481.14,479.51,477.91,476.89,480.61,480.55,481.94,476.79,483.87,478.19,474.69,477.72,477.12,472.5,478.46,475.42,479.56,478.98,476.5,478.37,482.23,473.64,478.2,471.97,478.2,481.35,478.26,475.8,478.33,477.03,478.87,482.31,480.38,472.84,479.96,475.92,479.78,475.61,477.26,477.35,475.67,476.86,480.18,479.24,476.24,475.74,477.01,476.31,477.72,478.11,478.59,479.65,478.27,475.87,478.35,477.54,475.21,479.26,478.93,477.69,474.87,477.54,480.66,473.49,479.95,478.94,476.61,477.75,477.42,475.2,476.65,477.06,475,474.76,477.03,478.86,476.47,479.32,474.24,477.83,481.8,475.53,482.58,478.02,479.3
484.02,482.16,481.96,483.41,477.45,480.75,481.11,480.28,483.04,481.19,477.88,479.79,479.95,483.9,486.74,481.71,484.42,479.73,481.82,483.83,481.62,485.26,479.32,487.65,481.69,481.22,485.2,480.97,475.78,480.45,482.01,482.66,485,482.91,482.68,485.27,476.62,481.8,473.16,481.96,482.77,481.26,479.12,482.8,480.37,480.99,485.22,481.66,480.35,482.66,479.34,485.22,478.82,480.05,480.48,484.47,480.08,480.89,482.19,479.1,483.65,478.44,479.37,482.42,482.99,483.79,480.96,484.71,482.84,484.72,484.5,481.32,480.74,481.91,481.73,481.26,482.05,483.9,477.83,486.23,482,477.92,481.22,480.22,477.33,478.27,478.59,476.11,476.71,484.4,480.83,484.75,482.8,478.23,480.86,486.84,481.53,485.66,480.55,483.43
489.09,490.62,490.43,490.61,487.16,488.06,485.17,489.21,491.79,493.07,486,485.09,491.41,489.84,489.84,492.13,492.2,488.76,486.88,486.88,494.62,492.75,490.53,495.27,493.28,486.6,493.51,486.59,483.6,491.32,487.5,492.26,489.29,487.18,490.75,493.72,484.73,488.96,484.13,487.11,493.31,490.28,486.86,490.44,484.3,488.06,491.41,490.86,483.52,484.65,486.98,487.9,485.13,487.46,489.86,491.55,492.18,490.05,488.39,486.43,490.12,488.01,485.33,489.82,489.52,493.3,486.37,490.83,493.01,489.56,489.29,486.97,486.48,491.23,489.11,488.4,491.34,493.05,486.57,490.3,491.62,488.42,487.69,489.49,482.83,488.7,486.34,483.02,483.93,485.91,491.34,489,488.57,482.37,487.51,490.5,488.31,495.57,486.74,493.13
510.64,511.79,512.36,508.62,508.89,507.42,502.9,507.93,505.5,509.71,505.42,502.99,504.37,509.7,505.87,510.48,513.75,510.1,504.63,507.57,505.78,506.38,507.94,514.1,504.31,505.1,511.8,504.12,501.23,511.5,508.6,509.41,510.8,506.17,510.68,515.78,505.41,506.9,503.55,506.36,512.85,510.39,506.07,508.34,505,507.59,511.08,512.58,500.37,507.11,508.52,510.49,500.47,506.62,509.05,509.62,508.49,506.08,507.89,507.59,511.56,509.89,504.31,505.63,507.12,515.33,505.65,505.49,508.6,508.98,508.67,504.68,507.28,514.06,509.02,507.18,510.2,511.89,504.74,507.72,507.85,509.34,504.41,507.54,503.7,510.24,508.8,505.37,503.45,506.21,511.95,508.91,511.11,502.59,504.78,508.88,512.6,513.76,506.18,514.38
516.18,513.64,520.82,520.04,515.65,520.59,511.14,521.47,517.68,517.01,514.62,510.82,518.12,520.96,520.81,519.31,515.99,512.81,517.85,523.27,524.49,514.34,525.55,517.55,517.3,515.61,523.75,514.18,514.27,519.38,510.94,515.88,516.52,516.01,512.31,521.33,518.34,515.91,518.4,508.98,515.01,524.08,509.96,513.28,513.16,520.39,516.08,517.61,514.65,517.46,513.37,519.16,519.79,522.36,522.55,519.84,527.23,514.45,512.48,514.4,513.73,518.84,514.67,521.48,518.03,523.49,510.85,520.75,517.49,510.88,524.31,511.67,511.29,516.52,513.13,518.79,523.32,522.69,521.1,510.46,519.66,511.97,514.71,518.89,514.99,519.36,523.64,515.88,514.61,518.38,516.05,520.09,512.27,515.13,519.26,516.48,513,516.24,513.36,517.73
544.32,541.01,542.67,533.69,533.42,531.78,534.16,543.44,522.28,536.22,533.64,546.09,541.3,531.98,536.48,534.05,541.08,536.29,544.06,545.45,537.25,543.38,536.19,545.23,532.41,537.76,538.19,530.99,537.58,535.96,542.07,538.25,532.06,536.65,534.5,542.84,536.93,542.4,533.6,540.85,532.3,526.14,538.17,540.2,542.59,538.8,537.37,544.18,533.95,541.65,537.82,534.78,543.57,539.47,531.53,531.7,547.23,535.63,535.26,538.57,537.08,539.16,540.08,545.98,540.15,540.68,537.26,536.35,521.27,536.87,538.64,530.13,536.96,544.52,545.69,539.49,539.12,546.38,537.31,542.57,521.84,530.59,536.32,539.02,536.6,545.74,539.76,542.58,538.33,536.93,533.2,535.76,532.95,534.77,530.03,539.53,544.71,543.97,539.59,542.52
547.95,545.49,545.53,547.2,542.15,546.39,545.95,551.37,540.63,546.92,541.24,550.9,546.64,546.57,552.99,551.76,550.14,553.67,551.95,551.44,543.91,548.3,547.05,552.78,544.64,546.71,545.78,539.76,550.29,548.27,547.54,545.56,543.86,544.34,544.24,549.58,544.07,551.75,543.09,545.4,545.48,543.09,551.77,545.37,548.98,545.01,546.11,547.73,542.74,551.22,543.44,544.21,544.88,546.86,540.66,548.44,551.22,549.78,548.88,540.01,548.98,545.67,547.54,548.09,550.31,546.55,542.33,544,543.52,546.03,547.95,544.51,547.97,546.63,551.83,541.59,546.68,555.4,544.88,551.05,546.2,541.43,546.92,546.03,540.11,552.62,542.83,547.43,545.89,545.48,540.84,540.65,542.61,549.46,545.89,550.1,551.99,550.57,547.46,553.7
560.44,557.06,554.76,556.14,551.92,552.83,552.8,555.31,549.69,557.67,550.36,556.66,556.08,556.26,557.83,559.49,557.14,561.35,557.81,555.05,555.2,557.11,551.56,557.11,557.81,557.76,552.91,558.06,554.64,550.92,550.24,559.24,554.61,554.42,553.21,556.41,554.87,555.72,549.15,561.28,554.83,551.86,558.34,562.77,555.13,561.77,558.38,556.18,558.49,562.55,556.18,557.42,560.71,553.63,554.4,558.54,557.46,555.01,553.01,552.02,559.78,566.31,548.3,560.51,553.2,556.1,562.42,550.72,550.79,558.24,556.26,555.74,565.87,552.5,557.33,546.57,558.86,558.69,550.46,560.87,552.55,554.81,553.34,551.76,554.11,560.66,548.14,552.02,551.07,557.63,553.12,554.56,554.38,556.67,558.61,556.65,554.3,559.31,556.57,555.7
564.85,561.79,562.33,561.03,559.29,559.29,558.75,565.61,558.68,561.38,555.41,560.29,563.77,560.75,569.23,566.27,559.38,570.74,559.04,564.15,561.52,566.96,558.42,559.88,559.2,560.08,557.29,559.99,562.86,559.13,558.99,566.38,559.05,559.32,558.34,563.38,561.62,566.46,554.45,567.1,559.39,559.03,560.45,567.44,560.36,567.16,558.7,562.24,564.29,565.58,563.46,559.86,565.26,558.57,559.96,566.41,563.56,556.87,563.65,554.73,563.54,567.91,557.24,563.94,562.55,558.05,564.04,564.14,561.83,568.14,561.95,559.79,573.87,564.8,563.42,557.49,560.54,561.15,560.43,564.74,561.34,557,558.46,558.61,556.23,564.85,552.94,558.25,556.93,560.76,558.51,559.22,560.79,558.54,564.73,563.5,561.39,563.17,559.64,563.26
574.12,565.65,565.01,563.87,563.75,564.07,564.55,578.63,561.97,566.22,559.87,562.28,575.47,564.59,574.06,572.48,574.34,571.45,574.5,571.53,567.83,572.69,565.77,560.47,570.26,571.5,564.42,568.57,565.19,569.93,566.51,571.46,569.75,566.42,566.64,569.66,572.21,571.76,564.89,568.82,567.97,568.84,566.38,572.12,566.96,568.22,563.77,574.11,569.1,568.03,566.67,570.86,573.61,576.35,565.12,572.9,570.38,566.37,569.83,559.22,564.74,573.7,565.78,575.93,568.08,568.58,569.39,565.55,569.44,569.95,563.03,562.86,578.06,580.03,570.06,569.84,571.61,572.25,567.18,575.28,562.39,565.72,570.49,568.74,559.5,573.07,560.38,564.23,563.17,572.35,567.76,569.71,562.37,558.84,572.32,564.94,574.12,565.63,569.38,573.35
581.89,573.79,577.8,575.91,570.84,567.87,567.4,579.57,569.64,570.56,564.8,573.08,577.51,573.89,579.35,576.48,575.6,573.8,576.56,575.46,571.9,577.3,570.25,573.21,571.28,573.76,571.83,574.64,577.29,574.91,576.29,576.13,573.14,572.46,572.5,578.84,574.35,577.47,568.7,576.43,569.51,574.64,570.56,576.6,576.27,578.34,573.65,576.72,574.07,575.9,569.42,573.58,577.77,580.9,567.07,576.69,572.95,568.97,575.48,567.43,576.49,576.79,575.09,580.39,570.22,573.16,574.04,568.35,573.72,574.22,579.51,569.77,579.88,581.6,574.04,574.13,578.29,583.58,572.87,578.27,567.17,569.08,572.27,570.81,568.59,576.06,571.9,575.41,567.08,574.57,572.58,571.16,571.86,569.01,575.01,581.43,577.63,574.36,574.23,575.73
584.7,577.11,584.32,577.53,572.54,575.1,571.29,585.1,572.33,580.33,572.95,579.34,580,577.34,580.59,578.48,578.14,582.46,580.22,584,580.08,579.69,575.76,578.55,577.59,576.12,574.05,576.76,578.86,579.24,578.08,578.87,577.59,578.57,585.12,582.34,577.92,580.35,575.48,579.19,573.96,576.62,579.64,581.77,579.64,579.48,575.61,580.84,578.45,583.86,575.68,577.34,580,582.72,573.18,580.31,580.16,573.73,577.89,572.92,586.29,578.88,579.41,585.39,585.51,580.54,579.06,579.65,576.28,579.12,581.89,573.01,583.25,583.64,581.73,577.22,581.3,585.61,574.71,580.24,572.62,575.86,576.69,576.52,572.18,581.11,576.04,581.46,574.6,582.16,573.48,574.67,573.46,578.98,577.18,585.93,581.29,578.36,578.41,582.12
588.68,587.46,586.45,581.56,581.7,578.63,580.42,587.72,576.75,581.88,581.31,581.51,584.6,589.29,581.39,581.43,589.8,585.66,583.14,600.21,585.75,581.24,583.66,585.07,580.52,579.68,579.83,582.9,582.92,582.85,581.13,580.34,579.19,584.95,591.32,585.11,579.1,583.5,577.11,580.09,577.17,580.69,586.09,582.44,593.18,586.54,581.84,585.92,580.4,587.69,583.28,580.79,588.51,583.96,580.7,588.6,588.67,580.56,587.39,577.71,590.72,583.6,583.07,589.97,588.85,583.58,583.76,591.25,579.03,581.29,586.17,579.67,589.18,588.5,585.4,579.99,581.75,593.96,576.95,581.36,576.4,586.34,585.3,585.23,582.87,584.85,580.23,583.88,578.31,583.9,574.91,579.36,575.44,584.16,580.86,588.78,587.71,585.34,579.57,586.83
611.09,603.18,605.02,602.1,605.83,606.66,606.55,601.59,602.73,601.6,600.87,605.82,607.28,607.13,605.67,605.59,605.08,607.06,606.07,604.26,606.6,604.21,607.33,604.54,600.95,603.85,605.58,604.61,601.03,605.25,602.02,605.64,601.57,604.7,600.31,607.52,602.4,603.97,599.56,604.02,606.57,607.01,600.48,595.62,601.54,604.62,605.29,612.57,608.05,608.37,604.66,606.05,607.55,607.07,601,608.28,609.08,601.68,602.63,599.35,604.74,604.41,603.82,609.34,606.05,604.29,600.86,600.31,606.52,600.46,605.68,604.39,603.73,601.99,607.71,598.94,603.49,607.98,600.74,607.76,604.35,603.22,600.28,606.08,602.16,607.62,599.19,602.86,603.02,602.35,604.47,602.19,602.28,604.7,608.06,607.54,606.06,602.21,604.35,606.82
615.19,612.22,611.96,610.51,607.79,611.56,610.84,616.86,606.87,608.58,605.37,611.09,609.78,612.35,613.05,616.24,609.66,619.18,615.01,610.16,608.94,609.83,612.52,608.78,610.74,617.22,609.63,610.77,604.19,615.32,609.75,615.44,606.85,607.08,602.09,612.93,605.62,611.09,608.67,611.86,614.71,610.71,607.82,612.31,613.35,609.01,609.32,613.03,614.18,612.08,608.69,612.15,608.3,610.25,603.97,614.08,617.6,610.8,614.99,604.09,612.88,611.48,608.42,613.63,608.51,610.69,611.1,601.78,610.41,611.62,609.31,609.88,611.63,614.72,612.32,604.24,610.01,613.49,610.74,616.91,611.95,608.93,612.27,609.51,607.39,614.74,605.78,609.18,606.75,610.39,609.55,607.94,606.4,609.48,612.58,609.36,610.88,610.41,613.04,616.53
618.23,613.28,616.18,615.08,612.67,615.62,612.66,619.94,610.46,609.16,608.57,614.2,615.81,616.74,615.97,616.71,617.58,626.45,615.68,617.06,612.46,613.96,617.59,613.15,611.63,619.15,611.8,615.57,616.42,616.74,616.45,617.42,615.1,611.4,615.51,615.58,611.74,614.48,613.15,616.58,616.25,618.61,613.2,617.85,614.2,611.83,611.33,615.89,615.06,616.26,611.26,616.31,613.85,618.03,615.22,621.05,619.86,616.78,618.4,611.05,614.72,616,611.35,620.07,614.42,614.74,613.55,606.75,617.23,613.38,616.41,613.54,618.55,618.36,615.28,614.05,617.86,615.26,612.35,619.54,614.6,613.32,613.47,618.23,609.78,618.69,615.24,613.13,609.4,614.68,614.48,613.04,610.92,614.91,620.22,614.27,618.13,615.38,616.19,622.1
620.85,622.44,628.51,623.46,616.28,619.39,623.62,624.85,619.56,623.63,618.71,622.83,619.1,624.36,622.26,626.25,623.55,631.55,620.68,623.03,617.54,626.19,626.43,622.41,623.16,625.37,618.63,624.83,625.66,622.73,618.38,627.72,623.39,620.6,617.1,626.77,614.15,619.81,613.47,624.79,622.69,624.49,618.16,628.02,616.5,621.58,618.28,620.56,625.44,622.25,620.2,620.54,616.99,621.21,623.26,626.72,624.25,619.71,621.54,619.78,623.82,626.5,622.66,622.12,624.03,619.71,619.34,622.62,621.84,624.1,618.79,623.21,630.82,625.72,621.92,621.37,622.08,625.51,621.9,623.42,620.34,621.32,620.22,625.68,618.66,627.01,616.69,625.3,618.19,625.36,622.4,623.85,618.59,629.04,623.53,622.58,627.32,619.11,620.73,624.55
630.32,632.25,634.22,631.56,624.77,629.02,625.18,634.45,623.73,626.69,626.89,623.2,627.49,635.95,628.54,629.99,634.47,635.01,629.38,636.22,623.51,628.31,630.99,631.42,628.96,634.04,623.75,636.98,631.91,631.44,631.71,635.2,627.55,629.67,631.08,632.66,625.13,633.52,622.73,628.62,630.11,631.8,630.8,631.17,631.78,632.68,630.01,629.16,630.67,630.06,624.1,627.82,630.63,632.87,625.9,635.42,630.19,629.45,635,626.22,633.77,633.79,628.72,634.9,632.88,628.2,631.37,630.33,629.88,626.04,632.38,631.87,632.18,637.07,629.49,627.4,633.01,637.88,625.56,633.47,626.4,623.17,631.38,631.46,624.53,630.84,624.15,627.89,625.01,630.68,626.08,630.26,628.5,632.79,629.64,633.42,638.28,631.55,626.78,637.65
643.67,638.62,639.96,638.98,636.37,636.74,636.53,640.92,634.86,639.07,631.4,636.93,640.69,640.94,642.02,640.74,641.07,645.5,638.78,642.8,640.29,637.86,637.64,635.5,632.7,641.13,635.12,640.7,643.54,641.74,637.71,641.63,643.88,638.12,643.9,641.85,638.4,642.11,639.11,640.57,641.13,643.25,638.43,642.49,640.17,636.37,633.64,644.52,639.19,639.33,642.59,642.84,637.58,643.66,637.78,646.6,640.78,637.45,645.52,630.83,648.87,640.47,637.42,642.42,636.59,645.49,638.13,639.78,641.42,637.26,635.31,635.06,646.34,644.82,639.7,638.18,639.63,640.66,634.84,645.46,640.13,645.12,637.47,639.4,632.63,644.91,632.52,633.91,632.72,644.24,639.86,637.79,637.54,637.37,642.33,640.78,645.1,637.71,641.63,644.47
660.05,650.22,655.84,655.66,642.82,661.4,652.69,659.87,654.1,653.21,652.42,648.83,656.63,659.43,654.18,655.97,650.13,656.62,656.3,649.73,659.5,655.91,657.21,652.87,653.3,654.24,658.69,654.25,653.55,656.82,650.08,659.13,649.63,655.98,646.4,656.62,648.05,650.92,653.08,653.14,654.34,657.15,646.42,648.8,655.71,654.63,653.31,651.92,656.1,657.5,651.95,651.36,649.57,650.28,660.61,654.07,658.29,659.21,651.89,649.35,653.48,651.12,654.42,654.66,653.26,646.65,653.97,659.98,648.14,653.42,653.14,656.54,657.07,655.11,653.98,651.84,649.85,657.35,648.29,655.13,651.89,649.18,651.58,660.78,645.81,657.22,652.06,656.16,651.17,653.51,649.42,652.1,645.06,651.89,654,656.98,654.18,654.19,652.13,658.53
662.24,655.68,661.44,663.9,651.89,663.99,656.16,667.25,656.48,662.72,659.49,653.83,658.78,665,661.01,660.16,660.17,669.07,661.01,656.58,662.43,660.87,665.84,659.99,661.68,660.43,660.11,660.01,658.47,663.95,660.62,663.95,653.7,658.82,651.06,658.2,652,654.21,655.68,657.09,656.8,663.9,653.12,654.8,660.51,660.77,663.97,659.27,664.78,659.25,660.47,655.04,662.33,663.64,665.79,663.55,667.87,661.78,653.11,655.02,655.88,658.96,662.32,659.58,659.53,657.27,660.64,664.47,661.94,657.78,658.38,663.65,657.24,659.95,657.68,658.41,661.7,663.12,654.33,657.41,661.12,657.57,662.1,663.34,655.21,659.1,655.11,660.1,654.98,662.93,657.23,660.53,657.58,660.96,658.82,663.79,665.29,659.99,655.23,662.15
667.83,664.14,669.91,667.64,662.58,665.8,665.95,669.83,665.57,666.89,665.89,662.57,668.49,669.65,668.36,667.78,664.52,673.23,669.13,672,667.51,667.46,669.24,664.53,666.54,664.57,666.58,664.48,664.16,668.81,665.07,667.52,666.18,669.62,657.74,670.55,664.24,668.86,657.93,667,666.43,669.19,662.5,666.25,665.53,667.24,668.35,669.17,670.5,666.5,661.16,663.1,667.29,669.6,668.01,670.85,671.8,669.97,665.01,666.62,667.23,669.07,669.28,669.14,669.35,671.32,662.58,667.37,664.76,665.15,673.51,667.21,669.49,668.82,665.7,664.7,667.41,674.73,665.37,666.18,665.21,662.06,664.77,666.99,664.98,667.56,669.11,665.78,657.98,666.5,665.05,660.95,662.33,668.28,669.99,666.12,668.83,663.37,661.52,670.34
683.71,681.95,687.19,683.13,680.18,681.8,692.02,691.16,687.42,687.16,692.67,680.62,688.29,685.23,696.02,685.35,687.87,686.02,692.49,690.85,685.16,694.78,681.05,691.89,681.45,692.51,678.08,689.09,677.29,677.9,691.13,689.87,685.37,690.59,684.77,683.83,677.47,683.46,682.9,678.21,688.91,689.52,678.74,690.73,677.39,687.84,693.73,692.13,680.15,689.72,681.76,691.19,679.29,683.36,690.79,688.51,673.68,692.27,684.97,684.16,678.83,683.08,686.23,683.54,679.94,684.82,687.62,691.6,671.54,677.6,687.99,690.57,684.4,685.94,688.05,688.14,689.85,688.39,679.29,691.42,684.35,679.11,693.95,688.37,679.99,673.68,689.9,684.36,684.59,681.42,685.53,689.17,683.41,685.94,677.88,688.17,695.07,690.16,681.38,687.24
704.08,689.51,694.59,689.53,687.38,699.64,697.45,705.17,690.07,696.59,702.36,692.44,689.66,694.98,697.36,696.31,690.22,699.18,701.03,693.64,689.17,703.43,697.84,699.47,700.33,694.97,691.73,692.45,688.08,694.69,695.08,698.12,689.98,695.45,686.73,697.22,680.56,703.84,688.86,697.46,699.44,694.76,682.77,693.46,696.43,694.97,707.94,695.02,701.32,692.37,695.77,693.07,691.15,701.21,692.3,695.37,695.62,692.99,687.76,696.03,688.86,699.16,694.16,689.02,694.64,685.96,689.21,704.05,697.17,691.06,690.74,699.37,696.48,699.42,692.07,691.78,694.56,696.67,690.63,696.02,693.9,696.37,696.81,696.3,688.01,691.3,692.59,691.09,686.79,693.56,692.19,693.48,689.45,694.28,690.69,698.11,696.05,694.76,689.83,690.43
714.18,707.31,715.88,711.62,700.33,717.2,712.94,718.65,709.99,710.28,711.96,708.96,713.22,719.12,709.48,710.93,708.68,711.56,712.4,714.44,713.78,711.27,718.29,713.26,705.53,711.53,714.35,710.29,709.34,715.15,709.51,714.71,708.23,718.28,702.06,714.22,705.08,707.85,702.54,711.41,711.17,711.87,701.66,709.13,711.52,710.51,717.98,713.13,714.76,712.32,702.58,710.56,711.03,714.25,717.7,712.65,715.35,716.59,708.34,710.17,708.33,713.85,712.3,715.74,709.84,713.27,714.66,719.63,708.46,703.93,715.35,714,711.11,714.83,712.7,709.22,710.36,717.31,704.74,706.11,710.76,706.94,713.71,715.28,708.69,710.79,713.36,710.03,707.32,705.95,706.76,709.62,706.18,712.36,713.62,714.97,714.82,708.71,708.79,718.92
733.6,726.16,734.55,732.47,723.86,742.9,736.1,741.56,733.78,733.44,738.07,726.33,732.95,738.37,742.97,733.38,732.13,738.78,738.06,739.1,742.96,736.06,734.37,737.06,728.1,736.24,735.06,731.49,727.34,731.29,729.39,738.91,732.9,738.43,728.18,734.05,729.7,727.1,729.52,730.82,733.79,738.27,729.64,735.61,730.88,737.06,747.56,733.81,733.34,738.93,731.77,728.83,731.52,730.39,747.81,737.31,727.24,742.32,729.1,731.38,724.3,724.56,736.28,730.48,733.49,735.51,738.09,747.41,719.09,730.17,732.72,737.91,732.93,735.87,730.91,735.33,736.34,734.44,726.7,736.01,731.91,727.34,734.82,736.32,727.46,727.3,732.4,730.44,730.44,733.52,733.79,733.5,729.5,734.02,728.66,735.61,738.72,735.55,730.65,735.19
758.4,748.45,757.89,756.68,749.68,768.22,769.92,763.52,753.51,756.75,768.57,751.91,754.93,760.35,771.27,756.97,756.4,760.59,763.2,771.58,766.55,762.33,760.54,763.03,755.74,758.27,757.46,752.76,752.05,758.67,754.63,761.98,754.32,760.49,753.7,760.96,749.08,754.94,751.18,759.16,758.69,759.16,753.67,760.96,757.62,761.7,775.11,761.66,759.95,760.55,755.37,754.34,755.99,755.38,770.88,761.59,759.58,763.05,753.84,758.25,750.58,753.76,757.68,755.53,755.34,755.19,764.27,767.46,749.41,755.02,754.91,760.43,757.87,762.15,755.96,761.03,760.21,760.97,749.48,768.68,756.64,753.64,762.67,761.09,752.06,750.74,757.78,754.04,752.71,756.07,756.72,758.73,756.56,760.77,752.25,760.16,761.44,759.92,757.52,759.41
2610.8,2626.3,2605,2651.2,2636,2601.2,2622,2618.1,2648.6,2599.3,2630.4,2648.5,2636.4,2602.3,2610.2,2616.1,2640.9,2633.6,2623.9,2641.7,2641.7,2605.6,2611.8,2606.9,2610.2,2599.7,2619.1,2616.8,2612,2611.1,2658.5,2623,2631.7,2606.5,2598.1,2609.3,2608.1,2615.2,2615.6,2625.7,2598.8,2596.5,2596.7,2655.8,2608.2,2613,2620.1,2617.1,2637.9,2612.8,2601.6,2607.4,2620,2607.4,2644.4,2604.4,2632,2619,2643.2,2599.8,2635.4,2626.8,2616.7,2633.7,2626.6,2622.4,2609.8,2641.5,2616.2,2617.7,2608.8,2657.8,2614.9,2653.7,2639.5,2623.8,2607.9,2622.9,2629.4,2617.6,2650.4,2611.9,2626.8,2602.9,2639.5,2608.8,2604.9,2635.4,2607.3,2600.9,2618.1,2619.6,2649.1,2657,2609.8,2601.5,2625.4,2609.5,2611.2,2615.2
2653.8,2664.7,2615.3,2660.3,2636.7,2644.9,2634.7,2658.4,2657.3,2606.4,2660.6,2660.5,2636.8,2643.1,2641.4,2621.8,2662.9,2651.2,2647.2,2654.7,2648.5,2647.4,2636.1,2619.9,2632.9,2654.8,2620.5,2646.2,2618.5,2612.1,2664.2,2628.7,2663.7,2660.4,2654.1,2624.3,2626.4,2642.3,2656.3,2634.8,2619.9,2637.7,2662.9,2660.4,2651.8,2652.1,2623.5,2625.3,2645.5,2636.6,2620.2,2661.3,2637.7,2650.5,2650.8,2635,2660.8,2629.9,2658.6,2618.5,2656.4,2653.7,2625.5,2647,2667.2,2663,2648.2,2649.8,2626.3,2639.5,2659,2658.2,2657.3,2656.8,2641.8,2629.4,2611.2,2629.1,2645,2643.8,2653.9,2655.6,2637.2,2665.8,2658.1,2638.8,2620.8,2655.3,2611.8,2641.8,2654.5,2650,2663.1,2663.2,2638.4,2628.1,2646.2,2629.9,2650.9,2631.5
2811.9,2794.4,2809.9,2808.8,2816.1,2790.8,2808.3,2774.7,2780.3,2809.8,2822.4,2785.2,2789.4,2806.1,2796.1,2809.3,2817.7,2771.1,2792.2,2793,2807.6,2834.3,2817,2824.3,2807.4,2790.3,2814.8,2833.9,2785.8,2775,2773.1,2770.2,2787.2,2834.2,2808.9,2817,2822.5,2824.8,2786.2,2792.2,2794.8,2824.7,2807.8,2822,2801.8,2769.2,2791.4,2805.9,2805.4,2798.5,2832.7,2797.5,2822.5,2807.7,2772.6,2816.8,2770.9,2780.3,2826.3,2791.3,2800,2773.3,2771.9,2831.3,2802.9,2825.9,2815.6,2821.4,2811.3,2798.3,2835.4,2774.6,2810,2780,2780.5,2801.3,2770.4,2832.3,2807,2788.1,2822.3,2823.8,2791.7,2806.1,2814.5,2786.7,2825.9,2782.9,2830.4,2832.3,2822.2,2793.8,2798.6,2794.4,2823.3,2784.9,2821.7,2823.4,2798,2799.4
3431.8,3474.1,3479.8,3464.6,3457.5,3432.3,3464.3,3403.8,3415.9,3457.5,3414.5,3462,3421.7,3464.4,3411.3,3428.9,3473.3,3456.6,3440,3409.4,3423.2,3448.3,3418.4,3427.4,3450.3,3466.5,3411.3,3414.1,3405,3423.2,3415.9,3412.1,3408.8,3429.5,3435.5,3479,3468,3420.8,3442.2,3406.4,3453.4,3464.4,3419.1,3440.1,3429.6,3450,3449.9,3464.3,3427.5,3424.8,3467.5,3426.3,3436.9,3425.5,3454.7,3418.9,3419.8,3409.4,3408.5,3447.1,3472.4,3479.9,3468.7,3437.8,3467.3,3471.5,3481.6,3478.4,3472,3481.9,3470.1,3430.4,3404.3,3405.6,3465.3,3465.3,3436.5,3479.7,3485.8,3472.5,3471.1,3401.5,3427.9,3406.3,3468.6,3470,3442.2,3426.3,3454.7,3468.3,3432.6,3473.8,3436.8,3453.1,3463.2,3430.3,3424.2,3466,3430.3,3422.4
