17.468,17.467,17.45,17.195,16.973,17.234,17.403,17.069,17.294,17.273,17.128,17.077,17.518,16.998,17.183,17.328,17.363,17.449,17.186,17.414,17.304,17.285,17.29,17.252,17.426,17.205,17.174,17.282,17.403,17.467,17.433,17.309,17.373,17.154,17.235,17.313,17.203,17.145,17.414,17.389,17.143,16.913,17.518,17.404,17.495,17.203,17.003,17.721,17.225,17.146,17.267,17.359,17.483,17.473,17.439,17.318,17.401,17.584,17.314,17.285,17.428,17.43,17.326,17.476,17.101,17.43,17.28,17.309,17.392,17.418,17.545,17.324,17.424,17.542,17.28,17.325,17.447,17.399,17.226,17.525,17.538,17.404,17.519,17.496,17.062,16.772,17.259,17.253,17.375,17.569,17.053,17.081,17.293,17.356,17.122,17.046,17.396,17.427,17.074,17.461
18.801,18.52,18.401,18.308,18.65,18.319,18.483,18.539,18.561,18.679,18.353,18.619,18.803,18.607,18.63,18.426,18.331,18.482,18.557,18.273,18.793,18.411,18.335,18.658,18.379,18.65,18.996,18.501,18.308,18.501,18.692,18.954,18.853,18.582,18.578,18.626,18.736,18.54,18.646,18.354,18.821,18.42,18.828,18.83,18.326,18.756,18.45,18.847,18.585,18.6,18.571,18.473,18.592,18.548,18.586,18.731,18.384,18.553,18.583,18.412,18.6,18.756,18.35,18.65,18.278,18.506,18.756,18.43,18.598,18.393,18.831,18.557,18.711,18.386,18.564,18.569,18.634,18.736,18.602,18.789,18.692,18.521,18.623,18.719,18.65,18.513,18.505,18.327,18.266,18.638,18.553,18.552,18.335,18.599,18.509,18.696,18.632,18.749,18.371,18.663
38.766,38.688,38.835,39.338,38.415,38.325,38.785,38.469,38.553,39.151,38.741,38.678,38.556,38.909,38.704,38.985,38.613,38.977,38.95,38.314,39.095,38.56,38.741,38.651,38.795,38.918,38.94,38.52,38.62,38.786,38.797,39.182,38.849,38.767,38.566,38.622,38.375,39.199,38.799,38.794,38.784,38.612,38.889,38.668,38.557,38.518,38.479,39.019,38.864,38.793,38.822,38.695,38.729,39.251,38.517,38.776,38.774,38.825,38.506,38.692,38.958,38.759,38.77,39.061,38.668,38.661,38.674,39.166,38.95,38.922,38.547,38.788,38.731,38.546,38.915,38.924,38.848,39.197,38.663,38.794,38.828,38.672,38.82,39.014,38.635,39.073,38.427,39.204,38.637,39.088,38.466,38.378,38.851,38.948,38.838,38.489,38.755,38.817,38.378,39.446
69.581,69.118,68.838,69.186,69.016,68.568,69.441,68.618,68.713,69.459,69.098,68.776,69.153,69.35,69.192,69.151,68.372,68.66,69.196,68.857,69.285,68.711,68.89,68.938,68.849,69.474,69.586,68.898,68.722,69.409,68.755,69.958,69.639,69.633,69.155,69.088,68.921,68.966,69.112,69.193,69.172,68.242,69.183,69.38,68.88,68.971,68.668,70.046,69.244,69.045,69.255,68.867,69.153,69.649,69.147,69.604,69.267,69.2,68.879,68.28,69.278,69.5,68.951,69.455,68.791,69.065,68.966,69.104,69.743,68.538,68.975,69.508,69.114,69.338,69.171,69.192,68.708,69.646,68.41,69.416,69.288,68.452,68.928,69.593,69.165,68.63,68.594,68.909,68.703,69.528,68.516,68.554,68.801,69.386,69.072,68.441,68.927,69.597,68.329,69.813
76.085,74.559,74.873,75.739,74.378,74.293,75.468,74.958,75.112,76.105,75.544,75.178,74.903,75.606,75.502,75.558,75.153,75.582,75.497,74.187,75.014,75.164,75.245,74.831,75.335,75.311,75.113,74.892,74.12,75.72,75.072,75.881,75.65,75.192,74.5,74.994,74.427,76.053,74.891,76.07,74.843,74.503,75.513,75.321,74.678,75.892,74.377,76.247,75.42,75.337,75.501,74.958,75.645,76.244,74.173,75.637,75.22,75.107,74.671,75.297,75.412,74.988,75.284,75.074,74.781,74.958,75.056,75.088,75.739,75.05,75.228,75.058,74.785,74.579,75.042,75.247,75.487,76.056,74.927,75.534,75.757,75.08,75.139,75.972,75.011,75.494,73.812,75.603,74.318,75.923,74.642,75.237,74.977,75.601,75.244,74.625,75.52,75.669,74.668,75.889
94.16,93.185,93.919,92.778,93.033,93.264,93.777,92.716,93.198,93.878,92.827,93.489,94.578,92.833,93.025,94.134,93.113,93.075,93.86,92.923,94.382,92.878,93.565,93.526,93.813,93.678,94.597,93.824,93.847,93.741,94.366,94.467,94.476,94.016,93.658,93.466,92.896,94.049,94.054,92.817,94.25,92.918,94.24,94.067,93.649,94.297,92.402,95.059,93.619,93.3,93.637,93.825,93.903,94.349,94.501,94.304,92.821,93.34,93.701,92.967,94.447,94.102,93.149,93.778,92.037,93.589,94.337,93.237,93.546,94.309,94.31,93.507,93.791,92.809,92.883,93.324,93.708,94.551,93.317,94.49,94.595,93.978,94.041,94.354,93.24,93.32,93.055,92.623,92.979,94.182,92.608,93.689,92.949,93.756,93.607,93.49,93.976,94.652,93.32,94.529
109.55,109.39,108.91,109.9,108.83,108.73,109.34,109.12,108.34,110.08,108.62,108,108.77,109.83,109.09,108.86,109.26,110.09,109.32,108.32,109.88,108.73,107.94,108.61,108.9,109.44,109.35,109.13,108.57,109.34,108.6,109.14,108.24,108.72,108.62,108.78,106.89,110.37,109.7,109.87,108.61,108.86,108.86,109.16,108.29,108.32,108.4,108.88,109.36,108.13,109.4,109.54,109.32,109.75,108.72,108.73,109.43,108.07,108.23,108.19,109.61,109.62,108.75,109.97,108.56,108.02,109.32,109.9,109.6,109.27,108.48,109.25,107.63,108.49,109.03,109.4,108.91,109.81,109.1,107.75,109.25,108.94,109.03,109.89,108.99,109.55,108.75,109.71,107.86,109.11,108.34,108,109.17,108.12,109.72,108.25,109.03,109.93,107.93,110.09
136.61,135.55,134.79,135.79,135.64,134.87,136.4,134.64,134.9,136.16,136.63,136.01,135.23,136.54,135.36,135.08,134.51,134.58,135.83,133.82,135.22,135.11,135.45,134.75,135.58,136.69,136.38,135.6,134.55,136.14,134.68,136.45,135.81,135.91,135.64,135.71,134.96,136.32,135.05,136.48,136.13,134.58,135.49,135.25,134.93,135.58,134.37,136.13,136.01,135.88,134.37,134.78,135.71,137.24,134.77,135.24,135.38,135.37,135.22,134.66,135.54,134.81,136.13,135.96,135.46,136.27,134.71,136.65,136.68,135.64,133.41,135.46,135.61,135.33,136.01,136.3,134.97,136.4,134.45,135.14,135.64,134.1,134.98,136.01,135.02,134.99,134.04,135,134.81,135.83,133.53,134.08,135.74,135.97,135.96,134.7,134.83,136.6,133.41,135.88
144.57,142.62,142.19,143.77,142.11,141.46,144.27,141.73,141.8,144.41,143.34,142.64,142.97,144.79,142.92,143.58,143.06,144.63,143.45,141.45,142.53,142.59,142.62,141.75,142.3,144.3,143.49,142.34,141.36,144.01,141.66,144.09,142.82,143.74,143.28,144.16,140.93,144.03,141.57,143.93,142.11,144.12,143.53,142.28,141.4,142.41,142.02,144.12,143.72,143.13,143.62,141.49,144.61,144.53,141.76,143.17,142.98,141.52,141.84,142.2,143.87,141.67,142.4,144.49,143.21,143.19,141.94,142.91,144.32,142.85,142.58,144.01,142.33,140.29,144.22,143.15,142.5,144.74,143.33,142.27,142.14,143.27,142.16,144.02,143.31,143.34,141.23,144.72,141.43,142.3,140.26,142.02,141.78,143.06,143.16,142.64,142.62,143.86,142.25,145.13
169.12,167.46,167.37,170.95,168.83,169.4,170.72,168.58,168.97,168.41,169.68,167.39,168,169.42,168.65,166.65,169.09,167.22,168.2,166.84,168.34,168.99,168.42,166.62,166.63,169.4,169.51,169.29,169.1,167.52,168.96,170.08,167.91,168.56,169.51,169.38,168.36,171.13,170.26,170.31,168.53,169.99,169.11,165.83,169,170.52,169.11,166.66,168.46,169.26,166.47,170.21,167.9,168.47,170.28,165.12,169.48,168.75,168.83,168.21,168.37,168.87,168.11,170.72,169.36,167.91,167.98,168.97,168.09,170.18,166.72,166.55,169.02,169.6,166.91,169.83,170.1,169.3,167.9,167.39,169.17,166.57,169.13,167.43,169.39,168.46,168.1,166.72,168.05,167.23,165.56,167.46,168.57,167.42,168.11,169.07,166.76,168.96,168.22,168.15
171.5,173.18,173.15,173.71,172.65,172.52,174.68,173.58,173.03,174.15,171.76,172.4,173.14,174.46,173.21,173.2,172.45,173.22,173.64,172.03,173.17,174.13,173.28,171.21,173.94,173.04,174.21,173.79,173.34,173.9,173.49,174.59,172.16,173.45,173.28,174.27,170.16,173.52,173.93,173.7,172.33,171.94,172.08,171.92,173.07,173.21,171.17,174.16,174.03,172.59,172.84,174.36,172.78,174.48,173.9,173.47,173.57,170.57,172.66,171.98,173.16,173.93,172.81,174.8,172.86,171.92,172.29,173.52,173.48,173.28,172.49,173.34,171.3,172.7,172.98,173.64,172.99,171.82,172.24,172.71,174.17,172.23,173.52,174.32,172.25,173.85,173.13,172.43,172.19,171.01,172.03,172.04,173.41,173.39,174.42,172.86,173.19,173.79,171.79,174.3
210.28,212.65,210.97,214.42,209.79,208.94,210.19,210.16,211.01,212.76,208.78,211.14,207.26,211.09,211.45,211.12,209.45,210.97,213.89,209.62,213.81,210.59,211.34,210.73,211.24,210.76,211.71,210.07,212.63,210.87,212.42,211.9,211.17,210.57,206.37,207.95,209.61,211.24,211.33,212.31,211.61,208.08,212.55,210.45,210.99,210.71,211.08,212.21,211.06,210.47,211.18,211.28,208.6,213.92,209.71,211.54,211.68,213.86,209.8,210.62,210.91,212.35,210.58,212.6,210.04,208.66,212.65,215.07,212.77,209.74,208.24,211.93,207.94,212.91,211.32,212.9,211.53,212.57,208.18,211.81,212.52,209.72,211.14,212.27,211.37,211.85,211.27,212.61,209.93,214.45,212.76,211.42,212.91,211.49,210.27,206.82,211.27,212.38,208.33,215.38
216.3,218.44,216.34,218.75,215.95,217.08,216.98,217.48,217.43,217.76,215,216.49,216.41,217.33,216.29,216.8,216.59,216.84,218.68,215.16,216.63,216.25,217.98,215.96,217.06,217.71,217.18,215.49,216.23,217.22,218.25,218.56,217.46,216.79,216.6,219.17,216.14,217.93,216.2,217.18,217.53,217.43,215.94,216.87,218.45,216.49,216.51,219.24,218.52,216.46,218.62,216.31,217.83,218.56,216.07,217.8,216.69,218.78,216.74,218.45,217.79,215.53,216.91,219.38,219.05,216.31,216.18,218.92,216.73,216.8,216.96,217.21,215.96,217.58,217.76,218.12,216.7,217.84,215.51,218.72,217.59,216.22,217.73,217.52,215.67,215.01,216.72,218.28,216.83,216.52,216.58,216.44,216.5,218.35,216.67,216.83,216.62,216.48,214.6,219.05
227.66,230.67,229.03,232.21,229.49,229.24,227.71,228.76,226.19,230.53,226.87,228.36,228.67,230.21,229.31,227.94,228.21,228.87,230.13,226.82,231.65,228.27,227.93,228,229.22,228.67,230.45,228.04,228.7,229.14,228.32,229.12,227.75,227.21,226.16,228.47,225.73,230.95,230.5,228.29,229.42,228.53,227.98,228.35,229.45,227.89,226,227.75,229.48,227.58,227.91,229.4,228.23,230.51,229.2,227.84,229.31,228.81,227.75,229.55,229.63,227.55,228.99,230.73,228.71,227.15,227.86,230.77,229.15,230.56,226.7,226.25,227.67,229.64,228.98,229.77,228.02,228.87,229.04,228.38,229.41,228.49,229.44,229.85,225.48,230.31,229.35,230.3,228.36,228.84,226.71,224.02,230.05,229.9,229.62,227.85,229.44,228.03,226.03,231.31
232.14,233.68,232.33,234.57,232.97,233.05,230.55,231.33,231.08,232.9,231.73,232.22,231.21,233.26,232.29,231.55,231.71,231.63,234.69,230.8,235.52,230.73,231.26,231.78,231.53,231.89,233.15,232.28,233.56,232.21,233.43,232.45,231.47,229.67,231.38,232.87,229.68,233.55,233.95,233.31,233.44,232.45,231.69,231.87,231.98,230.95,232.28,230.65,232.09,230.61,229.9,232.08,231.64,233.16,231.47,231.48,232.06,232.93,230.84,232.29,231.99,231.99,231.79,233.91,232.81,231.63,233.73,235.99,232.26,233.15,229.39,231.36,232.39,233.13,232.16,233.75,230.97,233.19,231.86,231,233.03,231.1,232.76,233.6,232.26,232.84,232.25,232.22,231.19,232.76,232.92,231.98,232.81,231.66,232.48,231.27,230.98,234.88,228.66,234.03
247.62,250.23,249.02,248.64,247.11,249.47,247.87,249.78,247.59,248.58,246.77,247.76,245.97,250.74,247.37,247.8,250.72,248.47,249.36,246.07,249.93,246.38,248.26,248.15,248.17,249.12,249.41,249.12,246.95,249.18,249.15,249.68,247.83,247.75,250.05,250.56,246.62,250.87,250.75,248.48,246.42,248.23,247.3,247.38,248.72,249.72,245.64,247.78,250.01,247.48,245,248.12,249.11,250.67,248.48,245.29,247.67,249.03,249.12,247.7,246.51,248.12,247.69,250.46,248.86,247.59,248.45,250.6,245.69,249.25,248.44,247.89,247.74,249.08,248.83,250.13,248.53,248.53,248.28,249.12,250.17,246.38,249.22,247.19,247,249.35,247.16,249.8,246.26,248.48,247.35,243.25,246.14,247.64,248.62,249.56,248.65,248.53,246.99,248.65
248.75,251.31,249.95,251.84,250.07,250.54,249.07,252.26,251.01,250.94,250.11,250.05,249.6,251.9,249.03,249.25,251.47,249.25,250.86,249.75,251.47,250.04,250.66,248.85,249.46,250.45,252.05,250.59,248.8,251.07,249.33,250.78,248.72,248.74,250.92,251.44,248.17,252.83,252.18,249.85,250.48,250.36,248.7,250.76,251.61,250.96,250.84,249.8,250.85,248.09,250.99,250.58,249.47,251.24,249.7,247.45,250.97,250.59,249.82,250.09,250.46,248.75,249.29,253.33,251.67,249.22,249.24,251.57,249.8,251.51,250.61,250.23,249.82,251.49,249.8,251.03,248.93,249.89,248.57,249.52,251.07,247.52,253.32,251.5,250.39,249.69,250.74,250.94,248.77,249.57,249.38,247.73,250.62,251.2,251.91,250.24,249.97,249.52,248.07,251.88
253.57,253.91,251.53,253.71,253.65,250.91,252.09,252.63,252.7,252.28,252.86,252.08,251.01,252.06,253.86,250.39,251.6,250.91,252.09,251.88,252.58,251.3,254,250.52,254.12,251.97,252.88,252.33,249.69,251.26,252.64,253.91,251.16,249.93,252.01,252.49,252.37,253.66,252.98,251.73,252.51,251.28,251.23,250.96,253.17,253.31,252.24,255.28,252.54,249.48,251.88,251.65,253.63,252.99,252.56,252.94,252.28,252.37,251.59,251.3,252.44,250.94,250.2,254.35,253.2,251.69,250.35,253.29,251.26,252.93,254.08,252.11,252.36,254.54,252.19,252.18,249.27,253.12,250.9,254.15,254.14,250.87,253.99,251.64,252.54,251.62,251.71,254.07,252.08,251.19,250.37,250.2,251.79,254.4,252.87,253.66,251.96,253.65,249.02,252.9
269.72,272.07,271.02,271.07,267.43,272.15,272.05,271.45,269.39,271.09,269.56,269.07,267.39,271.28,271.27,270.48,268.67,268.47,274.3,266.08,269.41,267.04,271.67,270.61,267.62,269.09,270.4,270.18,268.02,269.73,271.38,270.06,269.47,270.34,269.53,273.74,268.13,271,269,267.27,269.82,270.66,267.79,269.49,271.57,269.32,270.05,269.98,271.11,268.93,270.85,268.34,271.99,270.2,266.93,270.7,267.55,271.46,269.26,270.76,270.73,268.52,272.11,270.05,270.55,267.56,271.99,270.35,269.66,270.51,269.24,267.08,267.75,270.63,271.77,271.83,267.51,271.43,267.98,270.76,271.85,267.46,270.18,271.11,268.04,267.83,267.99,268.56,269.78,269.38,267.36,271.01,267.51,270.54,269.63,268.45,270.11,267.83,267.54,270.87
283.6,282.93,281.27,279.91,282.2,280.62,280.25,283.11,281.45,280.99,282.01,284.16,276.91,283.23,281.5,278.36,281.43,280.86,283,279.11,281.77,276.83,282.97,281,279.61,281.15,283.51,281.8,278.34,282.72,281.2,281.21,279.96,278.6,280.7,281.68,279.77,283.35,282.26,281.11,280.67,278.79,281.48,280.68,280.45,280.93,279.92,280.78,282.26,279.23,277.81,280.22,280.26,283.22,277.81,278.37,278.64,283.98,282.12,279.2,280.55,281.3,279.57,283.01,281.15,281.21,281.01,282.73,279.9,282.81,282.18,280.21,279.94,280.24,282.71,282.12,279.45,284.06,278.21,282.16,283.06,278.22,282.32,279.5,281,280.47,279.23,280.9,276.37,280.52,281.24,278.44,279.71,282.08,279.45,281.52,280.79,280.62,278.62,282.64
301.04,303.03,301.55,299.66,301.62,302.25,303.02,303.22,302.58,301.56,300.99,301.61,298.16,302.01,302.12,299.88,303.35,302.05,299.97,297.68,301.36,300.4,301.37,298.48,299.84,302.56,303.97,302.69,298.19,303.04,302.03,301.49,299.3,300.04,303.53,301.33,298.48,304.47,303.91,302.26,298.43,301.49,300.1,299.5,302.14,300.87,300.58,300.04,302.92,301.24,298.12,301.22,300.92,301.45,302.55,297.91,301.9,301.89,302.15,298.37,300.23,301.39,298.63,303.9,300.62,298.18,300.37,301.55,298.68,301.89,301.09,299.65,298.05,300.74,301.15,302.35,301.32,300.41,299.48,300.82,303.38,298.37,303.67,299.77,301.35,298.92,300.46,300.28,298.62,297.94,299.67,297.3,297.89,300.09,300.56,302.21,300.74,300.79,299.64,300.89
304.09,306.05,305.11,308.69,306.78,304.56,303.71,304.31,303.42,304.55,304.53,304.79,303.9,306.3,305.26,301.09,305.85,302.86,305.58,302.75,307.65,303.81,305.01,301.94,302.73,304.39,305.13,304.17,304.87,304.5,303.47,305.63,303.04,303.46,304.34,307.26,299.67,307.89,308.28,304.83,304.84,303.52,304.66,302.42,304.39,306.64,302.68,302.55,304.37,302.19,302.91,306.11,303.01,305.59,304.14,299.95,304.1,304.35,303.54,303.96,304.45,304.42,303.99,305.97,304.76,302.38,303.67,305.94,303.05,306.39,303.46,302.01,304.75,307.46,303.83,306.29,303.28,305.32,303.22,302.13,305.16,302.74,305.13,304.39,303.22,305.96,304.84,302.11,302.03,303.53,300.73,300.37,305.54,302.86,304.02,302.74,303.86,304.38,301.84,306.64
345.35,346.45,344.44,346.1,341.37,343.51,344.79,344.74,344.91,344.7,340.65,346.26,339.4,347.25,346.22,342.01,341.53,344.04,347.31,340.31,344.34,340.52,345.68,341.77,342,340.63,343.88,343.02,340.5,344.22,345.74,344.39,343.23,342.99,341.88,344.82,342.8,342.36,342.39,342.5,343.26,340.75,344.47,342.75,344.97,342.9,341.2,343,344.61,343.46,345.77,343.07,342.7,348.22,338.88,344.26,341.49,346.79,345.66,342.9,345.46,345.33,344.47,344.67,344.9,342.42,346.07,347.31,345.78,345.84,343.02,343.81,341.06,343.7,345.63,346.91,342.28,346.89,339.06,345.46,345.95,340.68,344.34,343.74,342.69,340.87,341.45,344.01,340.55,344.33,341.88,343.96,345.15,345.21,342.47,340.19,343.88,339.84,340.91,346.9
351.14,353.36,349.46,349.9,348.78,349.88,351.31,349.98,351.85,351.23,347.24,350.32,349.55,353.04,350.01,349.02,350.97,349.9,352.07,347.61,352.31,351.01,352.13,347.54,351.53,349.83,350.48,349.69,348.64,353.35,351.98,353.15,349.94,350.44,350.3,351.24,347.51,352.83,353.34,350.36,350.89,349.73,349.08,350.97,350.11,352.07,350.42,353.99,352.17,347.69,353.37,350.71,352.54,353.92,349.71,352.82,350.99,351.7,351.06,350.12,350.52,349.71,350.2,353.25,349.51,347.95,351.72,352.69,352.05,349.91,351.43,350.81,347.22,350.6,351.37,352.89,348.73,351.94,349.5,350.69,351.96,349.33,350.9,352.08,350,349.09,351.47,349.32,347.23,349.79,348.51,350.77,350.4,348.58,349.62,350.06,350.11,353.57,345.7,352.71
378.11,378.23,377.36,380.52,375.33,377.72,378.41,377.37,375.2,379.68,377.18,377.31,379.83,379.39,378.78,375.9,378.3,379.22,375.83,374.09,378.68,377.95,378.95,373.87,377.12,376.63,377.47,376.72,374.64,378.06,379.1,379.95,378.13,376.06,377.89,377.39,376.33,378.15,375.59,380.42,377.5,376.22,378.85,377.97,376.61,376.42,374.45,379.72,379.25,376.36,377.38,375.42,379.02,380.85,377.76,379.49,377.21,377.21,377.49,379.27,376.6,378.32,379.06,380.84,378.29,377.06,375.5,376.98,378.56,379.91,376.18,375.83,375.53,378.26,378.32,377.98,378.72,379.1,375.81,379.45,380.38,376.32,381.05,378.68,376.54,375.84,375.95,379,376.63,377.43,376.82,376.95,377.55,380.68,375.57,377.73,380.47,375.64,376.58,378.53
384.97,384.43,382.68,386.63,384.89,383.82,384.19,382.12,384.6,386.2,383.02,385.79,386.38,385.79,386.12,384.84,384.29,381.64,384.96,383.13,380.84,384.7,384.44,382.46,383.85,384.93,379.12,387.78,382.11,383.96,382.88,385.95,383.6,383.84,385.54,385.03,381.85,386.98,388.61,382.15,387.02,385.21,384.89,380.81,380.59,386.78,383.18,385.9,385.17,380.22,383.41,382.99,386.17,385.31,383.53,383.11,385.46,382.16,384.52,383.43,386.32,382.34,383,389.8,386.66,382.1,386.45,383.79,386.79,386.84,386.06,382.29,382.44,383.54,383.62,385.08,385.63,387.16,383.26,384.63,383.03,382.63,385.31,384.94,383.52,384.04,384.67,387.41,377.47,385.03,386.48,381.81,382.58,382.01,383.49,387.46,384.03,386.39,379.47,386.25
399.11,402.21,396.72,398.65,398.61,398.54,397.97,399.16,398.65,398.17,400.47,400.78,396.85,401.87,397.56,395.94,398.78,396.83,401.45,397.99,400.53,394.1,400.54,398.74,396.9,402.21,401.35,399.57,399.39,400.55,398.94,399.57,399.5,396.64,397.61,397.58,394.71,399.7,400.45,399.33,400.62,398.23,397.22,394.85,398.51,398.54,398.92,394.89,401.97,397.95,394.69,397.43,397.58,400.39,398.08,395.4,393.31,398.81,396.86,394.71,396.79,400.56,397.81,398.09,397.14,397.89,397.56,402.24,396.78,403.1,395.21,396.54,397.68,399.01,396.89,401.05,394.57,400.09,395.34,398.43,399.74,396.72,398.59,395.73,399.97,398.04,396.73,395.94,394.31,396.72,397.73,395.07,398.53,398.1,397.99,395.42,397.35,399.73,394.21,400.86
426.06,427.82,426.95,429.2,425.06,425.91,427.28,425.78,424,427.07,427,421.3,428.45,431.65,426.32,429.54,427.59,424.04,427.88,425.73,429.2,424.15,430.2,424.38,426.6,425.68,427.15,428.1,424.09,426.84,427.71,428.96,427.89,421.88,424.46,427.51,425.01,424.79,426.48,428.01,425.94,425.58,427.78,427.25,426.1,429.26,424.4,430.57,427.34,425.59,424.17,424.09,428.55,427.56,426.4,429.43,426.49,426.96,425.82,427.43,426.89,425.79,427.32,429.78,426.22,427.41,427.67,426.7,428.29,428.65,426.72,427.22,426.24,425.94,426.86,427.88,421.19,428.78,424.47,428.78,428.41,425.49,428.61,431.33,428.13,424.85,424.62,427.48,424.2,424.58,425.82,425.51,424.33,428.47,428.23,427.04,428.41,427.65,423.75,429.62
434.57,429.97,430.85,433.31,428.28,438.21,434.13,432.94,427.95,435.49,435.44,430.47,433.16,436.42,432.02,431.93,430.68,430.91,431.03,430.91,436.23,429.95,434.11,433.46,427.83,429.56,431.93,437.55,429.9,431.89,436.62,434.01,432.85,428.21,428.52,430.77,435.48,431.85,429.5,432.93,431.9,436.7,430.16,435.34,435.19,434.91,433.09,434.31,429.89,427.58,428.36,427.75,440.98,431.49,433.73,438.85,436.02,431.43,429.5,433.62,427.55,431.95,433.93,438.93,430.06,438.5,431.2,431.51,435.95,433.53,432.2,431.58,438.48,439.87,434.69,433.6,425.79,431.71,431.2,435.38,437.53,427.32,432.84,436.68,435.69,432.88,430.54,436.21,431.35,433.5,430.71,435.37,427.28,438.25,436.83,436.49,433.58,434.54,431.34,431.34
445.98,447.29,445.84,449.12,443.15,453.45,445.87,447.66,440.96,450.32,444.49,443.4,452.52,449.89,446.14,447.05,444.13,447.26,452.83,447.91,450.44,442.61,447.47,442.72,442.36,440.5,446.63,447.96,441.87,441.59,453,446.24,446.83,441.38,438.89,444.93,451.29,442.42,442.1,450.17,445.03,449.62,447.63,449.97,450.49,445.81,448.25,449.05,446.09,447.91,446.91,439.44,451.54,443.47,447.41,448.87,450.3,447.1,446.93,446.62,444.23,445.14,445.59,452.24,448.76,453.86,448,445.89,446.68,450.64,443.2,449.23,448.5,451.77,446.25,448.01,442.56,444.81,444.45,449.17,447.04,445.03,449.44,454.49,448.63,439.33,446.89,450.13,448.28,442.46,448.6,450.57,440.74,449.82,450,449.99,448.44,447.5,444.91,448.52
454.97,465.37,453.18,464.42,455.03,456.64,450.78,461.34,453.64,462.57,451.67,458.57,459.79,463.08,456.59,451.52,456.94,462.59,462.83,454.19,463.38,456.28,462.71,459.52,452.6,450.54,453,450.72,450.51,458.34,462.24,455.04,459.83,455.52,463.69,457.85,461.08,455.85,458.99,453.7,460.13,460.7,451.28,459.4,454.11,460.2,460.18,464.18,460.38,458.59,464.64,453.69,456.3,462.36,460.82,461.53,458.42,463.25,455.4,462.66,461.64,461.4,461.03,459.8,465.44,461.85,460.32,462.88,459.98,465.9,459.47,458.86,458.49,463.25,463.22,464.15,452.98,456.03,448.21,462.39,458.73,461.35,456.24,462.09,452.31,453.1,460.53,462.6,457.16,450.86,463.05,459.58,459.4,457.68,453.96,460.13,463.74,450.35,456.47,457.37
467.52,468.56,466.01,469.57,461.32,469.49,467.6,465.77,464.96,468.57,463.32,465.34,464.81,467.47,468.34,465.37,463.09,465.47,469.15,462.86,468.74,467.11,467.95,466.3,462.68,455.54,466.56,467.77,463.02,465.46,470.82,464.41,466.29,462.88,466.92,468.62,468.37,464.01,467.24,462.51,465.08,469.61,462.32,464.99,470.11,468.68,468.5,468.66,465.07,462.91,466.37,460.59,469.24,463.57,466.94,468.75,465.8,466.98,464.65,467.34,463.85,464.96,463.65,468.46,467.37,467.41,470.14,466.71,466.31,468.21,468.07,464.48,467.41,471.29,468.04,467.91,463.25,463.46,464.33,467.26,468.31,462.76,464.57,471.91,464.55,461.06,464.21,468.41,465.83,465.06,468.71,470.31,462.31,469.72,464.38,462.49,469.38,465.37,466.7,466.85
471.88,475.86,469.44,475.12,472.88,473.47,471.8,472.97,468.35,473.1,468.6,473.81,477.77,475.88,474.66,470.08,470.01,471.56,472.7,470.15,474.25,469.25,474.43,471.28,471.11,467.54,470.35,469.65,467.85,472.93,473.56,471.79,470.17,469.57,472.17,470.56,474.94,469.66,470.3,472.6,470.88,471.95,472.36,471.39,472.45,471.88,472.62,472.79,471.27,473.04,476.41,468.6,470.76,471.72,472.96,473.93,470.81,472.83,470.81,474.32,474.96,470.53,472.72,478.84,475.29,475.95,472.06,476.22,473.63,477.56,474.34,474.83,472.37,474.19,474.75,474.45,473.48,470.36,469.05,473.37,472.65,471.41,476.71,472.39,467.69,469.57,472.38,476.09,470.45,471.95,473.82,473.08,469.54,475.95,472.66,474.12,476.38,469.14,468.93,471.86
475.2,476.82,474.22,479.53,475.68,477.62,477.38,475.88,473.28,479.13,476.1,477.48,480.47,480.45,479.26,476.06,477.3,477.78,478.77,477.09,476.21,476.99,480.13,475.97,476.5,475.43,475.45,478.88,472.84,474.05,476.98,477.45,478.56,474.29,476.37,475.24,479.62,477.01,478.02,477.98,474.24,478.3,480.56,478.72,475.5,477.36,477.24,481.2,478.48,475.13,479.24,471.58,479.71,480.7,478.63,480.54,475.49,478.41,478.56,475.8,477.13,476.88,476.22,482.13,480.6,479.98,478.04,477.27,478.28,480.09,478.72,477.54,478.15,478.03,476.8,479.28,477.85,476.73,474.66,479.42,478.27,477.43,480.33,481.26,477.18,476.84,474.41,477.87,474.18,478.22,477.32,478.65,476.41,480.96,480.51,479.7,477.88,475.78,473.6,476.46
480.22,479.37,476.71,486.49,481.17,477.83,482.2,481.08,477.87,482.8,480.87,480.84,481.46,483.77,482.09,484.36,478.68,480.69,481.55,481.55,482.37,483.21,481.79,478.68,478.63,477.52,476.43,483.16,476.02,484.38,480.54,484.61,481.47,480.47,480.84,482.77,483.77,480.21,483.36,480.14,483.08,481.44,482.02,484.77,479.39,482.31,479.52,484.71,479,479.17,482.33,477.48,481.36,482.48,480.8,482.25,481.98,482.89,478.96,480.69,483.34,478.52,480.18,484.55,484.12,481.65,483.58,481.39,480.46,484.1,482.68,483.38,481.07,480.06,479.99,481.89,479.81,482.35,478.02,482.22,483.8,478.64,483.1,483.85,481.01,483.4,476.73,482.77,478.11,480.41,479.57,479.75,478.53,483.41,483.47,482.2,481.74,481.89,476.78,483
487.8,490.23,485.11,492.87,487.28,486.5,487.27,486.72,486.23,488.01,482.4,489.01,491.58,487.43,487.78,485.06,484.2,484.08,491.62,485.4,485.73,485.67,490.55,486.55,484.06,485.88,484.96,485.1,482.61,491.47,484.98,487.62,486.88,486.32,488.83,488.81,486.67,488.23,490.08,483.91,493.64,491.52,484.69,486.89,483.53,487.68,489.24,492.2,486.98,487.23,487.35,482.65,487.64,489.4,486.32,489.22,489.51,488.79,488.55,486.58,490.03,487.17,487.12,490.89,492.24,487.74,489.69,489.12,492.47,488.07,488.71,488.67,486.19,489.59,489.5,489.15,486.34,488.12,480.42,487.84,486.72,483.95,485.84,490.58,484.87,486.25,486.22,491.03,485.47,485.75,488.39,484.88,485.19,486.27,484.98,487.95,488.75,486.82,480.49,488.39
507.53,508.05,502.32,508.74,501.34,507.89,503.78,506.83,504.85,506.58,503,503.97,503.56,508.75,504.05,503.09,502.17,503.8,512.31,503.26,508.9,500,509.46,506.66,499.84,501.97,501.42,504.28,503.25,506.57,508.25,506.16,506.6,498.22,505.75,505.43,504.96,504.91,506.4,503.04,506.37,508.55,502.1,502.71,504.77,507.35,509.44,508.87,505,504.91,504.77,503.21,509,509.86,504.79,509.51,505.85,512.82,506.54,508.69,504.12,508.76,507.43,509.37,506.26,505.19,508.14,508.28,510.08,506.77,508.12,505,506.19,508.51,507.61,507.08,500.66,505.26,498.84,507.97,507.7,501.63,504.12,509.92,504.85,505.68,503.32,509.12,507.13,502.54,506.94,507.33,503.87,507.57,504.94,505.81,506.08,502.94,502.52,507.67
519.75,521.87,516.46,516.85,516.57,520.17,511.5,514.2,515.43,520.51,517.44,519.12,526.17,515.95,517.19,512.91,507.71,511.75,517.84,510.02,517.15,512.38,518.03,520.8,521.18,525.03,519.93,524.06,517.15,514.5,515.09,524.42,519.11,517.19,519.22,514.27,512.95,517.71,517.8,509.99,532.23,514.71,517.01,516.57,511.47,518.84,520.53,521.54,525.51,514.12,516.09,514.16,524.36,518.08,524.2,523.93,517.1,513.9,516.96,516.97,515.47,517.45,514.35,521.75,513.17,517.13,518.43,517.01,525.17,517.79,518.59,515.62,518.23,516.19,518.79,515.46,512.62,521.49,513.97,524.14,517.19,510.38,517.58,515.17,515.26,514.49,518.36,519.28,516.02,516.28,520.32,515.16,514.5,519.12,519.93,516.37,519.38,520.5,506.95,524.65
543.34,538.72,541.98,535.46,535.28,535.52,548.17,535.6,533.09,535.4,546.48,540.98,542.15,535.52,536.25,543.65,537.93,530.95,534.1,533.47,543.46,548.29,535.95,534.62,541.34,538.68,528.81,539.44,543.75,539.96,532.18,534.52,542.21,534.45,532.95,543.28,530.92,531.34,531.21,547.1,543.09,535.09,542.42,530,546.38,545.02,538.21,530.91,538.71,534.68,533.88,532.79,542.98,543,539.7,537.13,526.94,538.71,531.51,532.18,537.48,543.68,537.54,546.29,531.9,535.63,544.97,549.31,536.31,540.76,533.37,533.97,542.16,532.98,530.91,545.9,526.1,535.11,527.56,543.07,541.86,534.46,539.68,540.55,546.21,543.05,539.7,542.19,528.69,536.17,534.44,537.78,529.24,537.62,545.39,533.08,537.96,536.81,541.67,544.06
554.6,550.55,550.7,554.59,550.04,544.27,550.13,549.8,550.26,549.22,551.78,554.66,550.04,550.3,546.5,554.59,549.27,549.29,556.57,545.57,549.82,554.12,549.61,549.37,552.36,545.05,551.9,554.01,551.32,551.08,552.52,552.38,550.67,548.66,537.93,548.66,550.67,550.37,546.67,556.06,551.13,541.65,555.14,550.75,554.34,549.57,549.64,555.07,546.72,549.73,547.49,552.94,551.65,556.77,548.09,549.3,551.9,548.71,547.33,545.09,555.33,547.18,543.55,556.62,547.14,551.52,554.83,557.34,544.14,549.41,544.74,548.1,553.01,555.77,547.6,552.14,551.64,553.06,544.36,551.93,556.21,546.76,547.54,548.25,551.02,548.94,545.7,551.22,549.33,550.7,549.33,548.06,547.91,550.6,555.95,544.06,549.55,555.2,547.51,553.21
557.35,559.64,561.35,560.23,552.17,560.73,557.96,553.02,556.36,558.76,557.17,558.09,556.6,559.83,553.5,561.51,555.95,553.87,561.68,556.86,558.75,560.18,556.94,556.74,558.33,554.53,557.81,554.89,558.33,557.76,561.54,557.77,553.93,551.15,546.33,558.96,554.66,557.32,553.36,562.77,556.14,550.35,559.53,555.57,561.51,558.62,557,559.27,559.71,556.44,550.53,558.54,554.18,559.85,559.48,555.09,554.03,562.05,553.34,554.8,556.98,554.66,552.3,562.34,553.45,556.77,561.17,563.11,553.53,561.68,557.52,551.67,557.56,558.37,553.43,559.58,556.46,556.64,555.03,561.95,562.71,556.87,552.82,560.93,556.5,555.73,555.95,557.03,552.23,552.58,557.82,558.02,551.35,554.52,559.65,552.19,554.77,562.43,551.15,561.4
562.89,561.45,562.4,567.16,558.74,562.57,562.22,557.65,562.09,564.23,562.6,566.43,559.41,562.48,557.64,562.66,558.44,557.46,570.99,565.19,561.65,565.54,561.1,560.67,560.74,556.62,562.72,560.49,561.45,561.47,562.94,563.49,559.03,557.28,555,562.18,558.81,558.61,561.06,564.88,562.37,562.44,564.03,559.35,568.1,569.3,558.65,563.74,561.27,557.16,553.45,560.5,563.95,565.35,561.83,559.08,561.72,564.32,557.5,562.2,563.23,561.2,558.98,568.89,570.36,564.28,564.7,567.67,557.57,563.77,558.51,555.83,558.97,564.04,558.07,563.46,566.59,563.53,558.73,567.26,566.19,565.14,562.81,567.23,557.85,560.37,562.73,564.16,558.17,558.14,566.06,565.42,557.22,558.14,560.96,555.36,561.82,569.54,558.85,563.55
566.61,570.97,568.92,577.49,572.65,569.83,571.45,569.72,565.12,570.85,565.66,571.44,564.01,575.19,566.14,570.73,560.68,565.56,578.02,566.58,566.45,572.87,569.64,570.82,568.5,559.7,570.83,572.49,570.88,565.17,572.9,564.3,561.92,571.35,560.25,574.56,566.94,560.53,567.67,566.37,563.96,568.25,567.36,560.81,574.16,570.94,567.47,565.65,571.16,558.93,565.41,568.08,570.62,573.79,568.25,569.31,563.12,568.4,564.49,572.96,571.79,569.2,561.71,573.36,573.09,567.82,574.47,570.08,573.43,568.37,565.11,563.21,568.53,572.58,567.54,569.98,567.28,566.08,566.27,568.34,575.04,568.95,568.27,568.02,563.4,565.88,570.17,569.5,567.51,572.22,570.83,572.93,567.69,579.62,561.86,559.74,568.82,571.15,564.5,568.86
572.74,575.5,571.42,580.28,578.02,572.32,573.82,575.26,571.49,576.68,569.68,574.75,567.51,576.39,573.34,574.81,572.46,568.61,582.15,574.51,576.74,579.8,572.27,572.67,577.86,573.13,573.31,581.69,576.66,569.47,574.59,567.98,568.55,572.51,565.95,578.72,571.45,568.54,572.23,580.23,572.84,571.46,572.7,569.74,578.64,575.99,572.15,574.67,573.69,570.37,571.01,572.33,572.64,577.4,577.34,572.23,569.72,578.21,567.37,573.77,577.4,571.62,565.2,580.47,578.52,571.18,576.29,580.71,576.24,581.63,571.49,572.92,570.32,575.68,572.16,573.34,572.96,573.21,568.83,574.69,577.86,574.06,571.67,573.83,572.44,573.38,571.53,572.92,572.81,574.85,575.13,577.99,571.2,584.02,571.97,565.58,571.18,575.89,573.04,577.39
579.56,577.77,578.41,583.19,581.04,574.25,580.88,576.63,577.09,580.52,583.49,578.21,575.75,582.64,584.01,580.41,576.94,575.95,586.41,576.02,577.92,583.17,582.25,576.82,581.03,578.52,578.43,582.82,581.47,577.03,578.59,576.24,577.47,577.8,570.83,581.17,576.46,573.67,582.23,582.3,581.34,574.92,581.74,571.97,581.37,580.76,573.19,578.14,575.86,573.46,578.07,575.53,578.65,580.65,581.6,576.08,579.02,582.24,573.8,577.31,580.18,576.42,573.01,581.94,579.49,574.77,582.05,584.13,577.75,585.22,575.23,574.14,576.23,579.06,576.88,580.28,576.43,581.83,575.26,579.58,579.98,575.01,581.18,578.69,578.82,579.23,574.44,579.82,576.75,576.48,576.59,578.62,573.73,586.48,581.17,572.09,581.09,581.39,576.38,581.96
585.95,587.33,584.61,585.1,586,589.61,582.64,581.88,579.9,582.18,584.63,586.17,584.03,589.5,587.64,593.46,583.6,582.34,589.17,589.4,587.62,590.62,594.07,578.19,582.73,591.87,580.62,590.14,583.69,579.82,586.63,582.34,582.64,579.69,580.67,583.45,577.7,582.39,586.93,586.71,588.75,577.43,584.5,578.58,583.43,589.41,580.87,580.51,582.56,577.93,581.35,582.63,589.36,582.17,586.01,585.22,583.49,584.32,580.09,585.52,581.27,582.85,578.28,587.98,586.18,577.75,587,591.52,579.75,594.48,590.93,585.98,580.62,581.07,582.26,590.8,580.38,592.87,584.82,584.65,584.66,578.73,586.72,589.2,589.47,582.46,586.19,583.61,580.6,583.14,583.91,582.86,581.7,591.68,588.67,580.93,586.28,585.88,579.47,588.35
604.94,608.25,605.98,609.27,603.11,608.68,606.28,604.25,609.74,605.27,607.08,606.37,605.47,607.21,601.59,605.96,602.37,600.78,607.99,600.46,607.77,606.8,607.76,604.26,610.47,603.62,611.28,605.03,606.87,600.57,611.32,608.83,607.84,600.28,597.72,610.96,600.33,603.32,606.06,604.06,607.04,604.59,607.81,601.31,608.19,612.29,603.88,610.63,609.27,598.42,606.65,607.45,607.96,608.26,600.36,603.48,606.06,605.6,606.95,605.03,608.11,603.29,597.67,611.08,604.85,602.8,608.42,608.29,596.89,607.45,608.99,598.8,605.65,604.82,601.37,610.36,604.18,603.84,601.97,614.34,610.67,602.4,605.01,604.7,604.35,604.15,604.42,605.95,599.05,601.64,599.36,602.09,599.49,604.28,609.56,604.22,602.67,610.67,602.83,610.04
616.29,613.8,609.12,615.08,609.2,610.35,613.94,607.57,611.76,610.15,609.09,615.53,607.42,608.83,610.53,615.2,606.18,610.87,620.17,608.3,610.54,615.13,613.95,612.34,617.34,610.62,617.96,614.58,608.48,609.15,615.03,612.99,610.23,612.6,601.92,615.43,610.25,608.95,608.2,610.1,611.93,605.33,612.9,606.9,617.12,612.72,611.17,613.24,611.68,607.28,611.7,612.95,615,616.79,609.88,612.2,612.47,615.26,611.46,608.54,615.65,610.62,608.87,618.34,612.93,609.77,617.58,614.69,608.34,611.13,613.63,606.31,611.38,614.43,612.79,614.32,612.63,616.46,607.85,616.31,616.03,608.19,609.59,610.49,606.28,608.11,609.19,612.78,607.97,609.99,609.45,611.18,608.74,616.57,612.32,610.31,608.35,613.98,609.45,613.93
618.25,617.14,623.66,622.44,612.97,616.02,621.17,612.53,617.96,613.11,617.1,621.36,611.97,616.7,615.13,616.75,615.15,615.78,622.23,610.8,616.42,617.43,619.31,616.67,618.97,612.01,621.33,618.49,618.84,615.06,617.58,617.38,615.77,613.92,615.51,621.07,613.59,619.49,614.43,614.88,613.62,611.85,616.17,610.49,617.96,619.11,614.38,617.32,617.32,612.91,614.85,620.58,615.71,623.12,625.31,615.03,618.73,615.49,613.03,613.75,620.46,617.36,613.67,622.96,620.7,613.47,619.19,617.88,615.71,622.29,618.31,616.57,618.05,616.2,616.04,616.47,618.04,623.6,612.49,620.44,622,611.29,616.64,612.69,613.69,612.46,617.85,615.08,616.15,614.84,614.23,618.4,611.39,618.64,615.39,612.25,617.91,614.73,613.61,616.76
625.55,618.35,628.45,623.18,623.12,620.14,623.86,620.36,620.55,623.91,620.28,623.46,617.36,618.94,616.25,622.08,620.73,617.52,627.87,624.21,623.14,624.09,621.05,618.7,620.97,622.7,627.13,621.01,623.39,620.73,624.7,621.9,618.41,620.09,618.52,623.05,618.59,627.48,620.98,627.22,623.02,618.6,624.88,616.69,624,626.22,617.2,626.66,620.61,619.35,618.44,625.97,622.25,630.26,627.52,617.89,622.17,626.02,618.37,623.13,626.12,623.76,618.11,630.77,622.54,622.17,625.65,629.46,620.02,627.76,618.87,620.67,621.38,625.64,623.28,621.03,625.25,625.7,618.78,622.78,624.81,617.04,629.1,622.11,619.07,621.18,621.66,628.06,622.38,619.3,617.48,622.28,622.64,628.21,618.9,620.24,623.48,623.33,621.17,626.55
632.85,629.22,634.37,630.17,634.99,625.8,627.99,631.92,629.69,626.91,628.64,634.56,624.44,632.22,629.2,635.82,631.29,621.27,638.82,633.68,629.86,630.17,637.46,627.75,630.56,629.04,633.93,636.47,631.46,630.49,632.82,623.08,624.62,627.32,624.09,630.05,625.13,630.82,632.29,631.94,629.81,627.56,629.03,627,629.21,637.12,624.87,632.56,627.67,627.65,627.77,628,629.31,635.16,633.02,633.62,629.33,633.27,628.61,629.7,629.66,625.02,625.13,634.43,633.54,627.6,634.93,637.82,629.43,636.12,631.57,632.55,628.47,630.55,630.15,626.56,626.45,637.54,623.12,631.92,633.45,626.78,632.54,633.83,631.47,631.13,628.72,632.12,630.88,631.55,626.81,629.63,630.97,640.35,630.99,629.67,630.4,630.63,624.78,632.82
638.88,641.04,638.6,644.08,638.2,638.98,642.1,641.52,638.59,640.71,635.12,640.36,631.01,640.31,643.14,640.33,636.7,638.18,649.23,638.32,638.09,640.64,641.94,638.86,640.28,631,646.5,641.37,638.34,635.08,641.78,639.38,635.49,641.61,633.67,648.43,639.48,637.12,639.91,636.81,636.47,636.06,634.97,633.2,645.35,640.51,636.06,638.67,640.54,631.37,639.95,638.57,638.89,643.04,639.7,637.05,637.69,641.27,635.34,641.43,642.77,634.67,636.6,643.76,647.28,636.74,641.04,641.65,637.4,643.65,637.38,635.67,635.91,641.05,640.46,639.83,635.73,640.06,637.61,640.4,641.87,634.39,638.55,638.22,634.22,635.75,636.51,637.72,642.67,636.88,638.48,643,634.49,646.86,635.61,633.39,638.16,640.08,632.86,639.95
658.43,650.55,660.58,659.56,651.98,654.64,657.8,646.23,656.01,652.47,662.09,660.51,651.19,657.28,650.16,649.96,649.89,645.35,660.72,648.3,652.74,656.61,654.1,649.66,653.63,651.69,656.06,658.93,652.18,652.7,653.66,656.89,654.07,659.24,656.43,657.61,651.24,661.58,652.28,659.51,653.89,649.02,653.83,650.7,653.24,660.52,651.68,661.64,653.07,652.44,646.29,658.77,653.78,665.31,659.92,644.49,656.38,653.55,652.01,653.1,654.79,652.58,657.57,655.06,654.74,654.56,654.85,656.7,648.56,655.36,652.18,652.93,655.71,656.81,651.32,654.3,655.76,662.1,650.73,658.43,658.06,644.65,649.67,648.02,649.32,652.61,652.47,656,654.65,650.18,644.42,652.69,653.7,651.93,651.71,650.8,652.86,653.52,652.55,652.76
665.33,658.06,661.3,665.54,659.78,659.6,661.61,652.49,660.35,660.25,663.44,664.74,659.81,662.58,659.18,658.54,652.85,653.33,664.7,655.51,657.41,660.2,663.86,657.67,663.2,665.29,661.38,659.93,660.88,660.81,658.03,662.02,661.3,663.16,658.43,663.16,658.88,666.36,660.07,668.22,660.85,652.45,661.97,656.24,657.63,669.38,655.6,666.12,665.08,657.94,658.15,660.63,664.23,666.6,664.22,661.35,662.17,660.14,655.34,662.93,660.68,659.96,660.82,669.59,658.11,660.03,659.28,662.69,659.81,662.3,654.95,657.73,659.46,665.25,659.41,659.78,659,664.92,656,662.86,661.19,649.56,658.33,656.16,656.18,663.63,656.84,656.82,659.67,661.32,651.88,661.53,657.73,663.11,655.45,657.94,664.27,663.04,655.39,654.88
667.93,667.61,668.17,670.98,668.12,668.59,668.03,662.92,670.25,668.21,667.25,668.22,664.71,665.77,665.79,665.05,664,661.16,670.59,665.89,666.79,665.52,668.17,663.36,667.73,670.23,671.02,668.82,672.3,664.89,669.79,668.66,664.8,663.96,664.02,669.89,664.19,670.8,670.59,670.65,671.05,667.07,669.28,658.91,668.72,672.21,662.82,667.84,669.52,665.57,662.22,670.36,667.35,669.8,672.37,668.39,668.63,668.49,665.84,667.4,664.29,664.79,664.6,674.98,666.12,662.73,671.37,669.53,666.99,669.57,667.58,663.81,665.74,669.79,667.31,666.98,663.55,668.94,660.87,671.49,671.5,660.64,667.52,665.94,667.53,666.94,668.53,666.55,661.03,662.98,665.87,665.21,660.28,671.59,666.97,666.3,669.61,670.17,660.2,668.84
677.29,679.01,686.48,681.8,689.73,681.77,695.27,686.71,678.12,684.47,687.64,687.39,682.05,684.04,683.44,691.24,684.11,672.36,693.11,683.71,691.85,684.71,689.64,679.41,683.57,685.05,693.34,693.15,689.82,693.71,692.87,691.64,691.08,690.49,693.71,694.65,682.91,691.15,689.85,684.11,692.93,686.45,686.54,686.96,690.18,693.21,680.2,693.75,680.06,683.47,679.48,688.06,676.28,691.75,690.73,687.08,679.95,676.4,687.2,679.51,694.86,687.44,690.06,693.51,686.05,686.25,688.49,684.61,686.69,688.43,683.2,685.81,680.15,682.93,676.65,684.9,678.26,688.12,677.44,685.82,694.44,683.16,686.79,691.27,688.38,690.06,676.97,672.03,681.75,679.52,675.45,691.98,689.44,682.57,692.17,693.13,676.32,694.96,681.44,692.37
705.15,686.45,697.88,694.04,697.17,693.94,702.9,691.02,693.17,698.62,695.99,696.24,689.4,695.19,696.34,696.56,697.09,694.91,695.64,687.63,694.08,698.49,696.38,685.47,694.46,695.62,695.72,696.17,696.06,703.58,696.41,694.95,693.54,700.62,695.64,695.55,688.37,703.74,690.85,706.72,696.25,696.07,694.96,693.67,693.16,699.12,688.29,697.28,698.46,695.42,691.58,699.76,700.18,701.11,699.03,697.91,692.83,690.4,692.64,695.02,696.53,694.42,693.05,697.97,688.19,690.3,694.27,692.02,694.81,696.32,691.22,692.49,689.38,692.38,695.58,694.01,699.25,700.55,692.01,692.44,703.9,689.7,694.62,699.24,693.91,703.4,688.05,692.6,690.25,696.29,686.13,695.72,691.01,698.55,695.82,694.56,703.27,697.05,695.71,695.93
714.52,718.16,716.16,713.51,713.71,711.91,713.51,708.62,714.71,713.42,719.23,718.17,705.03,712.13,708.65,712.54,706.28,707.31,715.71,708.63,714.94,707.75,714.39,710.19,712.74,714.95,716.78,717.34,714.03,713.32,714.52,714.51,713.36,714.14,710.58,713.66,707.68,717.71,711.16,717.19,718.15,706.91,714.79,708.51,710.66,717.64,708.23,718.22,713.27,712.17,703.14,711.1,711.8,719.18,713.93,703.36,712.36,714.04,708.68,713.08,706.78,712.07,712.17,717.47,708.17,711.2,713.06,718.95,706.22,709.18,710.97,712.89,711.23,714.26,715.69,711.71,707.22,716.15,704.6,717.22,716.36,702.08,713.14,713.65,708.3,714.75,709,706.66,707.09,707.99,712.45,710.86,712.22,709.2,713.14,709.73,714.33,711.23,701.65,713.76
728.93,731.23,734.22,730.52,737.38,738.41,741.49,728.14,736.33,729.22,736.59,740.21,731.8,737.23,730.77,733.47,730.28,720.72,741.12,730.56,736.99,736.36,738.6,724.36,735.39,733.61,737.96,743.69,737.96,738.42,735.03,741.71,735.57,743.74,739.63,742.22,732.89,737.48,738.59,732.93,737.21,735.91,732.84,734.76,735.57,741.18,725.95,740.44,733.14,732.28,728.97,738,728.5,743.06,737.76,734.91,734.73,725.66,736.2,724.45,736.61,733.08,736.67,743.33,733.33,735.46,737.67,735.19,735.42,734.14,728.2,732.09,730.76,728.72,728.15,735.92,725.3,739.16,727.2,733.44,735.1,724.32,730.74,734.26,736.03,742.12,727.44,721.4,729.07,733.38,727.09,733.37,732.81,730.77,733.33,731.7,722.91,738.23,731.72,733.4
757.61,755.47,758.52,757.41,759.77,759.37,768.46,755.57,758.84,756.81,760.74,762.58,754.32,762.04,756.74,764.5,755.08,750.01,762.81,752.28,760.35,763.74,765.71,748.22,760.42,758.42,762.35,766.3,759.23,768.18,760.59,772.42,758.56,768.37,762.14,767.61,751.86,761.02,761.5,761.38,760.37,755.89,756.25,756.92,762.09,765.1,750.62,768.28,758.94,758.72,753.03,761.4,755.86,768.09,760.13,759.26,757.58,752.57,761.73,751.95,761.16,757.34,759.08,764.57,756.31,758.54,759.27,758.85,759.11,757.62,752.66,757.11,753.42,757.03,756.01,760.96,753.53,760.11,750.74,756.11,762.36,751.8,759.36,766.76,758.34,765.25,753.4,749.41,751.85,754.62,749.2,755.9,757.93,756.02,765.99,757.25,755.46,763.35,753.11,762.33
2617.9,2609.4,2602.2,2630.5,2634.8,2626.3,2614.7,2622.4,2605.3,2611.2,2610.6,2595.7,2624.3,2602.8,2616.2,2616.7,2622,2626.3,2616.6,2606.4,2623.5,2619.2,2622.7,2612,2600.7,2646.4,2625.9,2649.9,2613.4,2608.2,2636.7,2609.1,2616.4,2608.3,2599.5,2603.7,2636.1,2630.1,2612.8,2597.3,2620.9,2623.7,2633.1,2605.8,2640.4,2603.2,2649.5,2601.5,2625.7,2606.4,2612.2,2618.5,2619.8,2612.4,2616.8,2614.1,2614.5,2604.6,2637.9,2624.2,2608,2655.6,2600.6,2629.5,2597.1,2611.5,2609.8,2615.7,2631.8,2595.6,2608.2,2619.5,2599.1,2623.4,2606.6,2605.7,2603.5,2629.8,2628.3,2598.4,2637,2646.2,2616.5,2632.1,2617.7,2607.1,2602.8,2606.6,2602.6,2606.9,2630.1,2634.1,2644.5,2640.2,2635.8,2629,2596.2,2627.3,2605.6,2638.9
2626.3,2657.4,2649.5,2634,2644.6,2649,2636.2,2651.1,2659.7,2616.8,2657,2624.5,2651,2644.3,2641.4,2646.6,2640.2,2628.6,2658.8,2620.9,2633.8,2630,2636.1,2655.7,2654,2652,2630.9,2666.7,2655,2633,2648.6,2659.5,2663,2633.4,2651.5,2613,2636.7,2649.7,2654.2,2610.6,2632.7,2641.7,2658.2,2616,2648.5,2615.8,2659.4,2664,2639.4,2654.2,2635.3,2629.1,2620.6,2631.2,2621.6,2659.3,2656.2,2660.5,2663.5,2633.6,2619.5,2656.7,2622.2,2649.6,2629,2613.6,2628.9,2649.6,2633.8,2641.4,2608.5,2621.3,2606.3,2651.1,2631.2,2652.5,2660.3,2652.8,2657,2617.2,2647.9,2651.6,2631.8,2660.4,2618.8,2631.6,2664.4,2624,2634.2,2630.5,2644.4,2658.8,2652.3,2644.8,2641.4,2650.5,2611.3,2650.3,2657.1,2653
2727,2722,2715.5,2669.3,2703.1,2681.7,2711.1,2689.4,2673,2702.5,2685.7,2717.7,2716.5,2700.4,2693.7,2718.8,2710.5,2706.5,2691.7,2713.4,2712.8,2696.8,2715,2713.6,2692.4,2679.4,2683.7,2710,2726.9,2708.8,2669.7,2683.6,2721.6,2682.9,2696.6,2700.2,2675.4,2726.7,2726.1,2690.4,2667.5,2724.4,2674.2,2730.7,2689,2716.1,2708.6,2671.2,2713.3,2695,2720.8,2716.9,2679.9,2696,2673.3,2719.6,2678.4,2715.6,2706.7,2728.5,2679.2,2718.8,2708.1,2700,2692,2723.7,2681.7,2682.9,2711.1,2730.7,2704.9,2728.2,2687.8,2723.8,2718.6,2723.2,2669.8,2707.5,2673.8,2678.3,2690.1,2685.8,2684.3,2709.3,2680.2,2728.1,2710.8,2679.2,2712.4,2683.2,2698.4,2676.8,2701.6,2698.1,2727.7,2669.7,2689.6,2718.4,2709.4,2696.7
3477,3465.1,3452.5,3427.7,3459.9,3438.5,3443.9,3415.1,3455.4,3452.5,3458,3443.1,3479.4,3467.7,3427.6,3446.1,3478.6,3455.3,3459.3,3411.8,3438.8,3471.1,3429.4,3477.7,3404.2,3455.6,3406.4,3464.5,3464.1,3433.2,3429.7,3438.9,3483,3419.4,3443.3,3443.3,3427.5,3453.3,3415.2,3410.9,3473.7,3477.7,3457.6,3443.7,3407,3469.6,3411.9,3441.4,3458,3416.3,3472.6,3472.9,3448.1,3456.9,3449.1,3437.5,3433.7,3422.5,3449.3,3435.7,3427.1,3473.3,3468.4,3441.4,3431.2,3475.9,3422.8,3477.3,3444.8,3438.6,3425.5,3433.9,3438.3,3472.7,3421,3408.5,3417.5,3484.9,3468.8,3478,3463.8,3469.1,3448.4,3479.5,3438.4,3449.8,3424.6,3422,3471.1,3449.8,3466.4,3441.5,3431.9,3408.3,3438.9,3456,3474.1,3408.4,3465.2,3459.9
