18.485,18.514,38.865,69.764,75.434,95.11,108.98,135.51,142.06,169.5,174.2,209.63,217.14,228.69,231.33,247.82,252.36,252.83,267.24,278.02,301.2,305.3,341.42,351.22,380.5,388.62,399.2,430.33,434.73,448.01,456.82,467.18,475.16,478.1,483.35,489.48,503.19,520.75,549.06,553.23,558.27,564.82,569.08,571.15,584.41,587.45,606.01,613.86,618.7,622.19,631.69,637.82,657.17,660.53,668.08,692.56,694.91,711.24,737.57,763.31,2635.9,2640.3,2647.3,3465.4,si
18.288,18.408,38.776,69.66199999999999,75.312,94.461,108.28,135.76,142.59,168.54,172.21,209.7,215.13,225.34,229.12,246.07,247.57,250.39,269.51,280.39,300.83,301.89,344.69,348.83,380.67,388.02,397.12,428.25,429.23,443.97,455.22,465.67,473.86,476.73,477.8,489.29,500.12,521.24,543.34,547.95,553.15,558.36,561.09,575.04,578.66,581.52,601.25,611.17,615.89,620.56,623.83,636.19,653.09,660.63,667.54,681.8,695.08,706.87,735.95,758.62,2604.3,2638.1,2658.1,3489.1,si
18.381,18.687,38.972,70.084,76.09,95.824,108.7,136.36,143.81,169.05,173.92,208.18,216.63,226.22,230.24,249.12,250.2,252.41,268.39,280.49,302.32,305.88,341.27,352.5,380.87,388.59,397.08,428.49,430.3,443.22,453.51,460.4,472.23,473.72,486.97,487.63,498.41,517.69,534.96,550.07,552.84,555.56,560.41,567.35,572.05,579.86,604.57,607.56,618.27,621.35,627.45,631.16,657.76,662.71,666.34,700.82,702.46,717.07,742.36,774.5,2613.3,2614.8,2640.8,3532.0,si
18.53,18.629,39.12300000000001,70.241,75.852,95.473,109.58,136.59,142.28,169.02,172.97,211.17,216.98,229.41,233.45,248.0,249.77,253.28,270.73,281.91,302.33,305.81,347.72,351.89,378.05,388.93,399.49,427.61,429.37,446.8,461.38,466.62,473.16,474.28,480.94,488.77,506.02,521.65,537.71,539.48,561.84,563.32,568.91,573.53,582.72,584.76,605.48,611.33,616.22,620.78,626.49,641.18,657.72,663.38,669.65,694.21,695.53,716.98,740.57,763.02,2616.7,2651.8,2657.1,3501.6,si
18.74,18.913,39.259,70.006,76.344,96.067,109.54,136.08,143.61,166.29,173.04,212.0,218.47,229.54,232.27,250.38,251.43,253.54,271.27,284.05,301.54,307.86,346.66,356.08,382.09,383.52,397.87,430.0,433.85,444.26,460.2,466.99,473.79,478.57,483.09,485.83,505.01,516.09,544.13,552.14,561.38,566.77,571.95,575.25,580.92,584.22,603.38,616.03,623.01,629.0,633.36,640.46,656.62,664.82,666.67,679.88,703.25,717.88,730.2,757.14,2618.2,2655.0,2660.7,3518.2,si
18.447,18.697,38.978,70.266,75.241,95.306,108.83,135.07,143.67,166.03,171.3,210.49,215.83,228.04,231.11,248.45,249.11,251.29,267.47,280.46,298.99,302.89,341.23,350.85,379.16,384.88,397.81,430.26,435.02,448.15,455.76,466.94,472.85,481.63,483.15,487.15,506.21,514.41,540.9,554.9,557.32,558.58,567.07,575.86,581.67,587.79,604.56,610.44,612.65,619.84,631.07,638.15,646.37,654.98,664.48,682.63,685.21,708.03,737.32,758.44,2613.3,2637.6,2651.0,3458.3,si
18.44,18.767,39.021,69.655,75.704,95.18,109.35,136.54,142.99,169.44,174.38,210.21,218.04,230.09,234.58,249.2,251.45,254.52,272.91,281.68,301.15,309.01,345.21,353.12,381.71,383.69,401.32,430.06,438.42,448.46,450.26,469.0,473.46,477.15,479.29,483.72,506.88,514.89,541.15,554.7,559.19,566.36,572.66,576.88,580.1,583.9,607.37,617.09,618.39,626.63,633.57,644.83,660.99,662.98,664.72,682.48,697.85,715.65,734.4,760.62,2599.8,2626.9,2639.9,3490.2,si
18.316,18.551,39.108,69.753,75.589,95.092,109.79,135.84,142.51,169.14,174.82,211.26,219.46,230.36,235.56,249.72,251.45,254.91,274.34,280.75,302.23,306.95,346.66,353.81,382.69,388.01,401.17,430.53,438.36,453.74,458.14,473.91,475.31,479.0,483.25,489.58,512.08,522.8,537.17,549.0,560.61,565.68,573.11,578.11,579.9,582.57,611.22,617.38,619.18,623.44,629.86,648.59,659.82,662.38,672.51,695.85,699.98,717.57,741.85,768.37,2623.3,2652.6,2674.9,3506.5,si
18.383,18.473,38.448,69.227,74.938,94.296,108.82,134.44,141.8,166.55,172.89,207.33,216.45,226.7,229.78,248.13,249.45,252.94,267.26,281.18,300.58,304.11,340.97,350.35,376.35,381.52,394.71,427.27,429.81,444.73,452.18,461.33,471.59,473.85,478.15,480.09,497.41,508.99,537.27,546.34,554.61,558.22,561.74,571.33,574.3,579.94,601.63,603.43,612.63,617.96,628.42,634.26,650.49,652.38,662.49,690.46,695.32,710.25,732.4,755.45,2633.0,2640.0,2670.4,3520.9,si
18.392,18.545,39.016,70.172,75.221,94.547,109.26,136.11,144.03,169.13,172.99,208.88,217.63,227.68,231.92,247.62,252.07,252.81,269.55,279.09,300.52,305.3,343.11,351.56,378.89,383.19,396.73,427.9,429.81,445.17,455.41,463.83,470.83,477.52,482.48,485.89,500.26,514.73,537.38,548.26,555.44,561.75,566.8,569.1,572.38,580.05,605.39,609.49,618.38,623.91,627.79,636.88,657.01,660.14,661.69,689.71,691.27,708.59,733.65,758.71,2621.6,2631.0,2650.9,3515.8,si
18.713,18.804,39.119,69.793,75.798,96.162,109.66,135.57,143.36,168.61,172.99,210.54,215.76,228.84,233.84,246.63,248.91,250.3,268.01,280.07,300.5,307.79,342.54,351.85,381.17,382.49,401.38,428.2,431.56,445.64,453.7,464.85,471.75,473.05,478.73,484.35,502.85,523.4,538.28,544.64,556.17,560.11,561.98,568.62,576.7,583.0,601.82,604.84,614.52,617.76,627.07,630.65,651.58,660.66,668.62,679.03,699.99,710.76,725.69,755.23,2630.6,2645.1,2663.4,3492.2,si
18.162,18.614,38.947,69.85600000000001,75.476,94.08,109.19,135.89,143.1,168.19,173.23,210.42,217.94,228.28,231.72,247.32,249.24,251.68,268.52,278.78,300.72,303.78,343.54,350.9,379.53,383.18,394.79,427.93,430.65,442.9,460.08,463.95,473.75,476.17,479.57,486.84,503.51,511.5,524.63,550.07,552.86,559.34,561.55,569.11,572.71,580.92,599.6,606.12,608.6,621.26,625.69,634.1,648.07,653.44,661.73,687.01,694.33,710.13,733.66,762.02,2619.4,2629.0,2631.3,3457.5,si
18.259,18.429,38.82,69.375,75.475,94.849,108.63,135.21,141.61,167.02,171.59,211.18,217.49,228.52,232.2,248.14,249.42,250.42,269.95,280.85,298.15,303.29,345.06,347.79,379.17,383.49,395.77,426.72,433.26,447.95,454.56,462.58,472.12,475.3,481.01,484.38,503.17,520.48,528.12,552.3,556.36,558.77,563.6,573.7,575.52,579.49,606.8,612.61,617.54,620.34,628.8,638.74,657.38,658.85,670.1,684.9,695.59,714.32,732.22,754.15,2606.5,2610.8,2668.9,3447.8,si
18.506,18.78,39.093,69.867,75.517,94.616,108.86,135.57,142.91,166.86,173.54,209.73,218.28,229.07,231.48,249.28,251.37,252.8,271.54,281.99,301.44,304.04,346.71,351.07,382.31,387.07,397.26,430.27,435.47,447.8,458.43,470.63,475.81,480.71,482.08,487.71,504.83,514.04,536.84,547.81,555.66,561.93,564.72,578.67,583.54,584.91,604.84,617.46,617.94,621.31,633.43,647.18,652.64,655.77,665.69,680.7,689.69,711.5,729.92,753.23,2616.8,2659.5,2663.4,3455.9,si
18.48,18.921,39.461,70.508,75.795,95.841,109.93,136.79,144.21,169.98,174.1,210.81,219.79,231.63,235.55,249.18,254.65,255.02,273.66,281.07,301.48,308.56,346.14,354.09,382.74,385.91,400.46,434.48,444.28,456.82,461.49,473.26,481.23,486.73,487.46,491.54,509.45,517.0,539.27,552.93,558.85,565.52,573.02,577.18,580.62,587.88,603.91,615.81,620.75,628.18,638.22,648.05,657.35,662.92,664.47,693.37,697.28,713.84,739.11,762.38,2620.6,2626.1,2641.6,3466.4,si
18.491,18.646,39.118,70.01899999999999,75.76100000000002,94.697,110.01,136.33,143.85,169.99,173.25,210.52,219.29,230.48,233.39,248.24,252.26,254.22,271.61,280.06,302.51,307.8,346.98,354.37,383.4,389.43,401.13,430.1,433.34,453.55,464.84,468.63,474.75,482.7,486.05,497.67,511.3,524.18,541.27,543.61,560.28,561.96,569.47,571.93,576.33,585.94,599.92,612.93,618.11,623.93,627.25,640.79,661.09,665.55,667.88,671.82,703.18,713.31,727.81,760.68,2613.1,2623.7,2661.4,3462.0,si
18.499,18.621,38.62,69.891,74.999,95.304,108.36,135.99,141.84,166.56,172.72,208.68,216.78,227.79,231.32,249.01,249.66,251.98,266.62,280.46,300.95,302.12,339.45,350.65,378.53,384.18,398.02,428.8,429.11,444.36,455.72,460.77,470.7,478.6,481.08,485.24,499.06,517.62,540.9,554.53,558.31,561.95,569.65,573.03,581.77,588.01,607.13,609.66,615.4,621.3,629.55,637.83,651.33,661.18,668.27,690.62,702.06,715.3,739.63,762.8,2612.0,2624.1,2638.3,3458.5,si
18.456,18.651,38.684,69.717,75.206,94.859,108.58,135.59,143.81,170.19,173.51,206.55,215.66,224.74,232.03,247.45,250.55,253.45,267.36,279.88,302.62,306.97,341.06,350.77,382.05,382.99,398.47,430.1,432.05,447.43,462.44,466.58,477.07,480.32,481.04,488.08,505.76,512.9,539.75,548.4,555.39,558.33,565.33,570.57,574.94,583.35,599.23,610.98,616.93,621.6,631.09,633.72,653.71,659.23,662.74,681.07,693.24,708.03,735.51,758.71,2627.6,2643.7,2668.6,3454.4,si
18.77,18.895,39.092,70.057,74.82600000000002,95.899,107.8,135.36,142.89,166.79,171.26,209.44,218.43,228.38,231.67,248.04,248.96,253.26,269.25,278.46,297.66,303.58,342.09,350.76,377.89,386.02,395.3,427.32,432.58,448.27,456.04,468.55,470.47,474.34,483.62,488.98,505.48,518.88,534.45,551.4,557.2,561.37,566.09,571.86,578.45,578.76,607.05,611.53,614.9,620.55,625.12,642.13,651.32,656.84,665.59,684.76,685.55,710.3,730.99,752.24,2617.6,2645.1,2645.9,3460.5,si
18.362,18.451,38.564,69.432,74.742,94.496,108.52,133.98,141.23,166.65,172.68,209.91,216.36,227.12,230.55,245.34,247.53,250.72,270.06,277.55,298.82,302.36,346.63,351.32,378.91,382.74,395.09,426.25,430.37,444.42,462.57,469.37,472.35,475.33,477.47,484.57,505.08,510.78,537.43,540.84,552.22,559.42,561.65,572.24,577.11,581.27,601.01,605.16,613.68,616.23,623.38,637.24,646.07,657.17,663.34,681.8,697.47,703.06,729.7,755.28,2620.5,2642.9,2660.1,3512.3,si
18.45,18.562,38.741,69.717,75.535,94.962,108.72,134.91,141.7,167.4,173.36,211.13,216.5,227.52,231.0,246.95,248.85,250.87,271.7,278.43,301.23,302.86,344.4,352.26,381.23,384.41,394.27,426.97,435.92,446.83,454.86,467.31,472.12,476.63,481.38,483.29,505.69,518.43,542.09,545.83,558.89,561.81,564.05,575.52,580.6,582.27,604.62,609.3,613.51,620.73,623.62,642.52,655.39,658.06,668.42,686.96,697.33,713.0,734.32,758.45,2635.9,2653.3,2661.5,3456.8,si
18.552,18.829,38.435,69.171,74.862,95.345,108.93,134.3,140.56,171.08,172.79,209.82,215.4,226.06,232.01,248.44,250.65,251.42,267.49,280.48,302.97,307.88,342.47,352.34,383.68,384.83,400.0,426.85,436.61,449.45,453.71,465.05,473.89,474.0,479.4,482.2,502.51,516.7,532.96,552.14,557.34,563.89,564.76,568.67,572.03,584.67,608.21,610.27,617.58,618.98,626.34,634.55,653.19,658.2,667.2,680.78,696.67,710.62,730.97,757.17,2618.4,2628.8,2658.7,3464.5,si
18.406,18.571,38.824,69.242,75.025,95.008,109.05,134.67,141.16,166.29,172.22,211.11,215.12,229.42,232.08,246.81,249.05,253.48,265.72,280.96,302.52,305.26,343.49,348.82,381.36,384.37,398.39,429.01,431.26,446.31,460.76,466.91,474.62,477.99,481.05,490.78,505.73,520.19,538.56,544.59,560.88,562.08,565.15,568.22,579.07,589.38,600.45,602.08,617.1,619.67,626.87,632.0,650.28,656.48,664.84,678.92,694.07,712.86,726.14,752.84,2601.0,2651.5,2668.0,3490.7,si
18.221,18.835,38.973,69.789,75.705,95.043,109.84,135.14,143.37,169.05,173.32,212.56,217.53,229.23,234.7,248.78,249.7,251.54,271.93,281.45,300.69,307.12,346.44,353.56,382.03,387.7,401.12,431.72,435.41,450.29,458.71,467.59,474.78,481.3,483.88,487.63,508.11,519.25,546.57,554.61,561.94,563.2,566.96,572.1,585.1,587.78,608.39,613.56,615.61,619.36,631.98,638.97,649.99,660.08,669.48,691.01,695.01,711.08,735.97,758.9,2611.6,2613.8,2643.9,3478.7,si
18.622,18.86,39.015,69.921,75.812,95.662,109.75,135.31,143.47,170.62,172.93,211.04,218.37,229.68,232.25,249.0,251.6,252.83,270.06,279.72,301.69,307.21,343.91,352.59,383.4,389.74,398.51,430.22,434.39,450.39,459.45,467.88,475.74,480.52,485.54,491.17,504.2,517.86,540.47,559.53,562.29,570.17,574.05,578.82,580.53,585.01,609.99,617.68,622.69,628.12,632.27,641.42,656.19,662.04,668.66,681.11,696.4,706.89,730.0,754.8,2609.7,2656.0,2678.4,3482.8,si
18.65,18.703,38.699,69.516,75.707,96.036,107.9,134.54,142.84,167.6,172.97,208.58,215.57,225.18,228.65,245.54,248.14,248.9,266.52,277.95,299.63,301.89,340.73,350.54,379.35,385.35,395.63,428.85,429.13,441.99,457.04,460.21,468.06,475.09,482.15,485.43,500.37,516.02,542.68,553.2,553.4,555.81,559.54,570.96,575.61,582.75,599.88,607.3,615.57,621.19,627.9,631.45,653.19,657.27,662.73,692.85,695.71,712.37,733.49,762.62,2642.7,2653.7,2655.4,3492.0,si
18.246,18.54,38.801,69.88,74.971,93.95,108.58,135.8,141.42,169.51,172.71,211.51,216.71,227.14,232.95,247.28,249.04,252.57,271.41,279.44,298.89,305.32,345.98,351.28,378.45,383.42,396.42,428.14,437.18,451.34,459.07,470.91,474.34,477.05,479.75,488.02,505.52,513.31,537.33,555.12,557.22,559.98,571.61,573.16,576.89,584.25,601.18,614.0,619.56,622.63,632.82,640.37,655.93,659.18,666.66,688.22,689.4,711.65,739.46,761.03,2612.1,2622.2,2644.5,3514.1,si
18.396,18.718,38.833,69.444,75.051,94.945,108.73,134.83,141.58,168.53,172.79,210.06,215.53,228.19,230.98,248.81,249.65,251.43,266.75,279.74,302.17,304.86,341.45,350.67,380.83,384.04,394.88,427.98,429.9,446.88,454.34,461.52,473.04,477.96,479.32,486.66,499.22,517.32,535.98,543.64,557.24,562.12,566.62,569.0,580.29,584.89,599.67,605.78,618.68,623.08,630.05,635.98,655.23,656.96,665.05,681.22,692.76,711.61,728.65,754.71,2630.2,2630.9,2631.2,3473.2,si
18.283,18.558,38.91,69.538,75.454,94.363,109.38,134.75,142.23,167.98,171.9,211.65,215.7,227.18,232.25,247.65,249.6,249.76,267.95,279.11,299.16,304.15,344.69,349.65,379.05,383.61,397.25,428.0,432.1,443.47,456.76,463.11,472.79,475.48,478.77,483.52,503.3,518.27,532.96,545.49,550.35,557.34,563.78,569.31,580.69,593.29,599.27,606.03,613.17,616.84,627.93,636.59,648.81,656.04,667.01,679.14,691.36,708.27,724.73,749.36,2596.7,2620.6,2647.4,3508.7,si
18.567,18.853,38.916,69.76100000000001,75.096,95.524,108.79,134.94,141.94,168.5,173.42,209.98,217.65,228.35,231.44,248.35,249.83,251.9,268.77,279.01,299.85,305.66,344.22,353.31,380.59,384.21,395.47,427.85,432.63,450.5,456.48,465.88,475.81,478.16,480.45,488.81,501.98,513.2,531.2,548.35,554.57,557.1,561.62,565.86,575.42,578.94,603.65,606.46,615.75,622.12,630.9,635.98,654.09,660.71,665.5,683.4,690.91,710.12,733.25,757.41,2636.3,2656.2,2667.4,3499.3,si
18.474,18.581,38.76,69.615,74.82,94.675,108.63,134.76,141.44,168.73,171.89,210.75,216.8,228.43,231.81,249.05,250.06,253.69,267.84,279.63,300.34,303.77,342.41,349.32,381.84,385.26,397.8,427.72,438.41,451.98,454.99,468.29,475.07,478.14,481.26,487.27,504.84,517.64,538.61,553.56,556.77,564.6,573.83,575.77,578.7,585.09,609.15,613.92,619.87,623.52,630.54,640.3,653.98,658.66,666.24,677.17,692.51,706.85,724.37,750.47,2604.7,2654.1,2664.3,3477.9,si
18.441,18.52,38.796,69.965,74.915,94.95,108.35,135.38,141.74,168.2,174.28,209.6,217.26,227.37,230.73,247.11,248.67,251.48,270.54,278.22,299.66,304.8,344.96,352.23,379.17,381.7,396.46,426.59,432.83,447.19,461.38,467.13,472.59,473.98,480.86,485.1,503.69,510.45,530.98,545.68,554.8,557.6,563.75,566.93,567.44,575.87,599.4,606.85,612.89,621.1,626.47,635.89,653.22,658.94,663.39,691.15,692.95,709.38,736.8,768.4,2618.9,2626.0,2656.0,3481.5,si
18.453,18.607,38.716,69.635,75.402,95.214,109.03,135.98,142.95,168.22,172.36,207.38,215.69,227.53,231.29,247.77,250.89,252.39,268.98,280.09,300.96,305.22,341.24,351.1,381.89,385.5,399.66,428.42,437.42,447.35,452.29,465.65,471.75,478.16,479.67,485.32,503.37,516.93,542.26,546.12,552.17,559.79,561.81,565.66,578.78,585.74,603.12,606.84,615.98,618.58,627.46,633.24,652.23,660.41,664.14,691.56,697.67,713.24,734.23,757.48,2648.6,2649.0,2658.8,3478.4,si
18.702,18.839,38.837,69.682,75.107,95.937,108.02,135.15,141.05,166.7,171.22,210.5,215.38,228.11,231.58,246.09,248.88,249.08,267.53,277.81,296.31,304.54,342.08,350.0,377.01,381.31,397.48,428.78,434.54,443.66,458.12,464.37,471.51,475.4,480.2,484.44,506.68,515.54,547.98,552.14,555.31,558.45,564.52,568.33,582.37,587.89,600.98,607.73,615.84,624.33,628.71,632.97,656.55,661.47,663.75,680.23,691.93,713.4,726.61,751.01,2611.5,2638.8,2667.0,3528.3,si
18.292,18.663,38.688,69.21,74.98100000000002,94.383,109.19,135.47,142.92,167.08,173.53,207.42,216.84,227.65,233.46,249.49,251.58,254.62,269.08,281.16,300.47,307.75,344.08,353.6,382.27,385.38,398.77,430.02,432.85,445.17,463.03,466.14,475.94,479.69,482.64,488.73,503.55,513.85,537.5,545.66,555.07,560.64,565.6,576.33,580.29,591.8,600.96,612.36,614.53,621.76,634.01,642.42,654.59,662.3,662.58,685.29,690.94,714.98,736.19,759.86,2605.8,2651.2,2679.8,3525.8,si
18.261,18.778,38.621,69.512,75.173,95.157,108.94,134.73,142.05,165.79,172.7,208.56,217.26,228.77,231.15,246.96,250.67,251.68,268.99,278.79,300.91,302.58,341.35,351.51,378.82,384.11,394.75,427.13,433.89,443.78,456.43,466.14,469.95,477.93,478.82,486.91,502.72,516.06,545.28,552.53,561.46,564.26,569.47,571.67,577.84,587.51,608.9,610.75,615.1,620.68,629.57,636.32,648.78,658.83,667.04,686.06,692.74,707.1,729.94,754.8,2633.3,2653.3,2656.5,3512.6,si
18.507,18.769,38.951,70.209,75.08,95.501,108.69,135.46,140.97,169.82,172.84,212.93,217.59,228.41,232.08,249.16,249.84,253.02,270.08,281.75,302.4,305.92,345.55,352.23,382.7,385.81,401.11,428.38,430.98,448.86,453.46,458.6,475.96,480.22,483.12,484.82,505.77,519.41,546.38,554.11,558.99,560.65,561.54,572.18,581.44,587.31,607.54,610.7,614.49,622.31,629.25,637.33,650.63,656.91,666.63,689.21,691.63,708.81,737.08,762.53,2600.2,2613.9,2652.8,3498.0,si
18.636,18.723,38.478,69.947,74.96,95.667,108.44,135.28,141.45,166.63,172.1,207.35,214.34,226.44,229.23,246.88,249.22,250.17,267.09,278.38,297.45,303.07,338.91,351.36,377.82,382.76,393.94,427.25,432.7,444.46,453.77,462.63,468.97,478.89,482.85,483.39,501.23,516.17,541.61,550.64,558.77,561.22,562.83,568.58,577.56,580.83,604.31,608.65,613.87,621.47,627.71,632.29,657.76,659.57,660.22,687.74,693.09,710.93,732.57,755.12,2606.8,2615.4,2657.7,3512.3,si
18.568,18.706,38.965,70.163,75.446,95.505,108.84,136.09,142.42,168.46,172.31,211.21,216.71,228.5,233.08,247.32,249.01,252.67,267.37,279.24,298.93,304.4,343.13,350.7,380.97,383.95,397.62,429.31,437.21,449.28,465.41,468.01,476.54,479.57,481.25,489.47,508.11,516.68,528.77,553.93,556.4,560.87,571.55,574.27,575.76,579.4,603.24,612.88,616.28,620.5,628.31,638.18,659.0,661.62,666.08,688.0,694.5,716.14,739.98,758.19,2625.0,2625.4,2650.5,3476.6,si
18.331,18.594,39.428,69.725,76.488,95.223,109.93,135.24,143.34,169.45,174.38,213.03,217.65,230.95,232.92,250.16,252.32,253.22,268.59,281.35,303.06,307.17,344.82,351.52,383.42,385.11,399.62,432.03,435.85,450.22,456.83,464.04,475.51,479.98,481.03,485.26,508.44,516.29,547.69,555.14,560.17,567.65,568.03,573.24,586.59,593.4,608.71,612.49,619.89,623.75,632.21,637.21,656.75,660.76,668.91,687.58,700.86,714.23,729.07,756.16,2632.9,2646.2,2653.4,3451.1,si
18.314,18.56,38.787,69.459,75.493,94.808,108.61,135.09,142.6,166.42,171.61,210.15,216.62,227.32,230.87,246.62,247.3,250.43,268.82,278.79,298.09,301.58,343.88,350.58,378.82,382.21,394.96,425.79,428.73,443.17,453.75,463.28,468.21,476.66,477.8,484.82,502.54,513.08,537.77,548.65,558.25,560.47,568.64,572.09,572.92,582.9,605.61,610.22,615.44,618.29,624.14,635.72,650.54,658.87,662.19,679.08,695.52,703.3,728.18,751.94,2622.0,2639.3,2660.0,3463.7,si
18.449,18.741,38.895,69.97399999999999,75.578,95.329,108.37,135.49,143.31,167.62,172.5,208.28,216.22,226.64,229.76,248.17,249.61,252.12,267.98,281.49,301.25,302.92,342.52,349.38,381.02,382.43,397.75,428.19,435.27,448.98,453.48,461.94,472.67,479.16,481.15,484.69,504.23,521.69,542.06,546.28,551.31,558.68,561.31,567.5,578.28,585.92,601.23,610.53,619.16,625.83,629.31,630.97,660.27,663.06,671.36,678.31,696.6,718.91,731.59,756.2,2603.3,2616.9,2651.6,3523.6,si
18.386,18.444000000000006,38.904,69.737,75.373,94.292,108.83,134.73,142.43,169.98,172.64,211.55,215.56,225.98,230.59,247.38,248.77,250.74,264.7,279.46,301.83,303.84,341.86,347.72,376.1,382.6,397.59,425.49,427.11,447.51,459.9,465.61,474.41,475.16,479.26,486.38,505.26,513.64,528.21,552.07,553.54,555.32,560.6,569.57,575.39,576.75,600.39,601.9,615.94,619.11,628.15,630.72,649.01,654.64,661.12,682.28,692.14,704.86,728.76,752.28,2624.3,2631.5,2646.0,3480.6,si
18.429,18.731,38.781,69.069,75.17699999999998,95.106,108.79,134.51,141.86,167.32,173.18,208.43,216.87,228.15,231.4,246.4,250.96,251.43,268.74,277.95,298.81,304.15,341.74,350.48,379.97,382.42,393.91,428.52,434.34,450.94,456.21,467.31,472.1,472.93,477.88,483.46,505.25,516.74,535.59,552.27,554.55,560.1,565.33,566.92,576.22,595.49,604.48,609.94,617.85,622.27,631.36,637.68,650.61,656.85,661.32,680.68,691.58,705.63,726.58,752.21,2604.6,2618.7,2634.1,3525.0,si
18.569,18.879,39.105,69.931,75.827,95.289,110.05,136.17,142.93,168.24,174.14,211.09,217.03,230.77,233.99,246.63,252.46,252.87,267.17,278.68,298.91,307.5,342.51,354.74,381.76,384.83,398.41,430.69,436.27,447.63,456.21,464.35,474.89,479.43,481.89,484.54,505.14,516.87,542.82,551.17,561.86,563.72,569.2,572.38,581.19,583.61,607.06,608.01,618.14,621.63,630.0,635.69,651.92,659.99,665.47,680.82,698.48,708.06,727.86,755.78,2603.9,2619.8,2639.3,3488.9,si
18.554,18.765,39.259,70.033,75.777,95.391,109.64,136.32,144.74,169.15,174.51,209.63,217.72,229.47,232.8,248.77,251.59,252.16,271.63,280.0,302.84,306.11,344.54,352.32,380.36,381.97,397.95,431.52,432.36,445.68,455.15,469.07,470.22,475.9,480.52,486.77,504.11,514.04,551.54,557.52,562.44,565.76,576.93,579.52,587.07,591.05,608.83,613.7,622.7,631.1,641.46,644.27,658.57,671.09,673.17,691.4,700.91,720.94,744.08,767.49,2641.8,2655.4,2656.9,3449.9,si
18.663,19.013,39.198,70.391,75.293,96.256,108.74,135.64,142.92,168.43,172.85,210.86,217.03,229.28,232.46,248.55,250.76,251.2,269.41,280.63,301.47,304.36,344.16,351.54,380.57,386.55,399.09,428.37,433.34,446.09,456.32,467.73,471.68,477.34,483.84,486.46,502.34,522.49,534.91,549.67,559.16,560.02,570.89,574.24,579.88,583.13,606.83,610.7,615.62,623.72,628.26,640.44,654.0,657.96,664.74,687.49,693.41,707.99,731.8,756.73,2646.5,2661.3,2674.9,3503.2,si
18.376,18.466,38.722,69.085,74.90100000000002,94.563,107.85,134.11,141.5,168.89,172.78,207.96,218.14,226.3,231.8,249.35,251.92,253.26,270.76,280.43,302.92,304.55,344.31,348.58,380.06,385.97,396.22,425.56,429.23,443.64,453.33,470.03,471.68,477.61,484.11,488.4,504.07,518.24,540.53,549.03,555.07,561.18,567.78,578.23,582.45,582.57,612.44,616.44,617.99,621.96,632.83,645.21,650.81,659.77,667.44,679.93,690.78,707.68,726.42,751.5,2621.9,2623.6,2626.8,3480.4,si
18.321,18.455,38.891,69.433,75.811,94.438,108.86,135.18,142.8,170.08,172.65,209.47,216.0,228.42,231.85,248.86,250.15,252.67,267.98,279.82,300.71,307.18,342.57,349.9,378.24,382.16,398.66,428.48,439.59,449.39,460.95,465.42,472.74,475.71,480.28,484.58,505.87,509.45,545.8,549.38,552.75,561.45,563.59,570.56,580.83,582.1,603.29,605.62,614.96,621.05,632.19,632.75,650.77,658.67,665.39,683.11,694.75,710.98,733.14,758.22,2612.8,2631.0,2650.5,3481.7,si
18.352,18.555,38.661,69.65899999999999,74.721,94.411,108.61,135.51,142.27,167.88,172.24,209.71,217.5,226.21,232.46,246.47,248.68,251.38,269.9,279.9,298.33,303.36,344.63,349.82,381.12,384.12,398.62,429.48,438.13,452.48,466.98,468.27,477.68,479.3,483.2,491.44,508.23,513.3,548.69,557.01,561.38,562.69,564.31,577.53,581.57,586.72,602.56,612.64,617.18,625.71,633.7,637.88,654.3,659.15,664.13,686.51,690.7,711.14,732.88,755.46,2605.2,2615.1,2642.8,3467.1,si
18.55,18.681,38.99800000000001,69.919,75.248,95.595,108.16,135.9,143.02,166.5,172.74,209.6,216.64,227.15,229.86,246.36,249.01,251.39,266.47,278.75,298.63,300.16,343.32,350.12,380.72,381.39,394.71,429.53,431.48,444.58,453.25,463.22,476.18,479.44,483.87,486.26,500.04,516.18,538.05,548.69,553.61,556.49,569.16,571.66,574.55,581.1,601.71,612.53,613.93,618.33,628.82,635.36,646.17,651.3,659.62,687.29,696.75,710.21,728.22,765.92,2606.1,2618.1,2665.5,3508.0,si
18.288.1,18.455,38.823,69.26,75.635,94.135,109.52,134.67,143.92,167.01,171.83,210.31,217.26,229.03,232.03,248.56,249.4,251.89,271.42,280.75,300.25,305.1,344.67,351.54,378.56,383.46,396.83,426.67,430.65,444.4,454.28,467.6,468.17,474.92,477.68,483.82,503.18,509.99,542.93,549.65,559.08,562.17,569.36,579.3,581.03,585.46,606.95,612.36,615.9,621.01,625.85,643.53,650.61,654.66,664.37,683.2,694.75,708.52,726.3,751.74,2618.1,2618.6,2649.7,3519.6,si
18.571,18.723,38.861,70.257,75.35,95.659,108.82,136.14,142.66,169.28,171.86,210.83,217.76,228.85,232.55,249.21,251.3,253.52,269.13,283.28,303.03,305.47,346.3,350.9,380.48,383.85,401.26,430.05,433.88,450.22,460.96,469.94,474.52,480.98,482.73,489.32,506.85,519.49,550.88,558.82,565.53,566.53,575.53,584.36,588.25,590.14,613.49,619.13,624.12,627.51,633.67,645.59,658.79,664.23,671.36,686.5,699.51,718.99,733.85,758.42,2616.6,2632.4,2659.6,3481.1,si
18.387,18.625,38.981,70.031,74.623,94.735,108.19,135.82,141.61,166.62,171.73,210.21,215.53,228.99,231.42,246.56,248.95,250.02,268.78,279.34,298.7,303.47,342.69,348.07,376.62,385.84,397.25,423.2,428.52,438.88,453.35,462.67,468.09,474.23,479.57,485.93,498.05,518.77,538.0,546.46,556.09,558.61,564.72,568.28,577.04,579.98,595.71,605.75,612.93,621.69,628.07,636.29,649.74,658.51,664.78,683.29,689.91,712.46,735.33,755.95,2621.3,2624.9,2676.1,3494.5,si
18.638,18.75,38.916,70.428,75.318,95.619,109.62,135.91,142.42,170.33,173.93,211.3,217.83,228.36,234.03,247.75,249.14,253.72,269.88,278.52,300.25,307.23,344.09,353.91,379.77,384.5,398.97,428.88,435.79,450.07,458.99,470.97,475.16,478.16,483.32,487.61,506.7,520.98,538.02,553.84,561.45,565.43,571.08,573.12,576.45,583.17,608.56,614.2,619.23,624.55,629.67,640.5,661.57,665.88,668.27,691.73,694.23,713.89,739.31,760.24,2616.1,2636.8,2650.2,3467.4,si
18.522,18.827,38.79,69.71,74.95100000000002,96.152,108.05,135.41,140.72,166.7,172.77,210.67,216.76,229.46,232.82,247.53,250.73,252.25,270.61,281.89,300.62,303.97,344.83,351.05,378.18,382.34,396.67,429.14,434.13,448.07,453.36,468.77,475.82,478.37,482.33,484.67,505.85,519.13,538.65,552.58,557.58,562.06,569.08,580.01,580.98,590.01,606.48,616.48,618.23,621.19,633.89,642.21,650.94,657.89,669.19,690.38,693.93,713.39,731.58,757.9,2608.8,2619.8,2639.0,3451.3,si
18.474.1,18.724,39.169,69.30199999999999,75.003,95.547,108.96,136.15,143.88,167.56,173.52,209.69,219.56,230.18,235.12,248.74,251.68,255.31,271.92,281.72,300.65,307.04,347.25,354.07,383.36,384.57,398.84,432.09,434.19,449.02,460.27,467.39,478.12,482.13,482.76,488.67,506.16,515.6,534.84,552.24,557.92,560.51,565.16,570.35,578.36,595.68,605.46,616.84,620.78,623.63,638.88,647.36,652.0,659.46,666.01,691.73,692.29,711.94,731.95,760.49,2629.8,2652.6,2662.1,3522.5,si
18.371,18.896,38.96,69.95,75.457,95.888,109.3,135.14,142.81,168.19,173.82,209.74,216.2,229.21,232.13,247.92,249.97,251.38,270.05,279.05,300.92,306.73,342.78,352.92,380.97,384.1,395.2,430.48,434.71,449.62,460.31,472.51,473.17,478.62,482.66,491.36,507.1,509.76,543.75,547.4,561.86,564.15,567.29,574.9,577.38,582.59,601.26,607.51,617.92,629.49,632.19,638.29,652.26,660.85,666.0,694.68,703.07,711.84,740.91,768.46,2622.0,2635.7,2658.2,3464.4,si
18.461,18.532,38.907,69.627,75.532,94.932,109.45,135.4,143.08,168.69,172.6,209.43,217.72,228.69,232.42,246.3,249.82,252.51,269.47,278.15,299.31,304.99,342.9,352.34,377.88,382.73,397.29,425.87,430.66,443.27,455.24,466.77,468.59,476.95,480.32,483.4,501.12,511.36,528.45,552.44,556.85,562.37,567.41,572.51,575.82,579.26,604.54,611.34,618.08,621.07,626.69,639.15,655.46,659.23,662.59,680.37,696.77,705.45,728.78,753.7,2622.7,2637.8,2668.4,3501.8,si
18.435,18.503,38.658,70.219,74.829,94.769,107.99,135.58,140.88,168.7,172.77,210.45,216.66,227.74,230.74,248.62,249.94,253.45,270.22,280.93,302.81,303.98,344.33,351.11,376.29,385.98,399.8,428.19,429.53,448.2,450.42,464.55,468.23,472.58,481.42,486.37,503.66,519.34,548.12,551.28,558.42,561.38,563.44,569.97,581.22,589.26,607.76,610.08,619.31,621.45,633.11,636.6,656.88,664.59,668.51,691.07,693.4,715.34,742.24,764.04,2622.0,2624.2,2660.0,3521.6,si
18.557,18.984,38.951,70.045,75.204,96.259,109.52,135.27,142.75,168.14,175.29,210.83,217.86,230.66,233.05,251.16,251.91,253.86,270.22,282.51,304.05,306.35,343.3,355.85,382.31,388.81,397.74,431.63,434.68,445.23,459.13,466.91,475.4,481.06,488.2,488.91,507.3,523.19,540.73,554.55,560.3,565.63,572.98,575.98,587.43,588.68,610.75,619.67,621.2,629.85,634.87,645.08,656.07,665.67,672.95,693.04,699.75,717.15,740.61,766.13,2607.7,2617.8,2621.0,3455.0,si
18.35,18.438,39.101,69.685,75.288,95.134,108.12,135.26,142.37,167.46,172.32,209.67,218.27,228.57,232.62,247.6,252.45,254.22,269.5,281.35,300.72,303.95,345.63,349.91,380.31,385.0,398.55,430.22,431.47,446.79,461.67,463.74,474.67,480.81,482.26,487.3,504.85,516.46,527.03,540.53,553.42,556.48,565.54,566.39,576.91,584.73,605.55,607.2,614.62,620.18,634.56,638.7,649.83,657.36,665.05,687.94,691.01,707.24,729.42,755.41,2634.1,2650.9,2653.7,3492.3,si
18.682,18.779,39.374,70.443,76.247,95.195,110.41,137.12,144.84,168.8,174.28,211.15,217.96,231.26,235.66,251.16,252.14,253.73,269.71,283.0,303.63,309.0,344.35,357.02,384.21,384.97,400.6,433.41,438.29,451.27,459.4,471.68,474.9,482.97,484.51,487.02,507.03,521.06,534.86,538.37,561.95,565.74,569.33,580.66,582.56,586.2,593.57,608.14,619.9,627.45,636.4,646.94,658.69,665.63,668.43,682.57,697.28,718.52,734.91,761.07,2624.9,2626.7,2664.9,3518.7,si
18.277,18.694000000000006,38.458,69.944,74.304,94.939,107.99,133.91,140.4,169.09,170.96,209.79,216.01,226.33,230.62,248.75,252.5,253.49,269.35,282.55,303.13,305.47,342.52,349.55,377.91,383.0,399.35,428.77,437.77,453.67,456.6,468.47,473.79,479.16,483.03,484.16,507.7,517.35,545.92,553.85,557.98,562.31,567.2,573.22,583.99,591.07,609.81,612.42,615.94,620.84,634.44,640.73,652.2,658.31,666.17,687.78,688.73,712.34,742.41,757.7,2620.1,2632.6,2647.7,3499.7,si
18.366,18.55,38.807,69.609,74.90100000000002,94.628,108.98,134.73,142.48,166.16,173.21,207.97,214.78,227.19,230.39,245.17,247.47,251.31,267.11,277.11,297.71,302.5,340.43,351.43,377.04,385.32,395.15,426.55,429.32,441.55,452.89,461.73,466.08,474.17,479.82,483.52,499.59,510.22,531.51,537.87,552.54,557.63,564.2,566.07,575.13,586.35,594.6,604.71,616.92,618.65,626.95,634.74,647.98,651.55,663.54,686.7,689.63,707.02,733.2,760.52,2611.3,2643.0,2645.3,3525.1,si
18.506.1,18.596,39.29,69.781,75.517,94.243,109.78,135.8,143.37,169.64,171.85,211.01,218.38,230.88,234.7,248.61,252.36,254.47,269.94,281.8,300.06,308.14,346.41,351.86,383.34,386.16,397.56,429.71,432.18,453.4,462.95,468.99,480.68,481.54,483.38,487.8,503.9,512.5,521.35,550.41,550.99,559.68,567.62,571.19,576.31,580.55,601.7,611.59,616.95,619.08,627.73,640.78,650.41,655.41,662.52,677.1,689.29,704.38,724.24,749.29,2644.8,2653.3,2656.7,3458.0,si
18.661,18.777,38.702,69.733,74.5,95.4,108.46,134.55,140.71,168.24,172.53,211.14,217.27,227.37,231.49,248.53,249.48,252.02,268.6,279.25,299.64,305.28,343.62,352.19,380.81,382.85,397.58,427.91,434.7,448.13,452.76,460.55,474.34,477.02,478.52,483.41,503.05,515.07,534.02,547.25,554.27,556.87,559.8,571.97,574.42,578.0,602.86,607.38,619.53,623.82,627.68,633.67,652.94,659.05,664.01,684.56,686.9,710.04,731.91,753.45,2616.1,2647.2,2665.5,3501.6,si
18.581,18.702,39.224,70.569,76.064,95.887,109.98,136.96,144.17,169.86,175.93,212.95,218.1,230.09,232.85,249.99,251.2,253.85,271.77,282.08,303.1,307.26,347.39,356.88,385.89,387.93,399.56,434.8,439.9,451.48,461.59,466.91,478.32,482.89,484.34,490.43,510.79,521.17,545.61,551.46,554.51,558.23,564.38,569.67,584.25,592.07,605.37,612.85,620.5,628.04,633.1,638.58,657.8,665.69,672.13,696.9,704.24,716.8,745.26,773.78,2644.6,2660.9,2675.4,3514.0,si
18.449.1,18.52,38.927,69.33800000000001,75.294,94.778,109.11,135.33,142.47,168.69,172.46,210.66,216.27,228.62,231.67,246.81,249.69,250.01,268.97,278.13,298.92,304.4,343.36,349.72,377.4,382.03,395.9,424.76,427.73,440.4,456.07,463.12,468.83,476.58,483.18,485.8,499.37,513.27,546.44,555.78,560.88,563.12,572.23,580.35,587.03,591.25,606.49,614.49,619.83,623.11,630.57,645.19,652.56,657.86,664.1,687.33,692.55,708.27,728.92,755.49,2605.1,2653.9,2660.5,3521.8,si
18.241,18.593,38.823,69.208,74.851,93.885,108.5,134.24,141.88,168.36,171.46,209.69,216.86,228.02,231.18,247.6,249.42,250.07,267.98,278.44,300.27,304.58,342.53,348.23,380.42,383.73,395.67,425.52,428.2,442.43,457.86,461.54,474.17,475.36,476.61,485.02,502.19,508.14,535.18,546.75,555.86,559.46,565.51,570.54,575.49,580.58,602.13,605.23,611.92,616.21,629.44,634.22,649.64,655.42,666.27,682.7,687.66,705.77,729.53,751.97,2628.4,2651.0,2671.7,3508.7,si
18.294,18.763,38.619,69.815,74.229,94.924,108.44,135.15,141.03,168.05,172.49,210.38,217.5,228.03,231.36,248.85,250.44,252.72,270.27,281.3,301.34,303.92,346.56,349.67,380.27,383.13,398.3,429.01,435.47,450.35,460.72,468.29,477.01,478.4,482.28,489.04,505.14,515.78,540.08,554.95,559.57,563.69,566.41,572.52,582.43,586.46,606.09,615.34,623.81,629.96,636.91,639.6,659.36,662.05,666.6,691.56,692.1,714.75,734.77,756.63,2622.0,2629.3,2650.2,3526.1,si
18.584,18.884,39.118,69.766,74.813,95.917,109.18,135.66,143.08,168.52,174.3,209.46,217.84,230.48,233.16,245.36,252.06,252.3,269.51,278.29,300.18,305.66,344.89,351.61,382.45,383.8,398.93,431.07,436.33,452.64,462.42,468.61,476.83,480.16,482.8,488.2,507.38,519.71,536.32,550.7,558.25,559.56,566.19,570.26,573.5,578.88,602.43,612.62,620.03,623.78,631.14,636.14,654.83,656.13,660.73,688.22,689.79,706.37,730.21,759.88,2606.6,2616.9,2649.3,3502.2,si
18.51,18.65,38.91,69.999,75.6,95.562,109.13,135.56,142.9,167.56,172.84,208.36,215.54,227.89,231.19,248.03,250.1,251.12,268.38,279.75,301.22,304.63,339.63,351.83,379.73,385.03,394.19,422.83,428.24,437.64,446.12,461.07,468.56,474.33,481.13,483.52,496.35,520.07,534.98,545.04,556.78,559.51,563.86,569.04,573.31,579.32,603.19,604.29,617.22,623.0,626.82,633.67,656.42,661.33,668.85,689.54,698.16,714.1,737.15,759.59,2623.1,2642.9,2677.0,3492.4,si
18.411,18.635,38.99800000000001,69.673,75.554,94.983,109.06,134.96,142.45,168.0,172.24,211.65,216.66,227.59,230.79,246.54,249.24,250.15,269.45,279.04,297.93,305.09,345.78,350.61,381.73,384.05,395.51,426.64,429.14,443.25,449.18,458.9,471.15,475.63,476.86,485.45,500.93,516.1,529.53,547.08,552.7,557.25,558.48,565.97,572.36,577.64,603.47,613.57,620.81,626.35,629.13,635.13,655.57,661.08,663.56,684.4,695.37,707.57,727.26,753.15,2606.7,2626.3,2640.4,3480.6,si
18.622.1,18.935,39.127,70.236,76.178,96.04,109.76,136.7,144.18,170.16,173.9,210.47,215.77,229.02,232.49,246.73,250.51,251.01,272.55,282.45,303.39,307.71,344.41,352.58,382.92,385.91,398.94,430.63,433.63,445.18,454.58,465.49,470.05,476.46,478.51,486.79,505.31,520.24,537.9,551.88,559.69,562.94,565.9,572.2,582.89,586.01,601.66,614.77,619.83,627.99,631.87,637.17,658.42,663.68,670.49,690.19,705.57,712.96,733.61,762.34,2630.8,2632.0,2653.8,3465.5,si
18.711,18.829,38.892,70.259,75.699,95.883,109.42,136.5,142.87,169.56,173.4,211.14,217.81,228.15,231.37,247.54,248.83,251.73,268.54,279.6,299.7,306.29,345.09,353.54,379.33,386.58,395.38,426.93,429.05,443.82,462.98,465.76,474.78,476.87,480.63,488.82,502.76,524.37,529.94,553.22,558.02,566.21,568.91,572.86,574.56,582.95,609.11,614.95,617.38,625.06,629.25,637.05,660.55,664.89,675.45,682.94,698.1,716.42,734.29,758.6,2631.0,2646.8,2676.8,3519.1,si
18.342,18.679,38.703,69.665,74.805,95.21,108.08,135.17,140.48,170.17,171.52,211.0,216.92,227.68,231.56,248.44,249.71,251.19,268.86,278.82,297.95,306.52,344.25,348.86,380.97,389.83,401.24,426.89,430.16,446.22,456.12,461.95,474.69,477.58,479.02,492.39,502.08,528.71,549.74,557.66,562.14,565.14,570.43,572.78,587.28,591.01,611.85,613.51,615.56,624.89,630.5,637.62,661.05,668.49,672.43,688.68,692.05,715.98,738.92,760.16,2620.0,2635.7,2652.9,3490.5,si
18.438,18.611,38.584,70.074,74.955,95.171,108.92,135.25,141.78,168.1,171.65,207.55,215.78,225.61,230.69,246.7,248.95,251.68,266.23,277.94,299.06,304.3,340.23,351.24,378.69,380.21,396.74,425.16,428.02,446.24,460.22,461.95,473.29,475.94,478.6,483.78,499.8,516.54,532.14,538.02,552.42,558.44,561.32,564.99,571.7,580.22,598.58,604.24,609.3,621.49,627.98,629.12,656.17,661.1,670.74,685.93,692.31,716.74,741.18,758.33,2614.6,2631.0,2631.6,3508.4,si
18.343,18.594,38.632,69.574,75.007,95.061,108.14,134.36,141.65,169.33,173.47,211.0,215.57,224.81,228.71,247.09,248.27,248.85,264.94,276.51,300.22,304.46,343.04,351.16,376.74,383.43,397.95,422.39,427.88,439.67,459.69,462.45,469.61,476.31,479.07,483.88,501.6,512.0,543.21,548.52,558.23,560.09,565.82,570.37,578.39,583.42,603.04,608.0,615.69,618.99,628.14,632.2,651.46,658.97,661.71,684.01,690.43,705.56,733.0,762.55,2641.1,2652.5,2667.2,3484.9,si
18.641,19.082,39.041,70.012,75.673,96.782,108.9,135.91,144.1,167.68,172.22,208.26,217.08,227.52,230.98,248.65,250.94,251.92,267.34,281.96,300.38,305.46,342.22,352.88,384.04,385.76,397.04,429.16,431.71,445.15,454.64,460.59,472.52,476.82,480.39,485.65,501.48,518.11,533.13,549.79,555.31,557.94,562.51,564.16,570.33,580.41,602.45,609.21,618.73,628.73,631.13,637.14,662.19,664.67,670.58,689.22,702.92,717.77,738.49,759.93,2631.5,2657.3,2660.3,3521.7,si
18.492,18.546,38.901,69.622,75.153,95.074,108.63,135.09,143.11,166.92,171.85,210.51,216.93,228.94,231.66,248.24,248.72,251.82,270.84,280.96,299.67,303.53,346.43,349.9,379.35,382.06,395.86,429.28,435.12,449.16,461.81,467.73,476.35,477.93,482.02,485.63,506.98,515.41,542.64,549.11,557.97,560.91,566.19,576.06,579.39,585.77,604.52,616.22,617.84,619.79,634.72,641.78,652.74,654.33,664.36,687.9,689.08,710.33,728.69,752.78,2597.1,2637.6,2650.5,3450.5,si
18.256,18.801,39.151,69.324,76.1,94.968,110.31,135.59,143.84,171.47,174.57,212.88,218.69,228.85,233.04,249.5,251.69,252.47,268.41,281.24,303.85,309.73,345.93,354.18,382.87,387.46,399.8,429.46,431.42,447.48,458.6,463.69,475.45,477.89,480.92,486.21,506.12,512.08,535.35,539.95,558.62,559.77,563.96,572.52,577.77,582.81,598.0,608.67,622.9,628.94,633.4,635.49,656.68,667.03,672.61,679.55,708.55,714.56,731.92,761.68,2631.9,2644.3,2653.3,3513.5,si
18.543,18.675,39.077,69.903,75.133,95.042,107.9,135.86,143.23,169.06,172.16,209.14,219.57,227.93,231.21,248.91,250.0,253.28,272.08,279.9,300.8,304.49,348.14,352.43,378.99,386.65,399.15,428.15,430.72,444.34,465.35,467.7,474.37,477.41,482.05,490.85,508.61,515.79,543.39,551.58,554.15,563.98,566.36,571.66,580.31,591.12,609.95,612.38,616.44,623.08,627.64,641.81,654.34,661.0,666.57,687.64,687.85,713.54,737.33,759.7,2637.2,2641.9,2644.2,3530.0,si
18.397,18.654,39.075,69.607,75.138,94.948,109.29,135.29,141.41,169.11,173.67,211.81,217.53,229.96,233.62,247.83,251.16,252.7,270.21,280.21,302.83,305.21,345.8,351.07,381.31,382.76,398.64,431.05,434.94,453.81,464.52,466.95,478.52,481.07,483.02,489.24,508.17,514.45,537.16,548.19,560.13,562.84,569.83,571.03,582.32,586.22,602.51,609.83,620.95,621.95,634.05,639.95,653.7,656.89,664.3,688.45,690.99,708.81,730.3,758.29,2629.5,2634.1,2641.4,3527.8,si
18.591,18.851,38.952,69.742,75.434,96.231,108.4,135.38,141.95,170.52,173.43,209.67,217.9,227.4,231.22,247.61,249.89,252.64,269.39,280.3,302.71,306.06,345.4,350.65,379.63,386.64,398.29,427.51,430.91,445.1,461.53,463.65,474.5,477.27,481.84,487.67,504.63,520.31,534.3,554.41,558.95,564.43,564.93,573.26,577.84,586.13,609.4,613.05,623.3,628.01,631.5,636.99,660.3,668.91,673.31,694.17,697.87,719.48,742.45,763.0,2603.8,2608.8,2675.3,3475.9,si
18.486,18.736,39.025,69.868,76.12899999999998,95.049,109.81,135.09,143.44,169.05,173.31,213.08,219.18,228.56,233.8,249.66,250.36,253.71,272.97,281.33,303.25,305.62,347.48,355.33,383.93,386.36,398.07,429.18,438.7,450.96,464.05,473.45,476.13,482.89,488.33,490.9,511.27,514.0,533.76,551.85,559.64,566.9,571.55,573.67,576.77,584.13,608.1,615.5,620.74,624.96,631.35,646.37,656.96,660.9,670.33,691.68,700.97,714.38,732.47,758.04,2645.8,2646.3,2662.0,3496.6,si
18.282,18.552,38.771,70.084,75.08800000000002,94.375,108.85,136.72,141.75,169.24,172.98,209.53,217.29,228.04,231.38,248.11,250.09,253.27,270.63,281.06,300.67,304.53,344.83,352.32,380.08,382.96,398.6,427.54,431.88,444.75,458.25,463.01,470.34,476.33,483.34,486.09,504.61,515.69,540.44,542.94,552.85,559.79,567.74,570.81,574.72,582.25,604.84,610.09,615.65,623.87,628.03,637.61,657.27,662.2,669.33,695.22,699.65,717.21,741.49,763.85,2600.6,2611.3,2634.2,3459.4,si
18.507.1,18.652,38.973,69.79899999999999,75.694,95.851,108.19,135.37,142.59,168.06,171.35,211.27,217.89,226.74,230.81,247.02,250.37,251.78,270.99,281.63,300.91,303.24,346.66,351.45,380.17,384.59,398.52,429.01,430.35,445.26,460.06,466.79,473.73,479.19,482.52,487.57,505.63,517.19,537.94,550.55,555.97,566.08,570.1,574.15,578.67,585.66,606.38,617.33,619.22,626.8,634.36,642.45,658.98,665.29,666.51,692.54,696.69,715.42,741.34,759.66,2618.8,2626.0,2627.5,3492.7,si
18.537,18.772,38.442,69.493,75.056,96.0,107.62,135.08,141.68,167.94,172.11,206.93,215.74,226.09,229.91,246.18,247.5,252.29,269.79,278.33,299.98,303.38,342.39,350.48,377.42,382.64,396.53,425.44,433.05,442.25,456.7,467.32,470.5,474.73,478.29,484.22,502.42,517.23,530.98,545.27,556.78,560.97,568.46,570.29,579.24,581.01,605.0,613.09,613.99,620.22,627.5,642.88,657.85,663.29,666.43,691.74,693.67,715.2,736.87,760.15,2617.9,2634.0,2664.5,3504.5,si
18.5,18.777,38.856,69.632,75.485,95.741,109.3,135.77,142.83,167.44,173.31,208.84,218.37,229.54,232.94,248.41,251.12,251.53,271.28,281.14,301.28,306.3,345.65,353.08,375.39,381.8,399.02,427.57,430.78,444.33,458.56,469.1,475.71,476.78,479.46,482.59,502.07,515.02,535.5,551.95,561.19,563.62,573.1,575.97,577.85,579.72,603.32,616.47,620.06,624.58,635.75,643.89,657.02,659.33,664.03,691.82,697.91,713.71,732.54,758.88,2612.0,2663.0,2679.3,3488.1,si
18.603,18.768,39.292,70.064,75.99,95.739,109.51,135.61,144.03,167.97,173.79,212.48,218.41,227.48,232.83,245.98,246.62,252.86,267.78,276.63,298.54,303.39,343.98,352.89,381.73,386.38,393.19,426.96,431.83,447.52,457.76,463.95,473.13,479.03,482.47,486.96,502.38,513.91,528.02,549.84,556.49,557.52,562.15,566.76,575.23,580.5,604.72,608.28,614.06,620.26,627.98,637.62,654.45,661.53,669.06,689.16,699.18,711.2,734.39,760.17,2631.1,2637.5,2663.8,3484.3,si
18.351,18.754,39.032,69.633,75.292,95.173,108.56,135.8,141.72,168.05,172.35,211.39,216.43,228.42,231.7,248.5,248.97,251.2,270.43,281.7,301.51,304.11,346.74,350.73,382.21,384.23,397.79,429.52,432.95,447.41,455.82,466.95,475.74,478.13,482.55,486.91,504.68,513.95,540.46,545.06,552.33,558.74,564.6,575.98,577.96,581.15,598.84,610.42,617.12,619.59,628.03,638.74,653.58,659.07,662.28,687.64,693.43,712.51,730.63,756.37,2600.9,2615.0,2675.1,3520.3,si
18.292.1,18.639,39.021,70.128,75.426,94.436,109.74,136.18,142.85,171.81,174.51,212.66,217.61,229.2,232.78,248.95,250.76,252.32,270.78,281.25,303.4,306.95,346.06,351.0,382.77,385.58,402.05,429.58,434.01,448.8,453.68,467.85,473.64,478.41,479.59,486.57,504.28,522.26,548.24,559.72,563.04,567.54,572.01,576.27,580.42,589.04,611.05,616.22,620.99,626.4,628.52,641.43,661.35,663.65,670.88,683.32,700.5,715.33,737.19,762.55,2639.0,2639.9,2658.5,3518.4,si
18.41,18.724,39.179,70.48899999999998,75.423,95.17,110.48,136.16,145.41,169.28,173.4,212.74,217.94,228.8,233.99,249.89,253.09,254.04,271.74,283.68,304.34,306.08,344.42,353.6,380.13,387.81,401.87,429.49,442.3,449.94,451.05,468.68,471.57,481.19,484.99,490.7,510.05,525.73,545.94,553.32,557.4,562.76,568.04,579.33,583.41,584.84,605.4,616.13,618.87,621.68,634.73,639.42,651.51,658.94,670.29,688.64,690.86,716.81,736.87,758.39,2617.6,2637.7,2638.2,3468.7,si
18.481,18.623,38.871,70.012,74.921,94.638,108.95,134.89,141.29,169.59,173.65,212.37,215.2,228.02,231.57,248.04,248.2,250.4,269.45,277.56,298.89,305.58,342.35,349.97,377.3,382.77,396.38,425.67,433.83,440.02,445.4,466.84,469.04,477.43,479.74,482.72,503.18,517.14,536.79,553.05,557.76,559.45,571.96,574.63,580.58,588.52,602.99,617.29,618.28,623.82,629.45,643.32,653.71,663.45,665.62,679.05,691.39,713.87,732.65,755.45,2622.7,2642.0,2647.8,3452.4,si
18.497,18.536,38.734,69.925,75.446,94.648,109.27,136.36,143.19,169.04,172.79,207.68,215.34,226.68,231.47,247.48,248.47,251.83,265.9,280.0,302.97,303.57,339.68,349.84,380.85,382.62,396.61,427.46,433.12,447.98,459.65,463.2,474.51,478.45,479.04,487.51,499.56,519.44,533.86,550.22,556.69,559.86,563.35,568.83,571.45,579.06,601.87,604.65,616.55,621.59,626.12,628.19,658.71,664.9,667.86,684.14,696.3,719.28,735.53,759.18,2618.0,2633.1,2651.6,3499.4,si
18.289,18.559,38.668,69.493,74.34100000000002,94.467,108.33,134.59,142.4,167.39,171.98,208.69,217.3,227.49,230.44,247.62,249.8,251.7,270.27,279.83,300.92,303.06,343.3,349.74,378.7,379.2,395.65,426.1,429.53,446.97,454.64,463.87,472.02,474.65,479.64,482.25,501.62,512.08,540.62,550.52,556.64,561.95,569.11,571.5,574.6,584.28,607.15,613.26,618.22,620.64,626.74,639.12,652.83,653.92,663.04,682.53,684.87,707.78,728.78,751.23,2628.7,2632.0,2667.2,3476.8,si
18.625,18.751,38.824,70.035,75.50399999999998,95.537,108.89,136.67,142.55,170.12,172.76,210.3,217.37,227.84,231.36,248.71,250.08,253.73,268.74,279.97,301.39,306.25,344.74,351.68,383.94,387.19,400.24,428.72,434.42,450.25,459.26,469.44,476.75,479.01,480.75,491.58,503.42,523.29,541.14,552.31,559.17,565.28,572.4,574.41,581.37,588.46,610.39,612.08,617.32,620.85,632.46,640.5,661.12,665.15,669.44,684.1,697.73,718.94,735.21,759.11,2608.8,2647.6,2651.9,3522.6,si
18.494,18.57,38.907,69.577,75.399,94.809,109.72,135.72,143.58,170.15,173.36,208.63,218.05,230.16,233.46,250.06,250.89,254.07,270.08,278.98,301.18,307.02,342.45,353.21,383.11,384.63,397.43,428.58,441.14,454.49,461.4,471.39,478.27,479.47,484.5,486.77,506.91,514.64,537.18,552.01,561.28,563.68,567.57,571.67,580.32,581.94,608.03,612.58,618.34,625.91,628.24,641.18,657.61,665.06,671.31,680.61,697.6,712.89,735.1,757.06,2603.4,2622.4,2624.4,3515.3,si
18.578,18.751,38.602,69.68,74.764,96.144,108.51,135.53,141.29,168.28,172.04,210.08,216.77,227.78,232.22,247.97,249.81,252.89,270.59,281.4,299.61,306.08,345.12,353.31,375.8,386.11,398.74,428.04,429.53,446.66,459.55,468.72,473.17,475.2,479.58,488.49,505.61,520.7,525.3,548.06,556.14,560.76,572.2,577.31,579.69,583.96,610.88,613.68,618.43,622.47,633.93,644.25,653.75,658.67,667.68,688.49,690.97,710.85,737.25,759.94,2601.3,2614.2,2662.0,3450.3,si
