16.26,18.185,38.38,67.883,74.719,92.63,108.51,134.84,143.75,170.07,173.09,208.54,216.79,227.3,229.95,248.66,250.38,251.11,270.05,279.06,301.23,303.24,340.35,347.53,372.82,382.02,395.19,424.25,434.47,448.6,460.52,468.12,470.85,476.67,481.25,487.34,505.1,512.86,539.49,552.59,560.78,561.77,573.68,575.38,578.76,582.83,605.84,616.0,623.12,625.82,632.95,638.4,651.41,665.5,669.65,696.43,699.98,710.29,743.61,763.8,2654.3,2664.1,2759.8,3428.6,si
16.481,18.828,39.056,69.087,74.88600000000002,93.419,109.69,134.83,143.44,168.37,175.11,211.34,217.34,230.13,233.78,248.26,249.7,254.94,269.14,279.68,302.12,304.94,343.22,349.54,377.03,383.82,395.35,422.66,431.61,445.01,459.86,461.76,474.18,478.33,485.3,485.66,501.7,520.27,535.28,545.5,554.24,558.58,561.28,571.25,578.81,586.19,602.73,606.99,618.16,623.36,630.33,636.5,653.56,659.26,668.58,688.38,695.11,712.58,736.57,763.48,2614.8,2642.9,2755.5,3426.5,si
16.398,18.339,38.702,67.851,75.131,92.207,108.66,134.81,143.61,169.99,171.9,209.69,215.39,228.18,232.1,248.9,250.66,252.11,266.06,281.17,301.58,304.67,344.04,347.36,376.11,383.59,396.64,424.99,430.14,444.86,460.64,465.12,476.53,477.32,482.5,489.26,506.75,509.68,534.56,548.73,552.61,558.79,567.8,572.15,579.75,582.24,604.54,611.64,613.62,625.09,632.24,636.37,654.93,661.97,666.78,685.0,697.09,709.41,730.12,754.52,2621.3,2652.7,2751.1,3418.5,si
16.159,18.331,38.416,67.46,74.464,91.618,108.39,134.3,141.62,166.65,171.7,209.99,216.52,228.67,231.76,249.3,249.74,251.36,271.39,281.99,300.74,302.46,342.65,350.57,373.51,379.05,394.9,422.93,431.99,446.29,461.27,467.84,470.97,472.03,477.41,483.98,504.15,509.15,523.39,544.67,547.22,549.59,565.0,570.08,574.12,575.97,597.38,606.7,614.53,618.38,625.59,640.69,648.48,651.19,656.97,684.9,687.53,706.01,729.09,751.89,2647.7,2655.8,2706.2,3459.2,si
16.222,18.542,38.569,68.113,74.926,91.649,108.39,134.94,143.41,169.59,171.71,211.25,216.97,227.8,231.65,247.62,248.85,249.89,267.87,280.12,299.72,302.98,342.33,348.2,375.39,380.65,396.39,424.76,426.46,447.68,458.82,465.12,470.7,475.21,479.64,483.86,503.08,513.35,519.1,543.67,548.97,555.46,568.06,572.06,574.5,580.08,596.88,604.84,614.36,625.75,626.68,636.78,649.69,657.54,666.95,674.57,691.0,709.15,727.18,751.84,2621.0,2652.1,2724.3,3486.6,si
16.1,18.619,38.986,68.851,75.021,92.615,109.5,135.45,143.33,168.29,174.27,212.32,218.42,230.2,232.01,248.48,252.07,253.14,271.21,280.53,301.9,303.45,343.96,351.92,373.43,386.14,396.6,426.86,428.83,445.13,455.66,466.81,471.41,476.73,484.39,488.0,503.29,511.75,532.02,549.61,551.53,558.3,570.02,573.77,575.46,578.99,601.89,614.68,616.84,622.57,631.49,640.01,651.16,660.07,665.76,689.32,698.83,712.62,736.98,765.42,2619.5,2664.1,2714.1,3448.8,si
16.328,18.779,38.599,68.48100000000001,74.684,93.057,108.37,135.79,141.16,168.63,173.11,211.01,216.75,229.69,233.12,250.43,251.57,253.01,272.03,282.35,302.19,304.24,343.17,350.83,373.39,387.84,400.0,427.61,428.37,441.69,444.3,461.49,470.05,478.39,482.9,485.04,501.3,521.59,547.93,557.85,559.96,565.53,570.24,575.23,586.27,596.78,608.47,613.99,618.72,625.61,637.37,643.52,657.72,661.91,667.42,687.07,693.81,713.43,735.74,761.66,2605.8,2645.1,2709.2,3438.2,si
16.514,18.431,38.782,68.362,75.493,91.997,109.61,135.61,144.09,170.16,172.54,209.75,215.84,228.9,232.36,248.25,250.31,251.8,267.84,281.23,302.05,304.75,341.9,347.03,378.6,382.47,398.03,425.13,434.5,448.37,456.83,462.11,472.77,476.69,477.84,483.52,502.18,513.45,540.82,550.25,555.26,559.72,561.8,568.91,574.66,582.3,604.24,605.54,613.91,621.05,624.23,630.52,654.83,660.28,665.05,677.91,699.55,711.24,727.72,755.44,2608.7,2615.8,2766.1,3413.2,si
16.052,18.542,38.599,68.721,74.303,92.513,108.67,135.24,142.16,169.17,173.9,211.19,217.51,229.42,231.8,249.25,251.58,253.69,269.86,281.74,301.18,304.83,340.45,350.22,374.77,388.49,400.57,426.32,431.33,442.86,458.51,464.37,472.07,476.74,479.53,488.15,507.12,530.21,547.11,552.15,559.41,561.46,568.39,570.05,581.97,590.19,610.68,612.57,618.03,619.36,634.43,640.24,657.81,665.63,670.93,693.79,696.82,716.85,742.05,762.93,2613.9,2630.2,2758.5,3426.2,si
15.939,18.55,38.615,67.931,75.413,92.054,108.49,134.92,143.76,167.56,172.93,209.76,213.93,227.89,230.39,248.32,249.46,251.27,267.02,281.4,298.02,303.33,340.6,348.35,374.85,387.09,395.72,425.51,436.15,444.7,451.25,466.37,470.51,478.34,480.38,483.87,503.72,512.84,540.76,546.3,550.5,558.53,562.84,566.82,577.1,585.53,601.07,604.66,611.56,618.76,627.1,633.69,650.82,654.91,662.63,683.63,692.78,706.38,732.67,759.01,2612.4,2623.6,2736.4,3435.8,si
15.834,18.309,38.939,68.39399999999999,75.255,90.829,108.72,136.61,144.84,169.57,172.56,212.79,218.96,228.54,233.17,248.71,251.24,253.18,270.16,283.25,300.84,304.07,344.47,350.52,375.46,384.85,402.64,428.34,434.02,451.28,459.01,461.47,473.3,478.65,481.73,492.19,507.64,522.91,540.3,549.68,551.45,561.96,564.17,581.07,583.91,588.18,602.31,607.89,616.31,625.28,635.11,640.23,655.28,661.91,666.91,671.21,693.89,714.8,728.28,758.2,2646.5,2661.9,2748.9,3421.7,si
16.333,18.711,39.127,69.01899999999999,76.141,92.444,109.58,135.97,145.08,169.84,172.05,212.47,216.26,229.59,232.81,248.21,249.19,253.15,269.71,282.16,301.23,305.05,342.57,347.97,377.12,383.06,401.97,425.24,430.92,443.44,455.0,463.23,468.6,473.41,477.59,484.62,503.2,514.72,531.83,547.89,556.15,560.47,568.25,569.98,575.65,581.31,602.73,607.75,613.02,621.81,627.52,636.89,658.21,662.04,664.9,681.78,693.62,715.33,732.36,757.11,2610.7,2633.2,2726.5,3474.9,si
16.215,18.474,38.27,68.28699999999999,74.819,92.383,107.21,134.79,140.97,166.59,171.03,210.12,212.49,225.97,228.9,246.07,247.27,248.25,264.12,278.8,297.21,300.25,339.86,344.23,374.85,379.7,395.48,422.45,433.5,446.13,459.75,460.76,469.46,472.64,477.91,483.32,502.42,513.49,528.94,541.0,549.9,554.23,557.29,561.44,567.35,575.55,595.37,600.52,603.85,615.73,623.33,625.1,648.36,658.14,659.75,681.15,689.0,708.84,730.51,752.9,2625.1,2660.2,2721.6,3484.3,si
16.31,18.651,38.697,69.067,74.919,92.959,109.74,136.14,143.73,170.13,173.28,211.39,216.95,227.67,232.63,248.92,250.07,253.08,271.39,282.0,301.24,304.26,343.87,349.83,376.1,386.72,400.53,426.47,439.75,448.02,460.51,463.94,472.63,479.5,484.73,492.08,508.63,525.86,537.3,553.31,555.13,557.26,562.5,575.51,578.66,582.53,605.95,612.37,615.92,622.99,629.7,641.24,651.85,660.03,667.42,686.77,692.53,711.67,738.4,760.65,2615.2,2644.3,2748.6,3444.1,si
16.219,18.673,38.47,68.179,74.383,92.076,107.69,134.0,141.73,165.62,170.11,211.21,216.06,226.95,232.34,245.95,246.79,249.73,270.05,278.64,297.48,299.23,340.54,348.77,369.2,379.82,394.69,421.8,429.81,450.29,455.58,466.32,468.1,471.26,478.26,489.73,509.63,510.77,534.36,545.69,554.96,559.46,562.06,568.52,572.98,578.04,600.17,601.84,607.64,612.76,620.19,634.38,639.24,645.21,658.57,677.95,682.34,703.74,722.17,749.04,2615.5,2654.7,2761.5,3450.1,si
16.057,18.599,38.647,67.939,75.40100000000002,92.702,108.35,134.25,142.39,166.74,173.01,210.95,216.92,228.96,231.52,246.26,250.77,252.13,267.98,279.42,299.07,301.99,342.9,349.45,378.09,379.8,396.76,426.13,435.2,451.0,463.6,470.0,475.96,476.79,477.51,486.91,510.17,514.16,531.36,547.93,555.15,559.55,564.31,569.89,571.61,576.18,604.12,610.11,613.69,622.56,628.59,635.82,652.89,656.61,663.33,677.75,701.07,707.97,726.7,754.53,2653.6,2665.4,2709.9,3432.3,si
15.936,18.316,38.343,67.45,74.52600000000002,91.533,109.08,135.29,142.42,169.76,173.16,209.33,216.85,230.64,233.67,247.72,251.08,252.52,270.3,279.9,300.42,305.46,340.35,350.55,375.48,386.47,398.27,425.04,431.29,447.79,461.04,463.93,467.93,477.95,480.98,494.01,505.59,516.49,538.71,549.76,557.4,560.69,563.39,572.57,575.45,578.2,606.56,608.88,615.49,617.13,623.77,635.33,657.91,661.34,665.63,686.13,696.36,712.67,734.65,759.68,2622.2,2648.3,2718.2,3466.8,si
16.207,18.709,38.861,68.964,75.521,93.051,109.48,136.6,142.96,171.13,174.28,211.22,217.27,230.2,233.4,250.4,251.67,252.92,270.22,282.72,302.35,306.31,344.68,349.4,379.72,390.34,401.63,428.4,433.84,450.26,457.26,462.86,475.28,479.84,481.29,490.38,504.57,524.29,540.81,546.63,557.48,561.04,562.86,574.34,575.24,584.28,608.46,612.6,617.52,622.74,628.27,636.93,666.21,666.82,674.52,696.05,699.36,721.48,746.1,766.26,2642.9,2658.6,2749.2,3450.5,si
16.325,18.516,38.71,68.238,75.16,92.514,109.05,135.14,143.94,168.83,170.8,209.08,215.49,228.59,231.26,246.91,248.52,250.72,267.9,279.91,298.61,302.13,341.29,347.38,375.88,383.48,396.67,423.25,436.7,447.36,464.95,470.34,476.17,477.53,479.19,488.74,507.57,513.83,534.91,549.34,550.06,556.9,567.3,570.55,573.76,577.47,596.02,610.52,614.37,622.32,625.09,635.58,652.72,657.34,658.16,673.93,693.12,701.86,727.07,749.23,2622.9,2656.5,2756.8,3466.5,si
16.198,18.559,38.803,68.572,75.257,92.776,108.58,135.45,144.06,167.34,172.1,210.15,215.35,227.53,230.51,246.35,248.22,250.42,268.86,280.21,298.69,301.03,340.58,346.48,375.09,382.72,396.84,424.72,431.83,444.2,459.75,464.46,470.26,475.09,478.84,487.43,505.29,515.2,534.09,543.21,547.8,558.32,567.96,570.99,572.29,575.4,594.43,608.06,610.86,619.12,624.91,633.61,651.58,657.99,660.09,691.46,695.59,713.69,735.43,759.85,2603.2,2612.5,2743.2,3467.6,si
16.107,18.758,38.661,68.605,75.259,93.593,108.45,136.48,143.24,169.98,174.06,210.28,218.13,228.72,231.87,250.16,250.81,253.7,270.61,282.96,302.0,304.24,344.87,351.2,378.79,383.31,400.5,429.93,434.22,447.73,467.58,470.81,475.21,480.92,483.51,496.53,519.33,522.7,546.09,552.56,555.43,560.34,565.13,578.12,583.12,584.74,607.91,616.56,620.73,627.17,636.54,640.91,662.54,666.15,670.71,695.43,701.2,717.56,741.46,766.33,2646.6,2658.2,2742.4,3476.1,si
15.978,18.308,38.406,68.008,74.596,91.856,108.2,134.5,142.36,168.48,172.41,208.51,215.84,226.7,229.43,248.08,249.12,250.08,268.11,277.72,299.81,301.51,339.4,347.35,373.06,382.89,394.82,423.15,426.76,443.25,458.42,460.9,469.39,475.14,479.04,484.97,499.79,515.43,538.24,545.73,553.28,557.97,564.32,569.57,576.55,580.48,605.38,610.96,611.39,620.5,628.9,633.92,654.25,658.94,662.24,684.74,690.88,706.78,733.59,756.66,2606.6,2608.1,2729.1,3436.1,si
16.187,18.571,38.782,68.553,74.742,93.075,108.72,134.94,144.69,168.44,172.07,211.88,217.05,228.79,231.31,248.69,249.09,250.66,270.18,282.39,300.99,302.17,342.38,348.5,373.56,381.05,399.31,424.98,432.8,447.25,459.86,468.48,472.87,473.58,480.34,489.64,509.53,516.1,537.6,545.52,555.45,558.93,572.83,576.07,577.59,582.22,604.36,609.82,614.97,619.61,629.4,639.29,647.3,652.3,664.72,688.13,693.42,708.31,732.0,755.8,2618.3,2637.6,2717.4,3462.2,si
16.345,18.809,38.362,68.87,74.919,93.398,108.17,134.98,143.14,168.09,172.4,211.0,216.29,225.15,229.58,245.54,249.81,254.13,271.71,283.29,298.44,304.42,343.5,349.99,375.48,380.08,396.9,425.79,439.85,448.99,452.54,465.59,471.63,474.31,481.38,486.65,508.3,521.31,545.98,553.37,555.62,561.16,565.46,574.01,579.98,585.68,608.8,614.48,616.15,624.58,631.27,637.52,653.78,656.4,670.38,685.07,695.92,710.35,732.43,756.08,2620.5,2634.6,2734.7,3417.1,si
16.275,18.535,38.557,68.04899999999999,74.527,92.668,108.8,134.4,141.25,169.79,173.93,212.04,216.14,229.88,232.08,248.68,251.21,251.9,270.67,282.01,303.45,306.54,341.88,350.41,375.31,383.18,398.17,423.73,427.54,441.95,456.39,463.64,466.55,474.97,480.32,483.87,500.94,507.81,531.67,546.8,553.33,559.66,565.39,571.3,578.97,582.31,602.0,609.96,618.67,626.24,630.03,643.21,650.41,657.2,666.48,688.3,698.05,712.06,739.91,764.5,2610.6,2628.9,2729.7,3417.6,si
16.189,18.294,38.657,67.968,75.184,91.227,109.09,134.86,143.51,166.54,171.46,210.4,217.32,229.19,232.19,249.22,250.8,252.93,271.57,282.17,299.65,303.54,342.91,350.15,372.66,382.46,396.34,425.25,432.75,445.64,456.29,463.08,470.05,476.87,478.79,487.86,507.35,511.53,536.52,545.42,554.72,559.42,567.92,569.64,575.26,582.21,602.99,607.94,613.01,616.75,631.76,638.41,645.49,653.27,660.53,677.7,687.98,705.54,721.24,747.85,2600.3,2652.7,2742.0,3431.5,si
16.125,18.595,38.532,68.542,74.64699999999998,92.331,109.46,135.15,142.54,168.25,173.42,210.03,215.03,229.07,231.73,249.21,251.25,252.21,268.9,280.74,301.73,303.58,340.37,349.01,372.94,386.81,397.72,424.81,433.58,446.9,453.03,467.55,470.72,473.11,482.93,484.81,502.11,519.71,540.87,549.7,554.77,557.2,565.71,575.23,579.19,580.26,603.85,609.4,615.27,618.29,626.76,636.13,653.94,656.04,662.42,691.03,695.43,710.87,735.23,760.58,2629.9,2649.8,2746.7,3436.8,si
15.981,18.156,38.587,68.031,75.072,91.376,108.88,135.44,142.63,169.42,172.18,213.89,216.49,228.01,233.7,247.78,250.87,252.26,270.66,280.57,302.54,303.48,341.23,349.98,375.08,381.85,397.47,423.7,433.84,448.26,453.94,464.52,470.73,475.13,478.27,488.57,507.39,512.54,536.81,552.76,558.33,563.16,570.89,576.4,578.98,588.58,603.75,611.96,618.2,627.82,629.9,641.56,658.91,662.04,669.95,685.42,700.0,715.05,733.75,759.61,2615.3,2638.4,2765.9,3478.7,si
16.194,18.546,38.711,68.237,75.262,92.467,108.59,134.88,142.55,169.68,172.12,213.67,217.86,228.45,232.88,248.4,250.8,251.92,269.91,281.49,300.19,303.78,345.1,350.99,376.23,384.39,399.43,426.93,433.62,446.64,454.21,465.0,472.76,478.08,481.31,490.91,509.12,522.29,542.78,556.9,561.67,566.29,578.96,581.74,583.61,584.41,607.77,619.96,623.18,628.45,637.3,647.96,656.9,664.05,669.59,673.93,698.95,713.03,726.77,753.8,2618.8,2624.3,2726.9,3444.8,si
16.068,18.61,38.895,68.469,75.40899999999998,92.165,109.41,136.42,144.74,169.32,173.26,212.02,216.66,230.55,233.67,248.85,251.48,252.77,270.9,284.63,301.19,306.47,346.37,349.3,378.66,385.41,399.66,429.19,441.78,457.65,466.66,471.06,480.2,482.8,485.66,490.36,510.63,518.21,536.27,544.54,555.78,559.16,562.01,573.14,578.52,587.06,601.67,604.39,615.84,618.87,628.93,637.25,654.78,656.45,663.36,683.4,695.58,711.44,730.51,756.73,2644.0,2651.6,2746.6,3437.5,si
16.39,18.53,38.585,68.013,74.757,92.368,109.07,134.68,142.99,168.47,172.61,211.3,218.69,231.08,233.32,248.41,252.18,253.6,270.2,281.33,301.92,303.56,343.74,352.09,377.06,383.12,398.95,427.72,433.89,448.83,463.26,468.26,472.53,477.61,480.68,486.82,508.12,517.61,543.85,550.29,559.25,564.84,571.5,577.82,581.23,585.76,607.47,612.65,616.08,622.41,630.82,642.31,650.45,655.87,667.63,676.49,697.05,708.78,725.04,752.6,2606.5,2624.4,2739.5,3473.3,si
16.325.1,18.557,38.398,68.03399999999999,74.719,92.775,108.11,135.1,143.03,167.81,171.45,210.77,217.6,227.07,231.33,247.33,248.49,250.64,270.98,280.44,296.98,303.16,341.44,353.01,377.55,383.96,397.94,427.67,432.36,455.3,468.18,471.95,479.21,481.44,486.92,492.58,511.63,515.23,542.06,548.82,554.62,559.18,567.11,569.98,576.47,583.8,604.45,609.7,613.74,624.2,627.78,638.76,651.65,656.91,664.47,691.36,693.3,709.9,733.21,756.95,2617.5,2620.3,2736.8,3476.0,si
15.664,18.449,38.448,67.61,74.34,90.869,108.14,135.61,142.72,168.69,171.16,210.27,216.09,229.15,232.1,247.78,250.22,251.47,266.72,279.88,298.5,303.5,338.35,348.98,373.27,383.43,398.06,425.8,426.9,444.84,457.35,460.87,469.65,478.23,479.61,485.56,501.17,511.79,535.06,542.33,554.43,558.62,558.79,571.03,575.18,585.69,600.78,606.72,607.92,616.77,628.64,634.52,652.07,658.71,661.87,680.08,684.82,709.68,731.31,752.99,2608.5,2663.0,2727.8,3422.4,si
16.657,18.407,39.133,68.885,75.453,92.57,109.11,136.5,144.13,168.72,171.55,210.59,217.61,229.42,234.74,246.2,251.44,254.25,271.13,280.18,299.26,304.85,343.76,349.09,376.6,384.51,397.27,427.07,432.13,446.61,457.02,467.33,470.88,479.56,482.78,487.47,502.58,511.16,541.21,550.64,555.16,562.39,567.36,577.34,577.36,592.71,600.73,613.96,614.77,622.88,635.84,643.98,653.33,655.77,666.27,683.07,689.83,704.73,732.09,755.88,2620.4,2639.1,2716.6,3467.5,si
16.295,18.537,38.941,68.676,75.763,92.234,110.41,135.94,143.68,169.37,173.94,213.86,216.95,228.73,234.29,249.93,252.19,254.08,271.0,281.78,300.32,306.49,344.49,351.8,377.02,384.73,400.86,428.2,438.93,448.55,456.56,463.45,473.1,479.69,483.03,488.79,508.87,516.7,542.43,552.07,555.18,561.94,564.36,573.83,580.37,598.22,604.75,610.34,613.65,630.94,637.22,642.68,659.41,661.22,667.27,683.15,695.24,713.76,729.94,756.21,2630.5,2640.4,2739.4,3471.6,si
16.239,18.59,38.45,68.518,74.961,92.836,108.37,135.02,141.92,169.88,173.06,210.68,216.61,227.56,231.4,248.86,251.85,252.62,270.49,281.49,301.78,303.88,341.29,349.02,377.48,383.43,399.54,427.57,440.59,453.38,456.1,467.75,475.59,479.48,482.81,484.99,509.0,520.39,546.93,553.56,557.51,560.82,567.68,572.04,580.43,582.02,607.23,610.5,615.35,619.11,630.7,635.6,654.48,664.01,669.81,693.68,698.99,714.82,743.85,762.94,2639.1,2649.3,2737.0,3404.5,si
16.241,18.521,38.413,68.735,74.906,92.425,108.81,135.62,142.65,169.54,173.24,208.92,218.05,228.15,232.34,247.82,249.96,253.46,272.33,279.21,300.59,303.61,338.7,350.36,376.02,382.98,395.96,426.73,440.7,455.96,462.99,472.4,474.03,480.22,483.93,488.55,508.64,516.9,532.52,548.52,557.0,561.84,563.6,574.24,576.33,578.97,601.79,608.67,613.15,622.69,627.44,637.55,655.43,663.61,664.12,692.6,697.17,715.35,740.33,762.1,2606.5,2615.0,2742.7,3438.6,si
16.347,18.757,39.024,69.055,75.122,92.889,109.48,136.6,143.72,170.19,173.02,210.71,217.31,230.73,234.25,250.06,251.93,254.03,268.54,282.06,302.06,306.09,342.34,349.81,375.26,383.89,400.09,428.74,430.63,443.69,453.7,464.61,468.31,478.18,483.11,485.45,503.48,517.24,540.63,555.01,559.24,561.83,573.46,579.48,582.19,583.43,610.43,618.54,619.69,621.84,632.26,642.83,660.55,663.05,669.62,691.55,694.14,721.03,740.11,761.66,2638.3,2648.2,2747.6,3443.7,si
15.987,18.604,38.476,68.775,74.585,92.827,108.72,135.96,142.86,168.62,172.85,211.56,215.18,228.35,232.11,248.96,250.05,252.01,270.54,282.25,301.35,302.66,342.61,348.54,371.82,383.58,399.81,426.23,432.68,447.54,451.55,466.03,469.5,476.08,479.46,487.11,502.29,520.68,533.77,545.96,552.23,558.85,572.44,574.45,579.72,595.6,605.68,607.34,618.1,621.98,636.88,641.97,650.9,658.53,667.6,683.4,701.99,716.21,740.14,764.13,2635.9,2650.4,2750.9,3407.8,si
16.12,18.617,38.501,67.87100000000001,74.747,92.428,107.75,134.07,142.32,167.52,171.12,210.59,215.45,227.02,229.71,247.04,249.02,250.8,265.81,280.39,299.56,302.34,338.91,347.18,370.53,384.73,398.3,421.69,426.62,438.54,457.21,463.97,471.32,475.65,478.23,483.77,501.42,512.67,543.51,551.88,559.08,563.37,571.34,573.87,578.08,583.38,606.08,608.91,615.84,617.98,626.31,634.32,652.59,658.24,666.66,682.74,688.87,710.75,735.29,755.55,2628.8,2662.7,2707.3,3419.6,si
15.772,18.286,38.504,67.664,74.903,90.826,108.41,134.5,141.46,168.12,173.08,212.47,216.88,226.89,232.13,247.29,249.5,250.9,269.88,280.48,299.27,302.95,340.6,350.72,372.64,386.11,395.74,423.22,429.69,448.97,459.15,466.92,471.04,476.09,481.13,490.91,506.92,515.35,521.96,548.82,554.23,559.36,568.64,572.57,577.65,579.05,602.69,611.41,614.16,618.81,627.86,638.01,653.49,656.41,666.55,673.57,692.97,711.01,730.42,755.39,2603.6,2609.0,2736.3,3411.1,si
15.991,18.44,38.605,68.18,75.476,92.284,109.13,135.8,142.91,170.2,172.84,212.82,215.92,229.87,233.58,250.99,251.34,252.13,268.69,281.91,302.37,305.16,343.02,349.73,379.32,383.72,399.32,428.18,439.95,454.79,463.32,470.36,475.29,479.5,481.93,488.64,509.6,517.06,548.85,554.03,561.68,565.58,571.34,574.32,583.74,589.43,608.25,609.61,619.71,622.64,632.11,637.96,659.2,663.06,672.41,688.25,705.25,717.88,736.23,760.25,2641.9,2653.1,2768.2,3463.9,si
16.077,18.948,38.642,68.699,74.961,93.074,108.88,133.33,142.13,165.63,172.82,211.21,217.77,228.47,230.67,247.48,252.76,254.13,271.73,281.99,300.76,303.17,342.85,352.11,373.1,383.16,397.73,426.73,432.35,448.67,458.1,463.07,473.43,476.13,482.6,483.76,506.35,522.07,528.91,544.69,549.28,552.97,558.5,564.8,574.18,583.15,602.55,607.85,614.44,618.4,629.48,637.83,648.81,657.2,665.83,681.5,690.93,709.16,727.22,751.08,2616.8,2631.4,2735.6,3474.6,si
16.158,18.49,38.377,68.211,74.945,92.665,109.32,135.61,142.85,168.21,174.75,209.17,216.99,228.6,231.06,251.73,252.23,252.82,271.16,283.27,303.11,304.59,344.83,352.57,377.63,389.0,398.62,428.82,432.8,449.2,468.04,472.99,478.21,482.11,483.32,493.49,508.68,522.22,540.3,547.97,557.18,558.89,562.87,572.86,579.5,581.63,608.18,609.76,616.19,620.28,630.46,637.21,659.54,663.81,666.12,695.3,697.97,717.46,742.36,769.2,2614.1,2644.2,2731.3,3424.3,si
16.499,18.762,39.004,68.613,75.336,93.342,109.13,135.58,143.46,167.74,172.6,211.8,216.45,230.58,233.55,247.88,251.04,254.09,267.4,280.44,300.57,304.49,341.13,348.96,378.41,380.76,398.91,428.48,434.65,453.34,456.58,468.59,473.45,478.46,482.39,488.27,508.1,517.24,537.79,551.16,553.15,557.11,559.38,570.59,577.1,584.46,600.34,604.32,615.75,624.71,627.46,634.9,653.45,657.02,664.69,682.29,693.43,710.24,727.66,753.6,2636.4,2654.8,2763.1,3459.0,si
16.559,18.517,38.533,68.24600000000001,74.52199999999998,92.468,109.12,135.63,142.69,169.25,173.16,209.78,216.88,229.26,233.3,248.67,249.48,253.66,270.83,282.4,300.3,305.57,346.86,350.05,377.76,385.71,400.4,427.46,430.21,448.08,461.67,467.3,475.16,479.08,481.11,487.86,506.45,514.11,540.9,550.61,551.49,556.42,567.35,572.13,579.31,585.13,602.2,613.88,619.05,620.64,633.55,640.29,655.0,657.47,664.63,685.94,691.17,707.88,734.19,757.36,2597.2,2648.5,2737.0,3429.5,si
16.237,18.42,38.731,68.306,74.82600000000002,92.533,108.66,135.54,142.44,168.51,172.84,212.26,216.15,227.47,232.39,245.79,249.22,251.81,268.4,279.59,298.89,301.92,340.89,349.26,372.79,382.65,398.42,422.31,431.22,437.45,457.14,460.84,470.13,472.65,478.46,486.86,506.09,521.85,536.26,546.88,554.93,556.54,567.44,570.44,572.98,579.24,603.94,610.23,613.47,620.01,625.36,635.97,649.94,660.03,664.23,683.31,690.81,709.19,732.08,754.68,2617.1,2645.5,2721.1,3415.0,si
15.984,18.585,38.718,68.418,75.038,92.068,109.79,135.04,142.84,168.75,173.12,213.57,216.56,229.16,234.71,249.12,249.37,251.86,271.64,281.4,302.71,304.7,340.97,349.9,375.36,386.35,399.24,425.79,433.61,445.99,452.88,464.23,465.19,477.06,478.47,484.51,505.71,520.64,536.53,548.29,560.67,560.74,564.69,574.48,578.53,582.68,605.18,611.15,615.23,619.98,626.9,637.55,647.95,660.96,670.26,685.33,696.43,711.89,733.97,757.89,2597.9,2667.2,2735.1,3409.6,si
16.49,18.606,38.678,68.36,75.008,92.642,108.05,135.34,142.54,168.84,171.11,211.44,217.84,228.34,232.06,248.63,249.0,253.51,268.92,281.71,298.4,303.79,344.85,351.09,377.04,384.68,398.32,429.09,434.86,448.1,462.08,464.19,474.05,478.84,481.35,489.42,508.82,513.44,537.91,549.51,555.81,560.19,560.52,571.79,579.16,586.39,604.74,609.11,614.3,623.69,635.64,639.09,651.3,658.84,667.43,682.41,689.56,705.75,733.15,754.47,2626.2,2639.6,2733.0,3455.4,si
16.383,18.675,38.734,68.688,75.836,92.951,109.83,136.71,143.79,169.14,173.95,212.57,218.73,230.74,235.84,249.66,250.4,254.17,273.05,283.52,300.99,305.5,345.4,353.22,378.78,388.04,399.29,426.01,435.69,446.76,454.25,469.4,471.63,479.28,482.79,493.27,513.15,526.01,532.78,546.55,553.27,561.57,568.17,574.72,580.84,585.68,608.46,614.64,616.06,623.28,628.04,643.82,650.14,667.1,675.07,693.22,701.82,713.96,735.66,761.31,2631.5,2653.5,2757.8,3411.0,si
16.213,18.508,38.89,68.705,75.561,92.306,108.38,136.2,144.59,168.62,171.4,211.24,218.53,229.12,232.82,245.3,250.34,252.4,269.92,280.67,297.11,303.84,345.2,348.68,378.46,384.0,397.76,428.28,438.97,454.85,467.39,470.3,477.0,479.64,485.36,494.13,510.84,521.22,539.33,550.7,559.38,563.63,566.04,575.79,577.23,580.45,606.85,612.54,616.58,621.63,628.11,639.78,653.44,658.71,664.54,681.72,691.77,708.62,728.84,752.62,2598.7,2638.6,2726.0,3460.2,si
16.248,18.552,38.456,67.90100000000001,74.947,92.151,108.18,134.57,141.05,168.81,171.33,211.01,216.21,228.69,231.8,246.82,250.53,251.22,270.45,279.11,300.02,303.37,340.17,347.89,377.9,379.2,394.14,426.96,439.78,451.81,455.05,465.82,470.76,477.31,481.07,488.37,506.46,513.38,535.44,548.0,559.07,559.78,562.32,570.76,578.74,587.08,601.98,608.04,612.34,624.29,630.0,635.88,652.35,659.42,662.6,680.41,693.49,707.43,723.35,750.67,2610.5,2658.7,2747.4,3481.0,si
16.499.1,18.477,38.711,68.11399999999999,75.257,92.538,108.13,135.4,142.6,171.19,172.38,210.86,217.22,228.77,231.7,249.35,250.29,252.16,269.14,281.13,302.2,305.14,342.14,347.29,380.3,384.25,398.43,427.08,434.28,447.51,464.5,466.22,473.33,475.91,480.17,488.52,508.51,516.59,537.49,553.91,556.0,563.79,568.62,572.88,573.43,585.58,604.54,614.0,621.47,626.29,627.67,637.35,662.35,667.18,669.06,674.65,703.52,713.18,727.48,759.39,2622.0,2639.7,2717.2,3433.3,si
16.251,18.711,38.585,68.825,74.22,92.891,108.48,136.28,142.31,169.82,175.12,211.5,216.91,230.26,232.9,250.22,251.44,253.47,269.12,280.72,302.62,304.85,341.81,349.95,375.01,389.61,399.17,427.45,431.4,449.13,462.99,467.87,473.99,477.63,485.24,491.11,503.77,527.22,534.4,550.03,558.31,565.44,567.78,577.95,580.38,584.47,609.87,614.35,617.64,621.65,627.57,645.56,655.14,663.94,671.36,692.64,698.85,717.07,746.23,775.89,2617.1,2643.1,2728.9,3427.2,si
16.136,18.63,38.494,68.189,75.167,92.764,108.84,135.57,143.45,168.37,173.65,210.0,215.18,228.49,231.82,248.55,249.51,251.47,269.21,281.43,301.45,303.98,340.16,349.6,375.61,379.69,395.66,424.86,431.34,441.37,455.51,463.16,465.97,474.76,479.07,482.48,501.71,519.02,522.71,546.82,552.05,557.1,566.13,569.76,575.73,580.0,600.78,610.35,618.15,620.06,628.08,635.14,653.71,658.41,669.85,684.33,697.97,713.37,732.82,760.92,2638.5,2643.2,2770.3,3447.9,si
16.231,18.504,38.771,68.796,74.911,92.304,109.32,135.91,143.77,170.59,173.96,212.27,218.91,230.4,232.48,248.63,250.96,252.6,269.78,279.36,301.26,306.08,342.78,351.71,378.58,386.49,400.22,423.35,429.74,447.48,462.96,465.67,476.46,480.32,481.06,490.04,505.18,517.95,540.91,547.25,556.45,560.4,572.22,576.1,581.64,584.95,607.35,611.12,614.0,621.41,626.08,640.84,653.45,660.65,669.01,685.95,693.9,707.47,737.62,759.62,2605.0,2618.0,2748.0,3407.2,si
16.129,18.435,38.714,68.84,74.545,91.467,108.62,136.15,143.8,167.45,170.78,210.97,216.18,228.71,232.4,248.17,249.59,251.41,270.25,281.28,299.07,303.65,341.97,348.81,374.34,382.91,398.54,424.92,430.48,446.77,462.47,467.35,474.04,475.26,479.49,488.62,504.98,517.97,537.85,549.83,556.74,560.47,567.03,574.12,577.99,585.3,599.63,613.16,614.75,619.44,628.28,642.53,656.81,662.18,662.78,678.99,686.85,720.42,729.45,758.06,2616.4,2628.6,2748.1,3420.4,si
16.105,18.532,38.634,68.016,74.541,92.188,107.98,134.73,142.63,166.65,172.38,209.8,219.11,229.53,232.33,249.59,251.37,252.54,273.42,282.73,300.57,302.1,343.5,351.38,375.49,383.19,397.86,424.6,437.92,453.66,464.65,471.19,474.25,478.13,482.4,487.12,512.23,515.61,536.91,541.83,555.43,559.4,570.12,572.71,574.71,581.06,607.53,611.18,612.91,615.62,623.94,644.21,648.65,653.73,663.8,685.03,692.68,711.35,732.55,757.64,2643.5,2651.9,2716.3,3458.1,si
16.138,18.688,38.742,67.852,74.783,92.58,108.84,134.42,141.45,169.3,172.36,214.09,217.11,231.11,235.31,248.33,250.73,251.46,272.68,282.39,301.11,305.33,344.24,350.71,376.81,381.87,397.63,425.76,438.75,447.52,461.28,470.64,472.61,475.43,480.9,487.46,511.94,514.41,531.97,551.07,555.73,568.69,572.93,578.11,580.65,582.4,603.25,616.09,619.69,624.37,630.66,644.79,652.61,656.59,666.15,682.04,694.34,709.22,728.16,752.97,2632.3,2659.5,2765.6,3432.6,si
16.106,18.78,38.599,68.30199999999999,74.74,92.574,108.27,135.16,142.92,168.1,172.1,210.92,216.41,227.04,230.83,246.65,248.2,250.65,267.47,279.77,299.06,300.79,341.17,350.27,372.93,382.92,397.05,424.15,429.29,443.23,452.23,458.75,467.96,473.97,477.72,484.27,500.54,511.8,542.03,547.53,551.73,556.47,561.39,568.79,574.81,583.29,604.07,608.17,615.26,618.48,626.96,632.47,653.66,655.51,663.98,683.73,690.41,707.4,731.35,756.3,2648.7,2651.9,2737.4,3419.3,si
16.487,18.401,38.598,68.608,75.49600000000002,93.188,109.77,135.2,143.06,168.6,174.96,213.87,215.77,228.67,232.89,247.74,249.84,251.45,272.49,282.32,301.97,305.42,344.64,350.44,376.79,383.36,397.72,427.31,437.95,450.28,460.41,465.27,472.82,478.23,481.52,487.48,509.58,513.55,540.59,551.47,559.51,563.0,566.36,576.49,579.96,582.45,602.41,611.62,615.02,628.05,635.81,637.52,651.74,661.14,670.02,691.11,703.08,711.62,733.84,762.42,2628.3,2632.9,2717.1,3422.2,si
16.354,18.766,38.862,68.968,75.277,92.745,108.79,135.55,142.83,169.18,173.11,212.15,218.63,229.53,232.5,248.87,250.4,253.79,272.36,282.48,299.29,307.1,343.23,351.14,376.39,384.18,401.59,424.63,428.16,438.58,455.21,463.95,466.69,474.71,477.99,484.48,506.59,522.66,534.39,549.64,556.6,561.4,567.8,574.89,576.63,582.38,610.76,613.53,616.34,624.96,627.02,644.04,659.57,665.46,672.94,682.22,693.38,719.9,735.39,760.74,2630.0,2632.8,2725.7,3442.7,si
16.082,18.689,38.884,68.737,75.28,92.655,108.12,135.52,143.46,168.56,171.4,211.42,218.91,229.05,232.65,249.35,251.45,253.17,270.12,281.26,301.52,303.05,340.8,348.58,376.34,384.02,398.53,425.15,428.63,448.27,458.01,464.46,471.28,479.8,481.47,488.23,503.57,523.02,529.15,546.66,553.26,557.46,566.96,576.82,580.15,586.74,606.65,607.91,614.35,618.41,631.45,643.65,650.13,655.06,665.59,685.99,689.01,715.32,731.64,753.21,2612.2,2636.0,2765.5,3466.1,si
16.373,18.788,38.554,68.622,75.422,93.48,108.59,134.99,140.76,168.76,173.8,213.41,214.73,229.4,232.33,247.41,247.98,251.33,269.25,280.6,300.97,303.74,343.66,348.75,376.54,380.85,397.67,425.97,434.29,442.49,447.64,461.44,466.4,475.53,481.6,482.63,501.67,516.03,546.29,556.36,560.1,563.65,572.02,579.49,583.5,590.31,603.86,614.9,616.0,624.08,633.8,638.72,653.9,658.1,668.17,692.19,702.48,711.33,734.03,764.57,2618.1,2632.7,2751.6,3412.1,si
16.292,18.765,38.503,68.896,74.382,92.383,109.27,135.5,142.11,168.02,172.88,212.26,215.88,229.62,232.74,249.23,251.22,252.65,267.65,282.23,300.73,303.91,341.61,348.75,375.03,386.66,398.62,423.76,430.53,446.61,456.46,463.29,472.27,480.42,482.29,487.08,503.19,523.35,529.67,546.94,549.21,564.41,570.64,575.27,576.62,581.02,605.35,609.77,613.0,617.81,631.13,636.67,644.04,658.41,667.92,685.64,688.32,711.51,733.86,755.07,2616.4,2617.6,2715.6,3452.4,si
16.196,18.434,38.482,68.115,75.044,92.131,108.91,135.65,143.0,166.78,173.81,208.32,217.93,228.67,232.48,246.29,252.1,253.93,272.56,280.25,299.95,302.38,344.55,350.69,374.47,384.79,397.78,426.28,432.95,446.36,458.57,465.21,472.16,476.02,480.19,484.74,504.58,521.28,538.95,549.95,553.58,560.96,562.51,566.47,581.8,590.27,604.97,610.5,613.16,613.73,628.93,637.79,644.74,658.8,662.49,681.3,692.1,703.87,727.94,758.69,2623.1,2637.7,2741.4,3436.9,si
15.895,18.436,38.577,68.503,74.818,91.435,108.56,135.58,143.18,168.97,172.01,212.17,218.31,228.01,231.6,248.25,250.12,254.57,272.65,282.78,300.97,303.97,344.6,352.75,373.24,379.98,399.66,425.4,429.27,443.65,457.54,465.32,468.45,473.22,478.47,485.83,505.2,513.94,539.5,552.51,559.01,563.9,571.34,575.6,578.43,585.51,606.15,616.72,618.77,622.38,631.69,644.46,655.39,662.15,666.35,683.86,692.09,712.8,734.29,757.3,2601.3,2659.5,2737.0,3418.6,si
16.346,18.543,38.715,68.62899999999999,74.872,93.216,108.71,135.38,143.59,168.26,173.1,210.97,216.7,227.58,232.19,247.58,248.53,249.75,268.44,281.62,299.11,304.06,343.52,348.89,376.81,383.59,399.89,424.64,432.5,449.27,461.59,463.81,468.99,477.95,480.72,486.22,505.91,516.31,528.76,544.76,555.72,556.47,559.34,565.15,572.48,579.82,603.6,607.35,612.25,618.32,622.19,632.29,651.34,661.08,666.02,688.74,691.03,711.79,737.26,760.74,2630.2,2652.3,2729.4,3473.1,si
16.21,18.588,38.97,69.104,75.753,92.429,109.65,136.77,145.1,169.34,173.94,211.39,218.48,229.38,232.11,249.66,252.35,253.06,271.85,282.41,302.1,304.63,343.41,349.74,376.66,386.1,397.61,426.45,433.08,447.94,458.7,467.21,470.6,479.97,483.41,488.44,503.96,519.75,531.86,547.59,554.63,561.23,568.73,575.73,577.83,582.96,608.07,610.07,617.6,621.11,631.65,640.57,652.4,661.82,668.31,692.78,696.98,715.92,736.93,760.78,2630.5,2659.1,2740.3,3477.1,si
15.793,18.425,38.73,68.173,74.725,91.278,109.25,134.63,142.9,168.52,172.59,210.99,217.64,229.01,231.75,251.08,251.85,252.92,267.46,281.39,302.36,304.66,338.18,350.35,372.37,386.58,400.28,423.61,427.56,444.34,458.33,462.59,471.93,475.48,482.55,490.17,503.54,516.65,548.13,554.34,558.53,560.97,565.17,574.71,583.41,589.58,607.2,608.74,619.87,623.77,632.36,635.84,657.41,661.06,669.02,675.6,691.9,715.12,729.59,756.2,2622.1,2653.3,2709.9,3415.5,si
16.414,18.619,38.576,67.956,74.744,92.697,107.87,133.76,141.52,168.41,171.81,211.83,216.33,229.52,231.65,249.88,250.85,252.0,268.78,280.06,302.19,302.5,340.05,347.99,377.39,384.96,396.02,426.75,440.45,454.38,461.36,472.68,475.56,480.06,480.9,487.02,507.76,516.78,541.31,552.78,557.33,564.2,572.21,577.07,582.98,585.42,608.67,613.48,616.44,625.15,630.99,641.04,651.9,666.27,668.11,685.61,689.64,711.47,736.31,756.64,2631.6,2653.0,2750.9,3421.5,si
16.595,18.824,38.819,68.77600000000001,74.76,93.817,108.32,136.2,142.54,168.2,172.29,211.0,218.79,230.3,233.57,249.7,252.96,253.8,271.03,283.11,299.3,304.8,345.25,350.68,377.55,387.44,399.74,428.14,434.77,452.91,466.82,468.86,479.13,483.29,485.94,491.76,509.51,522.41,540.52,553.45,558.37,563.63,573.94,579.41,582.96,584.24,611.62,615.69,618.28,620.95,631.03,646.25,659.0,660.79,665.28,688.2,693.84,712.84,736.57,761.4,2606.0,2621.8,2720.8,3445.8,si
16.288,18.581,38.737,68.548,76.4,92.896,109.39,136.44,144.5,169.97,173.87,209.26,216.86,228.67,231.89,250.14,250.92,251.59,271.23,282.04,302.21,303.23,343.08,348.78,379.7,383.79,398.64,425.87,441.3,449.94,454.74,467.62,472.94,478.29,481.7,483.29,506.62,516.87,532.27,548.95,555.33,561.0,563.77,569.88,570.32,581.74,604.85,611.16,620.17,624.49,626.59,637.64,659.69,666.71,675.32,691.69,711.34,719.89,738.67,763.55,2609.2,2633.2,2770.2,3416.9,si
16.128,18.404,38.685,67.847,75.508,91.991,109.07,134.53,143.77,168.66,173.23,211.38,217.22,229.48,232.21,249.29,251.22,252.61,271.1,282.57,301.45,304.66,344.14,347.29,377.47,383.78,397.53,426.74,446.69,457.61,460.18,469.99,476.86,478.33,482.17,487.0,510.92,514.88,546.7,555.94,559.09,562.6,570.12,580.62,581.19,586.61,608.81,611.99,616.59,623.69,630.69,641.75,652.65,656.34,665.3,675.3,697.75,705.58,722.73,751.61,2609.4,2624.8,2726.0,3472.2,si
16.28,18.367,38.482,68.01,74.961,91.777,108.18,135.0,142.51,169.59,172.34,210.01,217.84,228.65,231.01,249.18,250.98,253.02,270.63,281.24,300.36,303.69,341.58,349.99,376.8,386.97,398.93,426.24,435.71,449.79,453.99,465.83,472.48,478.25,482.5,487.12,506.22,514.77,544.75,552.69,562.54,564.73,566.85,574.78,582.54,587.62,605.38,613.25,614.96,625.23,631.19,639.88,657.19,658.91,666.1,673.81,694.33,707.93,726.24,753.39,2609.6,2628.5,2737.3,3447.4,si
16.286,18.388,38.955,68.455,75.908,91.987,109.28,136.14,143.97,168.27,172.06,212.44,216.42,229.25,232.93,247.32,249.19,251.79,271.07,282.25,299.53,303.78,344.82,348.45,376.65,379.29,400.19,425.35,435.89,447.88,461.97,465.37,471.99,476.61,477.91,489.06,511.59,517.06,544.94,549.27,552.04,561.74,566.4,569.97,579.99,584.96,600.92,608.17,613.78,624.21,629.88,636.06,655.32,661.54,661.91,678.6,694.22,714.62,725.54,753.43,2640.1,2652.8,2754.8,3444.6,si
16.086,18.472,38.685,67.936,75.293,92.339,108.45,135.32,144.33,168.47,172.69,208.61,217.77,227.07,232.34,246.03,249.74,253.01,269.6,278.68,298.81,302.81,342.65,348.87,376.1,384.47,395.12,416.86,426.97,442.64,462.13,463.9,472.49,478.36,484.39,490.05,505.07,511.53,529.29,546.46,552.61,559.95,566.36,570.65,573.3,575.54,603.74,610.94,614.34,616.83,623.36,641.27,652.7,655.88,661.75,694.75,696.58,708.56,733.89,761.81,2599.7,2648.7,2761.8,3480.1,si
16.093,18.616,38.81,68.158,75.289,92.302,109.19,134.84,143.13,168.75,173.46,213.63,218.56,229.34,233.21,248.68,250.95,253.39,269.03,282.72,302.57,303.25,340.43,352.62,375.16,386.05,398.92,424.95,431.65,442.86,457.59,461.78,470.22,474.97,479.73,486.36,507.13,511.77,534.76,550.84,554.05,558.82,566.61,572.39,579.99,583.84,608.89,610.9,618.1,625.92,628.08,642.11,653.95,658.16,670.67,690.28,695.66,713.12,734.27,760.15,2607.5,2610.8,2717.5,3414.7,si
16.258,18.414,38.376,68.179,74.758,92.467,109.22,134.62,142.1,168.94,174.68,211.32,216.94,227.13,232.18,248.17,249.29,253.96,273.28,281.5,301.05,304.57,344.62,352.91,373.9,384.35,400.56,425.5,435.06,452.3,458.18,465.64,468.6,472.84,477.84,487.69,511.24,524.18,534.26,545.9,550.87,555.91,561.62,570.3,576.2,581.92,602.23,610.0,612.16,617.11,625.73,640.35,643.89,656.57,666.9,682.35,690.49,705.29,733.41,765.25,2623.5,2625.4,2731.6,3407.1,si
16.432,18.493,38.903,68.859,75.001,93.083,108.74,135.76,144.53,167.83,172.41,210.63,217.53,228.68,231.8,249.36,251.18,253.66,268.97,280.88,299.02,303.88,342.03,350.4,373.24,382.94,395.81,424.82,433.36,443.53,460.2,466.27,470.62,481.18,484.3,489.89,505.56,512.34,537.16,550.19,552.24,557.55,575.79,576.47,579.6,593.25,603.73,610.36,619.24,625.34,639.01,645.34,652.9,660.82,667.16,682.66,698.93,709.45,739.72,763.62,2604.1,2622.1,2768.2,3408.9,si
16.186,18.49,38.99,68.558,75.815,92.501,109.66,136.7,144.39,170.18,173.53,212.44,217.31,230.55,233.92,249.82,253.02,253.87,271.11,283.34,303.93,306.56,345.16,349.23,378.52,385.94,400.24,428.41,433.94,449.06,468.14,468.65,476.13,478.03,483.21,490.95,509.72,523.89,546.51,554.31,560.78,565.63,571.47,574.27,582.61,583.07,607.6,612.38,618.89,627.1,632.05,639.47,659.75,668.55,671.25,681.63,701.08,719.53,734.7,760.66,2616.4,2635.9,2731.7,3460.4,si
16.279,18.337,38.555,67.84,74.689,91.976,108.03,134.53,142.72,166.75,172.2,211.42,215.64,228.47,231.04,246.24,247.96,249.21,270.29,278.83,297.16,302.4,343.26,348.13,374.93,380.7,392.3,425.1,432.11,445.79,454.0,467.1,468.55,472.38,476.18,482.18,502.78,512.27,533.25,548.35,552.88,553.66,569.15,575.24,578.54,584.0,597.03,611.81,614.54,616.66,627.66,640.78,649.03,650.64,663.64,684.8,694.18,704.94,727.75,756.02,2599.2,2613.7,2729.1,3414.2,si
16.334,18.491,38.286,67.755,74.135,92.722,107.37,134.09,141.35,166.81,172.07,208.75,216.03,227.95,230.56,247.34,248.28,250.3,268.67,280.03,299.2,301.26,338.36,348.68,375.0,379.05,398.5,426.02,431.62,445.48,459.17,465.65,469.57,476.62,478.6,486.25,507.4,513.08,542.87,550.07,553.2,561.24,572.88,577.67,579.79,585.88,602.97,612.18,616.23,620.63,629.51,638.63,651.36,656.53,660.83,685.68,691.68,710.63,731.3,757.89,2607.5,2645.5,2732.5,3416.7,si
16.047,18.602,38.661,68.492,75.209,92.709,108.2,135.17,142.36,167.28,172.61,212.2,216.05,228.13,231.49,246.21,248.37,251.34,268.01,279.58,297.09,301.47,343.6,348.3,375.32,379.46,396.33,425.99,432.18,448.64,454.28,464.47,472.14,477.12,478.75,482.33,501.8,513.56,525.43,543.51,556.26,558.78,573.39,574.35,579.15,582.44,602.93,609.9,617.1,618.13,627.2,640.54,649.69,656.31,661.26,687.17,690.92,707.06,732.13,761.17,2640.3,2653.0,2718.8,3482.3,si
16.022,18.459,38.519,68.288,75.155,91.743,108.99,136.25,143.52,169.2,172.22,211.71,215.45,229.2,232.7,247.25,250.32,251.39,268.6,281.62,300.01,305.24,344.27,348.94,378.44,381.53,400.62,427.29,437.98,450.05,464.48,469.99,475.19,479.49,481.0,490.36,510.78,515.92,538.81,549.26,550.54,562.25,564.27,570.56,580.73,587.03,600.94,611.69,612.65,620.15,630.2,637.04,654.79,660.46,664.29,684.23,697.5,708.27,731.31,757.28,2598.0,2617.6,2767.0,3463.8,si
16.393,18.855,39.022,69.25,75.865,93.445,109.93,136.98,145.41,169.04,173.57,212.59,217.38,229.53,233.48,250.29,251.24,252.2,270.0,282.74,302.56,304.43,345.12,352.41,379.72,383.61,399.71,428.26,432.07,449.92,460.51,467.33,473.27,480.17,485.47,489.48,505.93,520.18,538.68,549.21,562.35,564.23,570.45,575.33,576.0,582.37,608.02,613.75,616.31,621.45,631.12,638.22,651.55,658.88,671.68,693.35,701.79,715.63,735.53,762.79,2606.5,2641.5,2768.7,3479.7,si
16.423,18.51,38.856,68.263,75.585,92.369,109.23,135.81,142.98,169.19,173.93,211.46,217.22,230.04,232.41,251.09,251.9,253.51,270.47,283.32,301.56,306.25,344.48,349.63,378.72,384.25,398.83,426.67,434.32,449.83,455.15,463.45,472.95,478.5,481.88,482.67,503.71,512.44,538.92,551.06,554.9,555.89,564.48,566.59,576.62,585.51,606.57,610.82,612.87,619.29,630.36,637.3,652.54,659.1,662.02,682.96,699.58,710.71,729.26,755.53,2627.4,2641.5,2718.8,3458.8,si
16.101,18.842,38.571,68.683,75.089,93.147,108.77,135.36,143.6,167.51,173.44,209.57,217.74,227.97,230.73,247.45,250.24,252.96,271.45,279.04,299.62,301.7,342.09,350.38,376.04,383.49,398.14,426.69,430.58,445.25,451.81,462.6,472.52,475.7,482.94,486.47,503.38,520.0,539.36,544.92,558.27,559.67,565.85,572.32,574.45,579.66,605.09,609.03,613.81,623.21,629.52,638.22,651.05,659.21,665.46,691.8,696.82,708.63,733.67,760.37,2641.4,2642.7,2736.4,3471.7,si
16.408,18.532,38.62300000000001,68.735,74.717,92.344,107.84,134.82,143.81,167.11,171.38,210.32,217.18,227.49,230.63,246.08,248.91,253.45,270.58,280.41,297.42,301.7,342.65,349.43,374.0,383.9,396.11,424.75,434.47,447.98,455.66,467.39,470.48,475.1,477.26,485.6,505.41,518.11,529.7,543.43,553.33,560.12,568.16,571.36,577.42,581.28,607.0,612.48,614.89,619.1,628.21,642.57,647.73,659.34,663.93,681.22,687.88,707.15,730.89,753.02,2633.4,2636.9,2706.8,3445.4,si
16.134,18.414,38.494,67.944,74.598,91.549,108.41,134.13,142.25,170.47,174.13,209.73,216.75,228.03,231.67,249.84,250.76,253.02,270.94,281.38,303.27,305.27,343.15,348.35,377.0,385.45,398.07,426.53,431.17,446.28,459.4,464.87,469.95,475.97,480.49,490.87,504.92,518.0,537.94,547.76,552.86,557.28,564.18,568.2,577.6,581.99,601.2,611.64,617.09,625.1,632.88,637.61,656.96,662.37,667.07,683.24,701.55,710.55,732.36,759.73,2611.2,2652.9,2706.6,3431.5,si
16.402,18.809,38.892,69.058,75.09899999999998,92.659,108.63,134.97,143.2,168.24,173.73,211.98,218.32,229.5,231.34,250.73,251.63,253.44,267.77,282.64,302.36,305.07,342.69,349.2,376.06,386.74,398.66,426.61,431.12,448.68,457.64,462.89,472.26,479.85,484.71,488.91,505.75,520.89,536.5,549.98,555.95,563.03,564.28,578.45,580.29,583.45,610.29,613.11,615.08,622.46,630.02,637.8,650.76,656.84,666.73,678.33,692.25,715.44,729.35,755.72,2599.6,2657.3,2715.8,3482.4,si
16.289,18.484,38.558,68.32600000000001,75.005,92.347,108.38,135.31,141.8,168.49,172.08,210.29,215.34,227.63,230.17,248.14,249.59,249.85,265.43,279.43,299.61,302.74,339.81,346.35,374.29,381.85,398.11,418.29,424.65,439.89,455.75,459.88,465.65,475.01,479.54,486.73,498.55,517.01,538.35,546.37,556.16,560.89,562.33,569.19,572.18,578.81,605.45,606.12,609.85,619.53,624.07,630.37,657.58,661.4,664.39,680.88,690.19,713.98,733.63,754.95,2615.3,2643.2,2733.2,3474.3,si
15.939.1,18.637,38.886,68.444,75.874,93.126,109.3,135.93,144.04,168.55,173.66,211.47,217.49,230.88,232.64,249.36,251.64,253.29,269.79,282.3,300.46,303.42,344.51,352.3,377.97,386.78,399.71,427.85,439.09,454.67,468.63,471.88,478.4,481.31,482.18,490.36,511.5,522.22,537.98,546.28,560.62,562.79,571.11,573.98,581.94,590.53,613.25,615.38,619.2,623.5,630.0,644.89,662.88,665.86,670.56,687.57,700.18,719.04,736.85,760.36,2608.2,2645.0,2717.4,3482.4,si
16.428,18.826,38.98,68.84100000000001,75.013,93.891,109.53,135.57,142.68,170.05,172.12,213.11,218.04,231.35,235.88,251.06,252.85,254.11,271.38,285.31,302.75,307.55,345.82,351.93,377.46,385.99,404.49,429.63,434.21,446.85,462.37,469.57,476.2,479.0,481.55,488.7,510.74,523.91,543.01,550.36,561.5,567.22,576.04,579.04,586.44,591.88,614.39,614.77,622.55,630.19,637.8,644.21,660.15,665.46,673.97,687.86,696.55,716.15,736.94,759.09,2615.0,2663.2,2752.4,3455.0,si
16.256,18.668,38.732,68.22,74.696,92.288,108.47,134.63,143.0,167.78,172.07,211.53,218.97,230.2,232.5,247.2,250.93,254.27,270.75,278.97,300.07,301.17,340.94,350.51,374.47,379.64,393.54,426.7,434.51,454.21,461.97,470.81,474.57,478.32,479.71,486.87,507.03,512.71,529.86,549.75,554.62,566.1,574.87,577.22,580.29,584.18,603.35,615.53,619.48,621.4,634.78,644.72,648.54,656.36,664.86,687.44,688.19,705.18,727.43,750.85,2617.0,2637.8,2745.6,3407.7,si
16.294,18.721,38.962,68.976,75.252,92.786,109.01,136.19,143.76,168.71,171.93,213.4,215.9,229.93,232.89,247.55,249.29,251.59,267.15,280.97,298.32,302.96,344.23,348.56,376.8,386.78,396.57,427.54,430.96,448.02,456.61,466.95,472.75,477.15,482.72,492.8,511.84,527.04,538.25,551.68,558.83,567.58,568.16,575.78,580.2,586.09,606.74,613.88,616.35,625.16,632.3,638.19,654.82,661.85,667.44,677.37,693.15,707.79,731.69,754.33,2631.4,2635.6,2762.2,3442.6,si
16.449,18.461,38.856,68.188,75.998,92.978,109.26,135.98,144.31,170.58,172.56,210.59,218.56,229.94,232.16,249.82,251.11,252.42,269.1,282.03,302.43,305.29,340.86,350.51,377.77,384.11,398.44,425.13,427.65,441.96,460.07,466.13,473.46,479.85,482.2,488.99,509.68,514.11,528.46,553.69,556.8,559.66,566.43,572.76,579.69,581.96,605.89,611.89,619.46,621.63,626.8,641.4,658.04,664.68,669.27,684.09,707.91,713.84,731.59,759.08,2632.3,2663.4,2771.9,3423.5,si
16.264,18.483,38.168,67.65899999999999,73.956,92.398,107.5,133.79,140.72,167.54,172.22,208.47,215.38,227.23,230.18,247.73,248.49,249.79,268.08,279.09,298.67,301.46,341.65,347.85,376.06,383.46,395.31,424.62,434.64,452.48,462.99,468.55,475.45,476.78,481.82,490.18,506.85,521.38,535.66,544.98,552.48,558.3,563.66,568.48,573.19,580.7,603.79,605.21,612.75,621.42,628.08,634.77,654.23,655.07,663.95,676.76,691.9,709.77,729.1,753.7,2605.2,2660.9,2767.6,3417.1,si
16.48,18.895,39.172,69.278,75.692,93.648,109.8,137.29,145.08,171.15,174.3,214.27,219.42,232.15,235.24,249.95,252.08,253.59,270.21,284.32,301.35,307.66,347.63,351.08,380.2,382.99,403.47,430.3,436.77,450.24,464.6,468.55,477.43,482.31,484.26,492.99,513.94,519.25,537.71,554.28,559.26,564.57,578.73,581.86,583.9,588.41,611.33,615.11,621.28,625.77,636.19,646.31,658.88,663.26,673.8,693.46,698.23,718.75,740.96,763.76,2636.2,2657.3,2739.9,3467.7,si
16.442,18.462,38.423,68.515,74.87100000000002,92.522,108.71,135.73,143.35,168.44,172.99,210.25,215.32,227.43,231.49,248.15,248.89,250.87,266.96,280.46,300.36,301.92,339.61,349.95,371.94,384.18,398.69,424.89,430.36,445.85,457.41,465.79,469.52,472.26,476.98,485.22,503.77,515.59,538.62,550.95,557.78,562.51,566.61,572.98,575.09,582.85,603.57,609.91,618.2,624.28,629.56,632.88,661.22,661.74,668.01,684.18,695.58,713.68,736.75,759.7,2643.5,2652.3,2734.5,3441.2,si
