18.594,18.72,38.583,69.404,74.815,95.766,107.43,134.87,140.81,167.11,172.86,208.52,216.1,226.2,230.04,245.91,249.86,250.79,269.41,281.01,301.45,302.9,344.67,349.41,380.53,382.38,398.01,428.28,430.12,443.12,459.29,464.9,473.06,478.44,479.3,485.41,503.41,519.56,542.04,545.94,555.96,561.95,569.2,572.04,579.48,582.04,604.17,610.13,618.36,619.59,631.55,635.54,652.57,660.07,666.05,685.93,695.21,714.4,731.37,755.98,2620.5,2654.7,2665.9,3459.4,no
18.404,18.947,39.186,70.17,76.122,95.455,109.3,135.23,142.52,168.4,174.05,213.58,218.09,227.7,232.23,247.3,248.96,252.67,268.13,278.75,300.15,303.65,345.06,352.21,383.47,387.6,395.11,429.26,436.44,448.42,460.12,469.23,475.29,476.63,481.46,490.66,507.12,519.6,534.0,555.59,564.35,567.84,573.21,577.19,579.32,584.17,610.3,615.25,624.17,627.62,634.25,640.78,662.88,666.24,671.24,677.23,699.3,715.19,733.17,757.85,2610.2,2620.6,2621.0,3453.0,no
18.521,18.706,38.877,69.967,74.97399999999998,95.02,109.42,135.87,141.9,169.41,173.54,210.16,217.38,229.95,232.7,250.9,251.58,252.59,269.25,281.24,302.12,307.49,344.78,352.1,381.53,386.15,400.6,430.88,431.78,447.3,465.76,468.51,476.7,479.77,480.92,489.71,507.11,521.14,539.35,551.78,555.97,560.77,567.46,570.18,578.28,581.32,605.66,612.34,619.16,623.6,631.3,636.24,657.94,663.97,666.07,681.3,694.38,714.38,731.04,756.83,2630.2,2639.9,2661.7,3422.4,no
18.673,18.81,39.116,69.883,75.555,95.492,108.43,135.76,143.12,168.43,172.22,209.28,217.61,227.74,230.91,248.05,250.68,252.39,271.13,282.07,301.4,303.99,346.22,350.03,380.99,386.02,399.1,428.29,434.19,447.22,457.74,469.62,472.25,475.9,480.15,486.27,504.83,523.55,538.9,541.27,555.38,561.02,564.63,573.99,577.33,585.27,606.48,608.29,615.66,620.12,623.09,639.89,655.6,660.12,667.13,677.98,692.15,714.38,728.88,753.84,2633.2,2642.8,2646.5,3481.1,no
18.378,18.59,38.661,69.676,74.50399999999998,94.378,108.41,134.26,140.35,168.04,173.22,209.99,216.65,227.65,230.54,248.34,249.57,252.46,269.31,278.97,302.36,303.64,344.85,351.67,378.65,383.91,398.04,428.33,428.63,443.97,456.59,464.86,472.61,475.24,477.47,486.14,501.53,516.91,540.97,545.62,554.4,559.28,564.57,570.84,576.68,582.47,605.99,607.26,617.16,618.79,627.91,634.77,651.72,659.26,664.84,679.08,691.09,708.36,731.88,754.86,2630.1,2652.0,2662.8,3423.8,no
18.177,18.274,38.885,69.51899999999999,75.61,94.094,109.5,136.35,143.06,167.64,173.76,209.17,215.71,229.4,232.06,247.69,251.03,252.17,268.63,281.59,301.81,306.9,341.61,351.88,376.78,383.09,399.28,425.35,431.16,441.97,458.14,464.79,468.31,475.78,479.22,486.4,503.18,508.07,543.66,554.35,557.75,559.21,561.83,570.18,578.2,594.33,603.3,607.68,614.83,617.94,629.71,638.89,650.0,659.77,667.58,688.56,695.09,714.85,736.78,762.75,2619.0,2621.0,2654.8,3472.5,no
18.606,18.781,39.058,70.34,75.11,95.503,108.77,136.23,143.11,169.37,172.69,211.02,216.03,228.3,232.57,248.39,250.53,252.07,267.06,282.52,301.45,305.73,343.48,352.4,381.77,385.55,397.73,431.21,436.18,449.46,455.2,464.68,475.66,480.8,484.61,487.82,503.35,517.32,537.4,554.29,557.03,561.49,572.3,574.38,579.77,582.76,608.28,615.0,616.67,628.02,632.73,640.75,653.52,658.75,665.82,690.98,692.63,710.94,734.64,760.94,2610.7,2616.9,2620.2,3454.1,no
18.683,18.837,39.192,70.339,75.413,95.696,109.71,136.44,143.93,169.3,175.13,210.79,218.19,229.55,233.39,250.46,252.91,255.69,269.34,282.38,304.97,306.9,342.57,356.14,382.8,388.13,400.76,431.57,441.72,449.24,458.0,469.13,473.75,481.05,486.61,490.02,509.25,521.22,541.81,554.58,557.02,563.47,568.93,572.27,577.94,585.03,610.85,611.51,617.57,628.27,630.97,637.69,658.76,663.53,669.76,693.25,696.86,721.72,746.74,774.54,2614.2,2618.0,2642.1,3419.8,no
18.337,18.507,38.909,69.461,75.675,94.827,109.23,134.68,143.32,168.34,173.47,208.52,217.25,228.21,232.06,246.97,249.91,254.27,271.41,277.53,299.44,306.47,341.35,350.23,378.2,381.55,395.94,426.84,432.06,444.66,451.24,466.77,468.93,474.29,478.67,482.12,503.74,513.04,531.6,550.91,555.36,567.74,571.37,571.81,577.94,578.41,606.71,615.81,618.72,622.32,629.2,641.37,652.58,655.6,663.44,683.06,694.89,706.71,725.96,752.82,2606.5,2614.8,2637.7,3422.4,no
18.54,18.831,38.941,69.94800000000001,75.105,95.455,109.45,136.02,142.78,168.23,172.79,210.81,216.17,230.03,233.61,249.52,250.9,252.45,267.36,281.76,302.39,305.98,343.32,353.01,384.26,386.21,399.85,431.65,437.98,453.91,465.56,467.75,478.49,480.53,485.77,492.27,507.98,519.62,545.37,554.3,561.54,566.29,569.79,572.93,583.71,585.52,604.31,610.28,623.0,628.32,631.02,636.03,658.9,663.15,668.46,685.75,694.68,713.96,734.14,758.0,2604.5,2615.2,2636.0,3412.6,no
18.785,18.822,38.515,69.943,74.55,97.067,107.15,136.18,141.5,168.99,172.65,206.92,217.16,227.51,231.93,248.41,250.2,253.16,269.36,281.83,301.37,305.95,343.56,353.73,381.63,383.4,400.25,431.45,436.72,450.13,460.06,465.92,475.4,481.13,485.14,486.99,505.42,520.8,537.86,541.37,558.31,562.44,565.69,568.61,578.12,584.97,606.05,609.21,617.45,620.21,632.76,636.19,655.97,663.92,668.12,694.26,701.66,718.55,741.68,775.77,2614.8,2621.9,2627.3,3439.7,no
18.615,18.735,38.665,70.08800000000001,75.4,95.469,109.36,135.42,141.57,167.84,174.05,210.45,216.56,226.16,231.94,246.63,249.72,251.66,270.05,280.09,300.55,304.59,344.66,354.58,380.44,386.94,395.02,427.91,433.12,446.73,459.71,464.45,471.24,482.31,484.5,487.8,503.98,519.95,524.16,546.08,554.97,558.73,562.09,565.15,567.64,579.88,602.76,607.5,616.08,620.48,626.12,631.93,657.27,660.13,663.88,690.33,692.65,710.98,737.3,760.45,2613.1,2618.2,2652.8,3477.5,no
18.606.1,18.73,38.909,69.887,75.199,95.299,108.67,135.82,141.46,169.46,172.06,210.86,216.54,229.95,233.12,248.69,250.13,253.9,269.76,280.88,299.87,307.64,345.54,350.52,380.3,386.8,399.55,430.95,434.9,447.75,463.39,468.76,475.73,482.44,483.71,489.0,505.37,519.17,545.62,549.69,561.25,565.01,570.0,576.62,583.1,593.33,604.52,613.1,618.96,623.27,633.77,642.21,656.88,663.44,666.67,685.59,692.76,711.26,733.67,755.35,2632.3,2638.3,2653.6,3454.3,no
18.341,18.854,38.979,69.764,74.638,95.413,108.36,135.0,141.94,169.39,172.67,209.99,214.88,227.97,231.28,246.1,248.53,250.03,266.4,276.67,300.06,304.15,340.45,349.57,378.6,382.25,395.91,427.59,430.33,443.59,446.34,461.89,467.93,471.5,477.59,481.66,497.96,513.7,543.11,546.63,556.41,560.38,567.35,570.14,578.46,586.12,603.16,605.89,618.11,622.07,631.19,633.74,654.76,656.85,665.5,687.46,692.5,707.37,731.91,759.1,2603.4,2615.9,2633.5,3460.4,no
18.411,18.725,38.963,70.102,74.75399999999998,95.382,108.8,136.47,143.01,170.34,172.14,210.38,217.84,228.7,234.91,248.39,250.34,253.14,270.53,281.1,300.32,306.7,343.75,350.66,378.69,389.44,399.9,428.35,431.58,445.81,452.35,467.65,473.09,475.51,482.98,489.69,502.07,529.14,538.58,545.85,560.21,564.37,576.39,581.53,582.18,584.21,610.24,610.93,618.23,621.97,630.09,643.6,654.22,666.5,672.77,688.41,694.68,717.81,741.22,760.06,2599.1,2626.7,2648.5,3426.3,no
18.511,18.748,39.12300000000001,70.184,75.946,95.712,109.83,137.15,143.61,168.59,175.85,212.3,218.47,230.61,233.98,248.62,250.7,253.14,270.8,280.25,301.83,305.65,344.26,353.96,382.73,385.29,399.88,431.31,436.53,449.86,456.36,468.96,471.56,480.37,482.91,491.74,508.74,514.7,541.76,556.72,562.63,564.87,568.8,579.99,581.85,583.02,605.74,617.08,620.71,626.29,633.7,641.37,655.15,666.62,667.46,699.88,702.37,716.81,741.46,771.79,2627.0,2629.8,2635.2,3472.5,no
18.386,18.509,39.052,70.057,75.431,94.83,109.64,135.69,142.1,170.46,174.55,211.92,217.38,229.58,233.15,249.78,251.68,252.6,271.28,279.67,301.94,308.26,344.32,351.94,383.07,387.4,400.38,430.26,441.69,452.68,453.99,471.05,476.21,480.98,484.93,485.96,508.74,515.92,543.81,555.23,558.9,562.99,572.43,578.56,582.13,585.07,608.39,616.05,618.66,623.86,630.37,641.6,653.45,664.08,668.3,691.6,696.06,718.15,741.03,763.82,2624.6,2625.5,2628.5,3429.7,no
18.397,18.68,39.092,69.459,74.687,94.925,109.01,135.15,143.76,166.99,172.97,210.69,218.85,229.81,232.83,249.18,251.57,252.44,270.44,281.18,300.15,304.66,345.88,353.19,379.79,387.55,397.85,429.54,431.57,446.32,459.61,467.21,473.88,480.46,480.95,488.53,506.47,519.85,538.97,550.72,553.06,557.47,568.55,570.84,576.58,584.41,606.31,614.29,617.23,622.21,634.96,641.67,647.26,650.84,666.26,680.79,685.05,707.93,730.65,756.92,2620.9,2623.0,2637.0,3483.5,no
18.413,18.812,38.63800000000001,69.508,74.704,95.607,108.65,134.7,141.21,169.36,173.33,208.05,216.89,227.62,231.68,247.12,249.93,251.72,272.01,277.44,299.98,306.91,343.76,350.52,380.1,383.36,398.22,427.49,438.3,453.57,456.42,466.4,474.55,477.52,481.54,490.52,507.04,518.55,532.95,551.31,557.95,559.98,564.92,568.56,571.91,580.12,605.06,610.37,619.19,626.48,629.68,636.72,656.95,661.94,663.41,688.88,695.17,711.02,731.47,756.58,2598.4,2632.7,2652.1,3467.2,no
18.586,18.81,39.298,70.013,76.342,96.033,109.7,135.71,144.51,168.68,173.65,210.15,216.45,227.89,232.01,248.29,251.35,251.69,267.23,281.03,302.44,306.0,341.98,354.02,382.82,384.61,398.67,428.33,431.98,444.57,446.38,463.12,469.53,481.23,482.25,486.18,502.81,515.47,545.64,550.36,560.95,565.63,569.57,577.6,584.73,587.54,608.25,610.49,622.73,627.35,634.94,639.08,657.18,664.33,668.75,689.04,703.1,716.87,735.47,760.38,2597.5,2630.2,2664.8,3426.3,no
18.512,18.609,38.565,69.507,74.59899999999998,95.461,107.95,134.4,140.93,167.56,171.45,208.2,214.96,227.66,230.24,248.79,249.58,250.73,268.22,280.23,300.39,303.58,340.37,349.18,377.41,380.31,393.67,425.44,435.44,445.83,446.58,463.4,465.11,474.29,479.93,482.68,504.01,523.73,535.76,544.47,554.13,556.67,558.95,565.85,575.62,582.37,603.9,608.78,615.53,620.95,629.63,636.78,654.26,658.27,666.31,680.74,689.38,715.75,731.98,753.11,2606.3,2619.7,2647.1,3416.3,no
18.699,18.889,38.601,69.861,75.016,96.397,108.64,135.79,141.45,169.95,174.24,209.7,215.78,227.4,230.64,248.87,249.73,251.42,267.34,280.41,302.1,305.6,342.77,352.85,381.18,383.37,398.76,429.9,431.82,446.15,455.45,463.94,476.43,477.26,480.23,483.57,500.77,520.29,544.36,555.01,560.4,561.81,565.52,571.37,583.23,584.97,606.75,614.55,622.7,630.05,634.61,636.61,660.02,669.02,672.92,691.79,700.84,718.09,742.57,764.4,2620.5,2634.7,2648.5,3407.8,no
18.159,18.998,39.024,70.263,75.74,95.22,109.9,135.19,142.47,168.62,173.65,214.46,217.12,227.53,232.26,248.62,250.41,252.44,269.49,279.52,301.3,305.43,345.61,354.07,380.75,388.44,399.12,429.09,430.3,448.31,455.76,461.97,475.71,479.97,483.74,487.83,503.02,520.36,542.79,552.26,556.44,563.38,564.24,569.81,579.26,585.01,609.74,611.58,613.7,616.75,626.79,634.99,648.75,655.06,668.18,689.24,692.22,708.15,732.82,757.57,2603.2,2618.5,2623.0,3485.7,no
18.334,18.564,39.389,70.093,76.029,94.743,109.09,134.93,144.59,170.3,172.45,209.9,216.81,227.71,231.57,246.48,249.51,250.91,268.69,277.91,299.64,305.82,343.15,347.4,378.98,383.41,397.94,425.54,431.48,443.74,453.88,464.17,467.75,476.08,479.61,482.17,501.95,518.34,535.25,542.42,552.05,555.99,563.87,567.83,570.18,579.98,601.49,604.92,615.04,620.13,623.7,632.74,654.2,657.07,661.12,675.04,697.21,702.69,722.15,751.84,2608.0,2640.4,2644.5,3416.5,no
18.495,18.942,38.911,69.995,75.22,95.113,109.31,136.05,141.01,168.94,172.81,211.79,217.64,229.6,233.6,249.81,251.19,252.89,271.21,281.76,301.15,306.57,347.28,353.48,381.65,388.68,399.62,430.23,438.12,451.45,465.16,469.92,475.61,482.55,485.11,490.52,506.73,517.83,536.25,550.15,557.5,561.49,564.5,570.04,573.57,582.07,608.31,609.93,611.45,617.48,628.73,636.68,651.25,653.91,664.8,687.33,691.32,709.61,731.95,757.0,2600.3,2607.1,2642.4,3423.9,no
18.514,18.866,38.947,69.90899999999999,75.184,95.539,108.14,136.16,143.29,169.59,171.7,207.44,216.34,228.13,232.32,247.33,251.5,252.04,267.49,280.2,299.66,305.23,343.34,348.49,380.87,382.75,400.23,430.28,434.7,451.1,463.3,470.74,475.59,478.2,481.67,487.56,506.2,517.58,545.1,549.86,552.39,562.14,569.88,580.12,583.58,588.48,605.6,611.98,615.57,621.46,627.71,641.9,655.94,661.1,663.2,684.06,691.42,710.91,733.74,754.67,2601.8,2629.5,2631.7,3466.3,no
18.292,18.631,38.823,70.462,75.167,94.183,109.65,135.65,143.53,168.97,172.43,210.27,217.47,228.19,232.1,247.4,249.86,253.36,269.33,280.75,301.74,305.39,344.46,349.68,380.66,384.13,399.34,427.6,433.41,449.2,462.04,467.62,473.0,476.42,480.79,487.59,506.0,521.82,535.47,549.67,557.1,560.98,566.57,570.66,575.84,579.69,603.41,610.77,611.69,615.64,623.88,637.26,653.75,661.05,667.33,687.57,690.12,716.09,739.91,758.45,2625.1,2638.2,2653.3,3408.2,no
18.546,18.67,38.955,69.86399999999999,75.608,95.366,108.93,135.1,142.59,169.18,173.47,211.01,217.89,227.97,230.75,247.62,248.67,251.51,271.18,278.74,301.26,304.99,346.48,351.87,380.09,385.09,399.05,427.82,430.18,441.14,459.99,464.72,473.39,474.89,479.92,485.86,506.62,519.04,538.11,548.82,554.04,560.19,569.73,572.23,577.55,582.29,600.64,611.77,618.36,625.56,632.75,639.49,653.8,658.99,663.81,682.74,695.66,706.63,732.42,756.33,2632.1,2655.2,2657.4,3444.2,no
18.385,18.574,38.692,69.835,74.708,94.771,108.96,134.65,142.19,166.54,172.73,208.45,216.14,228.46,231.63,249.02,249.58,251.51,267.52,279.82,300.35,303.66,340.22,351.0,377.8,383.58,396.62,428.87,432.73,447.3,453.69,462.91,471.47,477.43,481.26,484.21,503.18,514.4,539.69,544.5,557.63,558.75,560.65,570.28,576.42,586.31,601.71,603.71,612.43,619.78,628.37,637.71,654.34,655.44,663.4,685.69,691.24,709.88,734.66,755.55,2610.0,2635.3,2636.5,3437.4,no
18.623,18.727,39.099,70.562,74.917,95.216,109.94,135.82,142.0,169.48,173.89,212.17,216.77,230.04,234.33,249.6,251.38,252.18,271.56,282.08,302.98,306.43,344.86,351.93,381.11,388.96,400.38,430.62,438.44,448.95,454.56,469.66,475.54,477.91,483.21,488.42,505.93,519.9,536.88,552.52,560.58,565.19,576.78,578.33,582.82,585.97,607.28,613.91,616.86,626.99,633.41,641.39,654.0,660.79,671.14,688.04,689.27,713.41,742.13,761.5,2613.4,2618.6,2640.3,3482.1,no
18.523,18.703,39.118,69.878,76.035,95.128,109.32,135.83,142.93,170.43,173.97,210.67,216.59,229.0,232.08,248.14,250.07,250.11,269.55,279.5,302.22,306.02,345.2,351.14,383.13,385.3,399.25,431.57,432.09,447.1,465.01,465.53,477.65,478.79,482.51,486.07,505.19,516.32,546.97,552.58,557.83,564.26,566.98,570.78,584.13,585.47,605.25,609.49,616.81,620.71,627.39,635.21,655.53,661.49,666.89,684.07,698.43,712.45,732.85,758.87,2597.7,2621.1,2622.6,3447.9,no
18.335,18.57,38.93,69.67399999999999,75.47800000000002,94.618,108.82,134.79,142.78,167.89,172.91,209.07,216.71,227.74,231.82,247.09,250.04,252.08,268.16,278.58,299.56,303.43,340.92,351.25,381.24,387.23,395.2,428.85,441.38,447.91,451.34,466.79,474.67,479.79,483.55,486.01,508.44,512.43,539.05,542.19,555.27,563.19,564.61,567.98,573.53,581.65,601.54,605.94,610.99,619.0,627.0,632.59,652.87,658.67,664.94,691.29,692.46,708.92,739.43,761.1,2622.4,2641.5,2643.9,3474.3,no
18.419,18.664,38.886,69.477,74.332,95.007,108.26,134.54,142.14,167.01,172.53,208.3,218.09,229.32,232.46,247.82,251.82,254.79,267.93,280.99,300.14,304.29,343.07,351.75,378.86,381.67,395.1,429.08,434.54,449.17,462.86,467.18,476.4,476.75,481.9,485.46,506.89,512.16,534.65,547.52,554.55,560.8,565.87,571.3,579.93,580.21,607.88,613.94,616.46,621.91,629.48,642.22,651.17,656.79,663.89,681.77,685.77,705.56,732.25,755.02,2602.9,2604.2,2626.2,3475.6,no
18.496,18.536,38.969,69.50399999999999,75.58800000000002,94.265,109.4,135.22,143.14,169.76,172.24,210.46,217.37,227.28,231.87,248.65,251.12,252.13,270.47,281.12,304.08,305.18,346.05,350.96,380.9,386.16,399.5,428.89,432.74,447.78,464.06,467.26,473.3,475.72,481.21,488.57,506.01,517.59,535.58,543.11,553.87,559.82,565.64,568.97,576.55,581.23,600.25,604.54,618.31,620.0,628.33,637.95,655.19,658.33,667.7,674.94,694.45,712.39,725.48,754.14,2625.7,2655.5,2658.8,3436.6,no
18.464,18.725,38.799,69.66199999999999,75.835,95.68,108.76,135.13,142.73,166.92,171.97,209.62,215.68,225.57,231.93,247.06,249.11,251.05,267.86,280.31,299.6,302.97,342.67,350.85,380.16,382.17,398.08,428.83,437.63,452.59,458.98,468.27,474.73,478.46,483.12,486.53,503.7,517.49,532.18,546.25,554.46,558.05,561.35,573.49,576.75,580.14,605.27,608.94,613.32,617.49,631.7,636.11,645.26,657.58,661.23,686.17,695.63,707.34,725.5,752.69,2616.7,2617.9,2618.2,3459.8,no
18.341.1,18.577,38.901,69.436,75.439,95.096,109.12,134.64,142.47,167.45,172.71,209.83,216.7,227.6,231.0,248.83,250.96,251.27,269.95,281.01,302.62,305.14,345.19,350.67,380.64,384.74,399.84,429.82,433.56,447.61,461.77,465.6,473.79,477.74,479.92,485.32,505.05,516.56,541.79,552.31,558.22,561.14,563.82,567.66,581.53,588.77,603.97,606.46,613.49,625.33,631.27,636.16,653.5,662.15,664.09,688.01,692.32,712.72,735.33,756.61,2599.2,2626.6,2628.5,3470.4,no
18.527,18.815,38.822,69.921,74.846,95.563,109.85,135.82,142.64,170.74,174.05,210.96,217.81,230.41,233.94,250.34,252.46,253.97,269.75,283.39,303.2,308.9,345.28,354.35,382.03,388.02,402.06,431.84,437.56,450.36,462.41,471.66,474.49,483.51,486.27,489.72,508.26,522.16,534.31,553.67,558.43,563.97,571.68,574.04,582.82,588.71,610.16,613.06,617.85,623.64,634.05,640.53,652.16,654.16,667.14,689.65,691.1,708.13,733.78,759.23,2603.8,2610.5,2635.3,3476.0,no
18.592,18.746,38.928,70.131,75.472,95.725,108.99,135.29,143.39,167.63,173.22,210.6,215.76,227.06,230.16,246.58,248.96,249.92,267.45,278.05,299.58,305.25,342.01,353.51,381.3,382.16,396.15,430.43,430.99,445.56,454.29,462.38,469.67,478.79,480.94,484.76,500.61,513.89,538.73,547.42,555.35,558.59,563.62,569.51,579.07,583.7,598.52,610.46,617.41,623.03,629.35,632.88,652.5,660.39,660.57,686.57,693.62,707.88,731.42,760.59,2626.0,2644.2,2646.1,3445.2,no
18.417,18.831,38.755,69.708,75.527,95.71,109.07,135.16,141.54,165.77,174.14,209.48,217.22,227.7,230.49,249.58,251.61,253.57,271.1,284.28,303.04,305.27,344.79,354.52,379.1,380.65,398.66,423.2,430.69,444.27,452.49,460.14,470.64,477.49,480.92,484.51,500.24,514.76,543.16,552.74,556.19,561.59,567.69,579.37,582.41,584.93,607.44,616.02,617.2,621.85,633.6,643.02,646.44,658.44,664.36,690.46,696.45,716.19,732.26,763.05,2627.9,2636.9,2641.8,3408.3,no
18.225,18.287,39.022,69.462,75.257,93.844,109.22,135.9,141.76,171.31,173.65,212.47,218.01,230.72,233.75,248.89,251.04,253.12,270.64,279.15,301.66,308.68,345.85,351.59,381.97,383.65,400.34,430.14,437.55,451.34,460.69,466.86,475.97,478.46,479.45,485.07,507.54,516.36,541.56,544.2,558.43,560.18,562.37,571.66,580.18,585.76,603.57,606.64,617.4,622.82,629.97,636.58,659.16,664.85,666.33,680.92,697.1,713.94,735.09,760.06,2600.3,2650.2,2650.7,3441.7,no
18.48,18.764,39.009,70.047,76.0,94.935,109.45,135.98,142.85,168.22,173.7,213.11,217.59,228.68,232.94,249.19,250.99,251.48,269.74,283.26,303.44,306.01,346.89,353.81,382.07,385.13,396.39,430.89,437.4,448.97,460.6,464.84,474.74,477.93,482.14,487.52,507.62,510.7,535.74,555.88,557.49,560.44,564.8,573.22,579.17,583.6,603.55,609.54,620.66,625.94,632.61,635.6,658.1,663.76,669.49,690.72,699.71,719.54,738.86,762.05,2608.0,2623.4,2626.5,3406.1,no
18.46,18.636,38.933,69.789,75.15,94.941,108.83,135.5,143.53,168.61,171.98,210.22,216.56,228.03,231.27,247.82,249.94,250.41,267.56,279.77,299.08,304.52,344.25,350.21,381.15,385.74,396.34,429.68,435.81,450.86,467.35,469.69,478.87,481.11,483.42,489.81,505.6,513.54,530.17,551.26,552.87,557.56,569.3,572.6,575.55,578.34,600.55,611.84,615.12,617.85,625.81,636.92,648.81,655.4,664.79,683.53,694.75,707.7,741.89,758.82,2625.0,2626.1,2660.9,3431.2,no
18.375,18.584,39.077,69.986,75.652,94.631,109.66,135.76,144.15,169.86,174.16,209.78,218.86,229.91,233.03,249.33,252.53,253.21,269.55,280.5,303.76,306.15,345.79,353.42,382.28,385.13,399.48,430.38,432.41,451.04,464.17,466.33,477.28,481.97,483.31,486.5,505.77,514.36,529.24,544.36,561.13,563.52,572.03,574.24,580.12,587.48,595.27,611.75,619.32,623.46,634.45,645.09,658.25,658.55,670.18,692.39,697.88,713.79,739.12,762.64,2618.3,2629.9,2656.2,3475.6,no
18.638,18.714,38.915,70.58,75.881,95.619,108.38,136.82,144.05,169.65,172.28,209.9,217.4,226.46,230.3,247.3,251.3,254.14,268.93,282.14,302.11,306.05,344.27,353.45,381.57,386.29,400.8,430.0,431.31,444.06,455.49,464.13,471.4,477.96,481.52,487.34,502.75,518.89,541.01,553.44,555.69,562.37,567.83,571.95,576.56,584.48,608.02,611.98,617.09,623.8,629.49,637.41,658.56,665.48,666.46,694.21,698.25,718.2,742.21,763.74,2604.4,2647.5,2662.8,3485.1,no
18.503,18.733,39.089,70.07,75.315,94.37,109.01,135.94,143.55,169.45,171.57,209.23,217.29,228.91,232.74,250.04,251.1,255.06,270.41,282.19,302.44,305.62,344.02,351.15,380.43,385.75,397.37,427.63,438.49,451.94,453.93,471.01,471.69,477.51,478.33,486.8,505.65,516.69,525.69,549.42,555.77,558.31,565.84,569.96,580.76,583.14,608.11,612.33,619.83,621.81,627.89,641.89,656.9,658.31,668.0,671.66,688.48,710.88,725.71,753.86,2617.9,2621.8,2649.9,3430.0,no
18.334.1,18.81,39.269,70.34899999999999,75.562,95.168,109.93,136.71,142.03,169.68,174.08,212.24,217.67,230.47,234.62,247.48,251.42,253.7,270.22,279.44,299.73,308.28,344.98,352.77,378.86,388.69,404.07,423.87,431.18,444.25,458.49,462.11,472.65,478.56,484.11,487.44,501.5,524.19,539.08,550.61,560.14,563.22,575.9,578.79,579.71,585.26,605.1,613.32,619.29,622.7,629.92,642.48,656.31,661.01,674.14,689.31,692.27,715.15,740.16,762.31,2619.2,2644.4,2665.4,3475.2,no
18.374,18.48,38.674,69.604,74.531,94.486,108.91,134.46,142.55,169.14,173.72,210.3,218.66,227.52,231.25,247.79,249.15,251.05,269.73,279.14,301.5,305.47,343.58,351.3,380.83,387.02,398.56,427.86,429.3,444.07,460.78,461.36,470.84,475.8,479.48,489.14,506.98,521.65,536.07,547.43,550.13,559.09,560.47,566.61,571.83,582.36,604.18,609.25,613.07,617.77,621.28,632.52,653.6,658.02,669.9,689.89,691.37,711.34,735.24,758.3,2606.3,2621.8,2639.9,3475.6,no
18.386.1,19.016,38.885,70.267,75.46,95.492,109.41,135.34,142.34,167.77,173.1,211.62,218.29,227.21,232.99,249.12,249.41,252.41,274.04,281.9,299.96,305.67,347.54,353.73,380.58,384.79,396.76,428.07,441.66,454.49,456.52,466.77,475.64,480.63,484.27,488.52,509.88,522.5,531.56,550.8,555.11,560.09,560.45,567.64,572.3,581.09,607.57,609.4,614.52,623.74,626.9,641.24,652.82,656.39,667.03,687.83,690.48,713.67,732.03,755.71,2603.6,2642.5,2660.0,3470.5,no
18.224,18.797,38.857,69.686,75.067,94.316,108.03,135.21,142.94,168.19,172.48,210.41,216.79,227.85,230.27,248.12,250.1,251.42,265.59,279.86,300.89,301.96,341.07,350.03,379.05,381.91,395.57,427.63,430.4,444.82,457.66,461.2,472.64,476.28,482.06,487.95,502.24,509.52,547.22,553.47,559.76,563.42,565.31,572.92,577.87,583.82,606.86,611.69,616.43,617.39,627.8,635.8,647.91,659.8,664.45,687.21,694.17,709.59,736.87,760.74,2606.5,2615.8,2655.6,3418.6,no
18.61,18.726,39.116,70.271,75.46,94.673,109.59,135.83,142.41,168.31,173.07,213.93,219.44,228.29,233.88,250.16,252.19,255.61,271.73,283.86,303.2,306.86,349.22,354.53,380.9,385.78,402.12,431.29,434.17,449.52,465.71,468.29,476.52,481.27,484.37,490.49,508.85,522.07,543.62,558.26,563.11,566.7,572.59,576.19,582.23,584.9,608.37,617.09,621.31,622.98,634.62,642.04,654.28,656.1,667.72,681.05,687.54,714.5,731.6,755.99,2603.9,2614.3,2634.7,3416.5,no
18.349,18.48,38.332,69.265,74.385,94.779,108.23,135.21,140.97,168.38,172.81,206.62,215.49,226.8,230.59,246.47,248.38,250.8,268.19,276.85,299.02,304.96,341.26,351.79,378.24,385.86,397.48,426.56,429.13,441.38,453.39,465.26,471.05,476.43,478.12,486.92,501.46,525.22,538.28,542.93,550.74,557.57,559.75,568.22,572.09,579.62,604.78,608.3,610.15,617.87,621.55,633.89,653.78,658.0,661.38,683.87,695.13,706.22,737.96,760.8,2619.8,2641.4,2642.1,3470.9,no
18.442,18.649,39.275,69.656,75.557,94.177,110.21,135.55,142.02,170.58,173.54,215.52,218.74,230.38,236.28,249.24,249.67,253.0,269.58,280.61,301.46,309.06,348.0,353.79,381.66,383.87,400.29,431.75,433.87,448.3,453.78,466.41,474.9,477.93,480.67,485.44,506.3,508.18,551.84,554.07,562.02,566.67,569.97,580.0,584.48,588.41,606.79,613.56,622.87,625.19,631.44,639.91,650.03,658.51,667.78,684.92,694.21,708.71,730.69,757.5,2613.8,2637.5,2658.9,3436.2,no
18.742,19.005,38.99,69.91199999999999,75.874,97.046,109.21,136.48,143.43,168.6,174.04,209.79,216.75,229.19,232.8,247.08,249.57,250.75,268.3,280.07,298.4,307.8,341.62,355.01,381.38,384.47,397.46,430.91,437.81,452.72,457.38,464.32,473.23,474.77,481.3,485.0,505.37,517.8,525.16,551.16,553.42,556.69,562.01,566.35,570.85,575.82,605.05,608.05,612.98,625.37,628.74,633.67,656.19,667.15,667.77,698.95,703.53,716.75,740.86,770.49,2608.5,2621.8,2647.9,3479.3,no
18.464.1,18.65,39.002,69.485,74.709,95.196,109.49,135.12,141.73,168.74,174.82,210.98,216.36,231.67,234.08,248.34,250.26,254.62,269.48,281.23,302.45,307.99,345.06,352.02,383.16,387.35,399.71,432.16,433.42,450.53,462.0,464.87,479.77,481.74,481.78,492.17,505.53,518.84,541.83,548.0,560.11,565.06,567.19,572.32,582.93,589.29,606.02,608.18,622.85,624.09,632.91,638.96,652.78,660.28,668.43,690.5,692.75,714.6,735.31,763.23,2630.3,2630.9,2659.7,3485.3,no
18.375.1,18.795,39.214,70.336,75.874,95.795,109.32,136.11,143.51,167.47,173.34,210.78,216.16,229.19,231.95,248.16,250.1,251.63,272.34,281.02,301.8,304.13,342.69,352.71,377.49,385.06,397.03,427.08,431.93,441.31,447.96,462.64,467.74,476.8,482.31,485.6,504.33,516.19,545.5,551.12,561.76,564.33,569.51,571.03,584.17,584.99,607.58,611.81,620.3,625.01,634.74,639.65,653.99,664.4,670.8,692.89,697.76,713.28,738.27,764.05,2609.4,2622.2,2632.1,3470.4,no
18.468,18.689,38.601,69.381,74.81,95.544,108.18,134.96,142.24,168.15,172.71,208.43,216.25,228.7,232.96,247.08,249.49,253.83,266.4,279.72,301.47,305.87,340.05,350.3,380.81,382.89,394.65,427.87,434.37,446.86,454.44,461.47,476.81,480.28,482.9,487.34,502.85,515.28,541.24,547.13,557.57,561.1,567.16,569.51,581.48,583.44,605.11,610.4,619.27,623.52,632.85,635.31,656.65,662.51,668.23,685.58,697.88,712.47,732.3,756.76,2601.6,2637.6,2640.8,3475.7,no
18.566,18.937,39.232,69.92,75.83,95.959,110.24,136.17,143.76,169.35,174.53,210.35,217.48,229.27,233.85,249.06,250.06,252.36,269.09,280.7,301.79,306.87,344.4,353.36,381.57,383.16,400.11,429.28,434.72,450.63,460.36,467.65,473.58,474.81,477.41,485.27,506.19,515.36,538.69,557.79,560.75,565.54,570.19,572.39,576.51,586.83,609.66,614.22,625.29,631.36,636.5,638.72,663.2,667.82,671.65,682.06,703.01,721.34,738.23,761.98,2615.7,2626.5,2635.5,3410.4,no
18.365,18.864,38.977,70.26100000000001,75.337,95.668,108.49,135.3,142.81,167.81,173.07,209.25,215.94,227.99,231.26,247.93,249.29,252.67,267.01,279.63,299.41,304.72,341.25,351.67,379.87,381.08,396.6,430.87,434.53,445.88,459.33,463.84,472.56,475.52,482.42,488.86,506.28,511.93,534.16,543.44,548.4,555.39,563.23,567.55,575.94,579.09,602.31,605.14,611.18,616.1,628.71,632.52,649.77,655.1,660.51,688.57,695.89,710.88,733.54,764.25,2620.2,2644.9,2655.4,3471.3,no
18.693,18.83,39.027,70.098,76.26100000000002,96.365,109.52,136.2,142.44,167.82,173.58,211.03,216.85,229.28,232.97,246.84,249.63,250.75,272.41,280.26,299.41,305.44,346.1,351.74,379.16,384.3,396.5,429.22,437.36,449.71,456.33,471.62,474.83,480.0,481.71,485.86,506.18,521.32,537.06,553.22,560.92,562.93,569.84,576.7,579.98,587.74,604.78,615.29,618.55,621.53,626.94,645.65,654.84,657.56,672.9,687.38,702.49,715.48,734.05,759.89,2632.4,2640.2,2643.8,3464.6,no
18.588,18.698,39.362,70.675,75.895,95.583,110.69,136.59,144.32,169.48,174.65,211.71,219.48,230.83,234.39,246.78,252.19,253.67,271.84,279.42,301.48,307.17,346.29,354.71,381.25,385.92,399.59,429.92,436.48,449.55,463.87,467.64,476.09,480.88,483.44,490.2,508.87,520.81,528.37,545.26,553.62,561.31,565.76,568.4,573.3,581.06,605.77,608.39,612.13,620.21,628.79,635.91,649.71,661.88,668.58,690.35,692.66,709.12,736.86,761.63,2614.7,2640.9,2645.4,3449.7,no
18.197,18.689,38.723,69.65,75.516,94.037,109.18,135.94,142.61,169.72,172.57,208.13,215.26,228.03,232.29,250.31,251.06,252.65,268.79,283.74,303.12,305.31,343.75,351.38,382.52,385.47,397.58,429.55,435.14,450.95,460.23,468.12,475.01,478.38,483.3,488.44,504.46,521.42,529.11,547.59,554.93,556.14,564.25,578.39,580.92,585.04,603.8,611.44,616.31,618.91,631.25,639.06,653.29,661.34,664.48,673.11,697.28,709.16,724.09,753.53,2608.0,2645.6,2650.0,3466.4,no
18.491,18.601,38.919,69.816,75.429,94.308,110.63,136.15,142.94,169.35,173.26,210.48,216.88,229.76,235.11,250.13,252.39,254.35,269.63,281.41,301.98,307.52,342.69,354.16,382.05,387.66,399.46,430.29,444.69,454.41,456.36,467.5,474.68,481.31,485.94,489.07,508.75,519.4,540.74,555.22,558.02,560.04,563.6,572.97,578.37,585.62,603.39,609.97,615.73,620.81,631.43,638.35,651.63,657.57,664.72,681.23,694.22,708.59,725.95,752.82,2620.1,2620.7,2640.2,3450.9,no
18.456,18.546,38.961,70.03399999999999,75.645,95.024,109.34,135.47,141.97,169.8,174.43,212.2,217.25,228.28,232.23,249.83,250.84,253.46,269.74,280.87,302.43,306.28,346.3,353.63,382.95,387.17,401.29,430.87,440.42,451.32,464.32,467.91,477.07,481.06,482.94,489.66,509.59,519.09,535.34,548.03,553.9,559.9,568.0,570.33,575.02,582.03,603.95,610.04,616.9,620.16,631.14,634.23,657.36,659.37,664.7,691.7,693.84,712.01,739.19,764.84,2620.5,2643.2,2656.2,3483.9,no
18.543,18.984,38.843,69.578,75.342,95.792,108.99,134.87,142.32,166.49,172.87,209.76,216.51,226.92,232.81,247.03,250.42,251.71,268.64,281.82,301.12,304.97,343.49,352.79,377.78,382.81,396.74,426.11,436.39,446.29,450.17,464.44,468.35,474.16,480.24,484.56,503.64,515.94,533.8,545.44,556.8,558.81,564.17,567.01,572.05,579.16,600.41,607.57,614.71,624.95,631.49,634.01,648.87,656.2,664.74,691.89,697.16,715.38,731.96,757.41,2605.9,2608.5,2610.2,3457.8,no
18.607,18.695,38.807,69.726,75.19,95.937,109.02,135.29,141.47,169.12,173.52,211.05,216.32,227.03,232.53,246.2,249.54,251.32,268.85,277.25,299.63,304.87,343.86,352.32,379.72,384.27,400.39,429.58,433.4,449.44,457.61,469.32,470.42,478.76,482.03,485.18,504.9,520.84,545.45,550.77,557.53,564.87,569.89,572.62,583.78,589.98,606.13,611.48,619.46,623.38,633.59,637.94,655.9,659.64,663.24,686.46,695.99,707.39,733.57,760.04,2607.1,2608.0,2659.0,3446.8,no
18.399,18.727,38.687,69.686,75.493,95.62,109.82,136.39,143.34,168.61,173.71,209.45,214.51,228.25,232.5,247.92,248.98,250.8,268.04,280.83,300.92,305.47,341.2,352.03,381.65,383.98,398.96,428.58,431.76,445.33,457.15,463.56,471.71,479.31,479.78,486.51,500.32,521.95,532.58,554.23,557.13,561.19,572.47,574.46,579.5,582.62,604.2,616.07,617.62,623.18,630.12,635.85,654.16,662.11,670.43,691.92,702.0,714.65,734.87,761.22,2605.4,2623.4,2641.5,3419.1,no
18.489,18.637,38.596,69.51,74.454,95.174,108.78,134.41,140.9,170.15,172.04,207.25,216.84,228.24,231.76,248.67,250.61,252.35,270.14,280.01,303.18,305.46,344.17,351.78,382.8,387.48,399.52,428.72,431.74,450.26,458.52,469.95,478.39,480.41,482.31,492.41,505.86,517.42,538.39,540.64,553.06,557.05,569.26,571.12,578.76,585.26,602.37,606.02,620.22,624.44,630.75,634.99,659.3,660.19,667.57,679.34,699.72,709.38,735.53,758.19,2621.0,2631.0,2644.6,3488.1,no
18.356,18.512,38.89,69.51100000000001,75.08800000000002,94.415,108.29,135.08,141.8,167.61,172.19,209.95,217.52,227.58,231.02,246.03,250.11,251.15,269.89,276.94,297.64,304.56,345.13,351.49,379.84,382.51,395.92,428.01,429.24,446.51,458.04,465.61,474.77,475.65,478.97,486.84,502.07,516.88,536.14,547.25,554.93,556.71,563.69,572.12,575.12,577.43,603.74,609.02,614.83,620.08,625.47,638.92,653.29,659.05,659.49,675.44,689.16,708.0,728.11,752.61,2621.4,2626.1,2633.4,3412.0,no
18.57,18.753,39.22,70.809,75.546,95.285,109.88,136.11,142.67,168.5,174.37,213.83,217.83,228.49,233.18,247.96,250.89,252.01,270.67,280.64,301.25,305.4,348.64,352.18,382.67,385.46,398.77,431.02,432.64,447.93,457.97,462.74,475.22,478.45,482.34,489.47,503.87,523.41,534.57,547.0,556.07,559.05,563.67,569.81,578.94,588.21,603.81,606.56,618.75,624.42,631.7,637.0,655.73,659.82,667.9,690.86,694.41,714.72,736.31,760.02,2620.5,2628.1,2644.2,3441.0,no
18.4,18.672,38.575,69.658,74.795,95.271,108.31,134.82,142.39,169.02,173.04,210.08,216.58,225.58,231.56,246.72,248.28,250.95,268.55,278.49,302.03,303.3,342.0,351.27,380.53,386.59,397.35,429.31,438.64,453.68,460.5,466.12,473.23,477.91,482.43,490.0,507.08,515.22,548.13,550.89,557.8,561.1,564.08,576.13,581.78,585.46,604.04,607.88,621.32,626.42,630.59,633.23,658.22,661.1,668.28,690.57,694.42,713.12,738.02,760.75,2617.5,2630.6,2646.5,3404.3,no
18.614,18.652,39.074,69.71300000000001,75.55199999999998,95.376,108.64,135.78,141.66,168.02,171.79,210.2,216.29,229.36,232.51,248.42,250.62,251.91,267.7,280.12,300.83,304.72,342.52,350.19,380.62,383.47,398.88,428.15,433.89,443.45,452.65,462.98,471.06,475.55,478.84,483.1,503.42,521.92,539.05,543.75,547.88,561.61,564.37,577.16,581.94,582.15,601.77,610.23,617.34,618.01,628.54,640.59,651.71,660.11,668.2,678.79,695.04,717.11,725.5,752.7,2595.3,2611.0,2634.7,3431.1,no
18.738,18.923,39.101,70.292,75.07300000000002,96.42,109.39,135.85,142.76,170.06,173.68,211.05,216.68,229.11,231.66,249.98,252.15,253.91,266.11,281.68,303.41,306.21,343.77,352.4,381.13,388.2,400.9,429.73,433.44,448.11,460.39,468.56,476.17,478.58,481.49,490.42,504.17,530.68,538.95,551.91,557.15,559.53,567.31,577.7,583.42,585.35,610.07,613.26,621.53,625.05,629.08,637.21,654.97,663.34,671.4,683.22,691.13,715.38,733.05,756.69,2604.2,2618.5,2620.3,3443.1,no
18.381,18.706,38.895,69.91,76.03,95.347,109.2,135.31,141.61,168.5,173.27,212.77,215.84,224.97,232.51,244.77,249.48,249.59,269.99,279.76,300.71,303.15,345.02,349.85,382.61,386.29,398.96,426.77,427.41,441.52,449.17,458.14,471.18,474.89,475.51,487.12,498.48,524.1,537.25,546.38,560.73,562.45,567.06,575.05,580.74,584.85,605.4,608.38,617.82,627.71,629.28,636.63,661.11,667.96,674.35,684.15,702.98,717.9,732.28,760.88,2612.1,2617.6,2633.0,3475.6,no
18.503.1,18.675,38.767,69.51899999999999,75.265,94.792,109.37,135.19,143.47,167.87,171.28,207.63,217.55,227.65,231.62,249.24,249.39,252.93,271.8,281.93,300.9,305.83,346.83,350.59,380.69,383.14,398.19,428.3,435.13,450.38,465.59,469.73,477.14,479.33,482.6,488.66,505.6,515.36,539.55,552.31,554.87,562.77,566.6,574.49,578.16,583.62,602.93,614.77,618.79,619.93,630.27,639.77,648.72,655.29,663.04,678.37,691.42,708.37,725.62,749.26,2604.2,2625.2,2625.6,3449.1,no
18.576,18.738,38.966,69.42399999999999,75.64699999999998,94.95,108.09,135.22,143.24,167.78,170.84,209.61,217.12,227.45,232.36,248.08,248.43,252.87,268.54,280.73,298.81,304.12,345.09,350.78,379.09,382.73,397.92,429.61,435.52,451.94,453.84,471.68,472.18,477.46,478.72,483.06,506.2,514.64,541.38,552.99,559.38,562.4,571.69,577.83,579.89,582.08,607.88,616.41,620.57,622.56,629.96,641.96,653.73,655.19,663.16,676.0,696.52,707.77,720.35,748.83,2612.2,2619.4,2636.0,3464.3,no
18.437,18.637,38.979,70.36,75.962,95.197,109.31,136.3,143.16,167.95,174.23,211.33,217.61,228.72,230.97,247.82,250.52,253.92,269.61,279.7,301.26,303.45,345.11,353.13,380.78,385.38,397.23,430.5,432.95,449.15,463.67,470.32,474.99,482.18,483.64,490.63,505.98,522.15,540.44,557.9,560.21,561.68,572.74,574.99,581.96,587.37,608.59,616.76,617.67,623.6,632.06,642.45,657.35,661.74,666.56,690.38,696.08,713.9,738.74,764.01,2597.7,2621.2,2628.9,3438.4,no
18.409,18.665,39.12300000000001,69.70100000000001,76.085,94.792,109.16,135.55,143.76,167.36,172.72,212.95,216.93,228.29,231.68,247.66,248.84,251.16,266.85,279.75,299.97,303.81,343.55,352.74,382.85,385.02,395.94,428.46,433.89,445.67,460.51,462.99,473.49,476.15,482.21,487.58,505.33,515.49,536.72,552.96,561.02,562.08,564.43,570.66,578.65,583.78,604.3,609.25,619.39,625.22,628.12,633.2,656.42,661.17,666.21,677.79,697.67,712.42,726.7,754.64,2613.9,2628.7,2651.5,3474.3,no
18.308,18.526,39.169,69.654,75.4,94.277,108.52,136.09,141.94,169.36,172.8,211.9,217.17,229.56,232.38,249.62,250.93,252.91,268.91,281.69,300.74,306.3,344.86,350.35,379.14,384.12,400.33,427.73,430.89,444.43,450.04,464.73,472.03,473.09,477.12,482.32,503.92,511.38,540.49,547.24,555.67,563.3,574.62,578.18,580.47,583.61,604.14,615.85,622.2,625.81,633.66,641.19,657.91,666.02,670.82,679.82,693.27,719.05,738.31,760.26,2605.6,2622.9,2663.7,3438.5,no
18.554,18.853,38.878,69.777,75.003,96.453,108.32,135.24,141.34,167.82,173.44,209.25,215.61,228.12,230.65,249.13,250.4,252.5,268.34,281.9,302.27,306.49,341.57,351.77,377.54,387.19,398.33,427.37,429.24,442.63,452.55,462.41,471.24,476.01,480.38,486.41,498.58,521.17,537.65,552.78,557.32,562.87,569.15,577.74,581.93,584.83,611.56,616.17,620.33,623.75,632.29,639.72,658.73,663.81,672.89,690.36,690.67,720.12,743.68,765.11,2601.9,2607.6,2642.5,3439.2,no
18.47,18.593,39.021,69.778,75.479,95.458,110.18,135.85,143.41,169.02,173.88,210.01,217.25,228.64,233.68,249.91,251.11,252.71,268.84,280.69,303.47,306.52,341.71,354.78,379.69,382.37,397.27,427.37,432.84,446.15,456.54,465.54,471.24,478.99,482.87,484.44,501.59,512.59,534.67,555.49,558.69,565.46,569.66,572.22,575.33,581.17,606.0,612.54,621.5,626.17,635.24,638.13,659.03,663.54,667.06,691.33,696.2,716.86,739.16,761.69,2604.0,2612.3,2655.9,3468.2,no
18.443,18.728,39.182,70.248,75.696,95.24,109.17,135.81,142.25,168.77,173.32,212.0,216.67,229.37,232.57,248.1,249.41,252.61,268.67,279.14,300.01,304.26,343.12,350.89,380.2,385.03,394.94,427.28,435.37,452.95,454.6,468.69,471.63,473.52,481.06,483.67,507.99,522.43,530.18,545.09,556.15,558.91,566.28,569.38,576.96,580.5,604.48,605.14,616.61,622.87,623.28,636.54,656.06,665.74,670.01,688.29,696.18,715.98,737.07,759.47,2634.4,2641.6,2648.7,3424.3,no
18.546.1,18.621,38.941,70.081,75.289,94.763,108.3,135.87,141.74,168.53,173.07,210.86,217.36,228.86,230.74,249.44,249.59,251.7,271.59,281.04,301.27,303.17,345.03,350.43,382.38,383.82,394.58,428.54,438.32,448.19,452.41,467.24,474.32,476.63,484.28,484.5,507.53,516.17,536.49,541.48,557.46,561.94,564.0,568.32,571.47,582.68,601.99,611.88,620.07,623.58,627.71,638.09,657.06,664.25,665.13,689.13,694.81,712.78,735.66,757.84,2644.8,2658.4,2664.6,3470.0,no
18.159.1,18.415,38.734,69.372,74.374,93.466,108.54,134.07,142.32,167.58,172.3,208.72,217.71,228.22,230.85,248.34,249.77,253.04,268.8,278.08,299.46,303.86,342.51,349.54,379.23,383.56,394.21,427.0,429.3,444.92,461.48,464.64,473.51,476.85,480.16,488.59,505.86,511.6,536.85,548.28,553.12,558.4,566.0,572.99,575.31,579.46,604.62,612.71,616.84,619.44,628.58,637.8,651.34,655.94,661.62,677.09,686.41,707.36,723.96,748.8,2602.7,2610.9,2644.2,3447.3,no
18.481,18.693,39.519,70.517,76.965,96.234,111.13,137.24,146.97,170.14,175.22,209.68,218.4,229.83,232.85,250.71,252.5,253.04,269.62,282.29,304.54,306.61,343.6,353.3,384.53,386.51,401.66,431.79,433.4,447.39,464.67,466.75,478.29,484.3,484.41,491.78,509.58,521.76,545.75,557.83,562.15,563.73,565.59,572.41,579.62,585.76,607.04,612.83,628.54,630.63,633.3,637.0,664.13,668.77,672.43,690.91,709.76,719.45,736.46,763.78,2606.3,2620.2,2656.1,3446.2,no
18.412,18.606,39.189,70.125,75.494,95.131,109.86,136.83,143.57,172.2,173.73,210.93,216.91,229.8,233.81,250.38,253.69,256.42,268.37,283.7,306.09,311.04,345.35,352.5,379.1,388.2,403.98,427.95,433.0,446.02,460.7,467.42,475.84,477.03,481.41,489.78,505.86,519.76,541.32,554.76,558.26,562.32,567.77,571.32,579.36,584.4,606.85,613.57,623.29,627.32,632.66,637.89,656.95,665.99,669.72,690.91,696.01,714.7,742.81,764.52,2636.1,2638.8,2642.2,3465.4,no
18.519,18.551,38.342,69.102,74.002,94.88,107.65,133.73,140.23,167.47,171.98,207.07,214.66,224.98,229.09,245.94,247.01,248.68,266.59,277.01,297.89,302.62,342.25,349.1,376.46,379.08,395.48,424.57,428.5,444.71,455.07,463.3,470.46,474.66,476.13,480.06,499.39,510.48,538.07,542.39,555.47,556.32,562.83,569.02,572.92,576.66,602.1,609.03,613.47,621.54,627.69,632.07,653.99,657.19,663.63,676.9,687.43,710.53,734.66,755.58,2622.7,2648.2,2657.3,3445.3,no
18.395,18.668,38.853,69.628,75.079,94.925,108.64,135.77,142.56,167.1,172.12,208.62,215.46,227.77,230.9,247.66,250.32,251.19,266.95,279.8,300.07,304.58,339.65,349.68,377.17,381.46,397.89,425.44,428.09,442.0,451.99,461.06,466.14,472.77,475.52,481.99,498.21,518.24,535.48,550.64,555.92,558.37,561.95,569.85,572.9,574.51,600.95,608.89,617.36,621.78,626.71,630.77,651.77,659.08,664.57,677.16,691.98,716.41,730.28,754.36,2644.4,2649.7,2650.8,3422.3,no
18.514.1,18.733,39.167,69.76,75.484,95.474,109.29,135.24,143.64,167.72,173.11,211.19,216.37,229.41,232.39,249.4,250.57,251.62,269.81,283.12,303.49,304.58,344.41,351.04,381.75,384.28,397.02,430.62,435.24,448.93,457.79,472.14,474.85,479.47,481.67,484.46,505.16,518.1,541.94,551.49,561.01,565.13,568.43,578.62,584.35,585.63,605.47,616.03,622.6,626.38,632.23,641.46,655.81,663.16,668.53,686.31,694.96,714.09,733.94,757.7,2616.4,2619.1,2624.3,3421.0,no
18.52,18.717,38.814,69.656,75.206,95.3,108.41,134.76,141.56,169.66,172.01,209.59,215.54,227.15,230.4,247.24,248.25,250.16,267.84,278.07,299.3,305.03,341.2,348.72,380.14,384.84,394.85,426.06,433.38,447.01,452.46,464.8,472.46,476.05,477.59,482.65,501.05,516.43,534.37,545.04,555.59,563.13,565.94,567.82,571.0,580.87,604.79,605.99,616.31,621.43,624.82,632.02,658.36,659.93,666.37,681.11,691.93,711.1,730.31,753.94,2606.7,2612.0,2634.1,3456.0,no
18.355,18.714,39.064,70.033,76.053,94.846,109.92,136.29,143.03,169.14,174.28,213.53,218.45,230.69,233.7,245.29,251.61,253.16,269.86,278.95,301.14,305.72,345.95,355.22,383.18,385.18,396.78,430.78,435.04,447.73,457.92,466.73,477.97,480.3,481.53,489.7,504.77,521.41,534.66,554.34,559.93,563.33,572.89,575.73,579.73,583.77,606.49,611.82,617.63,622.31,631.3,639.99,653.68,658.75,668.59,685.65,700.06,704.93,732.13,758.0,2605.7,2632.7,2651.8,3472.3,no
18.731,18.884,38.954,70.065,75.509,96.07,108.97,136.07,143.51,168.85,172.87,209.83,217.05,226.79,231.33,247.59,248.31,251.92,267.29,279.56,299.28,303.36,342.79,350.86,384.1,386.24,399.57,428.33,431.55,449.89,455.63,464.94,473.02,480.45,482.37,493.81,504.77,524.18,540.03,556.83,561.31,565.88,567.66,572.57,577.57,587.2,612.94,614.46,622.63,624.11,630.3,639.78,654.45,666.2,667.47,681.44,698.27,710.6,727.82,754.51,2634.9,2637.2,2638.4,3458.7,no
18.608,18.697,39.083,69.773,76.03399999999998,95.651,109.35,135.34,142.75,167.06,172.42,213.57,216.02,227.28,233.88,246.68,248.39,250.99,268.42,280.24,298.06,304.23,345.49,351.93,377.6,383.18,396.14,428.32,438.05,448.71,457.52,465.92,473.22,477.85,482.33,485.3,507.93,513.26,537.87,554.32,560.22,560.94,570.48,572.3,573.84,581.65,601.88,611.85,620.25,623.74,630.81,639.23,653.6,660.75,666.22,694.78,696.61,714.27,730.42,754.48,2621.2,2656.2,2664.2,3405.5,no
18.483,18.705,39.1,69.812,75.859,95.727,110.12,135.8,143.78,169.68,174.41,211.6,218.09,230.25,232.96,249.09,251.84,253.61,267.84,279.44,301.74,308.86,343.05,354.45,383.34,384.1,399.51,429.31,432.27,447.04,458.81,463.56,476.99,479.64,481.12,485.24,501.62,517.9,546.23,557.54,562.67,566.91,571.78,574.65,582.35,585.51,610.15,612.16,617.64,627.65,634.15,638.7,656.15,660.48,667.34,687.1,699.89,709.79,733.71,759.92,2608.8,2613.5,2647.0,3460.3,no
18.344,18.717,38.852,70.005,75.327,95.423,108.57,135.96,142.47,168.19,173.34,210.44,216.25,228.04,230.98,246.1,248.95,251.41,269.25,278.37,298.92,304.01,344.03,352.23,379.53,385.36,394.41,429.03,431.14,443.94,454.71,465.23,468.77,475.7,484.24,489.7,503.31,517.04,541.31,551.19,555.06,566.28,567.45,573.27,582.69,589.12,607.94,613.48,615.31,622.69,632.77,638.26,652.55,659.76,667.16,696.37,699.45,712.5,739.98,768.73,2606.6,2624.1,2650.2,3433.3,no
18.365.1,18.46,38.989,69.389,74.78,94.955,108.84,134.37,142.46,169.13,172.83,209.17,218.08,229.21,232.4,246.7,250.51,251.85,272.0,278.39,300.02,305.83,343.92,350.06,380.14,382.76,394.93,427.36,435.86,447.91,451.78,465.87,473.44,476.23,479.87,481.78,503.83,512.87,529.62,545.8,554.91,560.09,564.39,566.34,571.19,579.04,604.84,608.55,616.21,621.56,626.79,638.0,651.11,656.64,661.39,687.88,691.55,702.9,732.13,756.38,2615.9,2626.4,2641.4,3405.4,no
18.484,18.796,38.688,69.899,75.186,95.673,109.22,135.61,141.6,168.23,172.87,210.6,216.58,227.62,232.65,248.05,249.7,250.61,270.37,279.78,299.99,306.42,344.97,352.35,379.04,382.67,398.46,427.48,433.07,446.2,453.01,467.9,470.86,477.53,479.12,484.22,502.22,516.87,539.07,553.22,561.5,564.61,569.99,575.57,577.14,581.12,608.17,613.63,616.34,621.12,629.92,638.47,657.75,659.92,668.25,689.6,693.03,716.01,739.03,762.89,2610.4,2614.0,2651.6,3465.1,no
18.485,18.737,38.558,69.635,74.308,95.411,108.91,134.39,141.2,168.1,174.64,209.29,215.74,227.55,231.64,248.18,249.37,252.76,266.3,278.5,301.29,304.17,340.95,353.49,381.75,386.16,396.72,430.76,437.63,452.28,466.3,469.23,477.73,480.13,482.8,489.22,506.86,520.31,536.96,545.59,555.17,560.7,565.55,570.01,581.65,588.64,602.37,607.59,619.15,622.45,630.5,637.15,653.3,660.46,667.67,688.06,693.42,706.9,735.73,761.33,2609.9,2632.2,2638.9,3482.0,no
18.63,18.715,38.844,69.852,75.83800000000002,96.207,109.16,135.06,141.83,168.66,173.73,209.97,217.45,228.46,232.15,248.31,250.6,251.87,269.35,279.37,300.04,305.87,343.25,352.14,384.17,384.9,399.36,429.74,434.44,451.41,456.06,466.11,474.78,480.66,482.66,486.01,505.08,521.77,541.76,549.71,562.76,564.01,571.34,576.43,578.67,582.93,608.97,612.21,619.26,624.07,631.03,637.8,659.72,664.4,667.94,691.16,701.31,713.58,733.84,758.16,2629.9,2643.9,2655.2,3412.5,no
18.39,18.538,38.74800000000001,69.286,75.074,94.305,109.14,134.45,141.83,168.77,172.84,210.7,216.71,229.73,231.75,248.55,251.57,252.19,267.29,280.09,300.9,306.16,342.31,350.75,379.9,382.31,397.13,429.54,432.89,445.78,460.17,465.74,472.8,477.85,482.41,488.45,505.94,507.79,541.28,554.51,558.48,565.12,571.02,572.61,577.4,586.72,601.45,613.95,617.43,618.61,635.45,640.14,646.23,656.39,662.49,685.36,687.72,703.19,729.36,752.35,2640.3,2641.2,2647.0,3406.2,no
18.401,18.738,39.09,70.52199999999998,75.932,95.046,110.0,136.96,142.96,170.46,174.39,213.51,217.63,229.31,233.15,248.63,254.06,255.25,269.73,283.76,303.57,307.78,344.57,354.55,381.54,387.25,400.89,429.53,433.57,441.74,457.25,463.95,473.06,477.65,483.17,486.31,505.75,524.24,538.16,550.09,559.52,565.22,569.4,573.94,577.2,586.12,609.48,610.88,618.11,623.59,632.45,638.57,662.91,670.77,673.31,696.36,700.41,723.66,743.28,766.3,2600.3,2617.0,2634.7,3422.2,no
