18.638,18.718,38.984,70.054,75.528,95.851,109.55,136.19,142.26,168.82,173.09,211.7,217.47,229.26,234.57,249.13,249.48,251.97,273.7,281.72,301.05,306.32,346.66,352.17,380.58,387.99,399.38,429.79,436.07,453.33,458.93,470.59,474.38,477.58,484.51,493.21,510.01,518.22,534.24,554.84,558.22,562.51,569.82,574.65,576.87,582.31,603.39,617.65,620.12,621.25,631.18,641.58,655.39,661.76,667.81,694.3,695.08,714.22,739.62,761.27,2632.8,2635.9,2678.1,3597.3,si
18.374,18.551,38.921,69.354,74.416,93.954,108.4,134.18,141.39,169.33,172.4,211.34,216.67,227.91,230.38,248.81,248.84,249.63,267.74,277.73,300.63,304.55,342.92,348.06,375.43,383.45,394.81,420.13,425.35,435.5,452.09,457.99,466.18,472.18,474.02,480.72,496.33,514.62,539.87,553.56,557.58,561.68,570.78,574.77,576.72,580.79,605.3,616.02,618.8,624.17,629.12,639.17,647.13,656.92,664.56,672.56,685.96,705.49,729.82,751.5,2608.2,2647.1,2718.3,3578.1,si
18.253,18.542,38.633,69.065,74.977,95.237,107.96,134.31,141.08,166.08,171.84,210.29,217.87,228.47,231.33,249.37,250.84,252.1,271.01,281.21,301.03,302.75,344.05,350.64,379.86,386.51,396.14,426.87,433.26,451.12,460.47,470.88,476.23,478.49,479.1,490.5,507.48,521.61,538.91,547.77,558.51,563.21,571.94,573.54,583.06,589.26,611.01,613.67,616.46,621.89,627.17,646.01,655.93,659.34,669.2,686.43,696.17,715.47,733.48,755.85,2611.8,2660.0,2700.6,3583.8,si
18.373,18.505,38.215,69.24,74.628,94.442,108.23,134.48,141.8,167.77,173.1,207.55,216.77,224.77,229.26,244.32,247.02,251.16,270.66,277.17,299.45,300.91,345.32,351.57,377.1,381.08,394.49,426.2,432.78,446.5,457.82,464.47,471.09,477.43,477.97,483.77,502.53,512.39,529.54,549.79,554.23,560.1,562.75,571.03,573.02,577.75,602.94,610.59,612.04,618.93,624.83,637.26,647.46,653.7,662.2,680.81,694.69,699.57,728.84,758.15,2618.9,2637.5,2686.2,3602.4,si
18.31,18.725,39.261,70.418,76.641,94.988,109.85,137.41,144.28,169.52,173.35,213.66,218.34,230.79,233.49,249.4,250.99,252.98,271.85,281.71,301.9,306.37,346.19,352.15,384.09,387.84,399.06,432.01,437.88,449.33,456.04,466.15,474.57,482.02,483.24,488.41,505.87,526.79,535.24,554.34,558.82,564.41,565.02,573.28,582.45,586.39,603.85,613.63,615.33,623.39,633.55,640.58,660.38,663.75,673.32,690.66,703.87,714.0,733.46,760.52,2641.6,2646.8,2672.7,3547.4,si
18.375,18.623,38.76300000000001,69.78,75.028,94.442,109.15,136.08,141.65,168.0,173.61,210.56,216.47,228.28,232.74,249.62,250.01,253.26,269.17,282.21,302.81,304.61,346.86,351.93,381.29,383.26,399.45,429.99,434.94,449.43,465.03,469.9,477.21,478.54,482.78,489.89,505.43,519.88,531.97,543.02,558.26,561.86,570.3,572.16,577.37,582.68,604.25,613.79,620.13,623.23,633.34,638.96,656.85,660.42,665.23,680.92,692.9,715.24,734.25,758.94,2615.6,2661.8,2685.2,3575.4,si
18.575,18.647,38.79,69.579,75.146,94.705,108.88,134.95,141.76,168.32,173.39,210.94,217.47,229.13,231.98,245.01,249.03,251.75,268.32,278.14,299.73,304.91,344.23,352.49,380.83,382.7,394.42,427.55,433.26,448.25,458.88,463.38,472.56,476.1,480.32,485.18,501.96,510.43,525.83,549.14,550.48,555.89,562.66,566.46,572.67,579.02,601.45,606.18,614.32,617.9,622.84,634.07,650.92,652.84,664.03,682.78,691.97,705.05,728.2,756.13,2624.9,2661.7,2715.1,3604.5,si
18.467,18.627,38.143,68.792,74.095,94.784,107.7,134.0,140.47,169.01,171.22,205.72,213.58,224.88,229.61,247.31,249.42,249.85,264.52,277.61,299.69,303.62,337.74,348.66,378.09,383.85,396.63,426.68,432.68,449.22,452.0,461.81,472.4,476.04,479.82,486.74,499.53,516.66,536.96,548.47,558.08,560.5,564.08,570.33,580.28,584.32,604.39,606.14,614.71,620.8,628.16,634.34,651.91,659.5,668.03,676.24,684.86,708.97,731.49,752.1,2606.0,2658.1,2693.3,3582.5,si
18.331,18.55,38.586,69.145,74.348,94.518,108.09,134.81,141.69,167.1,171.64,207.39,217.05,227.04,231.03,247.17,248.63,251.19,268.99,279.38,300.24,302.44,342.67,349.65,378.63,380.35,394.94,427.33,428.77,441.35,454.07,461.09,469.04,473.33,475.89,486.85,503.84,517.86,544.17,553.52,556.97,558.64,559.26,575.74,579.0,580.92,603.5,611.14,615.67,623.2,627.91,641.69,646.93,653.62,663.55,677.66,689.37,708.23,728.81,754.03,2628.6,2632.6,2700.9,3561.6,si
18.406,18.656,38.49,69.165,74.55199999999998,94.496,107.89,134.48,139.95,168.92,171.03,211.95,217.05,225.88,232.33,245.53,247.67,249.54,269.74,279.64,299.03,302.05,346.28,349.0,380.71,383.38,396.26,425.26,433.56,445.96,453.98,461.14,472.31,474.46,484.59,487.84,505.5,520.4,537.52,555.19,559.75,559.88,562.87,574.94,578.14,583.01,602.44,612.76,614.05,622.99,626.4,639.43,651.92,655.09,665.67,673.33,693.5,707.25,723.42,749.94,2615.2,2629.3,2686.9,3573.9,si
18.49,18.575,38.832,70.032,75.268,95.044,109.27,135.75,144.38,166.78,173.21,206.33,216.34,227.5,230.48,248.71,251.06,251.96,268.1,280.33,300.64,304.96,339.94,352.31,379.55,382.61,396.01,428.51,433.04,445.05,452.87,466.88,471.8,478.37,482.23,485.12,501.23,514.78,539.86,543.36,553.83,560.9,562.38,565.77,576.46,582.58,602.77,604.22,616.89,617.2,628.25,632.85,649.0,658.51,662.36,689.94,691.46,710.8,731.21,758.55,2618.8,2652.8,2708.1,3625.3,si
18.277,18.528,39.056,69.704,75.509,95.025,109.17,136.08,142.92,167.1,173.44,210.7,215.92,228.83,233.49,245.98,248.52,251.89,266.92,277.66,298.22,302.7,342.19,351.84,378.33,379.98,397.22,428.29,429.2,440.46,454.44,466.46,468.91,472.94,479.44,484.79,502.85,511.12,540.53,544.93,559.11,562.88,570.14,574.8,578.65,582.75,601.86,608.32,618.0,622.97,630.84,636.84,655.74,659.89,664.91,696.65,698.04,713.01,735.41,762.39,2604.6,2643.0,2665.9,3616.7,si
18.52,18.641,39.053,69.738,75.617,94.924,108.82,135.13,142.23,168.92,172.46,211.45,219.08,229.42,231.8,248.03,249.47,252.51,271.66,278.49,300.05,305.02,344.97,350.66,382.14,388.91,395.84,428.32,433.91,446.12,456.23,469.54,473.54,478.88,484.4,493.34,507.16,516.65,537.02,551.76,557.83,558.95,566.99,570.99,574.06,582.85,607.48,612.81,613.4,619.22,623.93,640.42,651.03,660.18,664.98,684.85,695.2,704.63,730.95,754.6,2602.1,2635.3,2700.3,3561.0,si
18.248,18.561,38.603,69.226,74.505,94.228,109.17,134.94,141.87,168.13,172.84,206.9,216.73,229.04,233.6,247.6,250.02,254.34,267.74,278.49,299.99,303.67,339.26,350.95,379.64,383.65,397.3,429.11,440.4,451.98,452.82,461.7,473.46,479.52,481.51,484.92,505.64,519.28,543.23,547.5,548.48,557.7,563.23,576.11,579.77,586.68,600.28,608.53,612.7,616.94,629.65,636.94,650.97,654.22,665.67,685.63,692.31,707.53,728.7,753.71,2634.0,2641.2,2711.7,3555.6,si
18.524,18.957,38.944,69.833,75.64399999999998,96.548,108.69,135.9,143.27,167.51,172.71,208.73,217.28,227.97,231.42,246.25,248.91,251.85,270.09,277.42,301.0,301.97,344.42,351.19,379.59,383.33,396.89,429.84,436.72,448.71,462.89,471.82,473.24,478.28,480.88,487.41,504.94,516.97,548.5,551.35,555.71,565.09,570.35,579.29,581.73,583.68,604.56,610.16,619.4,621.01,633.35,643.73,657.21,658.06,671.4,692.53,702.99,715.67,732.28,760.4,2616.4,2622.3,2708.4,3576.8,si
18.376,18.663,38.967,69.831,75.561,94.879,109.83,136.26,142.67,168.07,173.46,212.02,217.06,229.61,232.86,247.79,251.21,251.55,269.58,281.59,299.55,306.52,346.26,352.04,379.29,383.45,398.19,426.84,430.26,444.71,457.78,466.9,471.83,475.67,478.72,485.57,503.43,512.12,534.69,552.56,557.75,560.95,570.21,574.9,576.71,589.88,604.96,613.41,617.27,622.08,635.79,640.78,651.94,655.54,663.95,689.89,693.79,712.52,732.86,758.3,2609.7,2640.7,2709.8,3627.8,si
18.427,18.476,39.023,69.87899999999999,75.237,95.104,109.13,135.71,141.89,166.37,174.16,210.79,218.76,229.81,233.61,246.29,253.29,254.55,270.95,279.87,300.59,304.0,344.81,351.76,378.26,382.08,397.54,429.86,430.07,447.03,457.81,465.67,475.87,478.06,481.74,485.0,503.69,513.69,537.0,551.02,559.27,561.58,569.93,576.01,578.1,580.9,604.44,615.97,617.99,620.65,631.95,647.77,649.09,657.8,660.81,692.0,696.18,711.55,731.72,762.34,2639.9,2643.3,2682.4,3625.5,si
18.58,18.662,38.993,69.94800000000001,75.918,95.955,108.62,135.76,142.77,168.22,173.32,210.74,218.22,228.07,230.92,249.16,251.43,253.89,269.81,282.04,302.84,304.51,344.89,352.77,381.56,385.85,399.44,429.72,431.68,445.38,456.06,464.22,473.9,477.13,480.59,485.65,502.39,521.55,541.59,552.32,561.52,562.47,567.93,571.2,574.98,584.61,611.9,612.57,616.51,625.3,632.39,638.02,661.09,663.89,667.72,696.13,697.32,715.34,739.6,761.78,2611.0,2654.3,2719.4,3588.5,si
18.508,18.753,38.784,69.874,75.17399999999998,95.228,108.34,135.29,141.72,169.5,172.89,212.14,216.6,227.4,233.08,247.75,249.73,252.7,266.57,279.97,302.11,304.44,342.27,349.54,379.94,384.37,397.05,428.58,442.94,454.94,465.93,472.23,477.81,480.31,484.46,488.94,507.57,516.41,528.23,550.7,554.21,565.63,575.43,580.07,582.11,586.45,604.13,609.1,618.2,622.72,635.42,641.83,654.32,659.16,667.58,690.34,692.89,711.66,730.54,755.31,2615.8,2652.9,2659.2,3600.8,si
18.323,18.758,39.02,69.495,75.173,95.201,108.62,134.99,142.99,167.3,171.42,210.24,216.67,227.31,231.88,246.12,248.48,251.15,268.28,279.95,299.15,302.37,344.88,348.48,379.49,382.48,396.78,426.21,436.17,448.35,458.66,468.17,471.32,476.96,478.12,488.02,506.67,509.26,533.78,551.55,553.93,558.27,569.02,571.47,575.8,579.49,600.82,612.31,618.65,624.56,630.6,638.9,653.18,656.58,662.62,678.48,695.12,709.88,730.0,752.68,2609.2,2614.2,2715.0,3620.4,si
18.441,18.685,38.978,69.672,75.45100000000002,94.559,109.3,135.34,142.21,168.74,173.41,210.57,217.68,229.8,233.19,248.93,250.54,253.05,269.08,280.43,301.3,305.14,343.41,351.67,378.68,384.99,399.73,428.86,430.44,448.47,459.08,468.36,471.14,473.86,479.05,487.89,509.43,518.59,549.47,554.94,563.8,565.45,569.49,573.98,580.74,595.95,610.96,612.08,618.49,624.13,633.87,640.22,658.47,661.8,668.67,677.59,694.19,711.92,731.47,755.62,2618.0,2627.3,2700.2,3615.0,si
18.686,18.851,39.277,70.22800000000001,76.56,95.325,109.54,135.94,143.04,167.69,173.06,211.28,215.98,229.31,233.26,245.34,249.09,252.34,270.37,279.89,298.72,306.45,343.86,353.01,380.0,386.4,397.42,425.4,430.08,438.77,450.29,463.07,469.32,470.42,480.9,482.68,499.04,512.15,543.41,549.72,559.35,561.14,568.03,576.22,579.98,584.49,602.62,611.67,615.89,618.9,623.95,639.44,650.45,656.95,663.5,681.69,700.0,706.55,727.09,755.03,2611.0,2623.5,2715.3,3547.0,si
18.538,18.877,39.177,70.14399999999999,75.61399999999998,95.878,109.08,135.92,144.72,168.57,171.54,210.43,217.52,227.52,232.01,248.06,251.3,253.47,269.67,281.19,301.22,304.54,343.81,352.58,382.84,385.7,399.35,430.13,441.28,451.84,456.52,470.26,475.44,481.73,483.91,487.29,506.94,517.1,542.78,546.76,556.18,564.06,571.82,577.47,582.75,583.29,602.58,614.53,621.08,625.13,630.3,640.83,653.98,659.67,664.5,686.22,692.25,710.62,735.91,756.25,2646.0,2647.3,2678.0,3619.5,si
18.378,18.591,38.622,69.203,75.053,95.493,109.07,135.66,142.73,169.85,173.88,204.97,215.67,227.13,234.63,249.47,252.37,256.33,267.38,281.73,304.18,309.02,338.98,351.66,383.21,385.49,401.73,429.65,432.32,449.6,457.56,463.64,477.68,479.92,482.36,484.87,502.49,518.9,537.69,547.05,553.14,559.77,563.56,566.72,577.92,584.04,602.96,608.55,618.03,623.94,629.87,636.32,659.43,661.34,668.54,698.96,699.56,716.12,742.4,764.94,2615.7,2627.7,2656.1,3587.9,si
18.374.1,18.734,38.753,69.418,74.699,95.147,108.07,134.81,142.42,167.06,172.41,207.15,216.99,226.84,229.62,248.09,249.18,250.98,266.55,279.01,300.24,302.34,341.36,350.0,379.49,381.33,393.77,425.67,428.6,442.47,452.26,457.7,472.09,474.41,480.21,482.34,497.53,511.9,529.04,542.92,553.61,557.54,558.7,565.98,575.33,583.93,602.08,603.27,615.53,623.18,630.11,633.55,654.71,656.0,662.39,688.89,690.06,712.61,733.2,757.56,2608.7,2646.6,2708.2,3558.2,si
18.649,18.759,38.925,69.719,75.306,95.858,108.78,135.13,141.25,171.06,173.54,212.79,216.83,229.72,232.14,249.25,251.31,252.73,268.52,281.19,303.37,307.02,344.66,352.75,382.33,388.93,398.19,431.26,433.0,443.21,459.55,463.77,472.76,480.6,483.73,488.33,506.15,521.57,545.46,557.86,564.45,567.83,573.31,579.01,584.39,589.49,608.89,620.88,623.91,633.36,638.47,641.62,657.76,671.06,676.24,687.72,698.85,718.54,747.5,765.9,2627.2,2630.6,2675.2,3597.0,si
18.594,18.674,39.34,69.498,76.258,95.785,110.18,135.93,144.04,170.43,174.48,211.05,217.38,230.45,234.35,248.56,251.61,252.97,271.08,282.52,304.99,307.57,346.81,353.99,384.0,387.83,399.46,431.78,433.76,448.45,458.86,467.57,475.99,478.16,482.12,489.43,504.48,519.6,534.82,549.49,561.54,565.63,569.84,574.25,579.33,584.05,605.21,612.98,624.55,631.07,633.69,638.28,658.69,664.06,671.61,683.88,708.49,716.34,735.45,763.7,2622.1,2635.1,2660.7,3617.7,si
18.436,18.643,39.055,70.02,75.868,95.129,110.13,135.17,142.98,167.05,174.4,212.19,217.77,227.96,231.24,247.29,249.97,251.57,270.46,278.74,298.87,306.01,345.91,352.66,379.06,383.06,397.76,425.8,427.82,442.88,458.36,462.65,470.64,473.05,478.95,483.71,500.95,513.31,534.64,550.68,556.74,565.91,569.21,572.81,574.98,578.76,606.34,613.32,618.53,623.35,626.12,638.32,647.01,658.76,661.77,684.96,694.17,706.01,728.63,756.91,2608.1,2655.7,2697.3,3587.4,si
18.597,18.659,38.826,69.942,74.697,95.131,108.34,135.18,143.12,167.51,171.49,208.18,217.35,226.94,230.24,247.76,249.05,252.07,267.94,280.66,299.91,302.57,345.07,348.25,380.06,381.33,397.74,428.49,434.01,448.93,466.23,468.56,476.14,478.67,483.41,488.78,508.27,518.55,537.27,544.13,555.83,558.35,566.03,568.96,577.5,583.79,606.92,608.61,618.41,622.57,630.11,635.04,653.4,656.37,662.34,684.64,686.57,709.48,728.93,750.29,2658.5,2663.5,2704.3,3558.2,si
18.325,18.734,38.879,69.672,74.98,94.993,108.56,135.72,143.14,169.43,173.35,207.66,218.15,228.76,233.29,250.62,252.03,252.76,271.04,282.33,304.03,305.82,344.15,350.44,381.33,385.74,399.24,432.23,435.11,449.37,464.18,473.47,476.06,480.54,483.03,489.94,507.18,512.23,543.35,554.69,560.49,563.54,571.49,582.81,585.82,589.75,606.64,619.63,622.18,627.78,637.99,646.68,656.85,657.25,666.71,689.69,692.17,710.37,734.85,758.48,2622.8,2659.1,2713.6,3626.7,si
18.561,18.708,38.774,70.02600000000001,74.515,95.583,108.56,134.7,141.37,168.06,172.89,212.84,216.58,227.57,231.2,248.8,249.64,251.02,266.44,280.67,301.09,303.27,344.7,351.21,379.17,386.75,395.58,426.96,429.48,450.83,459.24,461.29,473.7,480.95,482.52,490.73,504.91,523.25,539.74,555.61,559.56,564.65,567.95,571.55,574.88,585.74,609.42,617.21,620.77,627.72,632.65,637.91,653.71,659.72,669.98,686.0,693.41,713.28,736.26,759.27,2618.9,2626.6,2658.2,3590.6,si
18.492,18.669,38.872,69.899,75.146,95.515,108.56,135.73,142.34,168.57,171.67,209.9,216.75,228.3,231.63,246.12,249.27,251.45,271.06,278.65,297.75,305.75,346.01,350.85,380.15,382.42,396.84,425.65,432.16,445.41,451.88,468.14,469.14,478.26,482.46,487.43,503.8,515.5,538.47,547.8,557.17,561.62,565.76,574.86,579.79,582.7,608.65,612.51,615.91,623.32,626.92,643.37,656.88,660.05,665.1,691.01,694.06,714.1,737.08,760.81,2604.0,2609.4,2714.8,3613.9,si
18.44,18.455,38.884,69.738,75.434,94.862,108.84,135.95,142.07,169.81,173.55,210.2,216.73,228.55,232.6,249.61,251.13,251.77,270.51,280.73,300.93,306.64,345.03,351.47,381.89,385.99,403.12,431.71,437.7,452.1,454.01,468.24,473.84,478.76,480.33,487.28,507.38,518.99,547.48,555.57,559.76,565.01,567.99,572.74,587.44,590.97,611.17,612.47,617.1,618.64,633.28,638.42,653.97,660.69,666.78,689.08,695.25,711.17,736.56,762.01,2629.3,2641.0,2676.4,3576.2,si
18.479,18.675,38.865,69.596,74.973,95.119,109.0,135.57,142.43,169.04,172.4,208.56,217.14,228.79,232.01,247.69,250.63,253.49,268.11,277.66,299.06,306.35,343.11,352.07,381.59,384.14,397.06,429.37,430.37,449.96,456.65,462.71,472.96,479.18,485.09,489.07,505.55,522.59,537.69,541.44,558.59,559.88,564.18,566.82,578.18,583.71,603.12,608.17,616.99,622.44,629.39,633.49,656.63,661.11,665.11,683.06,688.43,713.19,733.09,754.98,2647.1,2653.9,2667.3,3606.2,si
18.474,18.781,39.196,69.806,75.854,95.475,109.73,135.75,142.77,170.66,173.63,212.7,219.18,230.23,233.11,250.61,252.6,253.58,271.72,283.83,304.95,307.17,349.77,352.19,382.13,386.02,402.07,431.16,434.83,450.68,463.53,471.51,477.22,479.52,482.14,487.5,509.13,522.79,540.41,554.34,560.35,562.79,570.2,575.76,582.92,584.93,610.96,618.55,620.85,626.99,633.02,641.57,652.84,662.94,668.92,681.68,698.1,711.17,728.27,756.21,2607.7,2649.5,2714.2,3596.4,si
18.616,18.81,39.117,69.889,75.33800000000002,95.618,109.77,135.36,141.98,170.25,175.1,211.09,217.4,231.38,233.93,249.06,251.55,253.32,270.33,281.77,302.14,310.0,346.11,353.2,383.13,385.33,399.73,431.37,433.39,446.25,457.57,465.17,473.04,477.75,479.83,483.67,505.9,521.17,545.92,552.58,565.39,567.33,568.73,575.67,587.4,587.8,612.66,614.89,624.92,627.95,632.15,639.4,662.13,666.76,673.04,680.96,699.06,717.42,737.32,761.82,2630.6,2643.6,2662.2,3582.7,si
18.364,18.751,39.069,69.958,75.605,95.279,109.22,136.48,143.74,168.8,173.61,210.36,217.98,228.23,232.99,247.62,249.48,252.6,268.45,278.55,301.0,302.89,345.07,349.58,379.14,383.42,397.59,429.59,433.18,448.66,461.42,469.29,476.71,479.65,483.09,487.06,502.13,515.98,529.35,547.89,564.93,566.78,577.48,581.72,587.38,589.73,605.1,612.3,625.35,630.61,639.04,647.15,659.47,664.7,669.62,688.26,699.5,715.49,734.33,759.4,2651.4,2658.3,2717.0,3565.3,si
18.452,18.771,39.102,69.79899999999999,75.314,95.242,109.65,135.17,142.26,169.62,173.71,210.73,216.5,231.35,233.65,246.45,250.5,253.04,268.66,277.93,300.27,306.88,342.95,351.51,377.87,383.68,397.24,429.94,435.05,449.37,454.82,469.5,473.39,478.59,481.94,484.73,504.95,513.49,531.38,543.07,558.25,563.11,570.76,577.45,581.51,585.81,598.81,605.35,621.55,623.59,630.59,642.67,653.25,660.07,664.18,679.45,695.76,707.32,730.01,755.74,2630.0,2633.6,2659.7,3579.4,si
18.343,18.854,39.134,69.84899999999999,75.704,95.313,109.34,135.95,143.52,167.68,171.84,209.59,218.04,229.9,233.51,250.45,250.81,252.17,272.45,282.36,302.71,305.49,344.82,351.09,381.12,382.18,396.7,428.41,437.85,447.27,458.05,468.24,473.84,477.07,482.73,485.77,506.73,514.38,531.38,542.43,559.57,562.17,564.8,570.46,574.78,581.23,601.44,605.2,618.17,627.2,630.19,639.28,656.03,660.09,669.31,684.06,696.7,714.76,733.37,755.84,2606.8,2654.0,2690.8,3603.4,si
18.385,18.79,38.896,69.706,75.031,94.999,109.15,135.33,142.26,168.13,174.12,211.39,216.96,229.63,232.52,249.54,250.6,251.45,270.82,281.7,303.34,304.47,345.87,351.28,382.62,386.59,396.49,432.55,438.57,451.99,464.39,469.45,478.03,481.03,485.87,488.26,508.68,512.34,544.07,552.23,558.86,564.47,572.26,574.62,580.16,587.69,599.9,614.96,617.34,629.59,636.23,642.62,654.6,662.12,665.0,695.59,696.18,715.63,737.56,760.34,2608.7,2624.3,2668.1,3582.9,si
18.23,18.589,38.893,70.116,75.274,93.659,109.87,136.15,143.4,168.77,174.09,212.54,218.24,228.92,233.15,248.79,249.96,253.36,269.06,281.31,302.23,304.46,344.99,352.87,379.9,381.58,397.62,428.42,433.2,446.83,453.22,468.3,470.43,475.55,479.36,487.63,504.39,514.11,535.74,550.87,561.45,562.77,569.73,577.49,580.0,583.21,602.73,610.41,615.48,623.6,630.36,645.59,650.55,656.82,668.29,686.67,692.0,711.58,734.8,759.76,2627.9,2632.6,2692.6,3576.6,si
18.586,18.8,39.411,70.191,75.928,95.279,110.7,136.74,144.8,169.77,175.71,212.87,217.67,230.88,234.43,248.39,250.86,253.87,269.34,279.71,301.66,306.96,345.38,356.46,384.33,390.04,398.94,433.71,436.18,451.04,457.99,467.21,475.87,483.02,486.98,491.59,506.68,514.63,550.55,558.84,563.05,566.16,566.57,574.79,584.01,590.46,607.54,614.58,623.09,627.92,635.37,638.44,657.9,660.96,668.82,686.96,698.66,714.3,739.38,768.09,2611.2,2640.2,2714.0,3579.9,si
18.666,18.725,39.679,71.057,76.312,95.881,110.31,137.7,146.3,169.5,173.38,211.55,216.94,230.7,234.12,249.5,252.68,255.13,267.31,281.5,301.09,308.5,342.08,353.88,383.36,387.01,399.28,432.7,437.53,451.36,457.2,468.53,477.01,479.21,486.11,491.05,503.79,517.94,539.31,548.1,560.02,561.06,568.16,576.64,580.5,583.7,602.91,610.71,619.08,624.89,632.28,638.4,660.54,661.69,667.13,692.64,699.1,715.36,740.92,762.45,2639.7,2643.9,2718.8,3573.2,si
18.48,18.575,38.687,70.05199999999999,74.916,95.097,108.03,135.98,141.41,167.91,173.3,211.57,216.55,226.93,231.42,247.07,249.78,252.4,269.22,281.31,300.77,303.25,345.83,352.39,380.76,384.56,398.65,430.65,436.29,447.98,457.9,466.07,472.41,479.24,483.92,486.5,506.08,517.9,547.8,549.03,557.7,564.87,570.07,572.67,583.2,587.59,608.48,613.61,619.11,621.98,632.74,637.56,656.55,660.76,668.39,694.41,699.55,716.88,742.44,768.61,2629.5,2656.4,2685.3,3624.4,si
18.538.1,18.67,38.904,70.025,75.339,95.292,108.55,135.75,142.68,167.66,172.86,210.91,217.83,227.72,230.81,249.21,251.36,252.71,269.08,281.49,299.47,305.33,344.28,351.05,383.54,385.74,395.1,423.55,428.98,448.79,453.3,461.72,475.13,478.87,483.58,487.84,500.59,524.14,537.03,556.53,558.93,565.51,569.34,572.69,583.22,584.11,610.63,616.43,621.42,623.02,628.65,642.64,655.41,658.44,673.12,689.28,700.59,715.85,735.68,759.47,2607.1,2654.5,2678.3,3565.1,si
18.64,18.798,38.564,70.184,75.25,95.66,107.53,135.42,141.92,167.66,171.27,208.86,215.53,226.13,229.39,246.57,248.93,250.39,268.53,281.96,300.93,302.81,343.32,349.72,380.4,381.86,397.72,428.4,436.72,446.0,457.06,465.06,470.98,475.1,479.83,485.08,505.29,520.28,542.33,548.0,553.71,561.69,565.11,569.29,579.26,582.48,602.1,612.74,618.13,619.39,630.35,636.69,657.13,658.16,667.21,684.93,691.62,716.29,736.22,755.98,2617.8,2636.2,2670.1,3549.0,si
18.547,18.604,38.574,69.43,74.242,94.524,108.0,134.63,142.7,167.24,172.03,209.12,217.12,227.53,231.6,246.77,247.09,252.5,267.5,278.49,298.83,303.06,343.85,351.17,379.24,380.84,396.27,427.36,436.86,452.52,463.81,469.33,476.58,477.6,478.2,486.63,508.11,515.91,531.06,541.65,556.21,560.83,567.47,570.85,577.0,578.09,605.09,606.4,612.16,619.67,625.61,638.32,649.91,657.04,667.13,677.83,685.86,713.7,729.9,752.75,2642.8,2647.6,2702.2,3607.2,si
18.61,18.804,39.195,70.546,76.22800000000002,96.525,109.46,136.58,144.68,168.04,174.03,210.63,217.66,228.53,231.56,247.47,248.75,252.51,271.4,280.0,298.77,306.78,346.87,353.67,383.81,387.21,399.54,428.73,432.51,446.81,456.72,465.21,475.16,479.91,484.84,489.15,501.85,521.9,537.76,544.75,557.81,560.43,565.07,569.39,579.54,582.24,604.37,610.88,620.86,621.87,631.2,641.9,653.16,664.21,665.12,693.73,702.92,714.07,739.25,767.65,2638.4,2642.7,2701.3,3582.7,si
18.751,18.844,38.947,70.142,75.613,96.439,109.11,135.1,142.21,167.24,172.67,211.11,217.31,226.09,232.21,245.96,249.61,251.55,272.88,281.94,301.5,303.13,345.21,351.31,377.75,386.18,396.06,425.85,430.19,446.54,448.48,460.26,469.02,473.28,478.53,486.23,505.16,525.25,537.39,553.5,556.54,560.5,563.66,571.49,580.38,581.54,610.71,612.38,622.61,623.07,628.08,638.85,656.53,661.44,671.1,692.06,693.33,715.92,732.59,755.97,2612.1,2627.7,2708.6,3562.1,si
18.796,18.859,39.03,70.524,75.646,96.428,109.1,136.37,143.72,169.78,173.62,210.81,218.75,227.66,232.13,247.35,248.91,253.24,270.94,280.26,301.52,304.5,344.63,354.37,382.11,383.77,398.8,429.32,433.75,445.94,454.49,467.17,471.61,481.65,484.51,490.72,505.91,521.13,531.89,562.45,562.71,563.74,565.21,569.85,583.69,585.81,606.9,614.62,625.98,629.88,630.32,646.01,660.14,663.21,667.52,693.62,699.82,712.15,740.28,765.04,2616.5,2630.1,2694.2,3547.7,si
18.354,18.646,38.999,69.865,75.27,94.591,109.52,135.9,142.56,166.75,173.13,210.76,217.78,231.12,233.22,246.49,250.6,252.55,269.14,279.28,300.17,304.81,343.0,351.28,375.92,385.35,397.89,425.96,429.16,445.05,461.85,467.05,471.65,476.68,481.98,488.57,506.36,517.56,540.25,553.7,559.76,561.92,569.89,572.49,577.81,578.44,604.8,613.32,614.5,616.71,625.75,638.45,652.2,659.34,666.4,685.41,687.99,712.93,733.26,756.17,2597.4,2647.7,2675.9,3613.5,si
18.474.1,18.645,39.284,70.46600000000002,75.707,94.696,110.04,135.94,143.8,167.18,173.68,212.72,218.32,228.18,232.92,248.62,249.94,252.34,268.68,280.67,300.41,304.14,345.47,353.77,379.58,386.06,396.39,424.8,431.18,441.96,458.04,461.66,472.9,478.37,486.0,491.26,504.96,514.47,522.31,545.79,552.74,557.06,559.54,564.47,574.07,576.49,602.23,608.19,613.25,618.92,629.65,634.15,654.21,657.62,664.55,687.02,698.0,714.3,737.94,760.91,2615.1,2655.9,2656.1,3595.1,si
18.442,18.614,38.769,69.64,75.28699999999998,95.042,108.61,135.09,140.97,169.29,174.16,211.21,217.56,228.83,232.15,249.83,250.53,252.21,269.69,279.25,303.25,305.53,343.05,352.44,382.78,385.67,399.57,430.48,436.45,449.82,456.0,469.52,473.65,477.42,480.35,488.37,506.08,518.1,550.67,557.26,562.39,567.41,568.7,576.36,586.92,587.8,609.52,612.91,620.71,622.56,631.84,637.93,660.35,664.03,668.93,686.23,701.75,714.96,736.24,761.45,2599.3,2642.1,2711.2,3593.8,si
18.614,18.724,38.97,70.08800000000001,75.486,94.832,108.76,135.93,142.39,167.46,172.98,210.3,218.37,227.92,231.15,249.07,251.42,253.04,270.6,282.35,302.56,304.12,346.9,352.87,380.45,385.67,398.83,427.93,431.01,442.73,459.34,465.29,472.27,476.04,481.09,488.21,503.67,519.17,537.58,550.78,556.82,559.74,565.43,568.0,580.12,589.04,607.19,614.3,616.9,624.49,634.43,638.97,657.52,661.68,666.14,677.6,691.03,717.86,733.32,756.47,2645.0,2658.3,2712.2,3628.4,si
18.266,18.434,38.935,69.915,75.232,93.837,109.99,135.32,142.66,168.57,172.12,211.16,216.4,229.65,233.42,248.37,250.89,252.7,268.44,279.87,301.21,305.67,342.64,349.37,378.87,383.94,398.74,428.76,434.49,448.69,454.89,464.92,473.41,474.68,478.79,483.47,502.58,519.24,538.77,542.75,559.73,562.08,566.14,572.67,580.61,593.58,599.4,604.87,615.16,617.37,628.68,639.41,653.58,655.17,666.37,676.9,689.15,708.59,725.46,751.47,2596.7,2636.7,2701.4,3625.9,si
18.079,18.607,38.846,69.40100000000001,75.874,93.796,109.5,136.44,142.7,170.67,172.29,211.11,216.17,227.85,235.95,247.32,248.15,253.81,268.42,279.31,299.62,308.15,344.47,352.92,380.38,383.27,398.8,428.63,434.29,447.83,460.66,468.92,473.14,476.48,476.63,485.52,501.68,507.46,543.39,546.0,561.59,567.54,580.66,583.92,587.52,590.01,603.69,609.73,621.06,625.81,634.53,645.09,660.21,661.58,673.52,681.94,702.41,714.78,731.21,759.58,2632.9,2651.2,2661.9,3602.0,si
18.488,18.814,38.955,69.793,75.347,95.936,109.18,135.57,142.65,169.67,173.61,207.06,217.02,228.24,231.53,250.43,251.82,252.84,270.33,282.57,304.74,307.25,343.97,350.8,379.96,386.06,401.58,429.22,431.22,445.33,454.43,463.24,473.31,476.38,480.22,484.84,500.48,519.98,538.28,546.2,560.74,564.48,565.99,568.85,580.42,584.29,608.02,609.65,621.25,625.43,632.9,635.01,656.64,665.54,668.21,688.69,695.51,717.51,735.69,760.47,2610.1,2641.4,2667.6,3570.8,si
18.467.1,18.563,38.889,69.5,74.709,94.738,108.94,135.17,141.13,167.87,173.67,210.29,217.19,230.58,233.85,247.01,251.99,253.98,267.3,278.7,301.34,306.23,342.03,353.64,381.14,384.22,396.21,429.75,431.42,446.36,457.14,465.36,473.38,475.15,478.54,489.03,500.57,514.37,526.69,544.83,553.3,558.37,569.06,571.92,576.38,580.91,602.58,608.95,610.9,619.38,627.5,637.25,646.5,659.92,663.16,678.44,690.25,704.04,730.26,759.4,2612.3,2651.8,2666.3,3593.7,si
18.461,18.649,38.829,70.046,75.05199999999998,95.31,108.87,135.36,141.35,167.91,172.22,210.5,215.43,227.36,230.44,247.17,248.78,249.87,270.15,278.31,298.28,304.5,342.41,350.26,377.62,385.24,395.44,425.65,431.04,441.1,448.18,464.31,467.43,474.71,478.81,482.89,499.76,521.82,535.19,544.54,553.82,556.35,564.31,569.93,572.55,580.28,600.64,610.33,614.85,622.42,626.93,634.4,651.02,660.88,663.2,688.21,691.01,708.57,732.1,754.51,2623.0,2652.3,2676.6,3593.0,si
18.543,18.728,39.097,70.152,75.51899999999998,95.308,109.0,134.76,141.31,166.96,172.14,212.33,215.76,228.1,232.74,247.96,248.46,250.44,268.03,279.48,299.74,303.34,342.02,349.41,379.71,385.96,395.75,426.55,434.53,447.67,451.99,467.24,471.14,478.09,480.31,488.09,504.14,515.72,543.83,552.38,562.76,564.85,566.96,573.43,576.78,583.89,605.74,608.32,619.43,625.5,626.65,633.25,657.69,663.69,669.78,681.35,692.94,716.84,734.59,755.23,2617.3,2634.6,2675.2,3578.6,si
18.51,18.619,38.642,69.535,75.369,95.867,108.57,135.12,142.01,168.59,173.26,210.49,217.63,227.34,231.83,248.49,249.16,251.54,271.29,281.19,302.68,304.52,346.1,353.9,382.11,385.66,395.49,431.3,432.63,449.22,462.88,467.73,475.24,484.38,485.57,489.1,505.06,511.09,538.29,558.04,563.16,570.94,574.15,579.89,583.01,590.54,609.03,620.85,624.22,628.76,640.73,645.18,657.2,663.61,668.25,700.94,702.64,713.82,740.82,769.48,2641.2,2643.0,2667.0,3625.2,si
18.178,18.313,39.027,69.81,75.892,93.454,109.79,136.34,142.62,169.4,175.19,213.34,219.18,231.05,234.63,248.64,251.34,252.99,272.47,280.62,302.63,305.89,347.02,353.4,381.92,383.23,396.93,430.45,437.04,450.04,458.14,472.1,474.52,479.17,480.98,486.83,505.04,510.57,532.78,545.0,553.31,561.57,578.06,580.45,582.79,584.22,601.42,606.34,609.17,624.2,627.97,648.24,649.49,657.19,667.27,693.63,696.03,711.77,736.48,767.91,2611.6,2614.3,2656.4,3597.4,si
18.656,18.74,38.771,70.087,75.03,96.156,109.02,135.47,141.63,168.96,173.69,211.16,217.41,229.03,231.32,245.53,249.3,250.73,272.21,278.35,300.06,304.89,346.61,352.03,382.82,386.43,396.62,430.41,431.21,450.29,464.36,468.73,479.39,482.13,484.57,491.31,505.64,522.25,544.22,555.48,561.7,564.15,570.97,579.69,584.07,587.85,604.43,618.02,623.53,625.26,630.5,646.45,660.5,663.02,667.79,691.22,695.83,710.65,738.89,761.83,2634.3,2635.4,2703.3,3624.4,si
18.608,18.678,38.442,69.832,74.928,94.911,108.87,135.32,141.72,168.37,172.0,208.51,215.78,227.0,230.36,248.36,249.59,250.78,268.6,280.13,298.55,307.7,342.1,353.75,378.7,386.36,398.67,426.85,432.12,443.69,455.9,467.48,469.05,478.94,482.12,488.79,504.01,510.75,537.37,549.92,551.6,556.39,558.98,564.65,576.66,579.74,600.62,605.73,607.98,618.43,625.83,631.22,649.64,655.29,661.6,688.2,691.79,707.65,734.38,757.54,2619.4,2654.1,2659.4,3590.6,si
18.637,18.765,38.895,70.06,75.64399999999998,95.882,108.97,135.72,143.07,168.81,172.49,210.0,215.31,227.35,230.51,246.84,248.55,250.94,266.54,278.84,298.69,305.4,341.18,351.31,380.42,385.11,397.1,428.81,433.16,443.89,460.33,462.03,474.11,477.96,480.03,487.36,503.93,513.88,539.19,552.18,557.56,559.36,563.08,569.03,578.65,579.95,601.64,605.98,618.33,627.3,627.98,630.48,657.59,661.27,667.05,697.11,698.34,713.29,738.33,760.18,2616.1,2639.7,2709.1,3593.9,si
18.356,18.574,38.737,69.595,75.334,94.726,108.66,134.53,142.56,165.9,172.16,209.74,216.28,226.1,229.03,246.5,248.84,249.84,269.5,278.99,299.92,301.73,344.54,350.86,379.01,380.76,395.26,425.81,428.99,438.53,456.34,463.6,468.41,474.79,478.68,483.7,501.37,512.81,536.24,547.06,556.57,561.58,576.61,576.93,578.89,583.99,596.6,610.12,619.76,626.12,632.29,638.68,654.1,654.63,660.59,683.8,693.77,709.26,728.94,753.56,2604.2,2640.5,2684.2,3608.0,si
18.463,18.958,38.989,69.743,75.848,95.7,109.5,135.43,142.46,167.17,172.88,212.27,217.58,228.71,232.75,248.73,250.53,251.87,269.57,280.2,299.62,305.64,343.5,352.36,382.17,384.52,395.65,429.12,437.04,447.13,450.29,466.03,473.3,478.27,479.41,486.18,503.95,516.3,541.7,555.6,559.46,561.15,563.43,577.02,582.11,587.89,605.15,612.62,620.6,624.5,634.22,636.41,654.4,658.08,669.47,690.09,699.33,714.45,729.36,754.87,2656.9,2661.2,2720.2,3604.8,si
18.482,18.537,38.783,69.991,74.87100000000002,94.837,109.25,135.67,142.12,168.64,172.92,211.79,218.29,228.42,232.53,248.97,250.22,254.4,270.05,281.1,299.77,305.97,347.55,354.31,381.93,387.15,397.9,431.32,436.12,453.04,462.18,468.59,481.06,482.92,486.13,493.48,504.34,515.66,533.95,553.89,556.62,559.12,571.74,573.1,579.34,590.67,605.82,615.55,618.29,621.27,637.19,640.85,654.22,658.06,665.06,685.96,691.82,706.51,738.94,762.05,2622.5,2638.5,2674.6,3616.2,si
18.466,18.684,39.254,69.78399999999999,75.775,95.739,108.98,135.98,141.81,171.22,173.78,212.31,219.31,230.8,234.02,248.93,251.85,253.15,271.92,279.2,301.4,308.11,347.79,351.4,383.82,387.15,400.5,431.4,438.2,456.73,467.94,471.47,478.65,482.12,487.72,492.41,512.25,524.38,542.91,547.37,565.01,568.63,574.7,578.21,580.77,588.9,607.1,615.12,621.42,628.02,633.53,642.72,662.56,666.98,673.03,683.11,697.12,716.23,736.94,759.65,2620.8,2666.7,2698.9,3599.8,si
18.539,18.647,38.964,70.115,74.854,95.189,108.18,135.13,141.36,165.85,172.64,210.25,217.38,228.76,230.94,248.57,249.95,251.12,272.01,281.71,300.25,302.98,345.74,348.43,378.45,380.38,396.88,428.04,437.17,448.66,455.72,467.01,472.15,477.15,480.15,485.89,504.96,512.07,536.99,548.75,553.6,558.51,564.89,569.74,577.06,577.94,599.44,610.4,614.99,620.66,624.1,642.76,652.16,654.22,658.72,683.67,698.28,711.57,736.09,760.98,2598.4,2626.4,2710.3,3567.6,si
18.408,18.462,38.839,69.577,75.225,94.624,109.14,135.79,143.25,168.48,174.28,208.96,215.09,228.57,231.65,248.45,250.36,252.3,266.78,280.69,303.2,305.56,338.03,351.08,381.58,383.85,397.61,428.01,438.55,449.04,450.36,467.52,471.0,477.13,481.2,486.03,503.79,515.95,538.75,550.2,556.12,563.0,565.81,569.37,577.29,582.5,602.7,608.99,620.08,622.94,630.22,636.83,658.84,663.01,665.64,687.3,697.47,715.51,733.22,759.4,2606.6,2639.1,2666.9,3552.4,si
18.699,18.792,38.945,70.294,75.796,95.979,109.57,136.26,141.93,167.56,172.52,212.31,217.59,228.23,232.8,245.93,249.9,252.64,272.68,279.9,299.04,305.4,346.72,354.06,378.67,383.59,396.73,427.62,435.52,453.52,457.27,468.77,471.54,475.49,480.46,486.56,507.07,519.48,541.02,555.41,559.64,563.89,565.07,569.3,578.05,583.55,610.03,610.66,613.59,620.53,624.58,637.21,650.96,660.04,664.42,689.62,693.49,708.88,731.98,761.77,2615.0,2666.3,2693.6,3582.7,si
18.039,18.316,38.553,69.589,74.399,92.602,108.83,136.08,141.59,169.0,173.28,210.36,217.33,229.26,232.71,248.37,250.84,253.48,270.63,280.6,301.84,306.24,346.95,351.82,381.26,382.91,399.07,429.31,430.03,446.58,464.24,467.01,476.86,477.96,479.24,486.78,503.41,513.87,536.99,542.28,554.51,556.9,562.77,574.51,577.85,581.82,598.82,603.63,609.99,617.82,628.27,642.78,654.99,658.94,663.13,680.48,691.57,710.38,734.12,757.95,2608.9,2612.3,2687.7,3573.8,si
18.389,18.574,39.241,69.48,76.122,94.67,109.35,135.52,142.6,169.9,173.61,213.91,219.0,230.04,234.0,248.89,249.95,251.89,273.37,280.86,300.43,306.48,349.76,352.18,382.6,385.04,398.28,431.83,438.62,451.86,459.06,468.26,476.07,481.15,481.67,486.23,509.67,510.65,543.92,557.44,560.26,561.26,565.19,578.82,580.15,591.74,603.86,615.22,623.77,629.33,637.53,645.85,651.82,660.35,665.59,686.69,696.4,713.91,729.83,756.55,2636.3,2660.5,2700.7,3621.3,si
18.59,18.811,39.161,70.125,76.286,96.326,109.3,136.33,144.3,170.3,172.64,207.72,217.31,228.07,232.99,247.76,250.88,253.34,270.53,279.2,299.9,308.08,343.49,351.5,379.85,386.66,399.11,430.02,432.19,446.37,460.99,468.49,472.84,475.97,483.02,487.98,505.46,523.06,533.55,541.62,548.38,557.93,566.52,577.02,579.11,584.22,602.51,613.21,619.99,620.66,630.09,639.78,658.51,664.7,669.66,692.3,696.64,717.0,737.97,759.51,2596.1,2626.5,2702.3,3627.3,si
18.678,18.886,38.892,69.717,74.93,96.17,109.0,134.83,142.04,167.47,173.05,210.17,217.8,227.54,232.56,246.91,250.39,251.57,272.2,280.57,301.87,303.09,345.04,351.77,377.69,385.93,394.98,425.99,428.14,448.13,457.23,467.36,467.75,474.2,481.38,488.3,505.34,516.26,528.54,557.94,559.13,561.43,567.1,573.52,576.97,579.66,607.35,616.72,625.56,627.85,630.65,642.37,653.1,662.49,667.67,693.35,694.55,710.07,737.68,759.97,2599.8,2623.0,2667.3,3545.3,si
18.598,18.664,39.26,70.336,75.764,95.498,110.08,136.0,142.79,171.31,174.39,213.01,218.94,231.84,234.32,248.89,251.84,253.86,270.99,279.44,302.93,309.12,345.27,355.08,384.45,389.42,399.74,431.49,434.16,448.67,460.05,466.21,475.61,479.42,482.83,490.35,505.81,519.1,543.64,553.3,560.81,562.59,568.0,570.16,579.82,587.75,610.86,612.18,618.73,624.35,629.59,638.97,659.38,665.83,667.68,684.73,702.89,708.9,739.17,763.07,2626.5,2656.9,2683.6,3586.1,si
18.618,18.671,38.715,69.619,75.044,95.48,109.21,134.96,140.74,169.51,173.32,210.89,215.51,227.82,232.42,249.45,250.78,252.22,265.2,281.66,301.38,307.38,340.96,351.42,380.9,385.21,400.09,427.57,432.76,446.09,455.6,461.71,471.46,474.31,476.68,484.36,501.88,521.14,528.14,550.84,557.91,560.17,563.41,569.99,577.73,585.2,602.48,611.73,619.14,625.1,631.09,631.97,663.08,663.8,670.87,681.76,694.79,720.2,729.13,759.65,2635.3,2665.4,2697.5,3588.8,si
18.337,18.491,38.024,68.833,73.91,94.244,107.21,134.15,138.58,167.93,170.28,206.48,214.68,225.99,229.82,246.71,250.75,251.5,270.29,282.44,301.3,304.48,342.52,347.29,376.59,383.82,396.56,425.05,435.65,447.26,460.76,467.91,472.45,473.17,481.09,487.41,505.4,517.41,537.34,548.97,557.38,561.48,565.78,577.03,580.61,584.89,605.09,612.94,616.01,619.36,629.52,638.05,654.0,661.54,666.24,672.24,687.92,714.56,726.86,756.31,2621.5,2651.6,2700.6,3546.0,si
18.381,18.642,38.969,69.516,75.462,95.358,107.32,136.77,143.28,167.85,170.84,208.48,217.6,227.24,231.33,248.01,250.38,252.85,269.69,280.12,299.57,302.04,343.46,348.29,381.3,383.35,395.99,427.05,436.8,452.51,455.67,472.43,475.88,477.08,479.43,491.02,505.64,520.91,526.1,554.95,557.03,563.34,566.15,575.46,577.73,589.39,611.71,613.76,616.88,623.16,628.89,647.49,656.2,664.87,669.94,687.7,693.27,718.15,736.05,757.57,2648.6,2664.3,2676.5,3541.6,si
18.624,18.819000000000006,39.291,70.137,76.252,95.318,109.78,137.72,144.33,169.76,174.6,212.92,217.97,229.51,234.95,248.75,250.25,252.96,268.76,282.21,300.12,306.22,344.59,353.91,382.39,385.59,399.02,430.92,444.42,452.62,457.27,470.87,478.43,480.46,483.83,487.48,506.34,519.38,529.05,554.05,562.38,569.26,571.84,574.69,583.87,586.61,610.2,615.37,618.26,625.82,630.85,642.31,656.88,661.81,669.0,681.94,695.95,713.25,737.79,763.6,2607.9,2619.8,2660.0,3619.4,si
18.523,18.643,38.849,69.91,74.976,94.734,109.83,135.56,143.22,168.74,173.59,209.52,215.45,230.31,232.72,249.91,250.59,252.44,267.01,280.07,301.42,306.58,339.37,353.46,379.97,386.0,396.62,430.48,435.35,447.51,451.6,466.61,472.42,480.15,482.66,487.14,502.47,515.65,545.9,554.77,561.98,562.74,568.39,572.29,581.67,585.75,605.18,613.22,618.16,621.36,630.76,637.83,655.44,660.59,666.12,686.98,690.51,710.22,735.55,756.94,2608.4,2650.1,2669.9,3621.4,si
18.443,18.659,38.76,69.482,75.476,95.426,109.48,135.23,141.86,170.37,173.15,212.02,216.5,228.7,232.77,247.4,249.2,251.66,270.56,278.53,300.24,309.44,343.54,352.34,378.82,381.49,396.68,426.3,433.71,447.11,451.64,467.31,471.55,474.04,478.3,481.87,501.63,514.54,533.67,557.03,559.44,563.94,569.79,573.48,578.6,580.92,603.12,611.11,620.9,624.34,627.45,639.15,649.75,657.58,670.92,694.57,698.72,711.7,737.64,761.6,2626.3,2650.7,2657.3,3615.8,si
18.407,18.769,39.046,69.96,75.4,94.838,108.83,136.04,143.45,169.78,171.97,208.86,217.61,227.96,231.3,249.6,249.79,253.23,269.5,279.88,300.39,305.48,344.1,349.1,379.57,382.07,397.71,427.31,435.09,445.97,452.43,467.25,472.8,475.29,479.26,483.94,502.72,512.35,534.93,546.04,553.43,559.42,567.68,571.61,578.61,582.37,603.67,611.89,617.84,624.27,627.2,639.8,654.93,659.59,664.23,687.82,691.74,710.92,733.26,754.44,2626.5,2651.6,2715.6,3624.0,si
18.394,18.91,39.044,69.888,76.229,95.052,109.25,135.25,142.89,167.96,171.84,210.8,215.78,227.04,231.2,245.31,248.87,250.43,270.85,279.4,298.85,305.31,346.14,350.61,381.38,384.91,394.36,427.59,435.44,449.06,459.25,467.14,471.73,474.2,478.14,486.52,505.08,513.3,530.13,547.5,554.71,556.67,564.36,567.76,573.32,577.77,597.43,608.86,618.18,621.28,624.99,632.98,655.81,657.22,660.19,679.67,695.99,708.26,723.59,750.05,2622.5,2623.9,2718.0,3549.9,si
18.216,18.768,38.746,69.671,75.163,94.268,109.99,134.9,143.25,168.17,173.91,210.44,217.46,227.83,233.57,247.59,249.99,251.79,269.4,281.69,301.59,304.54,343.59,352.61,378.18,381.0,396.26,426.77,429.88,443.04,456.38,460.41,469.8,473.23,481.17,488.96,506.44,512.2,540.52,554.18,559.52,560.8,568.93,573.72,578.38,584.84,606.21,610.05,615.34,624.01,627.08,641.01,650.14,655.0,670.24,686.13,691.37,710.31,730.4,755.34,2605.0,2631.2,2701.7,3624.1,si
18.381.1,18.709,39.107,69.617,75.876,95.078,109.76,135.52,143.85,170.07,174.18,211.06,217.27,229.22,233.51,246.75,247.95,251.6,271.06,278.05,300.0,306.89,344.98,352.31,381.41,382.95,396.92,428.05,437.04,451.38,458.9,468.63,473.94,476.73,480.95,486.38,506.86,512.78,534.04,555.66,558.8,561.4,568.17,571.6,576.99,582.88,602.4,611.55,622.75,626.27,627.34,637.84,655.54,663.39,666.82,683.7,698.74,712.06,735.45,761.39,2600.3,2617.6,2705.5,3576.9,si
18.409,18.582,38.508,69.062,74.877,95.025,108.24,134.44,140.54,167.79,172.83,208.7,216.05,227.45,232.16,247.59,248.14,252.21,268.01,279.32,300.5,303.15,341.22,350.23,381.6,383.64,397.18,427.47,435.33,447.35,451.47,468.19,469.36,475.08,477.84,483.72,503.96,521.16,545.27,553.01,561.78,565.57,570.33,576.9,580.88,585.47,608.23,615.35,618.65,624.94,628.99,642.27,659.29,661.51,668.46,677.93,703.92,715.83,728.09,757.01,2611.7,2650.8,2686.1,3619.7,si
18.304,18.668,38.488,69.785,74.671,94.892,107.77,135.01,139.65,168.8,173.01,211.76,217.12,227.56,231.42,247.63,249.73,252.27,270.9,280.46,300.72,304.34,345.2,352.16,378.7,387.8,398.98,428.6,435.86,448.72,462.26,469.6,474.93,477.06,481.64,488.93,507.22,522.43,541.23,553.27,558.08,560.42,569.74,574.56,576.18,584.93,607.6,613.71,616.24,619.06,626.23,639.62,657.02,661.93,666.21,689.98,695.53,714.4,742.61,765.96,2610.2,2626.1,2660.1,3572.2,si
18.515,18.568,38.64,69.449,75.001,95.126,109.08,133.95,140.76,167.43,173.34,211.85,216.32,227.25,231.34,249.12,249.83,250.91,272.73,281.18,301.38,304.97,348.93,353.04,380.43,383.58,394.55,428.29,434.25,448.45,454.77,471.69,474.15,479.43,481.36,483.57,505.05,513.65,535.85,542.19,553.81,560.37,564.74,574.49,579.03,582.55,602.26,613.03,615.89,623.72,629.62,641.25,650.21,662.85,664.15,690.9,698.16,710.6,738.44,761.21,2617.8,2641.5,2664.4,3601.2,si
18.469,18.61,39.309,70.007,75.756,95.24,108.82,135.45,142.91,167.62,173.02,213.65,217.89,230.13,232.77,249.52,250.61,253.43,266.7,282.25,302.17,304.94,343.62,351.7,382.22,383.93,397.31,427.17,433.15,445.66,460.51,462.77,474.07,477.2,481.33,487.66,509.72,517.51,528.97,552.11,555.28,559.15,560.22,564.67,574.47,583.12,604.54,612.08,620.38,624.26,625.75,636.33,655.5,663.4,671.25,685.48,696.27,717.68,731.27,757.03,2614.2,2656.1,2683.4,3623.1,si
18.358,18.558,38.652,69.64699999999999,74.563,94.528,107.71,135.45,141.92,167.59,171.97,207.38,216.12,226.43,229.8,246.93,248.98,250.21,265.75,278.73,298.72,302.08,339.86,348.03,378.75,385.45,395.46,424.86,428.46,442.04,455.11,456.96,471.87,473.04,481.05,488.78,497.43,520.15,531.89,544.92,552.28,552.35,556.99,566.08,577.98,583.29,601.2,603.21,608.3,618.92,627.12,631.57,647.61,652.09,664.78,685.08,687.45,706.25,732.66,755.16,2626.0,2640.3,2671.1,3554.2,si
18.663,18.862,38.924,69.892,75.628,96.255,108.95,136.01,143.07,168.15,172.5,209.72,217.28,229.1,232.49,249.73,250.05,252.75,269.47,283.47,301.48,306.12,343.78,352.08,382.04,385.57,400.67,429.69,433.98,446.84,457.16,467.99,469.67,480.59,481.8,488.14,505.24,518.11,542.29,556.93,565.2,568.0,574.94,579.01,584.04,591.38,612.67,617.94,623.3,627.38,633.54,646.98,655.19,661.42,670.32,688.17,699.21,714.87,731.69,757.83,2639.2,2646.8,2711.1,3600.0,si
18.672,18.867,38.684,69.44800000000001,75.314,95.963,108.51,135.15,141.53,166.16,173.31,211.38,215.64,227.82,231.14,247.24,248.06,250.34,267.84,280.97,301.04,301.3,343.66,351.64,381.98,384.73,391.93,428.81,435.74,446.83,454.39,466.43,471.89,476.27,477.99,483.8,503.25,516.06,536.29,552.51,560.36,564.21,565.55,571.08,581.36,587.83,604.1,612.62,622.95,628.18,632.4,635.15,657.68,663.96,672.32,689.87,703.36,719.42,735.94,760.39,2607.2,2627.4,2710.8,3597.5,si
18.638.1,18.884,39.049,70.21,75.52199999999998,96.886,109.21,135.55,141.62,166.62,172.9,211.67,217.24,229.58,231.73,248.53,250.26,250.93,268.68,282.08,300.38,306.57,344.49,352.08,379.33,382.93,398.93,418.9,429.35,440.47,455.67,460.95,473.49,475.41,480.1,483.45,502.51,518.92,539.11,555.73,560.14,562.92,567.08,575.1,578.38,580.68,605.64,614.99,621.86,624.82,632.21,639.1,659.9,663.55,665.17,690.07,695.58,718.04,742.55,766.04,2601.1,2659.6,2705.5,3622.2,si
18.479.1,18.7,39.3,70.113,75.873,94.78,109.68,135.39,142.28,170.09,173.64,213.55,219.81,230.01,233.39,250.43,250.51,253.83,270.74,281.29,303.61,306.07,348.04,352.38,383.03,385.25,400.34,429.91,431.12,447.54,459.91,466.26,475.35,478.78,482.56,487.83,506.97,513.61,543.59,556.05,562.68,567.14,569.31,576.13,581.18,588.15,608.67,614.09,621.51,625.32,630.75,641.46,654.37,661.66,667.7,678.82,699.58,710.26,729.35,755.27,2609.4,2660.6,2698.8,3583.6,si
18.58.1,18.76,38.932,70.18,75.9,95.378,109.51,136.21,142.32,169.24,173.84,210.56,216.77,230.29,232.99,250.09,252.02,252.46,269.65,281.81,303.11,307.15,343.06,353.59,381.79,383.41,398.06,431.83,438.18,446.44,456.36,466.71,474.68,479.94,482.9,486.32,507.06,515.86,538.99,545.44,561.58,567.56,571.73,572.35,582.66,600.18,605.79,608.83,620.5,622.41,634.39,643.36,662.27,666.13,669.57,684.9,700.05,719.24,742.25,762.54,2607.4,2626.9,2693.0,3558.0,si
18.379,18.753,38.737,69.608,74.635,94.746,108.76,134.95,141.6,170.26,171.65,209.19,217.35,228.71,232.22,251.52,252.66,254.1,270.85,282.67,304.5,308.73,345.29,352.53,379.58,386.62,401.27,430.61,433.74,454.04,458.1,468.83,472.59,475.56,480.09,486.7,506.82,511.51,547.75,551.57,555.57,561.99,563.66,570.37,583.06,586.32,608.51,610.05,618.57,626.19,634.41,637.91,648.32,661.31,668.03,685.14,689.79,708.01,741.61,760.06,2632.1,2637.5,2658.3,3547.5,si
18.24,18.616,38.964,69.868,75.27600000000002,94.44,109.33,135.29,142.25,169.02,173.29,213.61,218.23,227.77,233.33,248.66,249.96,251.89,271.13,278.72,300.25,305.45,347.07,352.79,382.53,386.57,399.3,430.02,435.6,452.09,465.59,469.09,477.18,481.2,482.65,489.77,508.7,521.4,542.83,548.62,558.45,563.24,567.7,570.45,579.07,584.78,604.65,610.14,616.12,619.47,627.59,637.75,656.64,658.26,667.4,686.63,690.65,711.86,732.55,755.37,2637.8,2647.7,2662.3,3603.8,si
18.448,18.563,38.974,70.283,75.528,94.621,109.47,136.48,143.65,169.0,174.82,208.83,214.4,227.67,231.78,247.03,250.51,252.91,266.63,280.71,304.15,305.07,339.01,351.92,380.53,383.42,397.47,429.24,431.62,443.92,454.29,463.2,472.54,474.83,480.68,485.23,498.34,509.66,542.26,545.74,558.15,559.65,562.66,563.79,578.62,579.69,600.0,605.09,617.12,622.68,626.51,635.13,658.78,659.8,662.53,695.69,696.83,714.18,741.72,767.8,2621.2,2636.1,2660.6,3591.5,si
