14.692,18.565,38.403,67.374,75.501,91.766,108.04,134.81,142.91,167.53,173.36,211.35,217.15,226.42,229.28,247.33,248.65,253.96,270.48,282.31,297.11,302.93,344.13,350.31,376.17,385.52,394.01,425.72,434.13,453.55,461.32,469.89,477.07,479.56,486.53,488.64,507.57,521.15,540.53,549.15,561.29,562.73,570.57,571.96,581.18,583.85,610.19,614.88,617.91,626.66,628.63,642.92,655.61,660.49,666.0,683.85,698.0,708.72,733.03,760.16,2607.1,2655.7,2778.7,3417.5,si
14.605,18.446,38.707,67.438,75.56,91.68,109.0,135.51,143.23,168.63,173.0,213.77,216.93,228.35,231.91,249.61,250.19,252.5,270.64,282.57,302.16,302.95,343.5,352.42,374.08,385.69,398.31,423.9,429.38,445.29,459.41,465.16,474.31,478.72,479.24,488.98,505.85,517.5,537.32,548.64,556.21,561.77,565.27,573.4,576.07,582.43,604.84,613.6,619.01,622.17,632.88,635.12,657.79,663.03,668.04,690.32,697.41,716.97,736.36,760.65,2604.5,2648.6,2810.6,3462.9,si
14.467,18.612,38.692,67.895,74.865,91.502,108.39,136.13,143.91,170.8,171.78,212.01,216.82,229.45,232.53,250.07,251.63,252.56,270.18,281.55,302.37,303.49,340.67,346.74,373.17,380.07,400.22,425.51,433.3,449.47,453.03,470.42,472.42,478.4,481.89,486.45,506.57,518.1,545.13,549.18,559.72,565.01,573.41,577.97,581.99,587.27,608.42,615.45,618.42,624.53,632.98,639.9,654.61,662.3,666.97,686.0,692.76,713.13,737.44,758.74,2623.8,2627.2,2755.1,3469.6,si
14.572,18.764,39.057,68.14699999999999,76.286,91.657,109.65,136.63,145.86,170.68,173.08,213.08,218.29,229.41,233.01,247.34,251.11,253.74,270.82,280.52,300.36,302.9,343.08,351.24,374.55,384.97,399.07,426.48,434.09,450.19,457.98,467.84,476.9,481.08,485.4,488.8,503.96,520.74,527.64,552.73,556.22,560.49,575.21,576.46,583.52,586.41,608.1,617.47,620.75,624.98,633.21,644.99,658.22,662.44,666.24,688.05,700.88,713.38,734.39,760.43,2606.1,2664.6,2811.3,3426.3,si
14.446,18.55,38.303,67.385,74.726,90.975,108.57,135.49,142.08,167.95,172.29,211.03,216.19,228.13,230.98,249.18,250.25,251.22,271.7,283.11,299.42,303.32,339.59,351.54,372.12,383.76,396.1,422.91,430.49,446.03,454.58,460.82,470.93,476.08,481.08,483.95,503.29,514.35,530.34,542.51,550.57,557.3,558.34,564.86,574.96,579.23,597.82,604.24,610.48,619.4,630.44,634.19,653.35,659.65,662.25,690.02,690.28,714.53,738.02,760.92,2606.7,2630.9,2783.1,3414.4,si
14.329,18.629,38.226,67.149,74.607,90.718,107.81,134.2,140.78,167.72,171.14,213.25,216.83,229.78,232.27,246.62,250.48,252.34,268.65,281.29,298.47,301.17,340.45,350.8,373.96,383.73,397.88,426.56,439.83,456.74,465.73,472.52,477.33,482.97,484.37,489.44,513.47,518.82,538.73,543.62,556.15,558.93,559.13,570.48,577.09,584.65,603.48,605.11,609.64,614.33,633.08,635.89,649.5,652.51,664.45,682.22,688.08,706.51,726.09,749.17,2639.8,2644.9,2779.2,3443.6,si
14.632,18.725,39.08,67.808,75.762,91.031,109.16,135.31,144.83,167.76,172.56,213.37,218.9,230.74,233.18,251.49,251.78,255.05,269.87,283.59,301.27,303.58,341.87,353.2,373.33,386.7,400.52,425.11,430.78,446.73,460.94,462.64,473.82,474.53,482.47,487.95,507.94,521.0,545.23,554.47,558.31,565.3,569.73,573.44,587.31,593.98,613.09,614.77,616.94,624.17,636.93,642.17,658.48,661.99,671.91,683.67,693.67,720.39,727.76,756.09,2595.0,2653.6,2782.6,3483.6,si
14.429,18.301,38.361,67.221,74.824,90.643,109.0,134.88,143.35,167.31,172.94,210.8,216.92,228.98,231.97,249.64,253.11,253.44,269.47,284.69,300.98,305.22,338.6,351.0,374.72,386.26,398.47,424.55,439.28,453.13,463.95,470.6,473.96,477.8,481.45,491.79,510.75,520.7,537.93,548.87,553.91,560.96,569.27,572.61,577.36,581.92,605.95,614.18,617.2,623.58,633.34,637.0,660.08,664.63,671.89,680.69,697.92,722.03,736.97,763.3,2607.9,2631.1,2747.3,3419.3,si
14.731,18.51,38.383,67.428,75.208,91.356,109.13,136.53,142.26,170.29,174.37,211.32,216.45,230.14,233.75,250.27,251.87,252.53,272.89,282.5,302.96,305.4,343.24,351.04,376.08,382.13,400.35,427.34,440.11,448.48,453.73,466.51,475.14,476.73,479.95,485.29,504.79,512.22,544.15,554.39,560.69,562.56,571.11,575.95,579.93,583.8,604.03,614.59,617.91,623.42,633.35,641.56,658.55,662.73,665.86,688.45,705.47,715.66,738.5,769.22,2598.5,2621.4,2778.9,3439.1,si
14.337,18.787,39.041,67.821,75.486,91.147,109.72,135.82,144.68,168.45,173.38,215.29,218.63,231.91,234.11,248.01,250.42,252.07,270.21,280.76,299.92,302.69,340.91,352.92,374.15,384.74,396.64,424.22,430.43,446.09,460.59,468.25,472.57,477.81,482.34,489.74,514.7,521.54,527.59,549.06,556.77,565.38,568.32,571.21,574.48,575.32,607.31,615.35,618.62,624.93,629.1,638.7,658.08,661.23,670.48,680.6,695.53,717.6,727.65,755.48,2642.6,2654.7,2755.8,3432.6,si
14.538,18.621,38.74,67.777,74.937,91.75,109.0,135.6,143.05,168.65,172.87,212.71,218.5,230.24,232.86,250.3,251.2,252.96,270.54,283.72,303.19,304.52,339.76,353.05,375.1,387.82,402.66,425.19,431.21,449.15,459.96,468.48,477.26,480.05,485.99,495.15,518.99,523.13,542.81,551.05,555.0,559.02,563.75,572.44,578.34,587.59,606.3,610.15,613.14,624.66,630.03,633.56,658.19,663.57,670.48,692.15,694.12,722.06,740.84,762.26,2650.7,2662.0,2788.9,3434.2,si
14.485,18.482,38.684,66.90899999999999,75.045,91.82,108.43,134.23,142.74,168.56,170.77,213.79,215.98,229.01,232.75,249.07,249.84,250.5,266.8,280.27,299.84,302.68,339.5,348.0,373.18,383.47,396.38,422.93,430.22,446.3,462.67,464.76,472.16,475.12,479.67,489.72,506.65,517.94,540.85,556.4,560.16,565.9,569.18,574.85,582.85,590.98,607.76,616.21,623.3,626.58,631.55,640.99,653.67,666.43,672.81,678.15,698.95,715.44,730.11,753.73,2602.0,2661.7,2788.4,3464.8,si
14.482,18.622,38.53,67.222,75.016,91.393,108.15,134.55,141.78,167.81,172.74,210.42,215.76,227.78,231.11,247.66,250.13,251.63,269.74,280.95,299.43,303.21,340.16,348.69,373.63,382.74,397.03,422.52,427.64,443.29,452.4,462.62,467.01,477.1,481.1,488.15,506.46,514.58,541.64,543.76,550.77,554.58,562.56,563.77,577.38,582.83,604.54,606.47,616.0,620.15,628.82,631.76,654.27,660.48,663.14,689.3,693.79,712.62,735.63,760.7,2627.9,2657.7,2785.9,3465.3,si
14.461,18.313,38.269,66.548,74.721,90.009,108.34,134.47,142.44,166.09,172.64,209.93,216.4,228.93,230.64,249.79,250.12,251.46,269.73,281.47,297.49,304.63,338.79,350.03,371.91,382.8,394.99,422.75,432.27,448.09,466.31,468.55,473.87,474.45,477.77,488.89,508.22,519.14,541.02,545.65,547.3,558.52,567.95,574.21,577.11,581.24,601.68,607.42,612.36,617.34,625.47,636.52,649.84,652.62,667.59,675.23,692.5,714.75,728.01,753.45,2601.7,2616.9,2769.3,3427.8,si
14.51,18.576,38.414,67.52199999999999,75.017,90.891,108.73,134.07,143.25,168.05,171.94,211.23,217.82,228.1,230.38,249.59,250.18,252.89,269.8,280.78,300.98,302.03,341.57,352.08,374.07,384.91,395.5,422.25,429.15,444.7,463.81,467.04,474.05,480.66,481.75,489.2,509.76,515.54,537.6,545.36,557.5,559.86,569.68,570.46,580.81,583.5,607.06,612.85,615.61,623.87,629.21,641.73,651.58,658.56,668.26,684.9,692.97,710.95,731.88,754.29,2603.7,2656.6,2792.4,3431.1,si
14.563,18.787,38.937,68.332,75.25,91.823,108.96,136.41,144.29,167.8,173.05,214.91,219.47,230.89,233.51,247.75,250.88,253.19,270.62,282.77,297.9,303.4,343.35,352.77,373.61,383.95,398.88,424.4,430.17,447.07,460.71,466.88,471.85,480.48,482.66,489.52,509.8,517.89,542.8,552.66,559.12,569.05,571.86,579.27,581.61,590.31,608.17,615.87,619.7,626.16,637.06,646.64,652.08,662.64,668.74,688.42,692.46,713.04,737.44,760.74,2658.7,2662.1,2768.2,3427.8,si
14.672,18.609,38.721,67.524,75.413,91.99,109.17,135.52,143.2,168.45,173.29,212.32,217.27,229.08,233.79,247.27,249.97,251.11,272.14,279.78,297.93,304.35,339.01,351.69,373.23,382.36,399.61,425.37,434.92,447.35,456.18,468.17,468.97,476.32,478.94,485.81,507.5,513.3,539.44,549.38,558.23,559.35,566.62,572.12,575.16,583.58,603.23,613.38,615.53,617.27,633.84,639.0,652.05,655.12,661.37,691.71,694.39,711.94,731.77,762.52,2601.6,2615.8,2757.8,3431.2,si
14.364,18.458,38.247,67.0,74.961,90.744,108.81,135.0,143.45,169.34,173.02,209.01,217.19,229.06,233.32,247.0,250.15,253.54,270.54,278.76,300.38,303.02,339.34,347.81,374.12,381.66,398.31,423.81,432.44,445.35,461.68,466.47,468.6,480.02,481.6,487.5,507.26,517.16,541.49,549.98,562.82,563.45,578.23,579.44,582.73,586.11,606.97,612.23,619.33,625.11,636.06,644.48,655.24,658.9,664.42,684.73,696.15,705.12,732.76,757.18,2631.8,2638.7,2776.3,3409.1,si
14.375,18.629,38.325,66.991,74.539,90.981,108.62,134.43,142.75,165.75,172.78,210.35,217.6,228.89,231.39,248.78,249.87,251.96,271.58,282.8,298.74,301.51,339.91,352.94,372.2,382.28,397.35,421.94,430.26,443.6,461.02,469.23,472.02,476.3,479.03,488.73,510.69,521.17,532.45,547.34,551.87,557.11,568.7,574.07,575.5,583.87,607.7,613.45,616.62,622.37,631.9,643.62,650.31,656.31,667.6,678.19,693.72,714.47,727.94,754.15,2611.4,2650.7,2794.6,3462.5,si
14.569,18.727,38.72,67.75,74.976,91.635,109.18,134.24,143.06,167.88,174.0,214.26,218.83,229.61,232.3,249.25,249.67,251.39,274.62,281.6,302.17,303.0,344.63,352.09,375.12,387.73,395.17,424.57,430.98,445.36,456.92,464.38,467.5,475.03,481.39,491.7,508.19,525.94,537.35,552.95,557.76,561.98,562.56,571.72,577.7,581.81,608.16,616.27,621.96,625.49,632.06,650.79,657.29,661.74,674.78,688.11,699.38,715.11,736.04,759.79,2630.8,2633.6,2802.6,3435.0,si
14.583,18.72,38.301,67.488,74.208,91.136,107.85,134.69,142.06,167.05,171.78,208.43,215.87,227.41,231.89,248.46,250.17,251.21,269.83,282.23,299.31,300.1,338.84,348.09,371.37,382.88,397.96,418.86,429.65,437.51,454.74,464.57,468.51,476.99,480.34,486.14,508.0,517.35,535.39,544.15,549.39,555.3,568.05,569.32,578.77,590.1,602.56,609.05,615.9,621.17,629.31,648.63,650.21,657.96,660.59,685.83,690.73,708.51,728.21,752.47,2613.8,2649.1,2771.0,3444.1,si
14.761,18.477,39.379,67.482,76.19,92.066,109.94,136.2,144.31,168.55,173.42,214.81,217.49,232.05,235.49,246.7,251.26,251.79,272.21,280.18,299.0,303.58,341.74,349.9,375.45,387.34,398.02,425.18,432.99,449.64,456.65,466.97,472.11,479.08,481.07,488.72,508.88,512.81,523.05,545.56,557.37,560.71,565.22,574.87,580.77,581.69,602.95,610.08,614.99,620.11,631.32,645.86,655.38,659.9,668.22,693.41,702.1,716.24,734.34,762.61,2620.4,2635.6,2775.4,3448.8,si
14.432,18.522,38.928,66.75399999999999,75.626,90.941,109.74,134.73,145.08,167.74,173.94,211.08,217.18,230.03,233.1,249.64,251.17,252.03,268.4,281.88,300.9,304.03,341.99,352.04,375.94,382.36,395.18,420.7,427.94,439.45,457.82,462.05,470.1,474.72,478.13,487.61,509.83,513.89,529.09,547.21,552.33,556.69,563.55,568.03,571.23,575.15,606.06,610.66,616.15,623.93,626.56,637.67,651.06,657.41,666.24,673.43,702.69,714.41,725.09,755.93,2611.1,2658.8,2782.6,3443.1,si
14.456,18.711,38.296,67.29,74.551,91.707,108.82,134.89,142.26,169.49,173.35,210.67,216.51,230.06,232.7,249.36,251.07,252.19,269.59,282.14,300.41,303.41,341.02,350.65,373.11,387.7,399.83,426.47,434.0,449.48,463.3,467.23,476.64,478.0,483.74,489.08,508.56,517.55,536.66,546.63,554.04,560.42,569.21,570.9,577.25,583.55,606.19,608.51,613.85,622.03,630.09,637.57,652.85,657.24,664.41,691.82,695.29,708.97,735.81,762.07,2625.8,2641.7,2783.9,3428.6,si
14.536,18.566,38.335,67.26,75.527,91.111,108.08,135.57,143.36,166.04,170.88,210.97,215.89,226.84,231.17,247.02,249.47,251.86,269.46,283.11,297.93,300.4,344.54,350.17,372.38,378.61,397.6,423.95,429.37,444.3,457.87,465.31,470.12,473.21,479.66,484.83,505.09,510.73,539.26,544.91,558.8,562.02,571.41,573.0,579.17,583.23,602.43,609.4,615.48,624.75,632.1,640.53,653.66,657.54,664.69,687.02,699.66,712.79,730.91,755.61,2639.6,2646.4,2804.2,3480.7,si
14.414,18.541,38.399,67.452,74.92399999999998,90.494,108.2,135.85,141.9,168.02,171.23,213.81,217.09,228.38,232.23,247.97,249.98,252.86,269.42,282.16,299.58,301.48,341.78,351.28,371.72,380.12,398.74,423.07,430.75,444.78,456.23,460.53,470.61,472.87,476.55,482.11,504.17,515.71,541.13,547.7,555.16,556.44,560.87,570.28,575.16,579.07,602.74,608.37,610.34,618.33,629.45,640.51,654.38,656.21,664.32,684.19,686.65,712.67,733.92,754.59,2609.8,2656.7,2768.3,3403.7,si
14.628,18.552,38.717,67.40100000000001,75.018,91.513,108.8,134.98,142.89,167.43,172.11,212.28,217.87,229.27,232.18,248.25,249.51,253.1,272.47,282.99,298.72,303.4,340.41,351.47,371.78,382.6,395.68,421.84,430.2,445.07,456.75,464.28,469.42,471.81,477.39,484.64,503.16,515.25,520.75,547.98,554.76,563.17,571.59,575.56,576.09,579.03,609.67,614.4,620.71,625.45,633.1,647.04,651.08,661.65,667.09,680.96,694.25,709.23,726.44,752.51,2622.8,2656.5,2780.9,3428.8,si
14.514,18.455,38.552,67.4,74.988,91.306,108.77,134.58,142.0,167.57,172.73,211.64,217.48,228.17,231.28,248.03,249.28,251.12,271.16,280.4,299.72,301.21,341.64,350.03,373.57,384.87,394.78,424.82,432.35,449.02,461.53,462.62,471.2,478.0,482.1,488.49,507.52,516.13,535.11,546.39,557.21,560.09,563.4,567.91,572.69,578.96,604.35,608.89,613.45,621.44,626.38,635.51,653.45,658.7,663.51,687.55,690.38,708.38,732.9,755.24,2607.3,2627.5,2811.0,3418.2,si
14.705,18.514,39.098,67.581,75.903,91.393,109.91,136.51,145.18,168.96,173.11,212.67,219.95,231.5,236.44,246.36,251.57,256.27,273.45,281.45,299.38,306.69,344.02,352.64,376.63,385.11,400.58,427.16,433.42,448.5,465.05,468.18,476.59,479.63,486.24,490.93,514.4,517.45,543.14,549.55,558.7,560.01,563.78,573.32,577.54,587.71,604.73,610.77,617.04,623.72,632.88,640.33,653.81,660.5,661.57,683.39,695.25,706.23,728.13,755.31,2622.7,2655.3,2776.3,3469.0,si
14.743,18.485,38.76300000000001,67.193,75.47800000000002,91.626,109.06,134.14,145.19,167.83,173.44,212.15,218.68,229.3,231.83,250.04,251.02,252.61,268.95,280.98,300.3,303.25,342.07,352.03,376.39,389.18,395.93,424.35,429.52,444.02,461.9,464.7,474.0,478.57,482.97,490.95,510.65,517.14,540.63,544.53,556.38,564.11,568.27,571.99,575.94,583.13,608.12,612.33,614.85,623.89,630.09,638.22,654.99,657.87,670.72,681.52,700.08,709.27,729.01,755.57,2639.1,2645.9,2810.8,3424.2,si
14.515,18.57,38.579,67.736,75.28399999999998,91.272,108.71,135.29,143.16,166.75,171.51,212.91,218.07,227.13,232.21,246.7,248.55,253.2,270.54,280.94,297.15,301.33,340.37,351.57,373.15,383.09,399.2,422.89,433.61,443.65,458.95,462.52,469.84,475.56,479.26,489.27,507.23,517.8,527.8,541.31,553.11,554.68,562.66,571.48,575.2,586.05,598.93,608.44,610.38,617.24,625.97,635.89,640.22,661.66,664.33,682.3,692.3,705.26,729.75,752.82,2605.5,2650.0,2785.5,3462.4,si
14.415,18.505,38.549,67.813,75.056,91.512,108.42,136.51,143.58,170.08,174.07,211.96,217.2,228.38,232.12,248.72,250.4,251.2,269.01,281.76,301.79,302.31,345.77,348.64,377.97,385.73,401.44,426.37,436.05,451.9,466.39,470.85,477.17,479.25,482.78,495.5,508.8,521.63,535.5,547.9,557.26,560.73,564.43,569.16,574.33,582.27,607.67,613.35,618.51,626.31,629.71,643.62,656.1,668.75,670.51,690.04,698.22,713.61,743.95,768.09,2620.5,2628.9,2804.0,3445.7,si
14.168,18.633,38.74800000000001,67.546,74.87100000000002,90.559,109.17,135.22,143.31,167.25,172.69,214.17,218.77,228.79,233.02,248.72,250.9,252.32,271.21,283.15,300.81,301.46,344.2,353.9,373.19,384.3,398.17,423.31,429.82,446.53,460.25,464.64,474.39,475.99,478.93,491.52,512.53,522.41,533.56,545.85,558.31,562.52,563.65,571.11,577.97,580.5,606.13,610.89,615.28,625.36,630.73,638.88,655.23,659.34,669.6,674.28,689.59,720.96,730.25,755.27,2610.2,2660.0,2778.2,3453.6,si
14.716,18.64,38.716,67.711,75.042,91.139,108.97,135.38,143.8,170.24,172.4,211.58,217.86,230.05,233.33,247.34,251.64,252.11,268.79,279.64,299.71,304.06,339.84,350.48,375.93,382.11,395.57,426.38,437.1,454.06,464.94,466.94,475.75,480.55,483.06,490.8,508.88,514.79,532.17,545.11,558.64,562.49,564.6,573.97,581.27,582.58,605.14,608.96,613.15,621.92,632.39,636.38,652.33,658.92,664.77,684.55,690.72,710.0,726.41,752.45,2612.6,2649.5,2755.6,3456.4,si
14.565,18.214,38.407,67.369,75.279,90.06700000000002,109.54,136.39,144.41,169.12,171.6,212.99,215.93,226.9,232.61,247.79,249.78,250.8,268.3,280.49,300.01,301.0,339.89,348.86,373.25,385.08,398.06,422.9,431.78,448.03,456.25,462.2,468.72,475.07,481.99,491.28,505.67,516.59,541.9,543.25,551.83,555.88,560.95,574.62,580.35,584.95,598.11,607.3,611.94,618.19,629.65,633.26,648.8,659.78,664.77,686.27,692.13,707.02,729.12,753.25,2601.6,2654.9,2805.2,3412.9,si
14.591,18.651,38.726,67.485,75.168,92.099,108.34,135.87,143.57,167.12,173.19,212.08,218.28,230.31,233.22,247.63,252.35,253.76,272.3,283.68,300.05,302.48,344.45,351.34,376.24,383.0,397.61,427.86,437.03,449.9,455.97,469.85,473.54,481.3,484.8,487.42,506.28,516.86,538.37,550.56,557.91,564.43,574.68,579.08,580.92,585.88,605.71,616.26,623.18,628.29,638.41,649.13,652.64,660.27,667.21,690.44,699.99,708.68,732.21,763.97,2616.2,2630.2,2758.7,3443.4,si
14.471,18.513,38.228,67.544,74.893,90.297,108.66,136.46,144.35,168.52,172.54,208.19,215.12,228.51,231.83,247.93,249.46,250.09,267.7,280.58,299.24,301.23,337.81,347.63,374.53,384.73,398.08,424.8,434.5,448.1,461.74,464.37,469.76,478.62,480.58,487.3,504.37,520.26,539.54,547.26,551.98,560.24,565.38,568.3,578.68,583.45,601.63,605.73,608.01,616.96,626.32,632.1,655.54,663.52,664.57,678.29,693.19,713.16,735.79,758.38,2603.2,2651.4,2782.4,3432.8,si
14.657,18.886,38.679,67.82600000000001,75.54,92.101,108.83,135.42,143.85,166.78,173.01,210.39,218.28,229.42,232.64,248.6,252.43,253.14,270.92,282.81,300.68,302.13,345.19,350.69,372.41,387.02,397.8,421.38,432.78,448.56,463.54,468.64,473.67,478.33,484.91,490.39,510.75,518.8,542.49,547.66,552.86,560.2,563.36,576.05,577.79,579.31,605.5,610.69,617.62,622.68,630.63,644.57,655.16,660.13,668.52,691.54,695.77,715.74,737.69,760.09,2615.0,2616.6,2777.7,3412.5,si
14.508,18.57,38.582,67.154,74.695,91.35,108.39,134.84,142.29,168.39,173.05,211.5,217.08,228.85,232.08,248.65,249.53,252.95,268.74,280.32,297.89,304.06,336.91,349.11,373.33,384.97,398.16,423.01,429.04,445.23,448.86,462.21,468.11,477.22,480.87,485.59,504.48,521.21,538.5,544.41,554.37,559.83,567.32,575.54,581.75,590.51,606.67,612.89,616.31,629.27,634.02,636.73,657.04,663.25,670.08,680.68,693.67,715.31,732.88,756.96,2610.9,2614.8,2799.9,3470.1,si
14.525,18.675,38.734,67.712,75.286,91.685,109.08,135.21,143.95,166.8,172.96,212.68,217.86,229.91,232.79,249.67,251.72,252.47,272.38,282.79,300.66,302.54,343.59,351.68,374.61,384.4,398.23,427.73,435.89,448.86,463.19,469.43,474.83,479.5,482.09,490.59,512.07,518.01,540.71,548.74,559.97,562.79,572.57,575.85,576.81,583.35,608.42,613.02,616.81,624.69,633.33,640.84,655.6,656.4,667.25,691.95,692.29,715.73,733.27,758.91,2632.8,2657.4,2791.6,3473.2,si
14.6,18.596,38.719,67.53699999999999,76.031,90.834,109.48,136.3,145.07,168.58,172.39,211.78,219.81,230.22,233.86,250.03,252.75,254.82,272.21,284.25,302.75,303.68,342.43,353.87,377.9,387.57,400.83,424.4,431.58,451.09,465.65,470.04,475.81,479.82,484.77,493.55,510.68,517.51,527.42,542.39,559.95,565.89,569.21,576.64,578.65,583.06,606.63,611.71,616.79,624.04,631.7,646.09,657.05,662.45,667.06,678.22,700.79,714.87,729.81,756.39,2630.6,2643.6,2812.6,3451.2,si
14.42,18.393,39.17,67.605,76.486,90.435,110.67,135.37,146.46,166.61,173.32,215.54,218.31,230.47,234.66,246.43,251.14,252.02,270.34,278.48,296.32,302.43,341.85,350.53,374.65,381.71,394.26,427.38,437.24,454.33,457.51,467.18,474.17,477.53,478.99,488.67,508.17,513.45,541.28,549.49,559.78,563.89,571.2,577.03,580.71,592.29,603.64,609.89,614.43,620.74,633.82,640.48,651.3,654.47,666.17,687.99,694.11,710.01,725.72,752.89,2627.1,2651.7,2767.1,3434.8,si
14.692.1,18.415,38.829,67.25,75.348,91.012,108.75,135.49,144.67,168.91,171.93,211.4,217.23,228.8,232.35,248.28,250.17,250.79,270.77,281.57,299.28,304.04,342.65,350.16,373.07,383.7,398.75,422.9,428.16,440.27,457.3,462.06,468.33,476.58,479.3,487.09,507.57,512.58,544.27,549.49,552.1,559.43,567.12,569.31,577.83,583.91,602.11,611.84,615.41,619.34,631.46,638.27,654.7,657.91,663.99,687.8,694.53,712.47,729.14,755.73,2608.0,2615.6,2789.3,3480.8,si
14.327,18.497,38.395,67.461,74.78699999999998,90.917,108.35,134.9,143.11,167.08,171.97,211.65,216.84,226.38,230.95,247.18,247.8,251.19,269.38,280.49,296.63,301.29,340.18,350.18,373.67,381.81,393.6,422.64,432.5,449.7,465.34,466.71,477.02,478.34,481.68,489.34,505.06,514.68,525.55,549.7,551.06,563.54,567.35,572.11,574.14,575.25,606.56,614.32,619.03,623.02,627.9,640.28,654.21,660.98,667.55,692.28,695.26,710.38,736.51,758.6,2606.8,2617.4,2760.3,3422.3,si
14.377,18.641,38.781,67.413,75.047,90.285,108.81,134.56,143.32,167.71,171.65,212.17,214.98,228.97,231.44,248.69,250.09,251.13,266.09,281.28,299.4,302.02,338.84,346.79,372.51,381.28,397.55,422.95,431.85,442.48,452.36,461.64,466.05,471.99,478.29,482.04,503.98,516.03,540.08,548.08,549.14,555.48,568.63,569.08,573.43,583.85,603.32,607.36,612.85,618.09,626.68,635.74,650.28,655.21,662.74,672.3,689.49,709.27,724.41,749.86,2612.8,2660.9,2808.7,3458.1,si
14.568,18.534,38.423,67.362,74.57300000000002,90.718,109.96,134.72,144.18,167.47,172.75,209.94,216.14,229.81,232.5,248.43,250.96,251.68,269.99,282.18,300.87,304.83,339.18,351.69,374.92,385.15,398.37,424.13,430.67,447.75,463.0,466.98,472.15,478.75,480.56,488.71,507.27,516.73,539.33,545.97,554.01,558.81,566.75,576.48,579.72,580.46,601.39,610.56,612.67,622.2,624.77,639.99,654.08,658.79,667.79,683.06,700.0,715.7,734.91,759.26,2629.7,2659.7,2791.4,3429.8,si
14.278,18.176,38.527,66.968,74.118,91.206,108.24,135.44,143.17,168.73,172.5,211.19,217.83,229.42,232.54,247.54,250.22,251.43,271.89,280.14,298.52,302.35,341.57,349.84,370.63,385.18,397.97,424.42,428.23,447.22,454.44,464.87,471.64,479.55,481.59,490.76,507.62,513.13,541.04,548.46,557.49,567.32,570.93,577.61,578.91,580.9,608.31,616.28,616.7,620.9,630.65,642.63,656.59,658.54,666.6,688.26,701.12,712.52,741.26,768.23,2630.7,2655.4,2793.0,3459.8,si
14.447,18.692,38.137,67.44,74.405,91.813,107.16,134.34,142.09,166.39,170.56,209.64,214.7,226.71,229.68,247.55,248.75,251.4,268.58,280.17,296.82,301.06,338.57,347.79,372.05,379.51,395.59,423.53,431.17,450.19,461.2,467.02,470.39,478.19,481.86,487.52,506.14,519.57,535.45,543.21,545.79,557.5,568.44,571.34,573.17,579.85,600.86,608.52,611.81,623.2,630.79,636.7,651.34,662.38,664.19,689.42,697.2,711.87,737.93,757.02,2609.2,2636.6,2783.2,3484.4,si
14.405,18.546,38.167,67.357,74.03,90.428,108.56,134.51,142.02,169.1,171.74,212.12,216.47,226.02,232.29,246.52,251.23,253.21,268.34,282.17,299.49,302.25,337.65,349.28,370.76,382.1,399.09,421.08,430.28,445.34,461.97,463.87,471.41,474.2,477.83,488.67,507.59,521.63,538.11,549.17,558.63,565.64,567.35,575.46,581.53,583.46,608.15,614.41,615.22,621.54,629.67,640.08,652.86,661.85,671.96,679.8,691.8,718.03,725.78,754.37,2609.4,2663.4,2755.2,3480.3,si
14.576,18.53,38.483,67.697,74.45100000000002,91.572,108.66,135.34,143.76,165.95,172.55,210.35,218.72,228.71,231.66,248.7,250.35,254.17,271.19,281.67,300.8,302.35,339.78,351.72,373.33,381.88,400.54,425.26,430.73,448.19,455.57,462.24,472.23,475.24,482.33,492.76,506.17,523.7,535.2,545.65,548.35,554.1,564.92,573.55,574.99,577.59,607.0,608.34,612.89,622.23,630.15,638.51,647.19,663.05,666.09,684.14,691.63,709.0,735.19,758.6,2618.9,2626.0,2797.6,3481.1,si
14.657.1,18.671,38.747,67.441,74.479,91.593,108.21,134.55,142.43,167.8,170.48,212.53,217.27,228.71,232.91,249.21,250.38,253.46,267.62,282.47,299.65,301.65,340.66,351.9,375.32,383.24,398.29,424.71,435.27,453.39,466.8,471.61,477.92,479.81,485.01,492.19,510.34,519.73,535.36,545.25,550.98,556.08,563.0,566.39,574.56,579.69,604.84,610.57,612.43,620.78,628.32,636.53,649.75,653.2,664.08,682.07,688.24,710.87,732.3,752.7,2597.0,2654.9,2754.0,3476.8,si
14.426,18.429,38.586,67.498,74.557,90.6,109.22,135.32,142.99,168.22,174.04,212.89,218.56,230.03,232.54,250.37,251.9,255.17,270.63,284.04,301.45,305.55,340.14,351.49,373.13,384.14,400.05,421.71,428.4,446.7,457.74,466.34,472.34,478.19,480.91,487.17,505.3,515.49,524.01,545.95,556.77,565.6,569.67,574.98,575.35,577.37,604.16,615.94,618.8,622.2,633.35,643.22,657.23,658.4,666.69,689.97,693.34,713.43,737.13,762.08,2611.4,2666.9,2786.6,3449.8,si
14.177,18.58,38.194,67.072,74.921,91.229,108.09,135.4,141.62,167.41,172.39,212.15,215.94,228.06,232.26,248.37,249.5,251.58,269.07,281.37,299.29,300.85,336.99,350.97,373.22,385.61,400.2,425.07,431.16,450.22,457.05,464.67,470.64,477.91,482.9,490.29,504.78,526.29,539.93,545.12,562.23,565.87,571.16,574.95,577.84,586.17,607.23,612.61,613.6,625.24,628.78,637.31,656.29,669.2,672.77,688.02,699.72,717.96,733.49,759.29,2621.0,2626.5,2797.0,3449.3,si
14.452,18.656,38.283,67.723,74.557,91.374,108.29,135.81,142.14,168.69,173.41,213.23,217.34,230.26,232.9,249.81,251.16,252.97,271.15,283.45,302.31,303.83,343.86,351.82,371.84,386.53,401.41,425.64,432.45,448.06,467.86,468.7,477.67,481.5,485.13,491.8,511.6,519.16,538.19,547.65,557.45,569.56,578.0,582.15,584.73,592.32,606.48,609.75,621.64,625.31,640.03,645.08,649.84,664.24,669.4,692.08,695.02,713.27,739.37,768.31,2615.3,2634.8,2786.0,3417.3,si
14.456.1,18.662,38.511,67.059,74.683,91.354,108.83,134.06,141.83,167.59,172.75,213.61,217.11,229.27,232.54,246.87,249.74,250.27,268.57,279.74,298.11,301.69,341.55,350.18,371.59,379.76,397.13,422.54,427.52,449.13,462.58,467.22,473.65,476.74,480.07,486.44,508.52,517.66,541.27,547.12,559.78,564.94,574.07,575.85,576.55,581.75,606.62,609.6,619.45,623.91,631.43,641.83,651.63,655.47,667.86,679.85,686.83,710.15,727.54,751.52,2608.8,2635.7,2807.9,3418.6,si
14.437,18.717,38.323,67.807,75.25399999999998,90.998,109.55,136.27,143.28,169.53,172.3,212.39,214.68,227.14,233.15,247.3,247.61,250.52,266.41,282.05,297.35,303.83,344.35,350.74,373.47,383.76,397.38,421.3,430.27,444.15,460.86,464.4,469.05,476.95,479.05,485.75,503.95,513.55,520.19,542.89,549.41,557.87,564.53,569.03,574.09,578.68,603.66,607.27,611.92,616.46,624.84,634.9,650.83,658.98,665.09,687.43,695.29,707.71,734.34,757.28,2648.7,2653.6,2766.6,3419.0,si
14.777,18.722,38.842,67.998,76.416,92.387,109.03,136.54,143.28,169.56,172.72,212.22,215.97,229.61,232.7,249.76,250.38,252.96,269.58,283.31,301.9,303.58,343.46,346.47,377.92,385.45,397.65,427.43,431.53,437.96,451.56,460.43,476.74,479.29,483.27,487.57,504.08,521.15,537.48,548.71,554.08,555.04,563.81,571.95,579.93,583.56,599.31,610.1,612.37,627.3,631.56,636.64,662.29,663.36,670.77,693.75,707.59,715.25,740.21,763.51,2610.0,2633.8,2786.8,3473.7,si
14.363,18.569000000000006,38.19,67.01899999999999,74.75399999999998,91.075,109.08,135.26,141.68,170.84,173.7,209.87,216.98,228.37,233.07,249.35,252.04,254.07,273.81,282.58,302.81,303.9,340.26,351.89,376.86,384.18,398.07,424.72,435.6,453.49,467.33,470.31,476.1,481.53,484.27,490.42,506.39,512.85,532.66,551.19,560.26,563.38,573.37,575.28,580.3,582.89,607.27,619.39,621.47,627.49,634.39,646.15,656.49,664.41,668.6,696.59,700.99,717.01,737.75,762.1,2646.3,2659.9,2804.9,3449.6,si
14.538.1,18.859,38.496,67.828,75.71600000000002,92.169,109.08,135.49,142.15,168.74,174.66,211.3,217.32,228.89,231.71,249.71,250.08,253.1,272.36,282.03,300.9,304.22,343.35,351.76,375.07,387.78,398.95,425.64,432.62,445.69,463.42,464.94,475.01,476.82,484.01,489.55,508.72,523.43,534.78,550.67,561.37,563.36,564.25,573.08,573.93,586.67,610.57,614.27,616.32,624.69,632.93,638.53,657.97,668.45,671.53,695.74,704.08,716.78,739.15,764.63,2625.2,2654.9,2775.3,3447.2,si
14.435,18.55,38.5,67.277,74.676,90.649,108.33,135.31,143.56,169.04,171.64,210.54,217.5,229.02,231.67,248.84,249.8,251.6,270.47,280.74,300.99,301.77,341.15,348.82,369.29,387.25,397.63,423.63,427.35,444.96,460.65,462.51,471.87,472.66,481.29,488.27,503.45,518.59,535.45,547.77,554.09,562.55,564.44,573.25,577.77,582.89,606.24,608.31,610.96,618.29,629.75,636.65,649.67,657.85,664.49,679.57,689.54,703.96,728.15,751.99,2632.9,2634.0,2780.3,3411.5,si
14.608,18.485,38.361,66.858,73.903,91.007,107.95,134.7,142.02,168.87,171.58,211.77,216.46,229.38,232.34,249.33,251.4,252.27,267.52,281.98,300.34,302.47,342.73,348.63,370.91,382.4,399.17,424.7,428.93,447.66,463.43,465.77,474.9,479.53,480.71,485.5,505.87,513.15,543.81,553.74,559.36,565.61,574.98,581.07,583.97,589.19,609.26,614.63,619.62,622.16,632.79,642.21,648.42,660.41,666.88,682.08,690.7,710.83,735.9,759.91,2615.1,2640.4,2811.4,3412.5,si
14.679,18.411,38.529,67.17399999999999,74.707,90.804,108.73,135.26,142.57,168.65,174.12,210.06,216.68,228.07,231.96,248.03,249.43,251.39,270.0,280.5,299.15,305.18,337.69,349.58,373.65,385.37,398.88,424.03,428.32,443.07,453.49,460.53,465.27,476.8,481.33,485.39,502.42,508.99,544.3,554.36,556.81,559.57,565.82,573.5,579.23,586.8,602.88,609.36,612.42,622.6,631.83,633.42,648.01,659.94,665.41,686.03,694.88,715.23,739.38,775.91,2622.5,2654.4,2771.2,3452.6,si
14.477,18.443,38.926,67.345,75.312,90.611,109.53,135.35,144.97,167.94,174.15,212.29,218.18,230.6,233.23,249.22,251.05,252.41,271.19,280.73,300.37,303.05,338.82,351.42,375.48,384.39,397.11,427.33,440.43,450.49,463.65,469.68,473.08,478.67,484.12,489.86,511.72,513.2,541.57,549.3,555.87,560.08,569.48,573.04,575.87,583.46,604.91,612.15,612.26,618.74,625.18,638.73,649.31,652.3,662.11,683.95,694.08,707.84,729.66,764.52,2625.1,2649.4,2813.0,3431.2,si
14.501,18.174,38.737,66.553,74.987,90.852,108.74,135.29,144.31,168.43,171.97,210.43,217.09,229.7,233.16,249.58,250.53,252.57,271.21,283.31,300.08,304.92,340.89,349.87,373.8,384.35,397.35,424.87,433.92,447.73,458.62,464.9,470.79,477.64,478.47,485.32,505.05,511.38,529.36,546.21,551.86,557.8,560.18,567.83,576.06,582.58,601.9,613.65,616.36,625.99,631.08,638.95,653.04,659.14,666.63,691.96,693.74,711.13,736.94,759.7,2600.0,2643.4,2752.9,3415.4,si
14.34,18.505,38.572,67.082,74.957,91.17,108.51,134.76,143.09,168.3,172.49,209.11,215.33,227.69,232.27,247.74,250.25,251.67,268.84,279.45,299.18,302.36,338.79,346.75,371.58,382.73,398.21,421.79,430.3,443.34,455.08,464.42,468.57,472.72,479.93,483.82,502.51,512.96,537.57,541.99,553.17,557.62,563.88,572.05,575.06,577.55,604.75,606.27,609.23,613.94,620.19,636.39,649.27,653.28,660.73,685.43,688.74,705.76,729.58,755.45,2618.9,2632.5,2758.2,3410.6,si
14.504,18.959,39.196,68.04899999999999,75.824,92.352,109.49,136.06,144.16,169.45,173.67,216.08,219.07,232.05,235.0,250.85,251.8,253.87,271.96,283.2,302.3,303.25,342.82,352.98,376.61,387.7,398.37,428.3,437.12,450.39,458.81,468.39,473.34,480.43,485.12,488.26,508.46,520.45,529.67,555.27,557.31,564.44,572.5,577.71,578.83,582.11,609.58,616.62,620.71,624.67,633.06,641.63,656.26,659.26,673.78,696.68,701.32,714.67,736.33,761.98,2631.5,2648.2,2762.6,3434.9,si
14.515.1,18.689,38.715,67.881,75.10300000000002,91.197,109.0,135.54,143.29,168.37,173.46,213.77,218.09,227.99,232.94,247.24,249.82,255.71,269.66,282.2,300.27,301.8,345.03,352.33,373.63,384.61,399.52,425.87,435.4,447.91,459.46,466.02,473.5,477.21,479.99,491.7,513.24,519.18,542.62,551.09,552.8,559.89,565.72,574.14,576.2,584.68,607.27,613.06,618.79,623.07,630.47,639.95,658.67,664.22,668.08,683.05,693.47,711.05,737.69,759.72,2628.6,2646.0,2812.1,3426.2,si
14.699,18.466,38.522,67.571,74.63600000000002,90.478,108.54,135.73,142.57,169.4,171.73,211.42,217.11,229.49,233.12,249.5,251.84,253.58,270.65,282.19,301.81,303.1,341.29,349.32,377.29,386.37,399.83,426.4,433.02,448.7,463.09,464.05,472.56,478.99,482.94,493.02,504.61,512.98,529.73,543.09,557.97,560.32,563.73,573.56,575.27,580.45,601.68,609.18,611.36,624.25,633.32,638.52,652.46,659.7,666.31,683.15,698.19,705.83,730.32,756.12,2618.0,2631.7,2794.5,3426.6,si
14.37,18.266,38.26300000000001,67.374,74.882,90.626,108.68,135.0,141.9,167.7,172.19,212.02,212.8,226.26,230.71,246.77,247.82,250.33,266.54,280.57,299.14,301.21,340.0,344.73,373.25,379.35,397.2,421.08,430.16,441.91,456.19,461.71,468.24,476.37,478.46,484.39,502.53,513.81,545.4,549.88,558.07,564.95,569.52,575.69,578.71,584.66,603.68,612.73,613.27,621.99,629.41,633.82,652.57,657.38,663.3,692.08,694.12,712.83,732.92,757.12,2623.9,2643.0,2766.5,3458.3,si
14.376,18.41,38.15,67.22399999999999,75.051,90.859,108.24,135.07,142.96,168.58,172.68,210.46,215.21,226.45,229.11,246.81,249.09,250.14,272.64,281.54,299.5,301.75,341.65,349.91,372.75,384.73,397.41,422.4,429.53,439.84,457.57,465.39,466.15,475.79,477.61,490.16,512.64,518.8,543.81,547.03,551.39,560.14,571.14,578.0,579.35,580.84,599.55,613.5,619.22,623.02,633.04,639.75,660.49,663.24,664.97,690.51,699.01,711.69,737.52,760.99,2624.3,2662.6,2780.4,3480.8,si
14.535,18.448,38.161,67.577,74.058,89.84700000000002,107.83,135.62,142.34,168.73,171.86,211.14,217.25,227.83,231.64,248.87,250.07,252.85,270.65,281.65,300.73,301.76,341.45,348.59,372.71,384.59,398.22,423.21,429.34,446.58,456.62,464.68,468.76,478.44,483.03,492.19,509.92,520.85,532.17,543.46,557.55,563.39,565.98,566.64,576.71,579.31,603.26,607.33,613.44,616.85,627.78,638.31,648.48,658.86,663.29,684.75,688.13,707.6,736.36,761.01,2636.9,2645.1,2784.6,3418.1,si
14.6.1,18.731,38.602,67.668,75.437,91.197,109.09,134.82,143.42,167.72,171.65,211.54,217.32,228.36,232.09,248.63,251.77,253.27,271.46,284.03,301.59,302.56,342.58,351.53,373.8,382.9,400.33,423.45,429.37,444.39,459.56,466.56,471.14,476.4,477.99,490.46,511.9,518.01,534.74,545.98,556.9,564.08,567.42,568.81,574.5,581.64,605.84,610.5,614.44,620.93,629.8,638.45,654.99,658.91,665.14,675.44,694.06,713.87,731.31,754.02,2612.2,2630.1,2789.6,3444.5,si
14.538.2,18.763,38.184,67.551,74.758,92.131,108.04,135.77,141.36,168.54,174.4,211.88,217.74,229.29,232.01,249.11,252.16,253.95,273.62,285.07,302.0,305.17,343.56,353.83,375.34,384.35,400.8,424.23,434.91,448.61,460.99,468.04,472.87,476.46,480.88,489.51,511.67,523.84,542.99,550.56,559.76,562.78,562.92,573.63,576.44,585.69,611.62,614.28,617.97,625.71,629.36,642.24,658.6,664.93,671.77,694.07,702.03,718.9,742.52,769.86,2647.7,2648.9,2807.4,3467.8,si
14.542,18.431,38.187,66.956,74.377,91.022,108.11,134.12,142.07,167.53,171.65,210.47,215.57,229.01,231.91,246.52,250.03,250.75,269.46,278.53,298.23,300.48,340.54,348.67,373.14,384.11,392.57,423.4,437.5,455.43,465.07,470.49,473.43,478.06,481.52,496.2,513.58,516.6,534.02,548.78,556.86,560.09,572.99,574.97,575.56,579.44,607.23,613.97,614.48,617.79,628.55,637.44,651.05,654.85,667.3,687.71,694.51,707.3,732.49,758.58,2624.7,2662.0,2802.6,3470.8,si
14.386,18.646,38.637,68.036,75.422,91.354,108.91,134.93,143.6,167.84,172.67,213.3,217.67,228.92,230.55,246.33,250.19,251.58,269.88,279.49,299.65,301.66,339.46,349.79,369.75,384.5,396.93,421.79,427.22,443.09,461.05,462.76,468.88,474.92,479.49,485.03,504.59,521.69,525.34,545.45,556.84,562.07,570.29,572.99,574.92,582.42,603.61,610.23,617.2,625.64,635.23,641.54,654.14,665.94,669.23,680.33,697.83,712.33,724.95,755.52,2598.0,2662.3,2763.9,3466.7,si
14.589,18.433,38.394,67.493,74.77199999999998,90.846,107.68,134.73,143.34,166.98,170.77,210.29,217.13,228.21,230.38,248.34,250.42,252.45,266.56,281.41,299.15,301.48,336.59,347.37,372.48,381.37,394.1,422.79,431.99,442.95,456.76,460.98,466.09,478.56,481.11,486.17,502.72,508.79,535.83,543.42,556.58,560.14,561.32,573.8,577.41,584.88,598.27,605.88,610.15,620.8,630.39,640.68,648.09,657.6,662.82,685.84,688.79,709.3,733.38,754.88,2602.9,2642.6,2770.0,3426.1,si
14.367,18.57,38.386,67.355,75.13,90.865,107.83,135.42,142.94,167.83,172.79,210.69,216.22,228.73,232.7,246.29,248.04,255.71,268.97,278.61,298.53,300.91,339.36,347.84,375.0,381.29,394.33,425.41,438.28,446.79,463.26,469.68,473.91,477.24,484.27,493.83,514.47,515.84,533.87,547.1,557.42,566.91,570.76,575.24,577.38,580.01,607.18,614.13,617.38,618.92,626.78,645.53,654.27,657.45,664.93,692.2,693.61,709.03,733.52,762.96,2621.4,2643.4,2780.7,3450.8,si
14.426.1,18.417,38.409,66.935,74.809,91.009,107.95,135.68,142.59,166.96,171.15,209.87,216.28,229.45,232.31,245.91,248.88,251.55,269.31,281.04,294.59,302.37,339.43,346.85,369.75,381.53,397.16,421.83,425.67,442.48,452.79,462.13,466.67,471.72,474.71,485.61,506.75,516.94,538.13,549.02,552.79,567.91,570.25,574.88,580.02,583.11,605.21,610.51,615.87,619.25,629.06,642.86,647.4,661.19,663.05,680.82,694.33,709.85,727.44,753.1,2599.7,2644.0,2768.0,3484.0,si
14.473,18.467,38.534,67.392,75.37899999999998,90.693,108.84,135.8,142.1,169.19,173.01,212.16,216.17,230.0,232.9,246.46,250.75,254.03,270.36,281.25,300.26,303.17,342.81,349.55,374.38,386.73,401.56,423.0,429.16,446.72,455.75,462.47,470.85,479.73,480.27,488.5,503.64,515.19,536.94,547.66,558.01,561.17,573.84,576.24,578.91,584.57,605.84,608.37,615.31,622.33,630.17,640.0,650.05,660.97,670.37,683.99,698.6,705.49,732.25,758.14,2643.5,2649.5,2779.1,3428.0,si
14.538.3,18.688,38.593,67.665,74.454,91.671,108.13,135.52,143.46,169.01,173.24,209.41,217.65,228.15,233.13,249.05,252.43,252.71,272.19,282.17,300.84,303.1,340.25,348.51,373.84,382.52,398.28,424.06,431.46,447.08,453.99,465.37,474.41,480.38,481.72,490.0,506.78,521.72,533.66,548.62,558.16,559.35,569.84,571.84,580.26,588.91,609.8,620.57,622.27,625.84,632.81,650.66,658.03,659.12,670.44,692.19,696.81,715.18,737.04,762.49,2627.7,2638.0,2812.1,3419.3,si
14.41,18.336,38.656,67.072,75.315,90.635,108.88,135.43,146.2,167.81,172.13,209.74,218.18,228.33,231.78,246.95,250.78,252.01,270.0,281.29,298.65,301.0,340.33,350.57,374.5,382.88,397.06,425.75,431.7,449.53,463.03,466.27,473.56,480.16,481.6,488.47,508.17,511.41,533.93,541.95,552.17,555.5,558.16,568.21,576.61,584.21,601.59,607.03,612.02,620.37,630.54,637.28,647.25,654.69,663.99,688.9,695.36,705.85,728.34,755.69,2597.8,2643.2,2798.7,3436.4,si
14.35,18.558,38.442,67.762,75.01,90.646,108.88,136.52,144.14,169.27,172.31,211.98,215.45,229.01,232.56,248.21,249.13,250.95,270.77,281.31,298.08,304.89,340.14,349.01,372.89,384.38,398.6,424.82,431.79,447.38,455.8,462.96,470.48,476.18,483.87,485.69,503.89,521.59,540.7,547.51,556.08,558.17,569.0,572.52,582.47,586.09,602.66,608.27,615.26,620.99,628.14,643.15,652.3,663.4,667.59,692.67,694.29,714.09,737.99,760.68,2606.7,2630.8,2771.3,3445.9,si
14.526,18.596,38.84,67.96300000000001,75.52,91.32,108.33,137.08,145.72,168.81,171.72,210.78,218.58,228.91,232.76,248.4,252.05,253.55,270.14,282.33,299.02,302.49,343.12,350.18,376.14,384.07,399.08,426.61,432.57,450.27,463.64,465.53,476.35,481.74,483.56,491.11,507.16,513.07,535.0,549.23,552.82,558.55,569.72,575.94,576.25,583.15,605.72,615.0,615.33,617.77,633.1,639.79,654.76,661.24,662.12,689.66,695.44,710.42,737.05,760.92,2618.9,2640.3,2780.1,3419.5,si
14.559,18.709,38.588,67.615,75.533,91.386,109.01,135.46,144.05,168.67,173.22,210.66,218.07,229.83,232.94,248.48,250.6,253.09,272.01,280.81,300.33,303.21,342.0,350.0,373.49,385.99,397.31,424.93,434.33,447.86,465.46,468.8,474.55,479.81,484.03,493.19,512.63,516.57,545.36,550.17,563.82,567.46,576.0,579.33,583.41,585.48,606.65,614.82,620.02,622.77,631.76,646.32,655.43,658.82,664.96,685.96,697.82,710.73,730.93,757.47,2608.1,2626.9,2805.3,3440.6,si
14.538.4,18.543,38.411,67.429,74.13,91.134,109.09,133.81,141.87,165.79,172.49,213.14,216.36,229.6,233.06,245.24,249.15,250.55,269.55,279.01,295.96,302.65,340.86,350.26,370.98,382.71,396.37,421.74,429.65,443.93,457.37,458.87,468.07,472.29,478.13,485.45,506.62,511.41,535.96,549.0,555.92,558.38,561.68,571.3,578.3,581.63,600.46,607.51,609.19,615.81,622.96,635.85,640.17,649.88,663.23,683.08,691.43,708.27,730.46,761.07,2613.0,2626.9,2752.6,3427.1,si
14.327.1,18.412,38.823,67.37899999999999,75.092,89.834,108.74,135.03,144.07,168.27,172.66,212.2,217.41,229.69,231.58,248.81,250.28,252.86,269.85,282.52,301.24,303.69,341.39,348.32,371.84,386.19,397.33,421.83,431.98,444.83,457.64,463.58,469.96,473.99,478.19,486.14,504.95,512.01,534.0,549.56,557.4,557.69,565.44,569.96,574.73,581.62,606.92,610.53,616.33,624.82,627.85,638.97,653.93,659.55,668.4,675.23,690.95,713.14,729.99,755.87,2619.4,2634.3,2748.7,3472.9,si
14.272,18.723,38.805,67.821,75.377,90.981,108.45,135.63,143.4,168.15,171.78,213.92,218.46,227.73,232.73,246.52,249.95,252.0,270.29,281.27,297.49,302.09,339.45,351.46,369.76,380.8,397.78,421.34,426.16,442.82,458.89,460.15,469.6,470.51,478.52,486.0,506.46,514.02,542.19,549.6,557.17,565.59,567.17,572.84,580.07,582.26,605.83,612.47,615.85,620.86,626.16,639.37,653.54,658.33,669.71,689.36,693.18,715.31,735.67,756.57,2619.5,2632.5,2770.8,3468.8,si
14.433,18.423,38.909,67.414,75.278,90.618,109.54,135.08,144.53,170.22,173.13,213.71,218.56,230.75,233.04,247.05,250.8,251.82,269.4,280.35,298.84,305.38,340.31,350.61,374.64,384.77,399.64,424.3,428.83,447.14,462.15,466.31,476.17,477.34,479.88,488.94,509.85,515.64,533.67,548.51,552.83,568.36,571.46,576.06,578.08,579.44,605.26,609.62,615.59,621.77,627.35,642.53,649.35,656.39,664.12,680.96,696.3,702.93,725.29,753.68,2613.9,2629.9,2765.7,3462.3,si
14.571,18.454,38.394,67.264,74.514,91.142,107.74,134.95,141.91,167.9,172.02,211.64,215.86,228.23,230.97,247.82,251.17,252.2,266.01,283.04,300.0,303.49,339.14,348.75,372.92,382.59,397.53,422.29,432.44,444.94,460.16,462.26,473.17,475.13,476.24,486.0,505.59,511.7,528.95,543.66,556.75,558.06,563.42,568.23,570.53,580.81,601.8,605.44,611.89,620.35,626.11,632.91,651.26,659.0,665.16,685.66,689.51,711.98,733.81,755.26,2621.8,2626.2,2754.5,3463.5,si
14.652,18.54,38.899,67.48,75.597,90.701,109.1,135.84,143.8,170.44,172.46,213.33,216.58,231.47,233.81,248.48,251.42,253.02,266.84,281.56,301.07,303.9,341.21,347.28,375.43,384.81,398.62,424.68,432.98,446.84,459.63,470.02,472.25,477.21,478.48,487.23,506.25,517.16,542.41,554.29,559.44,568.12,578.83,581.57,585.6,587.58,604.99,618.92,623.37,628.56,633.65,642.6,657.79,664.34,670.85,677.35,703.55,714.61,723.57,756.85,2637.8,2655.2,2797.7,3422.9,si
14.322,18.424,38.306,67.168,74.39399999999998,91.055,107.93,135.81,142.59,169.46,171.33,210.35,216.33,227.36,232.45,246.63,250.09,251.31,271.29,282.14,298.48,302.76,338.15,349.97,373.57,386.03,399.92,424.32,436.45,449.4,459.2,467.09,468.45,476.3,481.74,495.37,506.89,527.93,537.36,553.49,555.55,559.01,568.38,576.39,580.74,582.13,600.2,617.44,620.21,623.7,630.59,640.47,658.4,667.72,669.39,677.98,699.25,715.96,729.56,759.03,2649.7,2653.1,2747.6,3419.9,si
14.526.1,18.875,38.815,67.596,75.094,92.126,108.94,134.47,142.07,166.48,171.52,213.93,215.56,229.12,235.11,247.75,249.24,251.11,268.38,281.68,299.78,301.05,339.37,347.53,373.84,384.02,397.55,425.41,437.55,451.16,456.63,467.85,470.86,478.41,479.27,486.38,508.66,518.59,532.32,551.86,559.44,564.23,573.62,574.6,577.36,581.34,603.5,610.55,616.83,623.68,629.39,636.86,657.26,660.22,668.02,688.21,694.64,716.48,735.45,755.48,2618.6,2625.6,2751.5,3486.1,si
14.282,18.482,38.176,67.132,74.77600000000002,89.98,108.7,134.15,143.48,169.3,172.85,209.39,215.5,227.25,229.81,248.3,249.54,251.76,267.96,280.39,301.32,304.27,338.14,347.94,374.55,386.92,396.2,424.21,428.08,444.85,452.25,457.23,467.78,475.13,480.52,482.74,500.48,514.84,538.7,541.12,548.23,557.67,560.99,565.22,575.55,580.7,600.94,605.79,609.87,615.15,623.13,629.68,651.77,660.61,661.89,685.35,697.15,710.72,734.55,759.56,2606.2,2623.9,2761.8,3412.0,si
14.495,18.528,38.572,67.268,74.633,90.82,110.08,134.98,143.34,168.29,173.83,213.61,217.46,229.81,234.49,250.5,251.81,252.95,269.27,282.23,301.38,304.94,341.09,352.43,374.4,387.11,400.37,422.68,431.76,448.66,460.21,468.97,476.48,479.43,485.73,492.83,508.12,519.43,540.54,552.67,556.41,558.31,571.67,576.58,581.59,585.75,606.99,615.15,618.55,622.24,630.6,642.2,654.01,657.64,669.47,685.09,697.91,714.77,735.83,759.87,2602.9,2608.3,2778.0,3463.6,si
14.713,18.641,38.828,68.137,75.32600000000002,91.57,109.18,136.3,144.34,168.56,172.97,211.89,219.16,230.2,232.59,249.65,250.9,254.02,270.82,283.0,300.73,302.5,341.36,351.64,372.66,387.07,397.2,424.01,428.98,446.04,461.05,465.67,475.52,478.43,483.31,491.37,508.7,520.49,523.4,542.1,557.64,561.39,567.75,571.79,575.12,578.51,603.63,611.59,613.41,625.73,631.79,642.75,655.3,662.11,669.18,692.08,694.66,714.79,737.09,759.73,2622.9,2650.7,2758.4,3425.0,si
14.678,18.314,38.565,67.38,74.937,90.805,109.28,135.46,143.49,169.91,172.55,211.66,217.98,229.28,231.85,249.99,251.3,252.54,271.04,280.98,300.71,304.59,338.06,351.08,373.74,387.82,401.04,422.87,431.17,445.52,461.37,464.57,472.84,475.75,478.58,487.54,505.38,516.12,540.32,549.51,551.94,561.57,564.77,571.3,577.81,584.81,603.34,608.35,610.06,622.15,627.02,635.81,654.98,656.5,668.33,689.58,691.85,712.15,732.17,756.09,2638.7,2660.3,2801.4,3457.9,si
14.516,18.437,38.48,67.082,75.469,90.866,109.14,135.57,142.26,169.58,173.2,213.42,215.47,227.97,234.44,247.96,248.6,250.94,266.47,280.76,299.37,302.69,341.87,348.34,374.95,381.53,398.34,422.92,433.26,453.46,463.19,467.37,475.57,478.42,483.71,488.14,505.83,517.31,528.44,551.08,557.26,565.53,569.58,575.96,581.09,582.66,604.08,613.1,615.52,622.16,627.58,638.18,657.04,665.72,667.67,683.63,700.53,715.7,734.3,758.28,2625.1,2629.5,2784.0,3409.9,si
14.242,18.651,38.466,67.22800000000001,75.096,90.59,109.05,136.19,143.61,170.28,171.09,212.39,215.3,229.61,233.05,248.2,250.12,250.65,267.55,281.6,298.25,303.44,340.68,348.56,372.58,386.22,401.21,423.59,434.13,449.81,462.27,467.34,476.28,476.63,480.77,495.17,513.6,522.42,547.32,553.9,556.23,562.02,566.41,579.68,582.81,588.67,603.57,613.34,617.44,623.12,630.38,642.25,657.35,666.55,670.71,678.77,697.97,713.4,725.64,756.71,2636.3,2647.1,2786.1,3404.5,si
14.615,18.59,38.629,67.991,75.008,90.291,109.04,135.59,143.38,169.15,171.54,212.27,217.54,227.24,232.45,247.49,250.25,252.5,268.53,281.82,299.29,302.97,340.28,350.03,374.22,380.46,398.94,424.64,429.89,446.6,461.56,465.22,472.72,476.23,478.11,486.26,506.07,513.28,536.72,549.22,554.86,556.8,560.4,574.52,576.08,579.36,602.59,606.84,612.7,618.76,630.15,637.57,657.78,659.21,665.01,679.9,689.12,714.52,730.99,754.54,2599.6,2627.1,2786.1,3487.2,si
14.648,18.872,38.666,67.904,75.334,91.909,109.01,134.74,142.51,168.61,173.17,211.91,217.18,230.05,232.73,250.21,251.27,254.08,270.43,282.32,301.46,304.08,343.46,350.87,376.13,387.66,400.08,425.76,436.06,449.97,466.07,469.75,476.63,479.43,483.37,491.35,512.18,519.48,538.18,550.32,554.77,562.29,568.84,572.62,580.08,584.94,609.19,613.39,613.82,624.23,628.93,640.0,660.34,666.67,667.99,687.26,697.49,712.72,739.27,759.54,2644.9,2660.2,2775.1,3472.6,si
