17.555,18.612,38.88800000000001,69.291,75.706,92.813,108.93,135.23,142.69,170.82,171.35,211.76,214.62,227.31,231.8,244.82,247.71,249.51,265.93,275.93,298.85,305.24,341.63,347.8,380.06,380.79,399.46,426.88,436.03,453.55,459.69,464.87,471.68,474.6,476.42,483.08,490.35,505.92,544.63,546.32,554.62,558.92,560.31,569.02,575.03,579.3,596.87,602.9,615.93,624.29,626.46,629.02,648.93,658.16,666.94,677.31,697.86,703.54,726.76,752.57,2614.6,2624.3,2634.6,3472.8,si
18.065,18.442,38.845,70.2,75.97399999999998,93.5,109.68,136.1,142.04,168.48,173.29,215.31,217.02,228.88,234.03,249.85,251.41,252.44,271.28,284.08,302.49,306.54,348.56,354.23,379.36,387.68,404.22,429.59,434.42,450.37,461.81,469.92,473.61,478.4,481.84,489.04,503.09,507.68,541.61,556.92,564.79,573.35,577.64,578.1,582.5,584.47,598.32,618.83,622.55,627.73,636.22,645.57,657.62,662.93,671.79,692.64,697.53,713.39,742.46,764.09,2635.1,2638.8,2641.3,3446.8,si
17.889,18.521,39.235,70.205,75.683,93.313,110.44,136.25,143.47,170.86,174.67,216.45,218.0,232.49,235.32,248.51,250.9,253.94,269.87,279.47,302.0,308.45,345.71,354.89,382.69,391.42,401.95,432.64,438.39,451.51,457.96,466.62,478.62,482.65,486.61,491.89,496.49,509.85,541.13,555.39,561.13,566.05,572.58,574.59,583.72,586.59,600.11,617.88,622.73,626.08,636.66,642.21,654.57,663.61,666.58,693.1,699.62,708.09,740.24,763.15,2599.4,2624.6,2653.8,3412.8,si
17.675,18.64,38.601,69.543,75.195,93.018,109.05,135.45,140.83,169.63,172.65,213.11,216.56,225.91,232.58,247.02,248.53,250.34,270.38,279.04,298.72,305.55,345.66,349.83,378.89,384.51,401.44,426.5,437.09,448.94,451.29,464.42,471.79,476.23,477.62,484.09,502.54,508.78,543.18,556.55,558.94,564.24,566.08,573.81,576.69,578.11,599.92,611.25,616.23,622.01,627.4,640.22,653.69,659.83,662.22,681.12,689.44,706.97,734.76,756.57,2606.4,2649.9,2652.6,3474.9,si
17.914,18.541,38.855,69.753,75.322,93.19,109.56,136.4,142.75,169.87,174.0,212.22,217.82,229.94,233.54,246.39,251.68,252.65,267.26,278.3,298.53,308.15,344.27,353.28,380.55,383.26,403.3,430.75,436.16,451.8,461.98,467.9,475.32,479.97,484.29,485.82,502.29,509.1,536.9,547.23,555.62,563.01,570.53,574.34,577.5,579.72,594.18,607.66,617.0,621.03,628.9,637.83,652.66,656.34,666.16,688.51,693.66,707.88,734.06,760.29,2598.6,2616.4,2626.3,3461.4,si
17.899,18.425,39.406,69.708,76.113,92.82,109.73,136.27,143.88,168.24,172.31,216.89,220.32,230.36,235.02,248.78,249.96,251.75,273.67,282.56,300.1,306.09,349.89,353.05,380.35,386.47,402.0,428.76,431.21,444.02,458.55,465.48,473.94,476.81,477.89,489.91,511.12,512.81,527.25,553.55,557.26,564.55,568.98,569.02,577.84,583.58,594.09,610.89,620.46,623.86,629.49,644.73,654.38,659.3,667.07,687.95,690.14,709.8,733.95,755.61,2610.4,2625.7,2649.2,3470.0,si
17.593,18.314,38.939,69.363,75.477,92.107,109.61,134.73,140.94,169.07,174.17,215.92,217.43,228.2,233.62,248.7,250.51,251.26,273.13,281.31,303.52,305.74,349.91,352.58,377.85,383.96,399.82,428.93,432.56,447.75,456.27,468.88,470.84,477.31,477.84,482.42,491.6,507.07,539.2,553.24,555.98,560.16,575.54,575.97,582.66,587.71,595.82,616.43,618.06,627.46,636.78,643.12,652.01,654.93,663.2,676.99,690.3,705.29,733.24,760.7,2614.1,2625.2,2633.8,3422.1,si
17.74,18.549,39.269,69.73899999999999,76.046,92.679,108.9,136.07,143.53,167.56,171.28,212.38,217.89,229.33,232.26,245.48,249.94,251.45,270.6,279.6,297.31,302.67,344.32,347.96,379.14,381.37,397.79,428.89,431.76,444.82,448.59,465.07,468.96,478.18,479.01,483.14,496.66,502.49,533.62,556.11,557.05,565.71,572.04,574.29,584.05,585.82,594.2,615.62,619.25,627.66,637.26,644.42,656.26,657.26,660.85,678.4,692.74,702.12,723.36,748.43,2616.6,2630.1,2663.9,3412.9,si
17.748,18.536,38.882,69.595,75.492,93.064,109.6,136.38,142.87,169.04,173.39,211.59,218.04,230.75,233.55,249.15,251.3,252.7,269.05,281.58,301.17,307.32,343.5,350.26,381.95,384.5,401.76,429.9,437.53,451.71,460.7,467.51,475.13,479.43,482.09,486.14,502.77,508.52,528.73,546.7,554.81,561.01,563.78,570.83,571.92,577.41,593.08,604.93,608.8,622.18,628.31,636.53,646.29,652.06,661.08,684.65,694.44,710.44,732.94,757.36,2643.6,2655.2,2656.5,3451.2,si
17.957,18.51,38.847,69.71300000000001,75.848,93.511,109.38,135.43,141.53,168.06,172.75,213.04,216.76,228.5,231.95,246.63,249.01,249.9,274.22,279.44,298.8,305.46,347.42,352.26,378.69,387.23,399.11,429.21,429.53,440.82,443.42,463.5,465.86,474.16,480.7,482.19,500.18,504.77,545.21,552.6,558.55,560.65,573.97,574.53,576.46,587.46,597.97,613.42,619.72,625.67,637.16,641.77,654.99,658.54,662.39,690.27,696.59,706.48,733.16,757.94,2638.5,2640.3,2657.0,3420.9,si
17.787,18.852,38.968,70.362,75.843,93.402,110.1,136.64,144.34,168.71,173.87,213.69,220.07,228.53,234.07,247.54,250.02,254.1,273.77,280.82,302.54,304.18,350.52,355.12,383.46,385.33,403.02,431.92,443.78,457.76,467.07,476.31,478.58,483.32,483.59,493.29,496.23,514.87,543.3,556.07,556.9,562.21,575.66,579.97,581.42,582.73,596.62,614.76,616.79,625.41,634.58,645.61,650.49,659.13,662.45,686.77,693.36,704.1,731.58,756.6,2610.5,2643.3,2654.5,3444.2,si
17.687,18.845,38.994,69.545,75.104,93.307,108.7,134.65,141.02,168.52,171.35,212.2,218.27,228.25,234.05,245.65,248.28,252.55,271.97,277.36,298.02,305.3,347.12,351.24,380.26,383.68,400.89,426.95,432.55,449.52,457.62,468.72,471.76,474.48,477.72,482.71,487.28,509.71,540.14,551.45,553.85,557.34,566.25,569.5,573.82,577.07,597.2,610.09,614.85,621.43,625.63,639.9,645.88,651.02,659.85,682.24,689.62,702.55,727.99,752.19,2612.0,2614.8,2616.2,3443.5,si
17.627,18.487,38.88,69.512,75.859,92.303,109.38,135.28,141.94,167.66,172.19,215.17,217.39,227.91,234.42,247.74,247.91,251.88,270.74,278.6,299.81,303.24,347.36,351.31,379.49,382.16,398.66,426.24,437.51,453.18,458.22,471.03,471.62,476.22,477.06,486.47,494.57,508.17,526.79,550.46,558.22,561.73,563.55,574.47,582.21,583.54,590.88,612.75,618.89,625.55,630.59,643.77,656.44,659.74,661.37,671.83,695.44,707.97,726.04,750.71,2621.8,2634.1,2636.3,3461.2,si
18.154,18.55,38.993,70.24600000000001,75.03399999999998,93.476,109.83,135.12,141.33,168.42,171.92,214.02,216.51,227.9,235.54,247.03,251.16,252.84,269.52,280.85,301.95,304.45,342.63,350.31,378.8,382.61,400.41,427.82,436.65,448.71,453.27,464.32,469.55,477.54,480.37,481.64,505.43,511.88,542.45,550.7,555.8,564.56,567.6,569.21,576.84,578.54,598.89,608.96,617.62,622.25,631.44,636.24,653.85,657.98,660.81,684.26,689.66,712.22,733.33,753.19,2633.8,2639.3,2668.4,3486.1,si
17.836,18.445,39.139,70.15,75.62,93.015,109.79,135.55,142.31,169.39,173.19,214.63,218.19,229.64,232.55,250.15,251.03,253.35,270.16,281.48,303.67,305.66,346.65,351.06,379.91,383.28,401.99,429.47,436.32,450.88,457.54,465.51,473.92,478.81,481.66,483.73,500.66,509.83,536.89,549.74,554.87,555.98,567.68,569.08,575.08,576.87,598.84,609.06,617.73,620.24,629.36,635.45,650.13,656.27,662.14,685.02,692.78,707.4,733.0,754.69,2612.4,2623.3,2637.8,3484.7,si
17.755,18.644,38.572,69.345,75.164,93.467,108.91,135.38,142.9,167.95,172.46,209.31,219.06,227.25,230.91,247.99,248.81,251.81,274.18,281.74,301.11,303.16,348.43,351.3,384.1,386.42,401.17,429.26,439.48,454.48,460.98,469.99,476.53,480.73,483.73,491.81,500.36,509.98,543.31,551.89,556.43,561.96,567.55,569.83,579.35,582.01,601.32,608.67,613.08,624.84,629.53,644.41,647.54,660.61,663.2,683.44,699.03,704.4,728.03,754.19,2606.0,2610.6,2630.1,3484.9,si
17.742,18.559,39.426,69.95,76.852,92.969,110.22,136.58,145.47,167.09,173.23,212.66,217.76,229.24,232.71,247.99,249.67,252.32,274.59,282.92,302.85,303.32,350.63,352.77,382.52,383.41,398.65,431.37,437.26,448.26,471.64,476.66,480.25,481.64,485.21,489.23,493.63,510.19,529.78,542.92,552.31,561.83,565.87,575.63,582.24,589.08,595.04,611.0,619.77,629.54,636.67,647.58,651.8,654.22,660.76,687.06,696.51,710.3,728.83,757.32,2609.5,2639.2,2652.1,3470.6,si
17.86,18.644,38.947,69.723,75.98100000000002,93.354,109.87,135.87,141.88,167.1,172.78,213.19,216.64,228.1,232.84,247.41,248.82,250.89,273.68,279.94,299.86,305.24,348.03,351.7,377.16,388.54,399.75,429.5,431.56,447.64,449.15,466.57,469.21,475.13,480.95,487.35,503.59,511.36,538.84,550.08,558.52,561.76,566.47,567.29,577.8,594.48,601.07,613.75,619.98,624.89,638.6,645.26,653.47,658.05,669.5,680.79,694.43,708.16,729.22,754.01,2607.2,2609.4,2633.8,3466.3,si
18.064,18.556,39.052,69.883,75.649,93.842,108.85,136.45,142.3,167.98,172.45,213.34,218.11,228.4,232.58,249.64,250.06,252.22,270.75,282.32,299.52,305.21,347.17,351.41,377.74,389.99,403.5,431.82,433.67,449.94,455.62,463.19,474.89,476.62,484.11,491.24,503.98,513.66,539.99,545.99,555.18,562.43,566.09,576.97,578.65,592.7,604.62,611.33,618.86,623.93,639.42,640.21,650.65,662.59,671.11,687.03,689.26,712.35,738.47,760.69,2600.6,2650.1,2656.4,3463.2,si
17.781,18.736,38.923,70.264,75.393,93.455,109.5,136.47,142.29,166.8,172.94,214.84,218.32,227.91,234.68,246.28,249.0,252.73,271.22,281.5,298.17,304.36,349.05,352.58,376.86,384.79,402.52,428.23,434.86,456.35,458.81,468.34,473.06,473.55,479.36,488.3,500.93,510.99,535.15,551.9,555.32,563.47,564.65,570.09,572.78,576.56,594.06,611.05,613.74,620.13,625.65,642.19,647.68,651.67,663.48,681.12,696.87,712.64,734.37,768.56,2632.0,2635.2,2656.7,3470.9,si
17.735,18.324,39.4,69.95100000000001,76.067,92.663,109.97,136.41,143.87,169.18,174.18,215.67,219.05,230.4,235.11,249.97,250.75,253.79,271.57,281.83,302.47,305.97,349.48,353.8,382.2,383.83,403.23,431.99,438.86,456.16,460.41,471.63,476.59,480.55,484.05,485.24,495.06,512.56,547.63,554.12,560.41,563.03,571.87,576.77,579.76,583.43,600.51,616.9,619.32,621.94,633.11,642.67,651.93,655.57,661.83,690.55,692.67,708.2,735.45,764.37,2597.8,2615.4,2620.3,3432.1,si
17.784,18.814,39.132,69.95100000000001,76.123,93.944,109.73,135.79,142.62,167.43,172.58,216.62,217.94,229.04,234.91,247.48,249.6,251.77,267.19,279.7,298.36,304.63,345.68,352.96,381.82,385.77,397.99,429.94,442.11,455.4,460.6,467.7,477.56,480.93,483.41,486.4,493.4,509.49,541.01,558.76,560.74,566.19,569.2,576.41,577.1,588.96,597.27,608.03,625.01,627.16,628.03,643.05,655.26,660.11,663.7,690.66,695.28,708.9,734.48,758.69,2633.2,2649.1,2664.9,3479.3,si
17.867,18.29,39.15,69.86,75.73100000000002,92.208,109.91,134.64,141.86,169.3,173.17,215.84,216.86,229.95,234.65,248.78,250.06,251.32,271.87,279.85,301.71,307.92,348.56,351.68,378.49,383.12,401.12,427.33,437.36,445.81,457.54,469.16,472.18,477.49,480.63,490.45,495.93,512.37,535.04,540.26,552.69,559.33,571.21,573.94,578.51,580.83,592.43,603.87,617.13,626.94,630.32,641.43,648.22,657.17,660.09,684.69,692.04,705.77,731.46,755.3,2594.9,2635.4,2666.9,3442.7,si
17.902,18.63,38.965,69.97,75.45100000000002,93.314,109.77,135.33,141.87,169.09,172.52,214.15,217.75,227.4,233.02,246.86,251.04,252.37,272.87,281.85,303.33,305.23,348.26,351.76,381.47,385.51,401.0,427.82,437.55,449.53,454.56,465.87,471.25,478.53,480.21,483.06,498.48,507.87,537.28,550.47,554.33,556.36,565.94,568.37,575.19,577.25,599.9,611.81,617.92,621.74,627.82,638.11,650.3,654.26,662.07,685.17,690.39,706.43,733.57,753.71,2619.0,2645.3,2657.4,3463.3,si
17.783,18.581,38.852,69.505,75.306,92.949,108.99,135.47,142.0,169.61,173.49,212.7,216.68,229.36,232.18,248.61,251.82,252.03,269.49,283.11,303.78,306.64,346.02,351.88,382.04,387.31,400.98,430.04,432.03,447.21,455.18,462.31,472.79,479.51,480.99,483.79,494.55,502.63,538.19,551.06,554.99,557.6,570.53,574.54,576.23,578.83,597.4,608.64,618.01,627.14,637.22,638.42,651.1,660.32,665.4,687.81,694.41,710.5,739.03,761.48,2624.5,2645.5,2646.0,3408.1,si
17.721,18.631,39.282,70.048,76.20100000000002,92.914,109.72,136.47,144.15,170.23,172.4,213.77,220.06,230.05,233.72,247.3,251.57,253.78,270.63,281.25,299.45,307.2,349.95,350.87,382.55,385.12,401.57,429.34,435.49,451.76,463.86,470.31,474.47,480.58,484.54,489.28,495.22,510.09,538.39,557.56,558.18,567.66,574.11,575.51,577.93,580.35,598.81,616.68,626.64,627.85,630.68,648.19,653.48,664.67,671.31,688.43,695.66,710.54,735.87,757.83,2606.5,2612.6,2635.2,3471.9,si
17.453,18.849,38.881,69.301,75.622,93.129,109.55,135.23,141.9,170.64,172.88,213.2,217.59,227.77,231.97,248.46,249.94,252.31,272.38,281.66,304.76,306.14,348.59,349.87,382.53,385.23,402.05,428.38,430.84,445.19,458.0,464.27,471.7,475.23,476.0,486.27,499.27,504.29,551.26,556.47,560.75,564.38,569.74,573.08,579.34,584.71,605.36,614.35,624.39,628.72,631.57,640.5,655.43,663.32,665.57,681.24,699.68,711.38,729.36,757.13,2627.0,2630.0,2659.0,3475.0,si
17.943,18.496,38.949,69.866,75.209,92.858,109.86,135.52,142.16,166.97,173.22,212.19,215.92,229.55,232.42,248.01,249.76,252.29,267.82,280.19,299.71,304.36,343.19,350.91,378.8,388.36,400.65,428.66,430.81,445.12,450.96,462.02,470.03,475.65,481.07,487.18,498.14,504.73,541.81,550.96,554.3,558.83,559.52,566.98,575.17,582.11,596.09,606.66,612.44,621.92,632.62,633.99,648.29,654.14,664.37,685.14,690.05,707.31,730.76,754.15,2605.8,2636.6,2649.0,3426.1,si
17.729,18.504,38.883,70.156,75.49600000000002,92.691,109.83,136.14,141.43,168.85,172.64,215.77,218.13,228.06,234.54,248.72,251.0,252.02,271.99,281.77,301.79,306.2,350.22,350.74,381.22,384.77,404.41,430.53,433.75,449.78,457.2,466.95,476.1,477.5,480.27,489.88,502.46,511.06,535.66,553.29,557.78,567.07,571.57,576.99,579.21,587.71,598.03,614.67,619.21,623.49,636.43,643.1,649.51,659.09,662.87,684.94,689.68,707.04,732.47,755.34,2605.7,2648.6,2650.6,3461.3,si
17.441,18.247,38.76300000000001,68.915,75.803,91.717,109.93,135.64,142.85,171.69,172.67,213.29,216.64,228.78,232.47,248.8,249.35,250.4,267.64,278.98,301.96,307.6,343.79,349.61,381.37,384.11,401.1,427.15,432.08,444.97,463.8,466.86,474.08,477.74,480.6,488.12,497.09,507.53,541.69,553.06,557.88,560.0,569.76,573.77,575.02,578.29,601.08,610.81,615.18,622.34,627.54,635.31,650.16,656.72,671.87,679.43,701.41,706.88,730.09,758.4,2631.6,2642.2,2642.8,3476.0,si
17.751,18.493,38.87,68.786,75.109,92.974,109.12,134.53,143.33,166.94,171.82,212.23,218.3,228.76,233.14,247.53,249.6,251.93,269.14,280.13,298.5,305.3,344.65,352.77,378.97,385.89,401.09,428.03,432.38,445.22,458.69,466.36,471.18,477.69,478.73,487.27,498.37,506.93,538.56,550.29,557.41,560.26,566.61,573.32,576.01,578.87,595.3,610.17,619.31,621.12,628.57,640.26,644.29,653.05,665.22,680.63,688.97,703.43,729.01,751.23,2597.6,2609.7,2621.5,3445.1,si
17.67,18.673,38.871,69.623,75.903,93.215,109.31,135.92,142.48,168.49,174.0,211.75,217.98,228.47,231.31,248.41,249.74,251.24,272.99,281.54,301.72,304.76,349.88,351.6,380.34,384.61,401.26,429.43,430.65,445.28,459.1,467.39,472.27,474.36,480.34,484.4,495.56,504.62,542.76,555.44,557.54,560.36,567.89,577.78,581.9,585.5,599.2,616.43,623.83,626.54,635.5,645.25,656.13,661.16,663.66,684.52,697.81,711.58,736.59,762.12,2606.1,2614.8,2656.7,3465.3,si
17.868,18.674,39.101,69.88,76.117,93.596,110.83,136.29,143.63,169.17,172.73,214.34,216.58,228.29,235.16,248.66,249.08,251.81,272.46,282.19,302.94,305.75,346.77,353.45,379.96,384.2,400.54,428.7,435.12,443.37,455.37,467.18,469.28,479.07,481.45,487.3,497.09,507.93,542.81,561.16,563.94,567.0,569.44,577.12,577.8,587.9,596.91,618.38,626.1,631.83,638.24,642.92,655.26,662.18,665.43,684.68,701.22,711.79,736.95,759.7,2608.8,2609.2,2611.7,3412.8,si
17.798,18.807,39.37300000000001,70.044,76.533,94.114,109.99,136.61,143.09,169.35,173.67,216.21,218.13,227.78,236.86,247.13,247.93,250.97,271.55,281.05,300.26,305.77,348.31,353.24,380.72,384.74,403.12,428.3,438.39,445.38,450.24,462.39,470.88,475.89,480.4,484.15,500.28,506.93,529.34,554.1,556.98,562.43,563.48,570.07,578.0,581.28,593.71,609.51,624.36,626.86,628.92,636.34,657.09,661.78,666.83,694.24,700.36,717.7,739.59,766.75,2598.0,2610.0,2629.6,3463.8,si
17.917,18.316,38.731,69.593,75.714,92.892,109.31,135.96,141.25,167.01,173.38,213.15,217.37,229.6,232.7,248.34,252.15,252.56,271.34,281.98,301.1,304.23,347.28,352.26,380.25,385.7,400.4,428.33,437.73,453.5,455.23,468.96,473.8,477.26,479.07,486.27,506.4,513.47,542.93,558.06,558.2,560.77,568.06,575.46,577.17,579.41,599.47,612.31,619.93,622.77,631.52,643.82,658.23,658.54,660.16,688.47,694.95,712.59,734.21,759.7,2595.1,2598.8,2668.0,3483.3,si
17.995,18.418,38.76300000000001,69.737,75.324,93.618,108.82,135.41,140.71,170.59,174.9,212.13,217.71,229.92,231.57,248.15,250.88,251.94,269.83,278.0,303.21,305.01,344.71,351.67,384.81,386.25,398.14,430.9,437.15,452.78,461.21,468.01,477.62,480.03,484.74,487.74,493.69,507.32,536.08,550.66,555.48,557.95,568.86,571.3,577.56,579.5,595.51,610.66,618.52,621.49,626.21,638.83,656.33,659.44,661.2,696.34,700.85,708.34,740.13,769.45,2633.9,2639.8,2650.3,3428.9,si
17.906,18.623,38.904,69.911,75.63600000000002,93.235,108.85,135.0,142.7,166.89,170.35,213.16,216.33,227.04,232.09,246.61,248.06,251.5,267.08,279.03,298.96,302.83,343.75,349.94,380.16,383.32,398.46,427.79,432.33,446.65,460.95,466.86,473.22,474.84,479.52,488.67,501.11,507.41,521.84,551.66,552.62,560.98,568.62,571.89,577.33,578.3,591.74,610.03,618.35,624.9,629.18,634.75,655.09,657.3,663.5,676.24,695.39,706.35,729.92,752.29,2631.5,2656.6,2656.9,3428.6,si
17.959,18.204,39.111,69.523,75.172,92.387,109.16,136.03,141.97,169.95,172.8,215.91,219.02,230.51,236.07,249.23,252.09,253.19,273.48,282.98,303.26,306.13,348.01,354.47,377.67,389.61,404.1,429.82,434.46,447.94,460.5,468.85,475.77,477.44,481.06,492.68,504.43,513.14,541.17,554.12,561.34,563.09,565.68,574.16,579.06,587.26,601.36,616.07,619.36,623.9,633.6,642.53,653.65,657.56,668.25,679.73,690.74,709.7,734.4,758.11,2604.4,2644.6,2648.0,3432.5,si
17.866,18.782,39.029,69.609,75.872,93.503,108.62,135.29,141.91,168.33,171.91,212.2,219.01,229.44,232.55,250.03,251.22,252.48,272.88,281.81,301.5,304.67,348.95,350.27,384.5,387.52,401.2,430.87,441.89,455.4,465.01,470.92,478.22,482.0,485.53,491.64,501.72,511.3,547.4,553.56,560.04,562.35,570.57,574.7,579.38,582.75,603.48,613.91,622.53,624.14,628.44,641.78,652.87,657.37,662.63,683.92,697.56,710.26,724.95,752.62,2623.0,2635.9,2636.1,3478.4,si
18.022,18.687,38.893,70.113,75.946,94.243,109.44,136.64,142.99,169.47,172.84,212.25,218.82,229.38,232.18,250.05,251.8,252.68,273.46,283.89,303.44,306.33,348.9,352.91,382.36,385.8,401.44,430.79,436.32,450.88,457.13,466.36,475.23,479.99,482.97,487.82,503.67,511.65,527.96,549.89,552.14,561.25,563.8,572.9,578.68,581.9,597.67,615.64,619.8,627.03,637.24,641.28,657.76,658.04,664.52,689.44,698.42,708.89,735.58,759.81,2608.7,2638.7,2659.3,3404.0,si
17.918,18.376,38.929,69.791,76.191,93.441,109.44,135.69,142.14,168.9,172.63,212.75,215.06,227.64,230.89,245.99,249.27,250.51,271.04,278.08,299.41,303.9,344.87,350.6,378.41,383.71,398.19,427.2,429.31,437.44,443.42,458.1,466.3,471.29,479.99,483.4,497.79,505.65,544.57,548.57,558.7,566.68,571.56,572.39,579.75,587.85,598.2,612.73,623.8,630.83,634.76,638.88,660.12,662.43,671.39,689.38,704.78,712.79,735.63,760.16,2616.5,2619.3,2622.4,3469.6,si
17.82,18.771,38.993,69.436,76.296,93.624,110.05,134.43,142.32,169.52,173.21,214.36,218.14,227.31,233.96,243.9,247.74,250.21,269.5,274.65,297.7,305.93,346.32,352.18,382.08,386.3,401.0,430.3,437.73,449.39,463.84,465.0,476.44,477.19,481.4,487.42,502.32,509.53,538.04,550.54,554.81,557.1,561.41,570.55,580.13,584.37,592.38,605.82,619.69,628.17,631.79,635.98,652.43,660.77,663.63,676.13,700.23,705.24,722.88,752.74,2624.0,2641.2,2645.1,3434.3,si
17.658,18.646,39.197,70.013,75.71,92.674,110.71,137.04,143.49,170.22,173.14,214.28,217.28,230.15,233.68,249.17,251.42,253.87,271.78,281.33,302.74,307.91,346.65,351.54,380.07,388.86,403.49,430.35,431.18,443.37,450.74,465.93,474.97,476.68,480.99,488.38,499.17,504.75,539.86,554.16,559.03,561.71,570.9,574.62,579.15,584.16,597.62,614.77,621.79,623.66,637.45,639.09,655.34,660.96,662.99,684.41,692.69,709.92,730.95,756.16,2620.0,2620.9,2632.4,3482.1,si
17.687.1,18.491,39.264,69.57600000000001,75.83800000000002,92.673,109.85,135.16,143.72,167.42,172.83,215.72,220.39,229.04,235.33,246.52,248.56,254.01,271.8,279.28,299.06,303.46,348.68,352.89,379.29,383.18,399.71,431.18,438.88,457.59,464.28,470.04,476.31,477.79,482.79,489.7,496.87,515.54,544.41,556.79,563.91,565.39,566.31,575.14,586.26,591.9,595.25,615.23,620.85,630.17,638.46,646.07,653.53,655.75,665.01,681.48,695.22,703.21,726.91,751.87,2632.7,2636.5,2642.1,3424.5,si
17.657,18.711,39.201,69.719,75.767,93.452,109.63,134.78,141.72,167.42,172.74,213.9,218.14,230.45,232.98,248.73,250.63,251.22,269.96,280.5,301.73,304.4,346.45,348.93,377.33,385.32,403.05,423.13,431.23,447.55,459.66,462.91,469.03,472.72,478.63,486.35,502.37,506.71,538.59,556.21,558.63,563.51,566.69,572.47,575.31,590.48,593.29,611.33,623.46,627.69,638.5,641.11,652.31,658.71,668.65,684.94,692.86,707.12,733.95,753.78,2599.4,2600.9,2653.2,3409.4,si
17.769,18.687,39.065,69.36399999999999,75.42399999999998,93.082,109.78,135.71,142.19,169.79,173.47,215.67,218.39,230.36,236.45,248.96,250.92,254.21,271.8,281.49,300.87,307.4,347.96,354.2,382.65,386.26,400.82,429.39,439.4,448.51,455.7,466.82,474.03,477.09,483.33,485.44,492.3,510.42,535.24,554.83,559.19,566.63,568.13,575.97,577.22,583.02,598.75,615.73,624.4,627.61,633.5,643.18,653.42,663.82,666.89,685.06,696.67,712.5,735.31,759.27,2643.3,2644.2,2650.1,3420.6,si
17.448,18.335,38.836,69.085,75.16199999999998,91.875,109.41,134.11,143.27,168.57,172.65,212.31,217.18,228.7,231.39,246.11,248.18,251.48,268.35,277.41,300.3,305.67,344.71,350.31,378.99,380.42,397.38,426.75,429.11,443.6,456.56,462.55,471.58,472.71,476.95,482.29,486.24,500.97,527.08,546.48,551.97,555.8,565.2,567.64,570.74,579.26,594.52,608.86,610.33,616.51,625.98,633.57,642.46,647.31,653.72,679.52,689.51,697.9,724.4,752.66,2620.2,2623.6,2659.3,3481.3,si
17.759,18.774,39.22,69.936,76.381,93.815,110.9,136.34,143.56,170.32,175.35,214.31,218.8,229.81,235.26,249.95,251.38,252.66,271.31,283.46,305.98,307.36,347.71,354.52,383.72,385.98,404.18,430.88,433.43,446.8,457.89,464.72,473.67,478.76,482.67,487.94,491.71,504.34,528.68,558.43,564.21,567.62,568.35,577.99,579.78,587.79,596.93,617.85,623.84,629.78,640.81,648.22,657.27,658.65,668.23,698.68,706.11,716.29,738.97,767.83,2622.3,2637.8,2648.4,3481.0,si
17.732,18.633,38.959,69.543,76.128,93.192,110.2,136.13,144.72,170.53,174.12,211.23,219.13,228.57,231.96,250.05,251.36,252.21,270.27,281.45,302.75,307.38,346.5,351.92,383.84,384.58,399.66,429.43,432.09,446.73,460.84,468.66,477.65,479.79,483.55,489.13,496.63,507.75,535.4,555.27,557.15,557.9,560.91,571.91,574.65,581.16,595.9,609.84,619.79,624.61,632.47,638.05,649.66,658.74,666.03,694.06,697.92,708.04,738.6,760.66,2617.5,2633.1,2637.0,3445.9,si
17.815,18.721,38.869,69.833,75.354,93.452,109.68,134.91,142.66,166.96,171.48,212.1,216.88,227.06,232.31,247.85,248.93,251.95,271.61,279.82,299.03,303.44,346.17,350.69,379.85,385.21,400.53,428.45,439.59,453.1,456.23,469.39,472.46,478.71,481.34,485.58,503.36,510.59,540.39,545.15,553.87,559.54,564.57,573.69,575.83,587.38,594.99,611.79,617.46,623.64,632.24,638.41,649.08,655.29,662.56,682.12,688.86,705.81,727.76,749.43,2609.8,2620.0,2642.8,3405.4,si
17.865,18.477,39.045,69.577,75.985,93.109,109.32,136.09,143.32,167.82,172.28,213.41,218.13,228.41,231.25,248.13,248.88,251.53,268.9,279.86,298.51,303.01,346.49,349.99,379.85,381.24,398.54,426.17,430.31,442.26,458.23,460.54,471.87,475.31,480.33,485.82,500.6,504.55,549.35,557.05,559.26,559.77,564.13,572.14,579.82,584.44,603.08,610.92,616.95,623.99,633.73,641.72,652.93,659.04,660.13,688.0,691.82,707.26,731.32,754.17,2639.8,2648.0,2657.0,3438.5,si
17.663,18.684,38.965,69.54899999999999,76.438,92.548,110.35,135.42,143.07,169.4,174.14,213.06,217.49,228.01,232.77,248.21,249.69,251.59,273.69,279.97,300.45,306.25,348.56,354.37,384.3,386.05,397.73,431.03,441.51,453.44,457.29,472.49,477.52,481.27,482.62,485.91,487.87,510.08,548.13,558.56,562.21,566.6,572.3,577.56,581.58,585.46,597.99,617.46,622.04,631.8,634.45,644.98,654.24,661.69,664.84,676.51,699.48,708.19,730.62,756.71,2622.3,2630.9,2650.8,3412.6,si
17.651,18.867,38.964,69.36399999999999,75.63600000000002,93.593,108.61,135.36,142.76,166.56,170.77,212.48,217.67,227.89,232.43,247.84,248.29,251.48,268.07,279.72,299.36,301.49,344.46,349.31,380.11,382.44,400.67,429.13,435.02,447.26,458.83,467.86,471.8,475.91,478.18,485.84,502.93,506.5,544.7,557.07,560.34,564.16,575.74,580.24,581.84,585.97,596.63,616.5,619.86,625.47,634.31,641.12,651.29,653.49,661.36,677.74,691.2,705.51,727.0,749.19,2609.9,2630.1,2641.5,3411.2,si
17.598,18.28,38.824,68.878,75.141,91.19,109.1,135.12,142.86,167.94,171.95,211.35,218.79,229.58,232.49,248.73,250.35,252.0,270.8,280.54,299.93,305.42,345.26,349.68,379.67,385.37,395.9,426.67,432.05,445.14,458.68,467.11,469.15,476.27,481.5,489.39,497.48,506.73,522.57,547.98,551.1,560.26,571.77,572.55,574.02,578.08,591.77,609.34,615.27,619.18,625.58,643.37,645.64,653.2,660.49,674.57,687.51,703.99,725.29,750.38,2619.7,2630.5,2654.4,3424.5,si
17.786,18.838,39.11,70.217,75.115,94.133,109.68,136.59,142.57,171.05,173.66,214.78,218.98,229.99,234.96,248.52,250.7,252.81,272.16,280.13,301.33,307.92,348.32,352.72,381.07,388.22,403.5,430.16,439.84,455.9,461.25,472.3,476.45,479.82,482.0,490.79,502.42,511.02,539.14,554.43,560.24,568.27,571.27,575.9,579.34,580.27,601.53,615.57,620.27,627.47,630.04,643.89,653.07,657.68,667.52,687.98,692.73,707.68,737.84,764.01,2605.1,2613.8,2662.1,3442.6,si
18.208,18.72,39.378,70.729,76.041,94.711,109.49,136.78,142.87,168.34,174.54,213.43,219.68,231.69,234.4,248.44,253.06,253.53,272.09,282.98,300.51,307.12,347.93,353.1,381.61,389.58,403.78,432.34,436.62,452.59,461.79,469.43,475.99,478.74,484.89,490.8,510.11,513.83,535.0,551.16,556.47,559.89,565.55,572.42,576.17,581.47,598.5,611.29,616.33,627.1,632.38,644.39,652.86,660.52,669.43,690.92,695.78,711.35,739.39,766.44,2601.9,2608.1,2651.2,3457.5,si
17.641,18.581,38.866,69.264,75.914,93.106,109.17,135.76,143.21,170.28,173.59,210.6,217.51,227.99,231.25,249.87,251.37,252.05,271.17,281.94,303.38,306.7,347.74,351.37,381.6,386.21,403.32,430.59,433.14,444.37,462.73,466.74,474.55,478.82,481.21,487.21,501.7,505.81,539.32,545.69,553.18,558.68,569.14,572.87,575.9,583.98,596.4,609.17,620.86,622.12,635.56,638.34,650.51,660.83,662.62,689.99,695.57,708.94,736.89,760.54,2601.4,2647.3,2651.6,3480.8,si
17.844,18.76,38.878,70.083,75.35,93.912,108.79,135.8,143.16,169.14,172.82,211.13,216.98,228.6,231.95,247.18,248.97,251.42,271.07,278.96,300.62,305.83,344.49,351.53,380.34,386.79,400.53,431.68,436.8,447.69,458.16,471.08,472.14,479.09,483.19,487.45,504.85,509.7,539.77,547.05,554.93,559.32,569.27,571.9,578.0,589.96,594.91,609.84,618.03,625.84,633.26,640.91,654.99,661.81,663.21,692.78,693.14,709.74,738.24,761.78,2604.2,2604.9,2621.6,3416.8,si
17.738,18.648,38.868,69.556,75.562,92.975,109.31,136.06,143.09,169.72,172.51,213.54,218.53,228.13,233.9,248.18,249.32,253.89,268.53,281.02,301.08,304.37,346.11,352.39,384.04,388.84,403.84,430.48,444.48,455.57,461.48,469.34,478.79,479.91,486.72,490.0,502.62,512.05,539.45,552.25,557.97,562.82,565.75,573.6,577.66,580.89,597.47,609.09,615.76,622.97,625.14,640.04,650.88,655.17,666.56,678.46,694.87,700.39,730.97,754.18,2614.6,2624.4,2654.0,3419.1,si
17.829,18.775,39.315,69.329,75.45100000000002,93.528,108.13,134.24,141.75,166.39,170.41,214.54,219.16,228.17,232.7,245.16,249.03,251.73,271.65,278.39,297.3,300.36,346.82,351.3,379.66,384.85,395.56,427.26,434.85,444.65,453.47,467.09,474.19,477.9,480.09,486.25,495.9,507.38,529.75,549.77,551.9,560.07,570.71,572.58,576.45,577.43,591.23,613.21,616.87,622.73,627.77,642.47,645.03,652.6,662.94,676.47,689.47,699.78,718.41,744.49,2599.3,2611.1,2634.3,3442.4,si
17.983,18.698,38.608,69.568,75.227,93.869,108.91,135.19,141.42,169.54,173.45,211.83,217.69,227.84,231.15,248.68,250.61,252.56,271.81,281.49,301.52,306.56,346.42,353.01,379.98,387.05,400.81,428.14,433.53,447.72,457.8,467.76,472.17,477.69,481.73,486.01,502.42,506.15,538.35,555.45,559.2,565.88,572.71,573.62,580.97,586.54,599.95,617.95,622.63,627.53,634.28,646.2,654.52,662.01,668.78,690.33,691.78,709.63,740.56,761.34,2621.6,2632.2,2651.2,3433.8,si
17.859,18.491,39.231,69.964,75.569,93.045,109.84,136.58,142.67,167.46,173.65,215.9,219.36,231.2,235.43,248.62,251.61,253.17,273.42,282.56,301.36,305.66,348.7,353.45,381.22,387.64,400.76,428.58,436.31,450.6,454.8,466.69,470.84,478.86,484.9,488.93,501.05,510.62,531.87,551.53,557.88,563.6,564.78,573.53,578.83,580.92,599.38,615.86,621.95,628.93,635.46,646.49,654.47,661.52,668.04,690.55,693.12,711.7,735.73,762.34,2615.8,2638.1,2649.1,3414.8,si
17.542,18.74,38.773,69.66199999999999,75.736,92.958,109.47,136.31,143.94,167.17,172.44,210.13,216.52,228.4,232.42,244.33,248.51,252.39,272.86,278.84,299.85,303.83,345.36,351.85,378.91,382.42,396.86,430.32,434.27,449.08,455.08,467.06,473.47,478.09,480.37,489.55,492.46,504.89,531.55,551.25,554.37,557.02,568.93,572.07,577.85,584.67,591.53,612.23,615.45,624.32,633.97,642.16,647.8,652.89,657.95,683.09,697.36,702.92,725.39,756.93,2607.6,2613.6,2650.8,3441.2,si
17.419,18.663,39.147,69.528,75.35600000000002,92.915,109.51,135.22,142.15,168.92,173.85,213.43,218.93,229.84,233.14,249.38,250.37,251.55,271.55,279.81,302.15,305.72,346.98,351.85,379.49,387.63,400.49,429.96,433.08,448.86,462.96,466.07,474.66,477.28,480.65,488.29,492.85,509.16,539.67,543.38,556.28,563.67,565.46,572.86,577.77,581.98,598.92,609.67,620.22,625.39,634.15,636.6,652.58,659.72,666.1,684.86,690.2,709.73,734.04,756.92,2612.2,2613.5,2620.3,3434.9,si
17.804,18.68,39.109,69.872,75.824,93.143,108.82,135.6,141.95,166.87,173.71,214.87,218.32,229.32,231.31,249.3,249.91,252.74,269.57,281.92,299.53,304.25,348.96,351.83,384.35,387.18,398.45,427.47,430.85,452.05,457.46,460.79,475.59,481.1,484.54,487.98,502.78,508.52,536.72,550.74,559.88,561.18,566.37,569.46,572.03,579.87,601.51,611.69,620.42,626.14,632.11,639.79,658.04,660.1,665.7,685.29,694.74,712.59,734.51,756.71,2620.1,2622.3,2632.3,3458.8,si
17.948,18.62,39.029,69.876,76.078,93.943,109.39,135.55,142.55,169.23,172.95,213.93,215.99,226.48,232.99,246.74,249.61,252.2,270.37,281.38,300.87,305.4,344.59,351.08,381.36,384.01,401.41,429.06,441.36,445.85,451.11,464.33,470.89,477.99,479.66,483.37,503.29,509.18,543.89,554.26,561.67,564.44,565.18,577.14,579.02,588.57,600.78,610.81,625.44,629.75,635.93,637.39,656.09,662.96,667.8,689.57,700.68,717.18,735.64,760.52,2629.5,2644.5,2654.0,3449.3,si
17.757,19.076,39.197,69.961,76.096,94.162,110.17,135.44,143.06,169.72,172.8,215.08,217.9,228.13,235.3,245.36,247.48,250.85,271.65,278.06,300.25,305.51,347.61,351.98,382.43,386.49,399.12,429.5,438.1,454.11,461.31,471.57,473.86,476.03,480.28,486.41,494.53,509.71,538.81,552.54,557.82,567.28,574.99,576.84,580.14,581.98,595.97,615.07,622.4,623.92,630.5,641.55,648.63,659.84,665.43,683.67,698.42,704.06,731.29,754.95,2612.5,2627.4,2658.2,3476.9,si
17.845,18.635,38.62300000000001,68.896,75.101,93.152,108.16,134.22,140.47,167.85,171.92,212.76,219.02,229.43,232.21,247.68,249.99,252.56,275.0,280.67,300.18,305.02,349.38,351.73,381.45,384.3,398.63,431.15,441.09,456.19,465.16,472.62,476.61,478.42,484.17,489.78,495.41,514.11,543.58,555.41,559.21,568.04,572.82,576.0,577.68,590.06,594.66,615.43,621.9,626.32,635.54,644.08,650.42,654.56,663.0,679.74,688.67,701.79,725.9,750.77,2622.7,2644.5,2650.7,3445.0,si
17.788,18.273,38.434,69.012,75.163,92.36,109.23,135.21,140.15,169.12,171.4,212.8,215.88,227.1,232.81,247.96,249.9,250.61,270.01,280.46,300.8,306.11,344.82,351.19,380.41,385.0,400.67,427.23,440.89,452.37,459.44,469.07,474.45,476.76,481.34,487.61,501.18,509.09,540.37,551.72,555.25,556.49,570.05,571.65,575.49,579.23,598.03,610.96,613.73,621.12,626.91,638.4,650.82,655.5,659.09,676.81,692.9,707.45,725.5,752.21,2614.4,2625.4,2652.8,3483.9,si
17.636,18.882,38.9,69.965,75.57,93.245,110.2,136.57,142.73,169.14,173.2,214.07,218.36,228.57,233.32,249.81,250.65,252.0,271.39,282.79,302.44,307.62,348.01,354.48,379.92,385.59,403.14,423.06,430.37,441.13,456.12,461.33,470.71,477.63,479.17,486.27,494.76,503.68,540.91,555.19,561.54,566.07,568.9,573.68,580.97,587.49,599.84,616.84,621.08,628.84,636.54,641.84,654.38,663.72,667.62,689.88,695.52,714.28,738.39,762.41,2645.9,2653.6,2653.9,3484.5,si
17.932,18.703,39.668,70.22399999999999,76.506,93.495,110.24,137.38,145.57,168.67,173.43,214.86,218.41,230.26,233.96,245.9,250.59,251.35,269.27,278.92,298.44,304.37,347.97,352.09,382.99,383.84,399.89,431.62,432.69,449.01,461.84,467.61,476.76,480.59,481.78,487.87,499.98,506.2,540.03,556.28,558.87,563.09,572.71,574.62,575.09,580.2,597.58,615.05,623.27,625.51,631.47,639.6,650.15,657.52,664.22,687.97,692.71,706.81,730.57,757.57,2605.0,2621.5,2636.0,3430.4,si
17.755.1,18.625,39.276,70.175,76.234,93.23,109.81,136.22,143.6,169.17,172.25,214.51,217.95,229.99,233.9,248.45,250.25,252.12,271.48,280.91,301.65,306.72,345.76,350.98,380.27,382.44,400.17,426.1,435.59,445.56,454.24,462.07,473.99,478.76,481.06,485.63,487.88,506.42,542.47,554.79,558.14,563.61,568.19,574.03,575.93,581.7,600.56,614.33,619.85,621.73,632.77,638.73,653.78,656.1,660.94,689.73,695.22,711.07,735.47,756.84,2599.4,2621.8,2640.9,3433.5,si
18.1,18.303,39.078,69.96,75.832,93.275,110.45,136.46,141.05,172.87,176.34,217.5,218.43,230.43,236.85,249.47,251.56,252.96,272.98,281.6,304.17,310.54,349.12,354.61,383.3,384.64,405.11,432.38,439.13,449.72,460.47,466.08,475.43,479.01,483.79,487.24,506.53,510.76,540.49,557.85,559.34,560.5,569.2,578.92,582.82,586.96,600.65,613.19,622.41,628.64,633.02,640.33,660.57,663.25,666.13,690.48,703.21,713.8,743.05,776.3,2610.4,2633.0,2645.6,3428.7,si
17.926,18.832,39.149,69.741,76.138,93.626,109.73,136.53,143.32,169.53,172.33,212.82,218.16,229.52,233.2,247.56,249.38,251.65,270.37,279.19,300.1,306.1,345.95,352.62,379.11,381.99,400.29,427.59,429.26,440.32,457.06,463.39,471.51,472.6,478.19,483.9,498.18,503.46,534.19,555.0,557.29,559.55,571.58,574.84,578.79,579.54,592.63,614.56,623.93,625.23,629.47,641.3,653.82,658.4,662.84,682.74,698.8,710.26,726.59,754.78,2617.6,2620.2,2643.4,3477.3,si
17.655,18.575,38.624,68.896,75.187,93.082,108.67,134.32,141.38,167.97,172.58,212.4,218.48,229.85,232.08,249.78,250.73,252.28,270.5,279.65,300.48,306.23,344.73,351.06,382.07,383.88,399.13,429.44,439.64,453.48,461.01,469.71,477.26,478.38,480.53,485.42,502.02,509.39,545.81,554.57,563.73,566.65,574.64,579.06,579.98,583.8,603.18,619.51,622.84,623.55,633.4,644.31,649.39,658.7,665.67,682.48,692.0,706.34,731.6,753.6,2613.6,2624.7,2665.9,3472.0,si
17.698,19.068,39.125,69.72399999999999,76.193,93.969,109.03,135.54,141.93,166.34,172.51,213.88,215.62,228.27,233.39,247.6,248.43,249.48,267.27,279.22,298.78,302.98,344.26,350.74,381.37,384.29,400.4,429.3,439.0,448.26,459.78,465.52,474.16,475.88,481.37,482.6,497.29,505.94,538.05,550.29,556.48,561.49,568.8,571.55,574.6,578.38,596.8,610.95,617.13,626.72,627.89,635.95,649.19,653.24,663.51,679.71,699.17,710.89,728.09,754.82,2601.4,2656.6,2666.9,3474.3,si
17.761,18.644,39.408,69.355,75.949,92.953,110.3,135.35,142.6,166.47,173.7,216.08,220.99,231.67,234.98,248.23,251.17,253.33,273.58,281.77,300.98,305.28,349.77,355.21,381.14,385.35,401.2,430.0,432.18,447.33,465.71,466.97,474.34,478.22,479.19,487.93,500.39,510.4,523.91,549.56,555.1,560.71,565.79,572.43,575.51,580.91,591.86,612.9,622.48,623.97,630.55,641.72,649.74,653.28,663.85,677.49,693.31,709.38,724.42,751.89,2609.5,2653.4,2654.9,3414.8,si
17.668,18.713,38.685,69.184,74.845,92.977,108.43,134.17,140.3,165.54,170.37,212.85,216.84,227.88,233.06,245.32,247.98,249.44,271.39,279.05,297.94,301.35,345.39,347.74,377.72,383.14,397.92,427.0,430.14,448.76,450.24,465.68,470.42,471.94,478.07,482.79,493.45,504.46,543.31,555.38,557.39,565.37,570.34,571.28,576.55,583.86,593.4,615.04,617.6,621.31,630.24,639.65,646.32,649.77,658.78,680.89,687.98,700.68,726.5,748.54,2623.5,2630.4,2662.8,3417.3,si
17.688,18.457,38.925,69.155,75.234,93.428,109.19,135.25,141.31,168.5,174.17,214.76,216.08,229.95,234.21,248.07,248.86,249.89,267.42,279.12,299.38,304.77,343.77,350.52,380.82,387.19,400.28,430.12,435.17,446.57,460.46,464.42,471.91,480.88,482.89,489.39,496.98,507.84,543.03,558.16,559.82,568.07,571.49,575.66,580.67,585.8,598.4,611.2,620.65,627.36,630.38,640.82,653.32,659.15,665.97,691.51,698.12,713.96,737.31,771.99,2629.6,2650.7,2656.4,3409.9,si
17.562,18.11,38.666,68.613,75.192,91.552,108.17,134.33,142.61,166.88,171.47,210.25,215.92,227.37,230.31,247.83,248.18,250.4,267.73,280.06,299.33,301.41,342.69,347.93,378.95,381.76,395.56,427.11,434.85,446.03,456.28,465.09,469.69,475.56,478.64,483.85,489.14,502.94,537.12,551.7,552.97,562.52,566.27,571.54,574.34,580.26,591.52,610.7,614.02,621.29,629.33,638.42,647.2,653.26,657.71,675.7,689.11,701.47,729.66,750.9,2604.5,2609.9,2640.6,3427.7,si
18.028,18.44,38.896,70.102,75.956,93.463,108.71,136.24,143.9,168.49,172.39,211.23,218.49,227.44,230.7,248.5,249.3,253.74,270.88,280.72,299.32,304.8,347.43,352.01,381.8,384.36,398.23,430.88,436.25,451.06,464.85,469.1,477.08,481.21,483.85,490.84,495.64,509.04,535.55,550.59,556.6,558.83,561.49,569.15,575.31,581.2,596.72,611.53,616.48,624.77,634.5,637.5,654.09,658.27,661.14,689.81,695.23,707.98,733.81,758.56,2614.8,2633.5,2655.3,3421.4,si
17.546,18.528,39.01300000000001,69.719,76.124,92.83,110.75,135.27,143.66,167.54,173.46,214.3,218.77,227.69,234.58,247.25,248.77,251.26,272.31,279.55,301.44,304.26,346.81,352.67,379.37,384.9,398.27,425.68,435.78,452.86,463.54,468.85,472.77,477.99,478.45,490.25,493.36,512.22,529.14,554.67,554.9,561.96,563.68,565.71,574.18,575.28,591.87,608.19,614.43,623.8,627.74,638.46,651.39,655.98,661.87,686.64,694.2,709.02,733.68,756.33,2631.6,2633.7,2634.4,3468.5,si
17.811,18.702,38.979,69.73100000000001,75.834,93.46,109.83,135.91,142.3,168.49,173.99,214.25,217.76,229.91,233.33,247.86,249.55,252.09,270.86,281.18,302.72,306.02,348.27,352.78,380.15,384.98,400.67,430.02,437.73,451.5,464.76,471.1,475.95,478.72,484.39,488.18,501.7,510.9,538.49,552.89,554.94,562.84,569.38,572.5,576.86,579.62,596.32,613.54,619.03,623.27,629.27,645.81,650.84,658.5,661.26,680.66,700.48,708.48,728.54,756.92,2615.1,2651.4,2666.1,3463.5,si
17.743,18.396,38.965,69.289,75.34100000000002,92.224,109.27,135.47,141.56,170.46,172.08,212.56,216.27,227.72,232.92,247.56,247.68,252.16,268.54,281.76,303.38,304.65,344.41,349.03,381.05,384.05,401.92,426.82,432.58,441.49,445.31,460.53,469.6,472.55,475.87,479.4,497.48,503.12,537.24,548.59,550.81,554.27,558.12,566.15,573.04,575.7,595.86,602.64,618.09,622.06,622.9,634.34,652.22,655.27,662.27,678.71,697.37,709.15,731.58,757.27,2598.9,2610.2,2640.0,3483.9,si
17.444,18.153,38.505,69.012,75.965,90.8,108.56,135.18,142.06,167.79,170.82,211.22,214.29,224.77,229.71,244.4,246.22,247.89,266.77,277.24,299.08,299.94,342.34,347.04,374.98,380.77,393.67,424.05,430.86,442.74,450.6,460.54,468.98,469.91,473.15,479.1,490.34,498.56,530.86,546.55,553.0,554.51,559.55,567.99,572.39,579.07,587.39,605.72,613.14,617.27,626.93,629.39,648.65,651.96,660.52,669.09,701.84,705.95,716.0,750.14,2644.9,2646.8,2660.9,3453.7,si
17.803,18.551,38.757,69.73899999999999,75.544,92.914,108.62,134.81,141.34,169.4,173.25,213.14,216.97,228.09,231.53,247.96,249.13,250.66,271.69,281.05,303.77,304.43,348.5,351.28,382.95,388.74,401.34,429.49,434.61,448.94,462.19,470.22,474.89,478.35,479.93,489.52,498.86,506.62,531.97,546.72,551.17,557.22,564.17,568.59,577.21,581.87,595.56,609.35,615.11,616.73,623.45,639.36,652.51,655.08,665.04,683.44,694.36,707.55,735.56,758.76,2606.2,2607.7,2664.4,3408.3,si
17.53,18.622,38.867,69.115,75.71600000000002,93.413,109.88,134.5,141.64,168.45,173.27,212.33,217.76,228.53,232.76,247.9,249.81,251.9,269.96,277.68,300.87,305.34,343.62,351.01,381.85,386.49,400.08,429.22,433.92,448.4,461.32,465.2,473.73,476.29,479.67,490.1,498.89,508.86,544.36,554.91,556.9,560.95,564.97,573.38,580.16,582.98,599.62,607.7,625.18,629.25,632.52,635.23,655.82,662.23,666.12,682.37,702.38,707.9,728.43,755.02,2613.1,2616.0,2645.1,3406.1,si
17.968,18.83,39.392,70.185,76.385,93.615,110.34,136.86,144.33,170.79,172.61,215.21,219.45,230.17,234.53,249.29,251.98,252.25,273.45,282.21,301.2,309.12,350.14,354.0,382.16,386.27,401.81,430.02,437.52,452.93,456.1,466.65,473.21,479.68,482.85,487.05,497.28,508.49,532.54,555.6,557.59,562.83,565.01,573.82,574.63,582.12,599.42,611.99,621.33,625.26,630.97,640.6,652.18,657.48,666.49,685.38,692.11,705.34,732.92,754.79,2637.2,2640.9,2641.4,3422.7,si
17.822,18.415,38.414,69.508,74.753,93.019,108.87,134.13,141.37,167.3,172.31,212.4,216.69,225.84,230.73,247.14,248.11,249.84,270.45,278.42,298.33,304.58,343.69,351.54,378.05,383.78,401.38,427.56,430.77,447.92,458.19,463.31,471.58,478.07,479.95,484.57,501.67,506.84,538.27,551.0,551.25,556.55,566.35,573.2,575.64,580.29,594.49,609.37,616.01,620.73,631.94,636.85,651.16,653.03,661.17,683.26,688.93,705.69,731.49,753.23,2631.5,2632.4,2663.0,3477.2,si
17.861,18.49,38.775,69.423,74.928,92.308,107.72,134.96,141.0,165.62,170.01,212.77,217.98,229.05,232.21,247.98,249.97,253.91,271.11,282.8,299.14,301.16,347.93,349.98,379.22,386.25,399.35,428.48,439.0,455.35,461.03,471.16,478.4,479.81,482.07,491.74,500.82,512.06,530.42,551.79,555.99,559.09,571.06,576.02,580.43,584.07,593.6,614.73,617.5,621.68,634.83,644.5,647.32,651.67,662.88,675.52,684.19,702.48,725.69,747.36,2606.7,2626.0,2652.4,3434.7,si
18.01,19.067,39.183,69.816,75.548,93.629,108.7,135.04,141.72,167.39,169.97,214.01,218.03,227.87,232.56,247.82,249.41,251.17,268.12,281.16,298.79,303.06,347.83,348.69,382.08,384.62,401.02,426.92,429.14,443.74,457.16,465.04,472.6,475.19,477.72,487.24,501.23,508.69,540.17,556.61,560.14,563.29,566.88,571.72,576.19,577.49,598.93,608.41,621.67,624.34,629.86,639.52,648.28,658.34,664.08,671.14,688.73,706.32,723.05,747.54,2605.0,2610.1,2641.4,3451.0,si
17.686,18.459,38.882,68.937,75.704,92.554,108.54,135.06,143.57,168.7,170.39,211.54,216.68,227.78,231.38,247.59,249.7,251.09,268.9,280.34,299.31,303.85,343.31,348.05,379.98,386.64,398.22,427.52,439.29,447.91,451.85,465.08,473.22,477.77,481.46,486.81,498.02,506.31,538.67,552.24,558.42,560.95,562.3,572.9,576.34,581.38,594.82,610.29,613.66,628.08,633.42,636.41,645.06,662.55,663.8,677.15,692.46,701.76,722.44,748.84,2612.8,2653.0,2665.7,3442.1,si
17.838,18.701,38.968,69.774,75.696,93.526,108.78,135.02,142.07,167.52,172.59,212.31,218.1,229.34,231.42,247.83,250.41,251.36,270.91,281.56,300.47,304.1,349.03,349.77,382.21,383.75,399.31,429.31,434.52,449.06,458.25,468.29,474.7,476.84,479.67,486.6,498.43,508.48,538.15,544.95,554.73,557.97,567.86,574.74,577.37,581.76,594.08,607.58,622.08,625.23,631.68,639.4,654.86,657.36,661.8,687.22,694.48,707.88,729.25,754.17,2637.3,2643.3,2662.2,3449.5,si
17.899.1,18.581,39.011,70.134,75.979,93.328,110.2,136.36,143.27,169.79,174.58,215.07,218.78,227.07,234.9,246.9,248.5,252.52,272.38,279.19,300.92,304.83,348.52,354.14,383.51,386.68,401.53,429.83,441.87,455.14,459.06,470.32,474.64,479.24,481.48,489.56,501.43,511.33,538.72,554.05,558.13,563.28,569.15,576.45,577.14,582.55,599.7,613.27,622.46,626.45,629.56,640.9,656.42,662.12,664.08,688.84,700.12,710.23,735.5,760.46,2608.7,2618.4,2651.1,3480.0,si
17.92,18.494,38.847,69.745,75.57300000000002,93.503,109.34,136.06,141.39,170.57,172.45,212.87,216.15,226.88,232.27,248.32,249.05,251.79,267.92,279.47,300.74,305.9,344.3,350.58,381.02,385.31,403.12,428.18,428.9,449.26,456.35,463.18,473.45,479.18,480.61,486.57,500.28,506.57,530.31,552.37,557.03,561.5,574.68,575.76,577.73,579.92,598.32,613.32,618.38,624.37,630.14,638.94,654.89,656.17,665.13,685.68,694.12,708.79,734.6,757.73,2606.2,2614.5,2648.5,3483.9,si
17.812,18.514,39.014,69.814,75.471,93.018,109.09,135.99,143.28,168.32,171.99,211.24,217.86,229.75,232.73,248.6,251.84,252.42,270.65,280.98,301.94,304.58,344.55,349.96,377.3,386.41,400.56,431.37,433.74,452.15,459.17,468.79,472.34,475.19,483.91,488.22,496.24,506.26,543.14,555.11,557.67,558.98,571.76,572.54,578.17,590.84,596.84,613.67,617.98,623.73,639.16,641.43,650.45,653.35,664.94,686.17,687.96,706.1,732.57,755.76,2606.3,2606.8,2658.8,3449.2,si
17.735.1,18.721,38.986,69.73100000000001,75.223,92.939,109.75,135.96,142.74,168.26,173.0,211.6,218.59,229.05,232.78,247.83,249.52,253.2,273.9,280.16,300.42,304.73,347.19,352.01,379.48,387.89,399.17,429.0,434.22,448.88,454.23,468.04,469.85,474.5,481.85,485.65,495.72,506.7,547.83,555.65,558.09,561.46,572.66,574.74,576.32,583.0,601.46,614.92,621.43,624.52,631.12,644.48,651.38,655.1,662.2,684.89,689.27,710.31,733.42,759.74,2619.7,2620.5,2625.1,3416.0,si
17.975,18.519,38.939,70.12899999999999,75.59,93.635,109.64,136.89,142.81,171.03,173.68,211.86,217.41,229.52,232.63,248.17,251.62,252.38,272.14,281.35,302.78,307.68,345.72,351.54,381.25,388.05,400.99,429.03,435.2,449.2,458.55,466.87,473.18,477.68,483.53,488.37,501.66,506.81,533.69,550.15,559.52,560.79,568.65,572.49,575.22,582.61,597.31,611.61,621.09,627.25,632.53,642.39,658.23,661.94,670.57,692.31,696.29,711.47,745.28,765.59,2601.6,2613.7,2623.0,3469.2,si
17.831,18.425,38.975,69.91199999999999,75.593,92.966,108.86,135.16,141.68,168.86,172.04,213.84,216.88,229.5,231.92,247.01,249.51,251.87,271.34,279.6,302.34,303.84,346.77,351.2,380.54,383.27,400.64,429.87,434.34,446.74,456.61,466.5,473.65,477.94,481.12,483.07,493.06,505.54,543.43,548.62,554.59,556.26,565.1,576.39,581.57,584.93,596.86,612.09,613.2,618.68,629.83,642.99,649.06,655.18,660.36,686.18,693.29,702.24,735.48,757.19,2616.9,2653.9,2659.5,3405.1,si
17.862,18.689,38.981,69.798,76.156,93.847,110.22,136.15,144.6,169.95,173.44,210.16,219.14,230.01,233.52,248.88,252.57,254.84,270.27,280.14,302.35,308.04,344.24,354.55,383.33,384.45,398.91,431.85,438.94,451.57,469.55,473.27,478.59,482.42,484.81,490.58,495.06,510.24,537.88,554.35,556.59,562.75,566.86,576.57,580.0,589.91,597.7,616.92,619.8,623.72,630.86,646.36,649.59,658.9,664.51,694.28,698.0,707.54,736.44,759.05,2610.6,2622.2,2651.7,3471.7,si
