18.357,18.545,39.28,69.781,75.855,94.103,109.92,135.52,143.12,167.62,173.59,211.38,217.55,230.76,233.16,246.07,250.21,252.83,269.57,278.39,298.8,306.79,344.12,351.61,382.43,387.57,395.65,427.21,432.32,446.5,454.85,463.17,474.13,476.53,477.94,489.18,502.34,517.14,530.61,539.27,554.32,556.64,561.68,564.83,570.89,576.13,598.24,601.18,613.3,616.07,620.92,632.76,648.61,657.88,661.32,677.59,693.36,705.5,723.89,751.73,2605.6,2618.3,2779.7,3828.9,si
18.298,18.711,38.933,69.762,75.65,94.617,109.51,135.38,143.75,169.4,174.19,209.23,217.55,227.9,231.16,249.66,251.07,252.78,270.72,279.32,302.18,307.06,343.43,352.94,383.14,386.0,396.64,430.35,435.4,450.65,456.65,470.61,474.86,481.47,484.27,488.69,507.38,516.63,537.51,552.73,557.79,560.68,567.05,569.52,576.2,582.38,606.85,611.18,617.89,622.41,626.84,635.95,653.27,659.83,663.87,678.77,694.76,708.63,732.07,758.59,2599.3,2647.3,2801.8,3815.1,si
18.473,18.558,38.615,69.59,75.044,94.375,108.56,135.73,140.91,168.34,173.27,210.94,216.69,228.42,230.78,249.16,250.39,251.47,269.67,280.49,301.2,306.05,343.93,352.39,379.88,382.17,395.87,427.32,430.23,443.66,455.03,463.05,471.71,474.63,477.7,481.73,500.27,514.31,532.3,553.35,557.52,563.17,567.96,570.6,578.44,580.55,606.34,613.06,618.1,619.7,629.11,637.47,659.11,662.63,664.84,674.89,691.75,713.96,733.6,756.88,2608.5,2644.0,2752.1,3816.7,si
18.693,18.875,38.786,69.741,75.283,95.94,109.4,135.51,141.58,170.33,172.7,211.11,216.78,226.79,233.35,247.64,249.06,251.3,267.69,279.57,300.08,307.37,343.27,351.36,377.4,381.11,401.18,426.67,430.14,447.34,455.27,463.96,467.41,472.13,475.13,482.46,502.56,520.41,541.39,557.5,557.83,561.47,565.23,575.71,581.2,585.57,607.29,613.13,619.83,621.29,628.46,635.53,656.21,660.69,667.88,684.88,694.35,714.08,730.83,755.32,2605.7,2620.0,2805.7,3794.4,si
18.53,18.577,39.063,70.077,75.607,94.876,109.17,137.02,143.12,170.75,173.59,210.14,218.4,230.05,233.54,250.94,252.12,253.65,269.77,281.85,303.73,307.91,344.97,353.26,383.62,387.34,401.85,432.24,436.37,449.9,466.35,469.68,476.89,481.11,482.4,490.69,508.31,517.15,536.18,551.87,555.91,560.19,568.14,570.9,579.14,582.17,605.64,610.26,618.39,619.12,630.18,637.42,657.21,663.29,665.63,683.73,697.04,714.64,740.54,763.15,2604.0,2635.9,2749.5,3819.2,si
18.505,18.897,39.073,70.161,75.133,95.061,108.9,135.93,142.61,166.93,173.53,211.25,216.76,228.56,231.86,248.15,248.56,251.37,266.55,280.3,301.3,302.62,344.19,352.3,381.09,386.63,396.02,428.54,430.23,443.19,462.46,464.76,475.24,477.64,479.97,491.89,503.67,515.27,534.07,551.77,558.72,560.49,563.49,567.7,571.03,580.21,601.28,605.86,619.38,623.21,627.29,631.12,656.68,659.94,666.76,684.38,690.58,713.63,736.72,760.57,2608.0,2629.3,2769.4,3850.4,si
18.363,18.82,38.809,69.926,74.993,95.007,108.96,135.4,142.12,168.51,171.95,210.25,216.87,228.08,232.36,246.9,249.43,250.41,270.72,279.5,300.31,304.4,345.81,348.99,383.46,384.45,397.12,430.04,434.73,450.25,466.85,468.56,475.44,477.67,487.85,494.49,512.87,514.52,548.88,556.79,561.53,565.3,566.66,575.08,582.16,587.29,607.52,613.08,623.05,623.98,630.75,637.3,656.82,659.75,665.52,684.52,693.07,711.48,733.06,755.03,2641.7,2653.7,2786.1,3817.9,si
18.366,18.581,39.164,69.737,75.718,94.668,109.64,135.46,144.53,168.7,174.2,212.55,218.47,228.4,232.21,247.58,249.59,252.94,268.89,279.73,300.58,305.05,344.28,353.96,379.53,382.34,398.36,429.68,430.78,442.06,451.08,464.67,468.83,473.09,476.46,485.39,504.0,512.52,548.7,554.77,557.25,565.32,570.74,574.64,580.98,591.62,607.51,615.49,617.22,623.86,630.55,640.29,652.21,654.2,667.01,688.67,693.04,710.06,735.28,760.79,2611.1,2654.2,2759.3,3797.6,si
18.104,18.425,38.601,68.926,75.173,94.081,107.91,134.9,141.06,166.9,170.86,208.32,215.79,227.71,231.19,249.62,250.16,253.16,266.73,280.91,301.48,302.72,340.45,349.14,375.27,383.42,397.74,427.22,428.84,443.71,456.94,465.17,469.31,472.73,478.26,485.28,500.3,517.67,546.01,554.45,556.36,562.28,567.87,581.05,582.23,595.0,605.84,612.75,616.17,620.49,635.25,644.47,652.04,659.64,663.44,678.23,692.93,709.73,727.0,750.91,2618.7,2648.0,2757.1,3806.0,si
18.484,19.002,39.135,69.979,75.62,95.637,109.35,135.12,142.89,168.88,173.53,211.16,216.36,229.48,232.33,246.65,249.52,251.74,268.57,279.39,302.02,305.55,342.94,351.03,381.45,384.62,397.64,430.13,434.28,445.67,454.45,464.93,473.2,477.59,478.69,481.93,503.03,507.35,547.49,552.97,565.43,566.15,569.59,574.32,581.97,590.18,606.65,611.92,622.63,628.68,635.31,638.83,658.38,663.76,667.28,686.81,699.39,714.59,737.25,758.56,2612.8,2621.2,2750.7,3838.5,si
18.559,18.648,39.214,70.233,76.652,95.34,109.97,136.64,143.19,169.57,174.17,212.64,215.98,229.79,233.41,248.51,250.66,252.3,266.83,280.48,302.62,307.29,342.1,352.87,383.59,384.54,400.44,431.57,433.74,446.19,460.65,464.58,475.88,480.3,481.38,489.12,506.57,513.75,544.54,553.92,561.07,567.22,568.98,573.68,584.46,590.38,603.45,610.33,622.31,627.83,634.54,639.36,664.49,667.03,669.43,690.1,706.9,720.41,735.51,762.76,2621.4,2663.5,2759.5,3843.6,si
18.331,18.718,38.652,69.374,75.057,95.105,108.12,135.97,142.64,169.17,171.13,206.61,217.82,227.37,232.26,249.82,250.97,254.25,270.89,283.82,300.77,306.0,345.83,349.96,382.26,384.58,401.27,430.59,436.59,449.46,453.62,467.38,474.03,476.96,481.13,489.27,507.26,520.23,553.17,557.15,558.53,561.89,563.89,574.23,584.54,593.89,610.68,614.79,624.39,629.06,638.24,643.86,660.38,664.71,667.68,686.17,699.7,716.89,731.73,757.75,2607.3,2619.1,2784.3,3800.6,si
18.474,18.51,38.469,69.286,74.119,95.216,107.66,134.52,140.74,168.34,173.14,207.21,216.34,228.72,231.0,248.26,249.2,252.72,268.63,279.53,301.87,304.26,341.29,350.84,378.05,383.88,396.69,426.52,437.05,450.06,458.07,465.91,471.22,473.37,478.71,486.03,507.97,515.61,538.75,540.44,558.06,562.53,563.29,566.09,573.86,584.75,606.23,609.49,615.72,621.81,629.53,636.52,654.2,664.39,667.64,691.28,694.95,714.72,740.43,760.95,2597.4,2652.8,2791.8,3790.1,si
18.13,18.682,38.615,69.774,74.851,94.494,107.7,135.11,140.44,167.24,171.59,211.09,216.83,227.46,231.39,248.59,249.86,251.78,270.8,281.44,299.71,303.01,348.31,349.37,380.43,383.26,397.72,428.88,438.5,453.67,461.86,471.05,477.67,479.25,482.86,491.16,509.3,519.41,538.22,549.49,553.87,558.86,562.27,569.04,576.27,580.36,605.1,608.82,612.78,621.03,629.89,635.45,653.74,658.13,664.31,687.22,694.66,711.94,735.45,756.65,2608.6,2620.9,2789.4,3790.0,si
18.494,18.683,39.019,69.975,75.236,95.279,109.51,136.12,142.9,168.93,172.66,211.21,215.9,230.03,233.12,248.99,251.23,252.24,267.66,281.04,303.45,306.41,340.61,353.01,379.14,386.56,399.5,429.32,435.8,449.48,451.63,466.63,470.08,476.66,478.13,486.38,503.35,519.81,542.09,554.03,559.99,560.61,562.38,568.87,579.77,586.0,604.81,606.91,616.8,624.05,628.65,633.36,652.82,663.96,669.63,678.88,693.93,711.39,732.1,756.97,2596.6,2617.1,2791.2,3764.6,si
18.219,18.465,38.706,69.34100000000001,75.209,94.214,109.13,135.12,142.88,170.58,174.39,209.53,217.35,227.14,231.63,248.09,251.58,252.64,269.91,279.43,302.59,307.38,342.93,352.58,380.83,383.57,395.38,428.18,434.44,452.2,458.98,470.61,475.54,478.28,481.14,488.03,504.22,512.33,534.66,552.41,559.73,564.88,570.26,573.29,573.97,582.62,607.54,613.29,620.95,624.82,630.03,639.24,655.87,665.13,668.8,686.85,699.52,713.32,740.34,764.71,2646.3,2662.0,2788.6,3824.8,si
18.682,18.765,39.182,70.075,75.946,95.35,108.67,136.49,143.85,169.38,171.66,212.3,219.45,228.95,233.28,248.58,250.25,253.12,269.87,281.98,299.69,306.62,347.53,353.1,381.73,385.49,402.1,430.55,432.52,446.6,461.68,467.79,474.66,478.05,482.15,487.4,505.66,518.23,542.85,551.82,565.79,566.86,572.72,576.1,580.1,584.95,607.37,613.93,618.88,622.79,631.22,643.61,657.45,664.56,669.46,686.38,695.73,713.85,735.58,757.9,2605.5,2649.7,2774.2,3815.9,si
18.333,18.737,38.939,69.694,75.73899999999998,94.946,109.36,136.47,142.12,171.48,174.41,211.49,216.01,229.84,233.12,249.14,251.41,253.3,267.19,281.36,304.26,309.78,341.77,353.09,384.46,386.36,400.3,430.49,431.93,454.7,457.56,463.67,476.75,478.77,484.99,487.2,506.41,515.56,537.73,554.19,560.55,561.98,564.49,572.17,583.08,584.1,604.23,607.73,620.35,625.3,629.05,634.88,662.64,665.28,670.12,680.18,701.83,716.9,736.57,762.57,2607.4,2636.5,2775.8,3783.0,si
18.432,18.585,39.141,69.73,75.229,94.761,109.39,135.28,142.0,166.92,174.24,212.34,218.37,230.84,233.2,247.48,249.9,253.3,273.05,281.45,299.19,306.08,350.57,352.8,380.29,387.11,399.74,431.0,432.04,446.02,459.45,468.26,474.48,477.73,483.75,489.91,509.73,513.21,543.1,551.81,555.94,561.63,567.84,574.79,582.44,586.72,606.08,615.14,618.89,619.21,630.94,643.97,653.56,654.6,667.24,685.22,693.85,711.62,738.14,768.44,2629.6,2665.6,2805.9,3836.9,si
18.552,18.713,38.849,70.021,75.616,95.857,108.65,135.97,141.56,167.07,172.4,209.79,217.11,228.34,231.4,248.33,249.8,254.15,270.0,281.5,300.59,304.28,345.29,352.74,379.6,382.07,399.73,429.04,434.02,448.58,457.81,464.78,472.36,478.56,481.07,484.99,506.22,523.15,543.13,549.24,557.04,560.09,562.95,566.83,579.58,589.18,605.05,608.07,617.18,620.86,631.5,639.74,653.59,662.29,666.8,685.4,698.11,709.84,732.04,757.39,2641.1,2669.7,2802.9,3761.2,si
18.693.1,18.714,38.874,69.62,75.321,95.659,108.75,134.61,141.11,168.72,172.63,211.6,217.65,230.07,233.73,249.26,250.64,253.71,271.08,280.01,301.36,307.5,345.49,352.27,383.58,385.82,398.48,430.94,434.4,447.08,459.77,469.0,475.65,478.76,481.68,487.02,505.52,517.61,539.33,557.62,560.43,564.53,574.7,576.17,579.04,586.69,609.0,616.84,620.77,628.92,632.62,642.87,657.47,663.99,668.51,688.52,698.54,712.78,734.61,757.65,2657.6,2664.2,2782.3,3813.4,si
18.457,18.564,38.958,69.432,75.483,94.865,109.78,135.29,142.96,169.47,173.6,211.31,215.98,228.51,231.85,249.13,250.36,252.23,269.29,282.6,302.71,305.55,343.79,351.44,381.59,385.46,397.15,426.63,430.8,448.49,449.76,464.45,472.76,477.38,481.61,483.72,502.24,515.4,523.24,548.87,551.98,558.53,569.82,572.56,582.55,595.49,602.02,618.52,621.86,624.87,632.51,645.91,653.57,658.22,666.27,683.54,698.92,709.93,730.37,757.16,2619.6,2623.1,2745.4,3821.6,si
18.387,18.548,38.74,69.516,74.794,95.457,109.11,134.89,141.4,168.98,173.53,210.7,215.71,226.41,233.89,247.13,247.77,251.43,271.03,280.01,301.08,304.12,344.55,348.3,376.37,386.01,399.53,423.95,431.0,449.64,452.75,465.05,469.63,472.99,478.97,486.42,503.79,525.39,534.17,550.86,562.22,566.6,577.15,578.35,584.11,586.72,610.69,619.18,622.61,629.57,634.07,645.57,653.89,663.08,672.81,689.76,693.23,718.24,736.39,758.68,2617.3,2642.7,2769.3,3790.8,si
18.431,18.604,38.628,69.556,75.01,95.042,108.75,134.67,142.87,166.93,173.5,209.45,217.39,227.63,230.61,246.9,248.0,250.37,269.78,277.42,298.78,302.7,343.68,350.42,380.89,382.02,395.67,428.05,435.44,449.86,465.07,468.78,474.87,477.04,478.19,487.44,508.67,515.71,540.15,551.33,558.7,561.27,568.96,572.85,575.85,579.09,604.28,613.66,614.57,620.94,625.82,638.01,654.79,659.0,665.31,684.49,692.59,708.71,731.2,753.66,2637.9,2653.7,2774.6,3790.8,si
18.392,18.549,38.556,69.462,74.931,94.804,108.24,135.4,141.23,168.92,171.72,208.67,216.74,226.92,231.16,247.78,249.1,252.4,270.95,279.95,299.02,306.2,344.69,350.73,376.51,380.5,397.94,426.53,431.68,443.13,458.84,467.86,471.8,473.64,478.94,485.04,504.86,511.84,541.27,552.71,559.37,560.97,571.06,575.48,578.39,580.61,607.8,616.18,620.39,621.9,628.45,642.93,654.99,660.77,665.94,686.46,694.56,712.52,730.13,755.05,2624.5,2637.4,2774.9,3838.8,si
18.374,18.734,39.108,70.202,75.188,95.476,109.45,136.32,141.83,167.66,174.0,211.88,217.48,230.27,233.96,250.7,250.79,252.23,269.67,282.96,302.97,304.17,345.59,353.28,379.48,388.11,401.22,425.52,432.95,446.74,457.56,463.44,473.03,482.79,485.75,487.58,503.39,524.94,537.18,543.08,552.81,565.27,576.03,577.06,582.79,592.86,604.49,606.07,611.14,619.53,634.97,642.86,645.86,656.31,668.71,687.13,699.16,715.78,736.93,770.45,2614.6,2615.1,2770.1,3788.8,si
18.426,18.555,39.017,69.949,74.98100000000002,94.771,109.0,135.21,142.43,168.11,172.89,209.9,217.81,228.13,231.42,248.35,249.75,251.17,270.88,279.64,300.91,304.61,344.64,349.84,379.15,382.6,396.57,427.24,429.13,444.53,453.09,462.12,470.67,475.82,477.32,485.47,500.41,515.78,528.22,549.31,552.98,556.54,558.32,567.74,572.24,576.78,603.08,609.28,617.46,618.9,628.2,634.85,650.89,656.19,660.21,687.1,687.53,705.54,730.08,753.12,2634.6,2654.0,2800.1,3848.0,si
18.436,18.505,38.601,69.266,74.904,94.542,108.4,134.51,141.31,164.14,171.74,208.46,215.33,228.52,231.41,246.27,247.88,250.29,268.65,279.23,299.26,300.08,341.27,349.01,377.78,381.07,391.54,426.52,433.85,445.3,455.83,465.38,472.06,476.9,480.26,487.33,502.31,519.9,539.33,552.6,559.49,561.17,571.34,576.24,577.16,589.53,602.53,612.8,615.33,620.68,631.34,639.03,647.82,654.19,663.5,684.86,689.76,707.29,722.64,749.27,2616.9,2646.5,2799.6,3803.4,si
18.317,18.667,38.703,69.134,75.482,94.956,108.73,134.46,142.15,168.39,170.84,208.7,214.87,225.43,230.83,245.02,247.46,249.58,266.61,276.39,298.36,304.54,340.94,348.72,379.38,381.05,396.64,425.54,435.92,448.06,457.65,461.37,467.69,475.05,476.71,483.22,503.92,518.72,539.88,548.92,553.41,554.76,562.52,564.85,582.15,586.15,596.8,603.87,612.03,617.49,624.69,626.47,653.2,655.72,662.84,670.24,695.22,706.39,717.64,747.85,2614.6,2645.9,2805.5,3760.5,si
18.617,18.907,39.46,70.65,76.247,95.833,109.79,135.19,143.67,168.45,173.19,211.78,218.04,229.3,232.24,246.1,251.34,251.68,268.25,278.31,299.35,306.53,345.11,351.95,382.41,384.01,398.12,429.63,433.68,448.37,461.41,465.61,472.89,477.12,482.21,486.33,505.74,511.66,540.22,550.65,555.46,558.52,561.59,568.9,575.84,582.28,603.57,605.28,620.87,624.63,630.11,632.58,654.56,660.08,664.96,681.24,696.83,707.77,730.67,754.56,2597.9,2661.4,2745.7,3767.7,si
18.475,18.707,38.703,70.078,74.711,95.632,109.41,136.03,142.83,168.78,173.08,209.11,216.0,228.46,232.14,247.8,249.53,251.1,268.19,279.79,300.41,305.46,341.43,350.11,381.12,384.15,401.4,427.58,431.95,444.73,454.04,465.25,470.36,475.39,478.24,487.62,501.87,520.29,539.59,550.14,560.58,562.51,565.05,574.04,578.83,582.04,604.17,611.45,616.76,623.26,630.28,633.07,651.47,664.56,665.22,688.28,697.01,711.86,740.22,760.78,2635.6,2645.7,2780.2,3844.1,si
18.476,18.5,38.989,69.855,75.992,94.728,109.5,136.6,143.49,169.18,174.17,209.48,218.55,229.51,232.84,248.68,250.1,255.25,272.51,280.97,301.13,306.46,344.57,354.81,380.17,383.17,394.72,428.4,436.4,446.57,446.67,465.72,471.54,477.68,480.01,483.75,503.33,516.01,518.3,543.37,550.29,559.94,564.29,567.3,570.5,577.58,605.4,611.45,614.9,620.84,630.88,641.85,656.06,657.53,665.68,690.44,698.75,710.39,734.81,764.02,2611.1,2618.4,2745.8,3836.7,si
18.337,18.863,38.965,69.759,75.766,95.59,108.92,134.96,143.02,168.25,172.58,210.49,217.64,228.84,232.21,248.62,250.87,251.5,268.66,280.6,301.61,305.55,345.2,350.74,379.85,386.41,395.51,430.26,435.06,450.69,466.75,467.8,477.83,480.01,484.2,487.08,507.05,510.5,531.23,551.38,558.48,563.67,566.55,573.15,575.73,578.73,604.0,611.68,620.59,630.42,634.62,638.45,655.36,665.4,665.83,687.74,697.42,711.68,738.11,759.84,2618.2,2619.0,2767.4,3773.6,si
18.608,18.83,39.177,69.85300000000001,75.449,95.625,108.61,135.88,143.12,169.15,171.04,211.81,216.82,228.13,233.8,248.48,250.77,251.97,267.73,282.14,302.15,306.01,343.95,351.7,383.13,385.26,399.86,431.03,440.0,451.6,454.96,464.0,474.45,480.16,481.57,488.26,506.87,517.26,529.11,546.0,547.93,557.8,559.07,572.33,581.78,585.26,599.2,601.66,618.55,625.04,629.83,637.08,654.52,659.55,666.6,688.5,694.23,711.94,731.74,755.51,2635.2,2636.5,2774.0,3778.2,si
18.694,18.976,39.209,70.789,75.945,96.05,109.71,135.76,142.51,168.77,173.66,212.67,217.98,229.29,232.25,246.28,251.33,252.64,269.9,278.0,300.01,305.77,345.53,353.07,381.59,386.78,396.23,430.97,432.76,446.91,460.6,469.34,473.26,475.79,483.25,488.52,504.49,523.23,538.93,547.23,561.34,564.26,571.04,574.83,583.07,587.48,604.49,615.73,621.2,624.73,631.8,640.49,655.78,663.14,670.77,689.47,693.44,711.46,734.89,758.32,2604.9,2622.0,2749.1,3837.2,si
18.328,18.773,38.87,69.834,75.881,95.213,109.71,135.14,143.04,169.72,175.09,211.39,215.92,226.73,229.38,248.66,249.32,251.56,265.74,279.41,303.56,306.26,341.2,355.49,383.43,386.19,396.2,420.13,429.98,446.59,454.88,460.98,472.93,478.4,479.02,487.86,503.01,511.38,533.34,547.51,555.51,557.24,558.76,567.43,577.32,584.33,601.18,605.29,617.84,624.49,627.42,629.82,658.12,662.65,668.21,684.95,702.38,709.21,738.23,763.91,2610.0,2613.9,2775.1,3843.7,si
18.41,18.758,39.105,69.861,75.441,95.442,109.56,135.56,141.95,168.13,173.7,213.78,217.45,229.61,235.16,248.23,250.29,250.71,269.94,279.3,300.19,306.07,345.68,353.75,379.24,381.84,397.11,432.34,438.47,451.18,463.46,469.55,476.38,478.29,481.1,489.49,504.67,511.37,538.58,552.16,556.6,562.39,569.11,576.12,577.69,594.47,598.14,612.99,617.34,623.32,635.33,639.22,651.35,657.41,662.38,691.94,701.32,714.41,736.29,768.42,2601.6,2641.2,2743.1,3839.4,si
18.66,18.743,38.725,69.572,75.422,95.618,109.14,135.02,141.37,169.56,172.87,210.17,215.63,227.16,232.03,249.08,251.3,252.59,265.16,282.36,304.43,306.46,340.68,351.91,382.49,384.91,398.45,427.7,435.32,448.11,456.0,464.95,472.73,477.24,479.93,485.58,502.55,518.4,533.28,550.16,560.18,563.28,567.76,571.7,572.53,584.29,604.42,608.48,619.19,622.43,629.89,632.99,655.16,662.11,671.29,681.3,700.35,715.57,730.92,756.8,2603.5,2621.6,2758.0,3783.9,si
18.302,18.622,38.655,69.778,74.415,95.086,107.65,135.38,141.04,167.76,170.86,209.97,216.19,228.18,231.7,245.39,249.36,252.21,267.92,279.4,296.12,305.07,342.26,349.07,378.29,381.53,396.32,426.4,438.46,446.74,453.19,459.59,471.1,476.9,480.3,483.54,505.09,522.3,538.82,545.86,547.57,558.18,563.53,568.44,572.31,585.6,600.96,608.61,616.09,624.04,629.44,632.54,655.35,662.81,666.28,688.24,691.39,711.51,736.77,756.97,2622.3,2661.3,2779.1,3832.8,si
18.633,18.742,39.219,70.385,75.204,95.658,108.94,135.63,142.25,168.51,172.7,212.73,216.6,230.19,232.86,247.46,250.29,251.28,267.98,280.0,301.11,304.65,344.17,350.19,380.4,382.47,396.61,428.55,429.57,441.68,454.63,461.77,470.77,475.39,481.61,485.32,500.97,517.55,537.83,548.22,557.11,564.78,568.66,575.21,579.54,582.09,604.66,607.74,618.38,620.6,631.08,636.07,652.41,654.77,667.69,691.53,694.77,712.68,733.91,761.44,2611.4,2667.0,2801.6,3764.1,si
18.09,18.23,38.523,68.339,74.37899999999998,93.238,108.21,133.96,142.03,167.75,172.18,208.04,216.03,226.21,230.6,246.71,248.73,251.61,269.85,277.91,299.41,302.89,343.35,349.28,374.53,382.12,395.91,424.55,428.66,446.82,449.75,466.54,467.62,470.28,475.23,480.42,501.44,512.98,534.18,541.85,554.1,561.6,565.72,574.57,578.57,589.61,603.99,608.12,614.47,622.92,627.78,641.97,647.31,651.0,660.29,666.87,688.13,702.33,725.14,751.88,2602.7,2626.2,2769.9,3838.4,si
18.393,18.555,38.946,69.388,74.783,94.88,108.89,134.74,144.1,165.53,172.5,209.97,218.46,230.2,231.93,247.31,251.05,252.16,269.4,280.18,300.75,301.52,343.94,350.41,379.12,385.82,396.59,428.77,432.83,448.4,457.71,465.31,475.67,477.37,479.89,490.11,502.89,517.43,538.11,552.31,559.82,567.34,569.83,574.26,575.81,585.68,606.47,614.62,622.21,624.26,631.25,639.29,651.86,656.23,666.47,683.79,688.99,707.99,728.42,750.93,2601.6,2630.5,2747.9,3794.9,si
18.462,18.558,39.054,69.748,75.12,94.321,109.82,135.24,143.0,168.63,172.15,211.79,218.84,229.42,233.04,248.76,250.42,253.93,273.58,281.04,301.14,306.34,348.28,353.51,379.61,382.75,398.59,428.95,432.46,446.26,462.89,471.24,476.71,478.11,478.45,487.9,508.96,518.21,545.97,551.92,557.31,566.04,566.36,577.71,583.27,583.72,608.34,618.76,620.41,625.56,631.33,644.89,654.71,659.02,665.37,674.67,690.16,708.03,722.07,749.93,2634.8,2643.3,2784.7,3821.0,si
18.446,18.724,38.73,69.661,74.969,95.419,109.19,134.24,141.58,169.52,173.58,210.11,215.44,228.54,231.63,247.08,248.76,249.63,271.12,278.46,300.29,306.48,342.71,351.02,379.17,382.31,395.52,429.49,433.65,445.74,456.28,464.66,470.81,476.01,479.1,484.43,503.85,510.74,535.2,554.73,558.64,563.39,565.79,572.16,577.78,581.6,598.52,614.46,618.88,627.69,634.36,638.47,652.77,663.09,672.13,694.59,695.05,709.3,744.81,762.67,2629.2,2651.7,2800.1,3828.0,si
18.402,18.458,38.675,69.445,74.95,94.857,108.42,134.54,141.38,166.43,173.05,209.99,217.77,228.08,230.03,247.5,249.76,250.97,269.21,280.03,299.27,304.17,345.44,351.66,377.09,382.9,397.62,424.88,428.31,439.96,459.51,462.36,469.74,474.41,475.91,484.7,503.92,520.37,542.56,550.47,553.66,560.4,563.6,565.6,580.37,584.25,606.17,610.13,613.83,619.28,629.24,635.41,650.32,658.07,664.93,683.0,688.4,712.65,732.07,754.61,2636.9,2653.6,2764.8,3770.3,si
18.384,18.704,39.345,70.37100000000002,76.46300000000002,94.803,110.46,135.55,144.47,168.6,174.2,211.97,219.32,230.49,233.16,247.4,251.72,255.58,270.06,278.79,299.13,307.43,345.23,355.3,382.09,388.33,399.34,429.86,433.69,443.44,459.62,466.59,476.23,479.99,486.7,490.45,509.45,518.06,543.59,555.41,559.13,562.4,567.28,570.78,581.57,585.77,609.87,613.7,619.03,620.61,632.23,639.98,654.48,662.16,666.07,685.46,697.49,708.5,732.89,757.35,2617.4,2654.7,2764.7,3853.9,si
18.516,18.839,38.381,69.503,74.824,95.369,108.12,134.64,140.81,166.74,171.07,207.62,215.57,226.52,230.04,249.96,252.35,252.73,268.61,282.51,303.15,303.54,343.08,352.02,380.48,384.8,399.29,430.67,439.64,452.63,460.58,469.92,476.48,482.26,483.11,486.65,505.46,518.27,536.35,550.1,559.55,561.7,566.6,570.29,583.65,590.62,597.54,608.55,613.97,618.2,630.04,638.23,647.79,656.41,664.12,680.59,690.92,709.08,724.25,749.53,2647.5,2660.9,2779.3,3769.1,si
18.11,18.433,38.954,68.949,75.12,93.473,108.94,133.8,141.63,167.45,173.37,211.73,218.3,229.42,231.27,248.34,252.86,253.54,269.98,280.19,302.23,305.42,346.39,350.36,382.04,383.76,396.42,428.76,435.83,453.26,462.63,468.04,476.17,480.91,484.3,485.53,504.77,512.65,535.45,544.78,556.36,560.88,566.47,569.43,579.42,593.88,595.9,606.52,619.45,622.13,634.09,642.73,646.42,656.32,664.45,671.35,688.56,702.82,724.45,749.01,2637.4,2658.5,2804.1,3837.8,si
18.628,18.735,38.976,69.941,75.422,95.612,109.49,135.28,143.42,168.47,173.78,209.79,216.52,227.84,232.45,248.15,249.35,252.07,268.25,278.63,300.68,304.77,341.96,351.98,380.72,382.86,398.54,427.38,435.73,449.55,455.17,465.04,472.43,476.71,479.38,484.57,506.11,517.08,539.49,545.78,555.54,563.53,569.42,573.38,574.85,584.78,603.69,610.99,616.73,621.55,630.39,638.35,652.57,657.91,668.09,683.17,698.02,709.98,731.7,757.65,2613.5,2649.7,2762.3,3847.2,si
18.472,18.651,38.648,68.932,74.883,95.256,108.03,134.74,141.16,168.78,172.58,208.33,214.98,228.6,231.53,246.52,249.01,251.11,266.12,277.73,299.02,305.74,339.18,348.92,378.59,384.03,396.09,427.67,432.25,448.19,459.15,466.47,473.86,474.68,478.7,486.21,500.84,516.79,540.81,549.87,558.81,562.69,572.08,575.12,576.89,580.63,607.58,608.77,615.98,617.84,625.31,634.44,655.22,657.3,664.95,683.4,690.72,710.42,729.83,754.98,2620.2,2642.4,2805.2,3836.0,si
18.62,18.688,38.966,69.805,74.952,95.074,109.06,134.71,143.85,168.26,172.44,209.55,217.33,228.46,230.65,248.83,249.44,251.24,269.28,280.03,300.44,305.32,343.98,352.28,378.34,384.68,396.5,428.27,431.64,443.99,462.49,467.3,475.45,477.29,479.8,487.98,504.46,507.36,536.86,546.22,555.83,558.76,567.73,577.42,578.9,582.53,604.36,610.88,615.41,620.62,628.41,639.33,644.35,654.02,662.75,680.63,684.63,702.62,731.37,752.6,2614.6,2649.9,2758.6,3773.2,si
18.43,18.615,38.887,69.718,75.587,95.125,109.03,136.14,142.49,170.23,172.34,210.71,218.52,229.94,233.97,247.18,250.28,253.62,272.23,279.21,299.29,306.45,344.78,351.77,381.78,387.96,400.25,430.08,440.45,450.7,461.2,470.0,475.75,481.2,482.06,491.06,509.24,522.81,538.95,552.9,554.6,564.13,574.03,579.1,583.19,584.62,609.05,613.11,615.72,625.75,629.95,644.22,658.25,663.12,669.06,688.34,701.21,711.68,733.97,758.8,2632.6,2636.8,2798.1,3775.1,si
18.685,18.884,38.605,69.755,75.361,96.608,109.87,135.75,142.38,169.12,175.19,209.3,216.47,227.13,232.07,247.54,249.82,252.28,269.45,279.97,300.86,306.33,344.96,355.52,379.87,384.93,399.78,429.61,432.92,444.22,459.5,464.69,470.59,481.05,482.93,487.37,504.81,518.42,538.18,555.93,559.11,563.73,566.0,572.23,577.32,581.62,606.56,614.26,619.66,629.25,630.35,636.97,653.89,663.79,673.98,697.91,709.84,715.28,739.6,771.08,2617.7,2631.9,2802.4,3818.1,si
18.574,18.853,38.995,70.025,75.738,95.621,109.49,135.44,143.28,168.1,174.91,209.64,216.24,229.45,231.33,246.99,249.12,251.19,268.16,277.88,299.65,306.24,341.98,354.36,383.53,387.03,394.89,430.6,434.0,448.2,461.47,465.45,473.07,482.84,483.74,485.97,504.04,512.41,533.9,544.67,556.06,564.0,564.26,570.02,573.45,580.79,600.31,605.35,617.24,622.45,627.52,633.84,654.93,659.71,664.15,688.37,696.54,710.65,735.8,761.96,2601.1,2660.8,2794.9,3827.5,si
18.601,18.694000000000006,39.087,70.221,76.26100000000002,95.606,109.49,136.63,144.38,169.5,173.8,209.6,216.69,228.94,232.41,249.64,250.45,251.56,271.3,283.62,303.51,306.53,343.78,353.04,383.67,388.06,398.21,431.13,442.5,452.14,460.85,466.05,474.35,482.21,487.19,490.53,509.51,516.34,532.36,550.07,554.18,556.92,560.28,565.97,572.86,584.18,601.62,609.91,618.07,623.29,629.1,633.29,656.8,665.49,669.79,688.48,700.63,715.09,737.26,761.41,2627.3,2650.8,2755.9,3800.5,si
18.388,18.909,38.495,69.929,75.249,95.556,108.98,135.76,141.57,168.91,173.0,206.93,217.14,228.24,231.39,251.02,252.41,255.21,271.31,283.83,303.64,306.37,343.21,353.98,379.33,388.75,398.32,428.55,432.89,446.11,455.97,466.61,475.35,475.51,485.36,489.0,503.67,523.63,544.64,551.38,559.11,561.7,565.71,576.26,584.47,593.17,613.32,615.35,617.74,623.14,637.63,644.26,657.93,665.2,670.1,695.45,699.14,715.75,738.33,761.28,2635.3,2647.9,2756.9,3837.5,si
18.555,18.754,38.853,70.311,75.142,95.451,109.97,136.15,141.74,166.41,174.94,209.99,218.07,230.46,234.38,251.31,252.3,254.7,271.2,283.73,303.72,305.5,343.7,354.08,380.53,388.16,399.45,430.56,434.93,450.32,455.5,469.39,474.49,475.77,483.43,488.57,506.9,526.47,540.91,550.43,558.97,562.95,565.55,576.82,577.87,584.98,609.72,612.53,614.67,620.66,633.53,638.5,647.39,664.35,672.55,692.46,695.63,717.12,738.11,763.03,2610.4,2631.1,2779.8,3812.7,si
18.704,18.823,39.017,70.415,76.538,96.557,109.99,136.58,144.96,170.33,173.74,208.23,218.31,228.46,232.77,248.78,250.91,252.16,271.89,281.06,302.26,307.14,344.59,354.45,381.84,386.72,399.82,432.99,437.93,452.56,457.26,468.1,475.34,483.1,483.7,487.91,506.45,516.37,547.82,550.67,562.49,563.76,569.13,578.87,586.33,587.0,610.69,611.76,621.41,623.06,633.45,639.57,657.38,662.82,669.95,693.18,708.08,714.5,739.66,765.39,2637.6,2640.1,2755.5,3767.2,si
18.379,18.627,38.573,69.41199999999999,75.366,95.394,108.24,134.37,142.13,167.62,172.56,207.92,216.43,226.95,230.18,245.51,249.82,250.22,266.64,276.98,298.63,303.85,341.51,351.56,379.47,384.07,396.6,424.61,430.43,439.89,460.17,462.93,470.77,475.82,481.23,484.54,501.63,511.21,537.67,543.88,557.17,560.44,569.86,574.66,581.07,591.1,605.46,608.89,614.38,619.66,630.67,637.4,648.29,657.34,663.49,688.31,696.85,703.27,733.19,759.72,2614.9,2632.8,2744.4,3764.2,si
18.327,18.447,38.597,69.46,74.24,94.368,108.53,134.69,140.72,168.24,172.14,209.89,216.43,228.75,232.33,247.23,249.59,252.08,268.19,276.65,298.38,304.68,341.95,348.15,379.11,384.11,399.73,427.21,432.27,447.16,453.68,468.57,471.95,475.03,475.18,486.71,501.91,525.44,541.43,549.56,558.76,561.13,571.67,577.83,581.47,586.78,604.64,609.48,615.87,622.36,627.01,643.17,655.23,658.65,666.06,679.14,685.18,709.26,729.76,752.62,2596.8,2629.1,2780.1,3784.9,si
18.515,18.698,38.57,69.33,74.832,94.805,109.01,133.8,141.71,168.45,172.3,207.33,215.46,226.94,230.55,244.91,249.38,249.8,268.21,275.46,298.16,304.07,340.01,349.33,377.78,382.86,392.79,426.48,433.47,445.99,451.83,465.64,468.42,476.81,481.01,483.73,501.62,513.32,541.31,546.58,557.46,560.75,573.53,575.68,580.02,584.41,607.53,613.19,615.9,624.17,624.85,639.38,647.27,654.58,669.81,679.33,688.35,708.76,723.94,749.23,2608.4,2613.0,2782.5,3780.1,si
18.515.1,18.6,39.574,70.137,76.17399999999998,94.057,110.11,135.89,145.03,168.35,172.93,212.74,219.46,230.25,232.98,245.02,251.07,253.06,268.48,276.47,297.26,305.31,345.86,351.51,381.7,385.9,396.73,423.51,431.43,442.65,454.26,461.3,472.21,477.75,484.17,488.47,501.55,517.43,541.48,552.38,558.44,564.61,568.61,575.91,578.85,591.09,607.84,614.05,617.85,621.93,634.61,641.67,654.7,655.54,663.78,675.86,690.35,703.25,722.25,748.42,2597.9,2650.5,2768.2,3845.0,si
18.483,18.571,38.878,70.126,75.225,95.229,108.7,135.24,142.77,168.53,172.8,208.44,218.2,227.4,230.48,246.8,247.94,254.6,270.76,277.96,301.29,302.25,343.97,349.91,377.3,383.52,396.83,425.18,427.23,446.26,461.65,467.44,470.76,476.99,480.75,491.11,506.26,511.95,525.34,545.4,551.11,554.25,563.17,566.9,575.79,578.23,608.54,609.77,613.33,623.15,625.97,639.77,652.45,660.95,663.58,688.69,692.18,707.68,734.41,756.56,2607.2,2639.2,2763.7,3837.6,si
18.448,18.56,38.656,69.824,75.062,95.024,109.17,135.42,141.72,169.36,174.06,210.98,215.13,227.38,232.29,248.2,249.59,250.3,267.83,279.67,301.8,305.68,341.04,352.16,380.76,382.37,398.11,428.64,436.05,445.26,447.39,463.46,469.39,476.68,480.86,486.79,504.1,510.63,544.46,551.98,553.58,557.1,565.45,573.22,580.44,585.84,599.19,605.11,613.94,624.8,628.24,637.71,657.99,663.24,664.3,698.46,701.69,713.79,742.37,767.17,2622.7,2645.9,2798.5,3774.2,si
18.636,18.755,38.914,69.589,75.381,95.993,108.28,134.74,141.8,166.97,172.74,210.24,217.66,227.28,231.09,247.56,248.65,253.45,268.82,279.84,300.06,303.5,344.37,353.23,380.34,385.0,398.56,429.78,434.01,446.35,457.93,462.38,474.04,478.94,481.15,488.11,507.32,517.9,543.6,548.2,550.93,560.77,563.54,566.83,581.12,583.09,602.34,608.48,620.22,626.88,632.15,635.05,657.23,661.02,666.87,684.29,693.92,711.78,731.19,754.87,2626.6,2651.4,2743.1,3829.2,si
18.459,18.644,39.133,69.855,76.417,94.657,109.65,135.79,142.99,169.57,172.07,210.06,216.28,229.05,232.82,247.75,249.74,249.88,272.2,278.37,298.69,307.41,344.65,351.02,379.71,383.08,395.81,427.83,435.36,451.82,457.36,471.78,473.97,476.2,481.82,482.04,505.59,511.86,538.29,544.67,555.47,560.26,566.55,573.75,579.65,596.8,599.66,610.51,616.65,620.2,625.31,648.12,655.66,658.41,663.67,681.6,697.36,707.38,728.24,753.22,2620.5,2636.2,2746.3,3775.2,si
18.297,18.722,39.046,69.935,75.536,94.745,108.79,136.38,143.37,168.0,172.99,211.05,216.75,230.1,233.68,248.32,251.34,251.96,268.21,280.86,299.47,305.58,342.51,353.13,381.14,383.27,395.04,430.69,439.04,448.2,455.39,464.62,475.2,481.37,485.11,486.56,506.29,514.88,541.01,549.66,560.34,563.06,569.01,577.47,580.82,586.3,606.26,609.59,615.94,622.32,631.83,638.51,655.51,657.62,666.35,688.03,693.7,709.93,732.43,759.07,2603.9,2645.7,2769.1,3776.6,si
18.337.1,18.603,38.815,69.10600000000001,74.794,95.154,107.75,134.63,141.79,166.3,170.7,208.95,215.15,225.72,230.69,243.96,245.39,248.86,269.43,276.46,294.69,301.85,343.94,347.85,378.81,380.1,396.57,425.12,427.96,445.45,450.65,465.95,468.96,476.43,479.6,482.08,501.42,510.54,538.28,549.64,554.04,558.99,567.35,575.84,576.65,582.26,598.79,611.21,616.74,618.33,629.36,638.31,645.19,650.64,658.49,682.76,686.9,701.01,725.85,750.56,2606.4,2664.2,2792.0,3826.4,si
18.512,18.56,39.054,69.225,75.304,94.666,109.14,135.68,143.85,168.66,171.87,209.87,218.95,229.94,233.74,248.48,251.44,252.21,271.67,280.43,299.76,305.85,345.54,351.95,381.58,384.61,396.91,430.79,434.05,448.33,459.16,465.96,473.53,481.17,484.14,488.53,506.25,517.33,540.76,554.83,557.0,561.52,568.01,572.94,578.86,589.87,606.98,615.36,618.95,620.16,634.21,641.96,649.25,654.45,662.6,681.88,690.85,706.63,722.51,750.22,2619.1,2653.0,2747.1,3820.1,si
18.622,18.837,38.903,70.277,75.559,96.618,109.51,135.58,143.24,169.1,174.67,210.2,216.59,228.68,231.56,249.73,250.85,252.44,270.99,281.65,302.62,305.99,344.21,353.83,383.23,387.24,400.04,431.02,437.66,450.32,457.16,467.36,473.19,478.42,482.54,487.47,507.52,524.34,543.67,552.1,557.55,561.31,563.98,568.22,578.23,586.03,609.4,615.33,623.01,627.08,631.18,637.96,659.36,664.03,669.02,695.46,702.27,713.26,742.44,768.36,2606.0,2628.9,2768.9,3763.2,si
18.35,18.774,39.394,69.88600000000001,76.065,95.205,110.15,136.25,144.26,167.67,173.16,210.91,218.42,230.63,234.1,246.9,251.65,253.5,268.75,280.09,299.52,304.66,344.37,353.15,381.47,384.52,399.38,429.02,430.69,451.55,456.79,463.61,473.91,482.56,482.84,486.45,503.85,521.89,533.58,546.65,559.21,560.68,565.92,570.4,571.51,579.7,605.73,606.95,614.72,625.07,626.23,636.24,655.22,660.01,666.4,682.73,698.11,713.25,727.87,755.06,2600.2,2656.0,2749.6,3784.9,si
18.573,18.667,38.741,69.384,74.89399999999998,94.664,108.54,134.27,140.76,167.26,170.76,212.77,217.57,226.57,232.68,247.12,250.11,250.79,272.0,282.42,301.39,302.57,346.38,351.16,377.52,382.06,397.5,426.07,430.55,443.89,459.42,468.66,471.66,474.57,476.77,483.96,506.0,514.77,542.48,555.03,561.4,564.41,572.13,575.73,579.14,582.52,604.98,616.52,619.43,623.26,630.24,643.77,647.52,658.76,665.63,683.01,686.5,711.06,728.68,750.47,2640.3,2653.4,2787.0,3830.4,si
18.512.1,18.656,38.946,69.839,75.187,95.078,108.3,134.89,141.62,168.01,172.38,212.07,216.02,227.91,231.51,246.8,248.8,251.09,267.6,279.54,299.25,303.28,342.38,350.28,378.58,381.77,393.72,427.19,434.99,446.4,452.98,465.42,468.52,474.9,479.53,484.4,506.2,509.02,534.95,554.78,558.63,561.93,562.29,570.99,573.46,581.83,604.92,607.96,620.5,623.07,626.65,634.56,654.45,658.86,664.02,690.51,692.26,709.93,733.77,756.8,2606.2,2606.5,2789.6,3839.9,si
18.472.1,18.74,39.287,70.503,75.461,95.672,109.91,136.45,143.56,169.43,174.55,210.86,219.24,231.12,234.07,251.65,252.11,252.83,273.18,283.02,303.01,308.27,345.33,352.85,381.67,385.95,403.05,430.42,432.86,441.08,461.86,466.63,476.28,479.83,485.56,489.37,510.3,521.44,532.18,548.83,555.11,558.6,566.36,569.07,571.8,580.79,605.38,610.89,613.5,619.08,627.68,640.02,650.16,659.58,666.29,686.78,694.41,714.02,740.38,763.87,2614.7,2617.8,2755.8,3794.9,si
18.172,18.611,38.941,69.084,75.628,94.723,109.58,135.55,143.93,166.82,173.17,209.66,216.45,229.38,232.49,248.57,251.54,251.62,266.17,280.47,300.46,303.06,339.82,350.8,379.54,386.78,397.13,427.34,436.36,446.54,454.5,465.55,475.12,476.3,480.39,488.64,503.15,521.53,542.87,554.43,559.88,565.09,567.27,577.25,578.88,582.36,607.25,614.84,616.07,622.92,626.49,635.53,649.69,660.67,668.72,678.77,697.07,708.98,724.2,752.84,2614.2,2640.2,2759.0,3809.4,si
18.5,18.663,39.49800000000001,70.134,76.51,95.847,110.25,136.78,145.61,170.06,173.92,208.71,217.32,228.76,234.29,250.3,251.75,253.96,269.96,282.36,303.94,308.43,345.07,352.51,380.78,383.76,399.34,424.09,432.03,441.26,458.89,462.54,474.69,477.01,481.54,484.18,500.57,521.58,533.71,548.86,558.4,563.99,565.8,574.02,583.55,585.33,603.23,607.45,621.18,625.1,633.17,639.18,657.9,665.78,672.22,690.44,702.85,719.28,736.23,761.2,2639.6,2664.8,2745.5,3761.8,si
18.558,18.728,38.911,69.874,75.069,94.896,108.91,135.24,142.02,169.13,173.15,209.73,218.64,229.3,232.57,250.58,251.66,253.93,271.04,280.13,302.35,306.27,345.56,351.9,382.99,385.77,399.93,430.86,435.28,449.86,465.2,474.65,475.38,483.24,486.58,489.11,508.6,515.36,548.44,554.64,560.82,565.14,570.58,585.02,586.71,591.11,608.06,614.15,622.85,624.99,634.96,648.49,657.53,661.96,667.45,683.79,691.57,713.37,733.17,756.19,2603.9,2625.1,2743.0,3804.8,si
18.341,18.472,38.889,69.227,74.831,94.113,109.16,134.77,141.1,167.92,173.33,212.15,218.56,228.37,232.41,250.18,250.82,252.89,270.46,280.38,302.8,304.53,346.02,353.9,378.21,386.08,398.44,424.26,428.52,440.68,459.81,464.15,470.47,477.33,480.0,488.06,503.04,512.13,541.45,551.79,560.06,561.67,563.38,568.91,580.34,582.75,607.12,611.13,618.99,625.97,632.41,637.48,653.28,658.3,670.33,680.36,691.62,712.19,730.06,754.31,2596.5,2640.8,2768.7,3776.5,si
18.368,18.479,38.746,69.57600000000001,75.032,94.531,108.44,135.19,141.72,169.07,172.42,210.61,217.18,227.85,231.6,248.01,249.35,251.55,270.3,278.9,299.6,304.72,345.25,349.79,380.73,383.68,398.64,427.73,434.14,447.6,455.18,469.83,471.54,478.14,479.45,489.95,507.68,521.37,543.79,554.88,555.36,560.97,572.92,577.94,580.52,584.2,604.46,613.68,618.25,623.25,633.08,643.28,654.4,661.69,664.64,684.22,692.5,711.53,732.54,754.69,2611.5,2614.5,2759.2,3793.9,si
18.158,18.868,38.972,69.257,75.595,95.127,108.53,135.27,142.98,169.24,173.23,209.38,217.2,227.78,231.27,248.32,251.08,251.58,268.59,281.55,302.12,306.64,343.9,353.37,382.75,383.68,397.57,430.83,432.71,444.79,453.61,460.41,470.54,476.52,478.17,484.4,502.43,505.37,544.74,547.31,548.94,562.42,563.75,570.21,581.12,586.95,601.39,604.73,621.59,629.67,633.38,638.22,655.24,664.03,672.03,687.4,701.81,719.11,739.97,764.35,2607.1,2607.6,2767.4,3831.3,si
18.563,18.578,39.012,69.805,75.40899999999998,94.833,109.43,134.95,141.55,168.76,173.81,209.98,216.62,230.09,232.4,246.78,250.57,254.7,267.98,278.83,302.47,305.68,342.94,351.91,379.43,384.39,397.32,430.76,431.74,445.76,460.74,465.55,473.44,478.05,483.41,484.65,502.03,510.9,536.29,544.19,558.14,561.18,567.84,569.85,578.32,587.84,600.44,606.26,617.85,621.54,632.01,639.67,653.43,657.46,663.44,684.48,694.05,705.23,729.75,757.35,2634.1,2639.9,2790.8,3849.5,si
18.488,18.552,38.955,69.702,75.354,95.028,109.18,135.66,143.24,167.43,173.22,209.73,217.72,229.61,232.93,249.0,250.7,253.21,268.79,281.4,302.07,305.16,343.08,352.29,376.81,380.17,397.32,426.98,430.84,446.87,460.07,467.11,471.85,476.25,478.16,486.03,504.91,510.48,524.25,551.9,558.02,560.22,570.5,575.66,579.9,583.44,602.5,612.83,618.95,619.9,634.05,642.8,652.6,655.07,663.08,691.08,697.0,709.45,733.04,760.21,2608.5,2652.8,2749.8,3791.7,si
18.559.1,18.638,38.764,69.589,75.36,95.271,108.51,134.49,141.42,167.74,172.14,209.89,216.36,227.89,230.86,249.04,249.86,251.26,268.39,280.19,301.7,304.13,343.72,349.9,379.98,383.58,396.57,425.26,428.66,441.62,453.77,464.78,470.87,477.35,479.63,486.41,502.0,515.42,542.58,550.79,562.69,563.98,573.44,575.63,579.03,582.35,608.39,614.56,621.47,625.96,630.28,640.83,657.05,663.98,666.75,684.05,695.76,712.11,732.27,754.51,2613.9,2645.8,2787.1,3783.8,si
18.393.1,18.79,39.035,70.0,75.709,94.981,109.44,136.48,142.4,169.45,173.5,211.63,218.6,229.3,233.71,248.98,250.63,252.44,271.55,281.98,301.76,307.23,348.4,352.12,381.23,384.52,402.8,430.48,431.11,447.62,462.55,468.25,475.86,477.52,479.09,486.26,506.41,515.4,533.4,550.91,556.77,563.99,565.5,576.15,578.6,581.09,603.99,614.02,620.36,623.91,630.83,641.0,655.97,663.34,666.92,682.41,698.49,713.73,730.64,757.55,2612.3,2641.8,2796.7,3832.2,si
18.427,18.691,38.839,69.484,75.143,95.626,108.21,135.31,142.25,168.58,172.27,209.56,217.38,228.15,231.27,248.07,250.02,251.08,269.21,280.34,300.36,304.1,344.43,349.98,381.86,384.38,396.02,428.97,431.35,443.01,453.38,469.46,473.09,476.86,479.96,487.8,504.24,515.52,548.31,554.86,561.47,564.23,566.38,574.62,581.39,588.35,611.61,613.78,620.19,624.55,631.12,639.32,655.96,659.1,667.14,689.89,697.21,708.16,734.84,759.64,2601.5,2611.4,2787.4,3822.5,si
18.716,18.755,38.9,69.442,75.35,95.458,109.06,134.47,141.74,168.52,172.48,210.49,216.03,228.98,232.12,249.12,250.96,253.44,266.36,280.04,301.24,307.08,341.21,351.61,378.31,383.39,400.61,427.82,436.75,445.99,457.74,465.66,471.29,476.0,479.53,481.76,504.44,512.1,544.25,555.98,558.26,563.96,566.02,572.8,580.53,586.4,608.2,610.81,618.94,621.54,628.18,634.41,652.35,653.7,663.77,673.77,694.3,708.91,723.76,750.59,2599.7,2614.4,2760.9,3839.1,si
18.746,18.904,39.091,69.48100000000001,76.062,96.393,109.57,134.79,143.96,168.86,173.88,210.15,216.58,229.1,231.85,249.34,250.6,251.84,265.17,279.5,301.11,307.53,340.59,353.6,381.3,383.91,400.39,430.1,431.78,445.38,455.05,464.27,471.7,475.95,478.33,482.06,502.63,515.91,543.58,553.93,556.32,565.45,566.95,570.46,579.48,583.63,607.42,612.67,618.76,628.08,629.61,632.97,658.25,662.98,668.09,679.84,701.45,716.32,732.06,757.86,2631.1,2647.9,2799.6,3812.2,si
18.275,18.677,38.947,70.056,75.23100000000002,95.285,108.54,136.14,141.77,167.97,173.27,210.77,216.06,229.25,232.4,245.0,248.82,253.0,270.12,279.12,298.55,305.65,345.07,350.42,377.06,382.58,398.63,425.84,431.88,443.45,455.61,465.43,469.99,474.23,483.37,487.37,502.52,518.23,532.99,548.92,553.91,561.38,568.7,570.82,575.73,585.64,602.05,612.62,613.9,618.8,632.18,637.01,648.35,660.98,665.52,689.98,693.55,711.31,735.6,764.02,2595.5,2641.7,2764.1,3836.7,si
18.331.1,18.617,38.615,69.475,74.889,94.134,108.94,135.45,140.4,168.95,172.9,209.08,215.83,227.63,232.7,248.65,250.1,250.98,270.9,282.2,303.41,304.8,343.84,349.45,381.13,383.91,397.84,427.28,435.07,447.55,453.88,464.35,472.52,475.52,478.65,484.74,501.5,514.92,523.95,551.22,553.93,559.27,562.06,568.84,574.28,578.51,597.08,610.72,614.02,623.8,630.68,635.88,654.26,659.75,662.75,681.35,695.45,711.44,729.72,755.91,2615.2,2665.0,2802.9,3818.6,si
18.537,18.731,39.03,70.457,75.229,95.148,108.91,134.76,141.75,168.46,172.1,214.48,216.15,229.1,233.0,247.27,248.47,251.26,268.43,278.62,296.57,306.97,345.88,351.02,379.38,387.38,397.8,429.34,431.88,442.76,458.08,464.62,472.95,476.21,481.47,486.63,507.78,519.35,544.14,552.04,560.6,563.21,568.58,570.72,581.6,588.6,606.49,611.36,615.71,621.48,631.72,635.22,653.78,660.26,668.11,685.74,691.86,711.89,739.2,757.31,2623.6,2625.0,2748.0,3804.7,si
18.39,18.539,38.876,69.086,75.046,94.842,108.77,134.33,141.57,166.53,171.47,211.6,216.95,228.17,232.86,247.09,248.78,249.92,268.23,279.44,298.63,303.8,344.28,350.05,379.49,381.11,398.05,425.76,430.83,446.31,464.32,465.42,472.88,473.83,476.58,484.53,504.33,517.38,523.22,547.25,553.71,554.89,559.35,567.88,573.22,576.16,601.31,608.8,611.99,618.24,625.46,636.71,649.23,656.03,662.72,675.74,693.33,707.35,718.8,747.59,2615.4,2653.2,2802.2,3796.4,si
18.518,18.863,39.212,70.023,75.933,95.107,109.78,135.51,142.28,169.06,175.15,214.22,218.25,228.57,234.39,248.74,250.57,254.36,266.95,280.37,302.5,306.4,343.72,354.76,382.38,385.31,400.53,430.9,434.41,449.12,455.32,466.2,474.33,477.76,480.85,486.61,506.72,516.43,535.29,559.07,562.99,568.48,570.18,577.08,580.7,585.61,608.57,611.23,622.1,626.31,632.62,639.31,657.97,663.13,670.8,675.21,695.2,716.06,737.83,760.28,2644.4,2667.5,2762.9,3793.8,si
18.709,18.986,38.944,70.355,75.665,96.553,108.84,135.62,143.19,169.0,173.35,210.11,217.22,226.67,231.19,246.56,248.99,252.12,269.61,280.1,300.1,303.78,342.65,352.41,380.96,383.42,396.51,425.99,432.7,441.35,449.37,465.51,469.94,472.47,482.33,484.13,501.48,522.23,525.81,553.71,554.95,560.02,563.81,570.92,571.85,580.7,610.1,612.61,622.57,624.54,628.88,642.88,655.74,661.21,672.11,691.84,697.8,715.34,739.23,760.83,2623.5,2662.4,2779.9,3766.5,si
18.81,18.941,38.903,70.438,75.911,97.068,109.07,135.73,142.29,167.53,173.37,209.75,216.65,227.42,230.75,246.82,250.63,251.43,272.17,279.59,300.1,304.11,344.22,352.14,381.73,384.72,397.53,429.75,441.61,451.32,455.09,465.78,474.48,481.93,484.15,487.67,506.28,525.27,538.95,552.11,559.29,561.67,563.68,572.5,576.82,589.81,605.05,615.88,625.77,627.03,631.89,636.43,657.71,665.38,673.19,688.61,699.66,714.22,735.6,759.45,2634.7,2636.8,2794.0,3841.4,si
18.563.1,18.701,39.064,69.95,74.578,95.257,109.22,135.38,142.31,169.45,174.9,209.23,217.22,229.48,232.54,249.5,251.74,253.07,268.98,281.05,304.01,306.11,343.11,351.5,380.74,390.93,398.78,429.71,432.62,446.16,457.46,463.49,473.04,477.98,481.17,491.11,503.1,524.12,541.14,545.82,555.43,561.29,562.17,565.23,575.01,585.57,605.73,612.3,619.95,625.85,626.09,634.08,656.67,660.44,671.24,685.28,691.22,711.99,738.73,762.08,2614.6,2615.3,2787.7,3763.4,si
18.433,18.777,39.291,69.89699999999999,75.763,94.662,109.74,134.87,142.86,168.06,173.92,212.78,216.27,230.45,232.23,250.47,252.11,252.53,267.15,282.18,302.49,306.83,343.06,352.35,381.24,383.14,398.21,424.9,432.14,441.99,453.19,464.05,470.13,477.91,478.79,486.71,506.14,515.47,544.45,553.56,560.51,565.02,571.37,575.83,584.76,600.7,608.12,610.09,616.04,627.29,633.46,643.32,656.5,660.76,667.52,677.61,692.33,717.04,729.12,755.58,2597.4,2617.2,2785.6,3805.3,si
18.604,18.834,38.978,69.76,75.837,95.912,109.55,135.4,143.14,168.3,173.55,210.39,216.01,227.06,231.71,246.54,248.59,250.23,269.23,279.52,300.38,303.17,343.8,351.78,380.47,383.71,394.75,427.74,432.01,446.07,454.02,466.92,470.65,476.41,478.31,482.97,500.67,518.21,535.27,549.93,557.13,560.0,569.96,570.34,576.83,582.73,608.7,610.15,616.49,619.08,627.62,637.32,651.27,657.77,667.86,683.95,696.07,709.4,729.8,755.92,2620.1,2653.9,2752.5,3835.4,si
18.483.1,18.641,38.866,70.195,74.943,95.003,108.66,135.54,141.58,167.34,173.34,211.37,217.28,229.28,231.91,248.06,249.83,251.77,271.7,281.37,300.23,304.93,346.12,350.07,379.68,385.55,397.34,428.83,433.25,445.74,453.59,463.47,471.58,478.65,482.94,486.7,502.89,520.01,542.69,552.7,559.26,563.54,564.26,572.46,581.05,595.68,606.6,616.49,616.89,619.82,636.86,640.96,653.38,657.51,665.83,685.14,695.81,714.68,737.78,761.89,2612.0,2635.2,2784.1,3821.7,si
18.349,18.682,38.736,69.62899999999999,74.804,94.835,109.45,135.35,142.51,167.79,174.05,207.41,216.22,230.1,232.86,245.71,251.81,252.37,268.23,276.87,298.97,304.9,339.54,351.93,379.93,382.41,394.48,428.26,440.05,452.48,452.77,464.68,471.65,479.6,482.22,485.7,505.84,518.87,529.63,549.3,553.08,558.95,566.06,569.47,572.96,577.4,600.27,609.28,614.86,619.8,625.74,633.75,651.25,655.53,663.39,685.0,691.68,706.04,731.6,758.89,2634.2,2636.1,2804.6,3800.7,si
18.479,18.642,38.918,69.14399999999999,75.141,94.677,108.89,136.23,142.48,170.44,172.82,207.96,216.25,228.63,232.46,249.08,250.09,251.78,267.99,279.6,300.49,306.9,342.96,352.02,381.45,382.06,400.8,428.19,428.84,446.34,453.76,464.17,472.53,474.67,480.04,481.58,500.34,515.17,539.87,546.28,558.12,563.75,568.46,574.46,578.92,582.8,599.21,605.69,615.52,624.4,632.99,638.73,653.38,660.12,669.67,673.96,696.31,713.67,733.0,758.38,2621.1,2631.9,2774.7,3820.2,si
