15.266,18.084,38.924,67.087,75.303,90.432,109.41,135.16,144.46,167.02,171.53,212.39,217.48,230.05,233.11,247.91,250.52,252.03,269.66,280.5,298.93,303.48,341.53,349.51,374.97,383.8,396.72,422.69,430.83,445.24,459.14,463.4,472.4,473.46,475.8,488.62,504.28,510.85,542.56,549.5,555.12,558.35,564.65,573.89,582.04,585.47,602.44,608.94,614.03,624.1,629.75,638.25,650.98,656.18,662.31,673.65,692.19,711.77,722.69,750.18,2647.5,2653.3,2745.6,3429.7,si
15.703,18.557,38.605,68.19800000000001,75.444,91.837,109.11,135.6,142.26,167.72,172.96,213.38,216.84,228.54,233.14,246.98,248.34,252.42,272.53,279.12,297.92,302.57,342.23,350.84,373.13,384.19,396.57,422.29,431.31,451.2,454.22,466.9,468.43,471.57,476.65,482.53,509.12,517.8,538.0,548.42,553.63,563.94,569.87,574.92,580.35,585.1,605.88,607.98,610.18,619.69,622.78,645.3,656.52,661.24,667.58,683.16,698.72,713.12,730.28,755.92,2646.2,2650.3,2744.7,3456.1,si
15.736,18.568,38.93,68.304,76.245,92.707,109.88,136.34,144.1,170.75,173.49,214.23,217.38,229.25,233.91,248.34,250.67,251.82,272.05,281.93,302.1,305.26,344.0,352.18,379.49,389.16,400.09,426.89,437.21,452.88,463.07,467.9,477.31,480.63,483.09,492.74,508.06,517.74,539.47,555.21,562.37,564.3,569.1,573.0,577.52,585.33,608.95,612.28,623.03,624.24,631.81,637.16,664.62,667.17,671.98,690.03,705.93,718.68,737.2,762.44,2625.4,2639.6,2729.1,3441.8,si
15.567,18.757,38.511,68.187,74.686,92.721,107.81,134.05,141.97,168.22,171.99,209.49,217.38,227.59,230.17,249.21,250.92,251.24,269.99,281.58,299.89,303.67,339.85,348.36,372.75,384.68,398.25,423.2,430.47,446.32,461.66,466.27,472.05,477.57,483.2,489.19,508.47,520.08,529.71,547.53,559.06,561.09,561.59,573.33,577.62,580.5,605.33,610.03,620.84,630.46,634.78,636.05,656.55,662.21,673.32,688.38,692.5,712.86,737.78,757.83,2606.4,2606.9,2773.2,3472.1,si
15.474,18.637,38.592,68.26899999999999,74.896,92.102,109.34,135.74,143.7,168.14,174.09,212.4,217.11,230.51,232.66,249.31,250.98,252.96,269.08,281.83,301.11,304.2,341.12,352.2,374.71,385.79,398.85,425.08,430.8,441.87,459.52,463.19,470.28,481.41,481.85,488.67,506.15,520.53,544.34,549.98,555.2,562.54,568.68,575.91,580.59,584.62,605.26,609.63,613.87,623.83,630.42,636.31,656.51,659.01,666.47,691.22,696.01,713.84,738.08,764.84,2631.9,2632.4,2742.2,3444.0,si
15.561,18.577,38.784,68.02,75.358,91.587,109.16,135.16,144.04,167.32,171.86,213.31,216.87,229.31,231.56,248.75,250.43,251.63,270.12,284.46,301.45,302.55,343.87,349.48,373.99,384.02,399.04,424.83,432.13,448.99,457.3,469.69,472.57,476.57,478.84,485.04,506.06,513.57,543.15,552.47,556.51,559.45,578.1,580.72,581.15,584.18,604.6,612.37,618.14,621.69,630.92,642.04,657.11,658.71,664.0,679.17,692.22,711.96,728.54,753.94,2602.7,2650.4,2778.6,3407.7,si
15.532,18.494,38.544,68.222,75.477,91.533,108.38,135.73,143.51,168.98,171.36,212.43,216.73,229.04,231.87,248.74,252.16,254.78,273.03,285.27,302.91,303.33,344.44,350.2,377.11,383.55,396.91,425.69,447.7,454.36,456.51,471.15,474.58,475.78,484.22,487.67,512.19,518.78,537.91,553.27,560.12,561.16,573.47,577.52,578.59,585.43,608.44,617.09,621.85,625.31,634.97,643.64,664.05,666.7,667.7,677.87,698.3,714.57,731.4,759.23,2610.2,2665.1,2753.9,3462.2,si
15.329,18.547,38.671,68.208,74.889,91.673,108.71,135.19,143.27,166.03,173.52,210.61,216.58,228.95,232.43,247.63,250.54,253.88,271.76,282.18,300.75,302.36,342.89,347.96,373.13,380.51,397.46,425.08,433.33,449.56,453.14,465.83,469.46,474.62,479.18,484.97,507.35,517.49,540.75,551.99,553.63,555.57,570.77,573.86,578.84,589.17,606.52,611.52,617.21,622.3,631.67,639.8,652.12,658.86,663.5,687.42,689.79,715.54,734.07,759.89,2613.7,2651.3,2791.8,3461.3,si
15.553,18.503,38.662,67.67699999999999,75.35600000000002,91.662,109.03,135.58,143.3,169.27,173.69,211.19,215.44,230.39,233.53,247.2,251.48,253.12,267.91,281.46,302.81,304.33,342.77,348.93,376.12,385.85,399.4,425.85,431.91,447.19,456.39,464.83,473.27,475.39,478.43,486.04,502.97,515.26,536.81,543.52,558.48,562.76,572.15,574.47,579.86,582.55,605.12,609.17,614.51,621.99,628.33,638.65,653.09,662.95,666.17,680.49,699.89,712.24,732.6,759.22,2612.9,2643.1,2766.9,3450.8,si
15.505,18.456,38.669,68.178,75.407,92.193,108.74,135.87,143.06,167.41,173.18,211.62,215.19,229.59,232.32,248.43,251.13,251.68,267.73,282.73,299.66,305.33,341.21,346.86,377.34,385.76,395.51,427.61,435.09,448.5,454.84,467.02,469.96,477.54,481.04,489.54,502.56,520.72,533.06,551.56,556.27,560.7,573.5,577.86,580.21,583.18,606.85,615.51,619.04,622.11,632.9,638.59,658.33,663.66,670.98,697.51,698.72,719.68,742.39,764.99,2601.3,2638.2,2761.3,3436.1,si
15.377,18.821,38.527,68.342,75.44800000000002,92.524,108.66,135.47,143.55,169.94,172.56,211.47,215.95,228.71,231.66,249.05,250.59,252.14,271.22,282.44,301.69,303.83,344.25,349.63,375.15,383.73,400.06,426.36,438.2,449.74,457.77,470.05,471.18,476.44,480.53,488.11,508.61,519.82,536.94,551.31,556.46,558.67,567.97,572.1,574.96,581.91,609.04,615.5,618.49,624.59,631.58,640.42,662.34,663.94,667.55,686.09,694.61,713.14,739.79,760.57,2603.7,2631.3,2774.9,3472.8,si
15.71,18.63,38.96,68.567,74.934,92.307,109.19,135.96,144.63,166.79,174.05,212.32,217.14,230.44,233.36,246.95,250.1,252.07,270.64,279.85,300.8,301.52,341.54,349.93,375.29,381.39,396.98,426.82,429.86,442.51,460.0,465.85,475.95,480.33,484.42,489.51,507.78,514.88,540.12,552.12,559.46,565.55,576.35,577.47,581.82,586.76,603.37,616.84,621.28,624.74,631.7,647.06,651.95,659.17,667.8,690.44,693.24,714.27,734.74,763.26,2599.6,2639.0,2779.6,3423.5,si
15.582,18.53,38.612,68.27199999999999,74.933,91.92,108.52,134.51,143.1,168.62,173.01,210.99,216.55,227.91,230.67,248.21,251.07,251.65,267.3,280.71,300.96,302.6,342.21,347.95,375.91,382.56,397.97,424.3,430.32,446.8,460.25,462.76,472.53,477.46,479.2,489.27,507.74,517.72,522.2,547.37,548.69,553.94,561.68,573.32,578.22,585.28,598.01,608.77,615.36,618.09,633.1,636.91,657.08,659.1,661.81,679.03,694.7,709.92,730.85,754.46,2638.8,2657.2,2731.3,3412.6,si
15.515,18.696,38.884,67.829,74.642,92.402,108.78,134.26,144.79,168.3,173.09,208.77,218.19,227.87,232.63,249.34,252.13,253.77,268.86,281.84,301.71,304.28,341.12,348.5,371.89,381.98,396.85,423.84,432.11,446.18,461.44,463.39,472.77,476.2,481.07,487.8,503.51,507.83,540.82,549.73,558.9,560.14,564.96,573.71,579.1,584.89,607.35,611.27,619.0,620.96,633.89,639.02,651.85,658.01,664.48,688.17,689.4,706.78,734.46,756.97,2644.5,2662.8,2742.5,3455.8,si
15.31,18.354,38.765,67.575,75.622,90.47,109.24,135.47,144.34,168.94,173.28,210.68,218.87,229.84,233.11,248.15,252.17,254.35,269.83,280.12,299.73,303.73,343.07,351.13,376.72,383.39,397.74,427.08,434.2,450.92,468.3,470.8,475.84,478.27,486.34,492.73,512.82,516.51,543.87,552.43,557.89,560.45,570.31,578.21,578.75,595.41,608.04,616.45,617.61,619.53,634.49,642.57,658.23,660.99,664.27,672.79,698.39,711.33,724.25,753.15,2641.2,2648.4,2732.0,3469.7,si
15.592,18.356,38.566,67.61399999999999,74.828,90.876,108.08,135.21,142.76,169.57,172.14,211.35,218.93,229.72,233.21,251.13,251.75,253.29,270.08,282.13,303.13,304.8,341.01,351.02,376.56,386.25,399.21,425.16,430.55,447.48,457.35,466.9,472.91,478.66,479.75,488.7,506.7,513.68,534.42,550.97,559.55,568.66,571.8,573.92,578.02,582.07,604.77,616.52,618.01,627.14,634.31,646.98,660.42,669.19,674.72,679.04,701.26,717.07,735.9,765.09,2610.8,2638.7,2791.2,3475.7,si
15.144,18.5,38.457,67.471,74.929,91.317,108.57,134.41,142.18,166.86,170.77,212.5,218.15,228.33,232.97,247.77,249.24,251.91,272.79,279.77,298.73,300.64,339.56,352.81,372.41,383.76,397.86,423.72,431.58,448.5,462.82,467.79,470.35,476.51,480.73,491.55,511.4,517.16,541.24,549.57,560.19,565.19,573.97,577.43,578.64,580.05,605.4,611.93,615.37,619.01,626.62,643.0,650.78,655.78,665.01,681.1,693.57,709.07,726.1,750.26,2604.1,2631.6,2770.4,3478.0,si
15.43,18.317,38.729,67.45,75.459,91.045,109.45,135.44,144.82,168.2,173.28,210.59,217.85,229.05,231.65,248.19,251.1,253.75,270.75,280.04,298.98,304.86,342.45,352.79,375.41,383.14,394.2,424.37,433.41,447.94,461.26,467.34,474.83,479.04,481.5,486.29,501.02,510.54,527.47,547.67,550.01,553.62,565.76,568.65,575.81,576.95,605.51,609.85,613.7,615.37,626.22,639.04,649.45,652.58,661.03,688.5,695.95,707.34,730.79,760.56,2634.9,2655.3,2760.6,3423.8,si
15.3,18.437,38.595,67.8,74.665,90.909,108.96,134.7,141.61,169.47,172.12,213.98,216.5,230.55,234.63,249.04,249.7,251.58,269.13,279.75,298.29,306.45,340.57,350.07,373.65,382.36,398.98,424.95,431.92,442.12,455.13,464.79,470.58,475.13,477.71,487.96,509.32,518.4,542.14,549.42,557.17,563.24,567.32,579.41,580.89,585.37,604.73,606.91,612.13,616.13,626.9,637.22,653.97,658.26,667.85,678.56,689.44,710.75,725.96,753.37,2648.4,2649.7,2776.6,3425.2,si
15.739,18.522,38.39,67.477,74.553,91.935,108.5,134.08,141.48,168.54,171.45,212.6,217.62,228.53,232.66,247.16,250.07,250.71,269.6,279.41,297.32,302.63,341.08,351.88,374.67,385.25,399.2,425.33,431.27,451.13,464.7,468.74,476.02,477.05,484.08,490.13,510.84,518.0,541.44,547.47,562.39,563.78,571.6,576.37,579.52,589.76,601.3,611.48,618.24,621.45,632.25,641.85,649.49,651.69,664.67,681.33,683.95,705.19,726.4,748.39,2641.0,2652.9,2732.4,3482.3,si
15.479,18.791,39.082,68.473,75.453,92.618,108.75,135.67,144.64,169.17,172.54,211.95,217.44,229.18,231.45,248.84,251.11,253.13,267.64,283.28,300.47,302.92,342.75,350.17,378.13,386.05,399.53,427.88,432.66,451.94,464.51,469.0,478.74,481.62,483.16,489.88,509.68,523.75,544.31,548.06,550.6,559.98,569.94,577.86,581.91,586.41,606.18,612.11,616.51,626.84,631.75,637.01,658.33,666.49,670.51,680.91,699.14,716.69,737.53,758.79,2633.3,2648.6,2729.6,3460.2,si
15.461,18.565,38.844,68.382,75.182,92.222,110.09,136.27,143.81,168.39,175.45,212.24,217.23,231.61,233.8,249.65,251.49,252.36,272.33,283.28,302.88,303.58,344.68,353.19,374.64,385.63,399.04,426.68,432.57,447.89,463.44,467.89,473.48,476.66,481.38,487.78,509.21,518.78,530.48,542.61,556.25,560.27,569.0,571.38,577.65,584.9,606.28,611.26,616.98,619.49,628.79,639.64,651.07,663.96,668.2,693.46,699.34,712.37,739.13,765.42,2626.6,2643.2,2739.2,3424.6,si
15.095,18.535,38.532,67.824,74.509,91.27,109.01,136.01,142.97,170.31,173.52,212.07,216.45,230.99,233.47,247.94,249.24,251.32,271.24,281.3,300.41,304.69,341.49,348.9,373.11,384.88,397.39,424.59,429.99,446.51,453.26,464.56,467.26,476.65,480.0,484.7,503.15,522.04,530.17,545.57,554.47,566.99,570.74,575.0,576.54,579.82,606.03,608.58,618.08,619.74,628.77,641.03,652.6,659.16,666.76,683.95,693.73,707.0,735.81,759.28,2609.5,2616.2,2744.6,3442.0,si
15.47,18.397,38.368,67.331,73.712,91.193,108.43,133.82,141.26,170.06,171.02,211.83,217.1,228.17,232.76,248.66,249.36,252.41,268.13,279.52,299.21,304.86,339.1,350.61,371.58,384.89,398.43,422.01,427.84,448.22,463.05,464.43,472.81,473.54,477.91,487.19,504.09,515.47,522.01,548.55,554.77,560.62,570.51,575.18,581.63,584.68,608.51,611.32,615.29,619.89,626.64,640.07,648.51,655.09,666.44,673.82,683.9,706.82,724.87,749.55,2619.0,2632.4,2727.1,3425.6,si
15.533,18.415,38.347,67.653,74.373,91.36,109.3,134.88,142.22,169.58,171.85,210.86,215.79,227.64,233.97,248.71,250.68,253.11,272.29,282.21,301.21,304.1,344.04,351.42,372.09,380.38,400.15,423.85,435.43,445.92,456.66,465.56,468.63,472.03,479.67,486.02,505.63,510.63,547.18,553.86,558.52,560.29,564.59,576.02,581.15,582.56,606.34,610.98,617.12,624.94,630.52,643.28,653.66,663.66,663.85,687.8,691.95,712.94,738.21,757.86,2628.2,2648.1,2727.8,3470.9,si
15.526,18.598,38.817,68.358,75.475,92.288,109.82,136.21,143.54,169.36,174.34,214.51,216.65,228.17,234.2,248.46,249.64,251.69,268.4,280.46,299.98,304.01,342.12,348.86,375.44,385.59,399.71,426.11,432.75,447.07,453.92,465.44,469.31,476.47,481.5,486.0,503.19,521.15,543.16,554.66,558.82,567.64,570.25,577.98,581.32,583.95,609.13,615.95,617.57,628.14,631.92,643.49,653.14,662.16,670.18,690.6,699.09,710.85,737.71,764.98,2654.6,2657.7,2745.0,3478.4,si
15.491,18.434,38.266,67.623,74.535,90.971,108.33,134.51,140.76,168.31,171.08,209.54,215.61,228.67,232.26,248.13,249.05,251.76,268.29,281.29,299.79,303.21,339.61,346.76,372.03,382.26,398.12,423.23,431.73,448.73,451.6,465.53,466.75,470.42,475.5,490.67,510.79,520.18,532.07,549.42,555.28,555.89,559.13,575.79,577.58,584.98,602.72,608.83,613.73,619.15,630.36,635.31,654.81,659.68,664.46,673.01,691.16,711.06,722.4,752.24,2621.6,2638.6,2749.3,3483.3,si
15.43.1,18.347,38.497,67.77199999999999,74.971,91.541,109.4,135.58,142.6,169.71,173.79,210.82,215.57,229.06,232.84,248.86,251.79,252.98,269.46,279.9,302.39,305.27,340.64,348.63,375.87,382.24,397.23,426.08,435.26,451.98,459.14,469.02,471.09,476.69,480.02,487.65,504.56,520.29,536.79,553.67,563.63,566.9,575.06,577.87,580.46,583.33,608.1,616.44,621.23,625.57,634.72,641.15,659.88,664.47,671.53,681.56,700.32,718.92,734.56,762.08,2601.8,2629.7,2742.6,3421.0,si
15.367,18.24,38.542,67.595,75.059,90.709,109.46,135.7,144.57,169.01,171.73,211.73,214.33,227.04,232.62,246.11,247.95,248.85,267.64,278.87,296.44,302.67,340.88,347.9,371.79,382.67,400.44,423.13,433.31,441.96,460.32,462.03,470.62,472.07,476.28,487.04,505.38,515.65,538.23,548.2,555.64,557.09,562.52,571.03,574.1,581.87,599.96,608.23,610.65,613.51,623.77,629.82,649.74,656.24,659.87,675.37,691.81,705.41,724.28,751.46,2600.1,2656.2,2763.1,3416.9,si
15.398,18.687,38.941,68.135,75.765,92.059,109.7,136.13,144.25,166.96,172.33,211.83,216.22,230.48,233.91,247.37,249.37,251.85,268.14,279.92,296.49,303.89,340.72,349.34,373.54,385.52,397.24,424.32,427.84,441.98,457.12,464.59,473.78,477.13,482.14,487.97,505.98,514.86,537.83,550.06,555.28,565.2,571.79,574.59,581.4,584.66,606.08,611.52,614.9,616.44,624.24,641.09,648.48,660.92,664.17,690.45,694.53,708.63,732.69,757.38,2594.9,2640.2,2748.2,3462.1,si
15.325,18.547,38.766,68.086,75.061,91.423,108.68,134.78,142.96,167.33,172.27,213.79,220.5,230.96,232.59,248.75,252.92,254.3,272.81,281.23,299.59,304.2,341.83,354.29,375.62,387.91,396.64,427.65,434.52,451.59,466.87,469.85,478.15,484.2,485.21,493.76,512.55,519.02,539.33,550.38,554.39,556.72,564.35,577.96,584.98,589.89,607.25,609.21,618.74,627.44,638.89,647.57,653.08,658.77,669.62,682.13,686.58,711.04,731.95,753.24,2635.6,2644.8,2755.5,3483.5,si
15.581,18.608,38.903,68.547,75.789,91.282,109.39,135.48,144.35,168.48,173.03,213.43,217.71,229.63,231.82,249.47,250.22,252.79,269.39,281.72,300.73,303.55,344.51,348.89,376.89,382.81,396.44,421.9,431.36,443.22,458.2,463.4,473.01,477.42,479.06,485.68,504.43,515.05,528.0,549.74,555.01,558.9,568.05,572.63,578.58,581.55,601.66,609.9,615.34,621.43,633.42,638.36,657.58,666.22,669.59,683.25,698.23,713.35,731.4,756.61,2609.1,2637.0,2773.5,3421.0,si
15.543,18.658,39.13800000000001,68.197,75.601,92.369,110.64,135.56,146.54,171.0,175.03,213.13,215.3,229.71,233.19,250.38,250.75,251.95,263.51,281.65,302.63,306.85,339.82,349.69,376.17,382.78,398.55,425.89,434.15,446.05,460.84,461.39,470.77,476.03,479.28,486.7,504.67,515.95,535.45,552.62,558.33,560.88,563.16,573.22,580.85,581.65,601.61,609.34,621.1,625.17,631.09,633.79,652.39,663.85,671.0,684.38,702.16,714.34,734.82,763.27,2608.4,2646.9,2769.1,3458.7,si
15.323,18.586,38.615,67.631,74.794,92.204,109.27,135.79,143.69,168.44,173.7,210.25,217.84,229.97,233.63,251.41,252.3,253.79,273.87,284.42,302.96,305.24,343.55,351.46,373.89,387.45,401.73,428.7,433.64,451.28,467.08,471.5,475.53,479.63,480.66,492.98,511.62,521.64,544.45,550.18,555.4,563.42,576.85,579.36,583.92,594.31,605.89,620.09,624.62,626.82,640.17,648.16,657.54,667.71,670.35,687.98,700.05,719.02,737.69,762.59,2606.9,2637.0,2774.9,3484.8,si
15.223,18.259,38.148,67.609,73.952,90.681,107.93,134.81,141.13,168.69,171.06,210.21,215.55,227.34,230.57,247.22,248.52,249.76,270.75,278.73,297.99,302.13,339.82,348.09,370.9,383.88,394.61,421.48,426.33,440.92,452.9,460.83,464.4,472.28,477.68,485.48,499.62,516.02,531.27,543.59,551.04,554.09,565.33,568.48,572.54,576.2,599.89,607.18,610.03,614.6,624.15,635.78,653.62,654.62,661.62,686.48,693.41,708.22,737.89,757.86,2631.6,2642.7,2773.8,3472.1,si
15.793,18.555,38.857,68.008,75.132,91.811,109.08,135.0,143.23,167.6,171.36,212.65,216.79,229.13,233.94,244.98,250.48,251.72,266.36,278.85,297.36,302.41,340.39,346.78,374.39,385.57,398.31,424.05,429.58,446.07,459.9,463.62,472.89,475.07,480.73,490.17,505.58,515.3,530.26,541.57,555.84,563.14,564.67,568.43,573.43,585.32,600.87,606.49,610.38,621.23,624.1,638.22,643.97,654.64,664.08,687.37,689.27,705.86,726.96,751.62,2607.0,2633.9,2786.1,3443.8,si
15.66,18.67,38.403,68.168,73.997,92.371,109.33,133.95,141.37,167.16,173.14,213.63,217.5,227.7,234.02,248.91,250.8,252.72,272.16,280.3,300.68,302.36,342.8,352.87,370.77,383.68,398.02,425.53,432.86,449.63,462.99,468.15,473.04,476.85,480.21,488.46,510.27,519.82,538.59,551.14,556.83,563.87,566.45,575.02,576.49,581.6,609.13,612.45,613.33,619.95,630.3,637.74,648.43,655.87,668.5,680.98,693.12,708.96,735.89,760.5,2610.2,2611.0,2733.7,3463.1,si
15.273,18.483,38.429,67.88600000000001,75.22800000000002,91.221,108.25,135.57,143.84,167.29,172.01,209.33,216.44,226.8,229.89,247.67,248.5,251.94,270.07,281.25,298.69,300.07,341.81,349.48,373.87,383.11,398.09,423.84,435.79,449.54,463.94,469.45,473.65,475.85,478.84,488.51,508.83,522.47,536.84,543.85,549.12,555.49,563.14,569.96,579.5,583.06,605.14,607.73,610.14,616.22,620.26,640.81,648.26,658.97,666.05,671.83,694.62,711.31,728.79,753.46,2616.8,2646.8,2738.6,3415.0,si
15.589,18.385,39.009,68.097,76.043,91.854,109.99,135.78,144.03,170.19,173.25,214.75,216.8,228.89,234.79,247.28,250.19,250.85,267.72,277.07,299.75,303.87,340.41,350.65,376.81,384.81,397.02,425.19,436.37,450.75,460.75,465.96,476.0,476.97,481.84,487.08,503.86,510.49,537.01,547.44,557.15,561.14,566.01,573.5,578.87,580.06,601.41,609.66,610.21,623.41,626.86,633.66,650.8,659.53,662.28,684.54,694.92,709.14,732.12,758.11,2645.5,2648.1,2769.7,3467.8,si
15.847,18.706,38.784,68.12899999999999,75.556,93.391,108.96,135.25,142.55,168.45,174.64,213.73,217.32,228.74,233.4,248.04,249.45,251.69,269.52,280.49,298.74,303.09,344.61,351.34,378.03,384.29,396.86,426.73,434.45,450.25,463.03,465.04,469.46,480.89,484.09,489.09,509.83,516.41,532.32,553.02,559.57,560.39,565.68,572.9,576.48,577.75,606.78,612.61,620.48,626.65,634.69,638.96,659.03,666.13,668.66,699.7,702.79,719.69,739.03,769.84,2616.0,2652.1,2790.7,3447.0,si
15.501,18.348,38.919,67.597,75.676,91.827,108.67,135.85,143.48,169.85,172.77,210.48,218.05,230.21,232.76,250.65,251.15,254.06,270.96,282.92,303.02,305.62,341.77,350.7,373.28,382.25,400.41,425.23,426.94,449.56,458.81,462.58,466.99,473.16,476.51,484.45,507.93,515.65,535.72,547.84,549.52,554.73,557.99,570.75,578.96,583.91,604.18,607.81,614.25,620.38,631.23,634.49,658.2,662.54,664.99,678.21,700.92,715.46,729.8,758.19,2614.1,2630.6,2746.9,3425.5,si
15.686,18.634,38.579,68.737,75.387,92.587,108.84,136.43,143.3,169.94,172.42,211.59,216.71,227.57,231.63,248.69,249.88,253.58,271.01,280.78,300.78,304.49,343.21,352.52,379.06,389.48,400.6,427.26,432.87,448.35,463.18,468.63,476.88,481.1,484.84,497.23,509.42,522.75,542.13,544.84,550.87,557.13,561.09,567.79,580.37,586.4,605.75,606.57,609.83,627.08,632.94,635.53,660.09,665.59,671.51,693.24,699.3,716.23,745.49,764.56,2599.1,2646.3,2789.5,3429.4,si
15.42,18.396,38.229,67.191,74.529,91.851,107.11,133.63,141.38,167.41,171.25,210.54,216.85,226.97,229.18,247.06,247.53,250.24,267.71,280.2,297.69,302.02,340.51,350.04,373.96,383.51,396.38,423.44,429.33,448.08,459.39,468.15,473.27,478.09,481.16,492.87,509.4,517.84,533.07,551.37,552.61,554.99,560.16,567.29,574.73,578.99,602.63,607.13,619.62,622.37,626.8,635.0,656.79,662.94,664.79,681.43,697.21,708.18,731.65,755.0,2642.3,2649.3,2751.7,3463.2,si
15.42.1,18.648,38.735,68.60600000000001,75.378,91.885,109.21,136.26,143.32,168.33,172.95,212.18,217.83,229.64,232.37,250.2,250.68,253.78,271.43,281.82,301.11,303.79,339.91,350.83,377.15,383.42,399.91,424.72,427.9,443.87,454.41,466.03,471.24,475.79,482.51,486.23,501.5,519.32,529.77,546.99,557.4,558.83,563.46,573.9,579.42,589.23,606.13,611.54,616.47,624.14,627.49,646.66,657.91,665.28,668.43,692.03,699.68,718.91,737.92,760.26,2625.4,2663.9,2731.3,3416.1,si
15.495,18.834,38.604,68.212,75.12,92.546,109.28,135.75,142.38,169.77,173.24,213.36,217.68,229.63,234.0,249.79,253.33,255.36,269.36,285.85,303.34,306.09,341.82,353.87,377.49,389.23,404.97,427.89,433.31,449.92,461.04,465.54,474.62,480.69,485.1,490.21,508.84,520.6,546.67,553.28,555.26,563.5,566.54,578.35,583.71,588.25,609.55,613.65,617.03,623.48,637.47,639.16,656.47,661.38,671.7,694.58,700.39,717.38,742.22,764.0,2630.2,2646.0,2732.1,3462.3,si
15.785,18.657,38.608,68.139,75.01100000000002,92.471,108.18,135.02,142.98,166.68,171.3,210.64,218.16,228.26,231.47,248.11,249.76,254.8,269.81,282.81,298.82,301.35,341.3,351.47,375.16,382.86,398.38,425.46,435.71,450.01,460.71,468.79,471.62,479.11,480.54,488.93,509.46,520.2,536.12,544.79,556.68,558.47,564.71,572.17,577.4,580.9,605.3,610.62,620.82,624.04,633.85,644.79,653.39,660.29,664.76,679.67,690.79,712.89,733.39,753.28,2619.7,2663.1,2793.2,3432.6,si
15.707,18.635,38.727,68.19800000000001,75.016,92.166,109.09,134.42,142.79,168.82,173.28,211.32,217.89,228.84,231.49,248.68,250.25,254.39,270.93,281.0,300.02,304.18,339.92,350.57,375.14,385.85,397.34,426.52,436.84,447.82,453.41,464.02,468.43,478.37,482.45,485.94,508.29,517.66,542.43,551.31,555.16,560.13,563.53,571.87,578.49,585.02,608.23,611.02,614.69,624.33,633.01,637.05,654.27,657.77,665.55,686.79,691.78,707.68,732.36,754.76,2609.6,2620.7,2788.8,3455.1,si
15.561.1,18.837,38.567,68.036,74.72800000000002,92.33,108.49,134.87,141.83,166.07,171.3,213.23,217.55,230.09,232.93,248.54,250.48,252.44,274.22,282.84,298.49,302.57,343.94,353.1,374.29,383.95,398.15,426.27,436.25,447.69,459.06,470.77,474.58,477.29,483.53,490.45,511.85,516.65,540.37,550.19,555.23,559.22,573.64,578.56,580.12,582.99,602.71,607.3,620.69,624.21,633.8,645.79,652.69,656.59,664.2,686.37,689.59,709.41,729.53,751.44,2616.6,2629.2,2726.2,3487.7,si
15.281,18.573,38.908,67.931,75.773,91.516,108.29,136.13,143.88,169.71,171.57,212.84,216.15,228.24,232.68,247.88,249.43,252.38,266.17,281.63,298.35,305.38,344.04,347.41,377.1,381.45,399.42,425.51,429.49,445.93,460.16,464.02,470.28,473.86,477.23,485.09,505.84,514.63,538.72,552.19,558.2,560.4,565.71,571.47,579.57,582.09,605.46,609.07,617.83,621.79,627.91,636.48,660.21,661.5,665.0,682.72,698.09,712.12,732.24,757.7,2627.1,2658.4,2756.6,3448.9,si
15.496,18.5,39.078,68.157,75.737,91.763,109.1,135.91,144.91,169.04,171.03,212.99,217.37,230.32,233.55,248.82,250.82,253.14,267.65,280.39,299.95,304.26,340.46,347.81,375.74,376.33,396.2,425.44,429.54,445.66,454.85,463.04,467.9,477.99,480.47,485.11,502.25,508.64,540.41,551.46,557.75,558.77,572.14,575.01,580.52,582.08,600.99,612.95,614.79,621.03,632.43,638.16,651.41,658.25,662.76,681.67,693.45,709.42,730.17,752.72,2632.9,2644.9,2773.9,3418.6,si
15.298,18.391,38.349,67.836,74.58800000000002,90.576,108.57,135.14,142.43,168.41,171.69,211.24,215.73,227.84,231.87,248.14,249.55,252.27,269.75,281.04,300.77,301.54,341.92,349.06,372.77,380.63,398.66,423.92,432.98,450.58,458.02,467.81,470.64,475.36,478.93,491.05,509.45,514.47,542.24,549.65,556.61,559.28,568.15,573.75,578.8,581.1,604.16,611.82,613.09,621.54,627.25,636.89,655.46,659.28,665.61,678.19,692.36,715.45,728.98,754.29,2641.7,2642.8,2782.7,3408.1,si
15.4,18.812,38.293,67.60600000000001,74.72800000000002,92.353,106.88,133.7,141.13,167.22,171.08,210.41,215.36,226.27,230.37,245.88,248.41,251.92,268.42,279.88,298.1,300.06,340.0,349.12,375.4,378.91,397.46,424.88,434.7,453.24,465.54,469.53,478.29,478.48,479.41,484.9,508.34,516.97,529.11,544.46,552.3,559.07,571.79,571.95,579.9,580.41,605.25,606.41,617.07,623.85,629.86,639.66,653.69,662.01,662.78,687.05,689.47,711.79,734.08,754.07,2594.0,2619.6,2783.8,3442.3,si
15.539,18.789,38.499,68.339,74.687,92.113,108.32,135.37,142.62,168.29,173.03,207.86,218.66,228.51,232.76,244.22,251.69,253.51,273.54,279.31,298.67,302.14,343.01,351.07,374.07,382.37,397.38,425.37,435.35,449.77,462.89,473.11,475.79,480.21,486.77,490.32,511.41,519.39,543.58,547.73,556.26,558.89,568.79,577.36,585.01,589.95,608.2,611.45,617.31,623.16,629.42,651.78,653.23,659.0,666.36,691.51,695.58,709.2,734.83,761.31,2609.4,2633.0,2749.1,3416.0,si
15.819,18.277,38.862,68.155,75.225,91.14,108.53,135.53,142.58,169.4,171.66,214.05,216.93,228.23,233.32,248.71,249.17,250.91,273.32,282.48,300.1,304.28,343.61,351.4,376.31,383.51,396.3,424.42,438.62,448.75,453.63,466.65,472.63,475.89,479.7,484.95,506.9,514.89,535.33,546.69,548.73,561.95,566.28,571.56,572.79,581.81,600.24,611.51,614.47,622.83,631.29,638.67,653.84,665.27,668.33,669.38,696.85,715.58,726.08,754.5,2607.7,2653.4,2786.9,3422.3,si
15.637,18.566,38.728,67.93,74.725,91.571,109.54,135.66,143.9,171.24,173.02,211.07,217.48,231.0,234.25,250.83,251.66,252.98,270.54,281.62,302.9,305.96,341.98,350.31,375.62,385.16,399.64,426.6,433.19,448.42,459.52,469.05,473.75,478.31,481.03,489.82,507.52,516.22,543.88,554.48,559.0,561.98,574.23,576.23,580.35,585.61,606.62,615.71,619.77,624.43,632.4,643.19,654.19,664.81,667.99,683.0,695.63,712.98,735.18,758.75,2621.1,2640.1,2779.6,3414.3,si
15.551,18.545,38.843,67.881,75.395,92.368,108.43,135.16,143.14,168.86,172.12,212.36,216.48,228.85,232.15,249.13,250.8,252.71,267.54,282.95,301.02,304.5,342.69,349.3,377.68,382.03,402.22,427.25,434.53,450.08,462.51,469.28,477.65,480.0,481.4,491.68,511.32,513.2,545.44,550.05,555.33,561.79,564.91,570.44,581.94,585.44,603.63,605.11,613.76,625.69,631.6,635.83,653.89,658.65,668.37,685.18,695.79,714.1,737.25,758.05,2615.4,2627.1,2740.1,3404.7,si
15.169,18.733,38.937,67.83,75.206,91.145,109.65,136.28,143.82,169.78,173.07,212.56,217.65,230.71,234.6,250.1,252.4,254.94,271.89,285.17,304.13,305.49,345.87,351.04,377.28,386.76,401.13,426.89,431.29,448.45,462.7,466.06,478.51,480.77,486.84,494.72,506.6,520.54,541.42,550.07,555.04,559.84,564.32,571.68,577.67,587.56,604.04,614.86,616.15,619.77,632.48,639.67,653.23,656.94,665.56,686.91,697.02,714.06,727.68,757.15,2617.3,2661.8,2779.3,3468.3,si
15.398.1,18.446,38.582,67.808,74.729,91.278,108.59,135.09,144.2,167.56,172.31,210.74,218.01,228.34,231.27,248.75,250.41,252.41,269.94,281.24,299.09,302.38,340.24,349.32,375.48,385.55,396.37,424.89,433.67,451.67,459.7,462.27,473.74,479.2,481.63,491.23,505.85,518.12,528.97,544.1,556.43,558.26,563.27,566.34,577.89,580.41,603.65,608.07,613.49,625.1,626.12,638.54,651.68,657.4,665.56,685.88,693.35,707.7,732.0,755.72,2619.7,2649.9,2761.7,3426.0,si
15.346,18.436,38.533,67.426,74.36399999999998,90.873,107.58,134.71,142.93,165.48,171.3,209.79,216.83,227.81,230.48,248.17,248.47,251.59,267.73,281.76,297.05,299.59,340.31,349.53,374.64,382.81,396.64,423.88,431.88,447.95,466.35,470.58,474.21,480.67,481.62,491.68,510.34,516.81,537.95,545.7,556.7,561.04,567.0,571.64,576.7,582.7,605.03,611.12,613.24,621.1,631.07,636.5,654.97,657.95,664.35,671.38,688.42,713.52,726.92,750.09,2602.2,2624.9,2767.3,3421.9,si
15.553.1,18.726,38.488,67.84899999999999,75.047,92.251,108.48,134.96,141.95,169.26,172.25,212.76,216.62,229.8,232.29,249.29,250.3,251.03,269.05,280.67,301.09,304.03,340.27,349.94,374.64,385.8,398.14,423.62,429.01,444.94,457.28,463.38,470.15,475.04,477.46,485.46,502.58,522.79,536.07,550.27,556.46,564.36,568.13,571.65,575.82,583.04,609.48,613.57,614.96,619.49,626.03,636.02,654.56,662.3,673.78,681.95,696.46,715.3,728.06,755.3,2624.8,2632.0,2787.3,3407.8,si
15.457,18.522,38.273,67.479,74.5,92.007,108.4,134.02,141.4,168.3,172.44,211.27,214.81,227.18,229.61,246.34,247.67,248.89,267.78,277.98,296.32,301.9,338.81,347.1,373.35,382.79,394.62,420.68,427.94,441.97,453.38,459.16,467.86,472.75,474.89,482.02,500.18,519.34,538.28,548.54,554.76,557.67,561.15,573.35,575.93,578.55,601.66,611.02,614.95,626.77,627.7,634.88,652.73,663.77,667.12,682.03,693.21,710.83,731.23,753.03,2632.7,2653.9,2762.9,3412.5,si
15.395,18.47,38.162,67.16199999999999,74.96,91.288,107.8,134.62,141.29,168.25,172.14,208.49,214.94,226.85,229.96,246.16,248.99,251.67,266.68,280.59,299.46,300.24,341.81,347.86,374.79,382.34,398.1,423.89,432.63,446.96,456.36,462.64,468.15,473.15,477.98,484.51,502.25,517.09,541.53,547.07,549.9,556.82,563.55,568.52,572.81,592.6,607.21,610.51,612.62,618.12,625.2,633.32,651.23,660.18,661.83,672.13,699.9,704.54,724.77,753.9,2614.1,2650.9,2784.8,3446.2,si
15.687,18.524,38.384,68.015,74.844,92.191,107.61,134.99,142.33,166.7,171.48,208.64,218.03,227.55,230.55,249.73,250.83,254.31,270.74,283.69,298.29,303.6,341.05,348.95,372.11,384.8,397.02,423.8,427.12,443.85,455.13,466.01,470.14,481.4,484.11,488.58,504.44,516.2,543.17,553.65,558.43,564.6,573.08,581.44,585.96,594.28,610.24,613.04,622.7,624.5,637.74,645.72,653.63,660.66,666.75,688.88,693.04,713.48,736.42,757.6,2625.5,2650.6,2732.1,3442.5,si
15.351,18.415,38.593,68.06,74.755,90.884,109.21,135.89,144.3,168.34,172.2,209.6,217.55,230.46,233.58,246.19,250.17,252.34,270.06,279.6,298.21,302.37,339.18,347.64,372.45,381.39,396.56,423.22,432.4,450.93,454.01,464.87,470.79,474.35,478.36,484.36,505.39,514.42,534.01,543.29,552.08,559.72,564.46,568.19,575.51,578.3,603.17,608.2,611.13,615.15,625.01,638.08,649.63,656.12,665.32,686.82,690.62,707.73,734.03,754.89,2651.9,2654.1,2736.8,3473.4,si
15.384,18.574,38.503,67.977,74.21300000000002,91.49,109.04,134.41,141.59,168.26,173.06,211.56,217.27,228.35,232.19,250.25,251.29,252.01,270.23,282.51,301.61,304.67,343.8,351.04,371.7,385.46,399.33,423.78,427.57,444.24,458.86,462.42,472.21,474.47,479.58,487.03,503.82,518.12,539.71,550.02,557.98,560.14,562.27,573.65,575.71,582.08,607.43,608.6,619.75,621.69,629.83,635.55,653.75,657.82,666.87,682.54,688.85,711.96,734.56,757.28,2603.7,2654.9,2773.7,3406.2,si
15.474.1,18.724,38.39,67.891,74.337,92.048,107.67,134.33,141.02,168.48,171.74,212.17,217.87,229.07,232.41,249.52,252.12,253.46,270.12,280.85,299.91,304.61,342.76,350.2,377.01,385.44,397.18,424.54,432.06,447.01,463.62,464.7,472.89,479.13,484.87,493.23,508.58,524.54,542.11,548.67,557.32,561.14,567.11,579.81,581.69,590.76,605.33,610.81,620.53,627.19,636.26,642.63,652.35,662.65,670.88,686.54,689.87,719.15,735.84,756.17,2637.1,2650.4,2774.3,3474.2,si
15.43.2,18.608,38.64,67.806,75.01100000000002,92.125,108.77,135.12,143.31,169.67,172.92,210.45,216.41,228.82,231.65,249.43,250.19,252.73,267.42,280.41,301.7,304.48,337.14,349.73,377.05,389.77,401.27,426.54,430.52,447.24,455.14,464.25,471.42,482.94,485.86,490.96,505.68,512.81,542.49,552.11,555.48,561.72,565.3,569.31,583.75,586.23,605.09,607.75,610.53,621.94,625.0,633.49,651.74,655.7,671.73,689.57,694.98,714.76,741.22,763.08,2628.7,2635.9,2749.7,3418.4,si
15.293,18.627,38.618,68.094,75.10300000000002,91.003,108.91,136.12,144.58,169.05,172.03,211.28,218.36,228.69,232.87,249.44,250.19,253.23,268.86,282.93,301.72,303.0,341.88,351.07,374.75,385.83,398.5,424.77,434.11,452.42,464.18,467.34,478.37,480.54,481.42,492.26,507.41,517.09,538.01,550.67,558.51,562.31,564.63,570.75,575.54,583.34,605.92,613.81,616.84,619.9,626.65,639.02,655.22,660.7,668.31,682.58,693.88,713.31,734.22,756.65,2616.2,2638.8,2771.0,3457.8,si
15.636,18.632,38.803,68.49600000000001,75.76100000000002,92.258,109.12,136.31,142.91,168.4,173.23,213.05,215.89,228.87,232.96,247.42,248.77,251.61,270.78,278.57,299.18,302.59,343.12,350.6,374.11,382.44,396.29,426.09,428.58,444.43,451.9,464.85,469.74,475.77,480.99,488.94,507.61,515.93,544.85,551.13,552.93,562.29,568.52,571.59,580.28,582.63,603.51,608.37,615.55,619.65,630.0,636.1,656.45,660.23,669.86,697.58,700.98,715.86,738.24,763.72,2617.7,2639.9,2727.7,3415.4,si
15.451,18.466,38.703,67.669,74.766,91.748,108.92,135.26,142.47,169.11,173.16,211.94,217.1,230.37,232.9,250.41,251.38,253.35,268.92,280.7,301.35,304.98,340.89,348.85,374.49,383.58,398.94,424.62,430.33,444.53,459.51,462.97,468.53,475.71,477.74,485.99,504.06,521.16,540.07,553.04,558.02,560.01,565.17,577.67,582.87,586.52,605.8,615.97,620.12,621.05,633.81,638.59,656.49,661.65,668.14,677.64,692.65,715.34,732.02,755.69,2599.6,2628.7,2744.6,3464.3,si
15.717,18.613,38.32,67.57600000000001,74.923,91.215,107.88,135.13,141.91,168.91,170.84,210.14,216.35,228.21,231.79,249.16,250.73,251.76,268.56,282.67,300.48,303.6,342.46,348.64,372.23,382.26,399.39,424.19,430.51,446.53,459.76,465.48,469.37,473.39,478.25,485.45,504.87,514.51,536.98,550.32,557.07,558.17,570.13,572.71,576.1,591.77,602.14,613.66,615.13,621.54,637.24,640.81,653.76,656.51,663.26,674.3,694.22,709.72,724.4,751.22,2650.1,2651.0,2728.7,3449.4,si
15.525,18.692,38.565,68.286,74.638,92.077,109.66,135.55,142.04,168.51,173.9,213.09,216.24,230.22,234.28,247.8,249.98,252.89,269.38,281.27,300.27,304.95,341.35,348.74,373.48,380.94,401.22,426.17,433.33,445.71,454.08,464.01,467.28,475.92,480.68,484.93,503.38,515.75,543.71,554.59,557.72,566.82,573.49,580.09,584.23,586.3,606.14,614.17,615.09,623.34,633.95,639.72,649.6,659.14,664.51,687.61,691.93,707.99,732.6,759.83,2638.9,2663.9,2742.0,3414.0,si
15.714,18.393,38.504,68.056,74.791,92.038,109.14,136.35,143.76,169.5,172.82,210.82,217.51,228.96,233.28,249.9,251.13,254.75,270.14,284.45,301.76,304.37,342.17,350.73,375.94,384.15,398.91,426.24,436.24,448.54,459.53,463.65,473.43,480.34,484.71,491.98,506.9,516.22,521.86,548.45,555.42,559.99,571.55,577.33,581.47,591.86,607.53,612.49,615.37,623.29,641.61,643.43,655.01,661.11,670.43,691.61,695.54,711.95,741.22,762.84,2606.0,2659.1,2773.3,3434.5,si
15.526.1,18.644,38.406,67.87899999999999,74.607,92.549,108.56,135.15,143.11,166.71,173.75,208.7,217.85,229.16,232.06,249.13,252.1,254.04,268.75,283.68,300.14,303.78,341.21,350.9,376.56,385.12,400.47,426.44,433.36,451.44,466.31,473.35,482.44,483.83,491.7,492.42,515.17,519.41,540.72,551.78,557.03,560.63,569.67,578.95,587.49,588.3,609.66,615.55,619.47,620.94,633.38,643.52,649.02,658.77,668.84,691.1,696.55,712.35,735.04,763.05,2607.4,2626.6,2753.6,3420.8,si
15.725,18.467,38.664,67.83800000000001,74.938,92.04,108.4,135.21,142.11,168.22,172.65,212.81,218.31,230.35,232.74,247.97,250.25,253.48,270.37,280.32,298.07,303.95,340.82,350.98,375.41,384.06,398.1,425.35,430.68,446.49,457.81,464.31,470.64,477.94,479.89,487.68,506.45,522.08,537.97,550.57,559.26,566.07,569.21,575.91,580.18,587.55,610.34,615.4,618.2,620.47,635.38,641.88,655.78,657.79,667.31,687.28,690.73,712.17,733.81,757.54,2630.1,2651.2,2730.9,3438.0,si
15.354,18.616,38.484,67.477,75.403,91.743,108.37,134.63,142.95,168.49,172.9,212.38,217.59,227.56,229.94,247.86,248.46,250.71,268.42,281.73,299.16,301.79,343.67,351.17,375.4,383.66,396.17,419.19,426.61,448.03,454.99,461.57,471.57,475.17,477.87,485.04,504.49,516.75,528.09,546.83,554.59,555.94,558.17,570.41,577.88,581.83,605.03,610.3,615.01,619.56,629.27,638.56,652.8,660.53,666.66,684.16,696.43,709.66,733.13,756.19,2643.1,2649.6,2780.4,3472.0,si
15.406,18.332,38.207,67.6,74.975,90.677,108.72,134.85,143.6,166.91,171.57,208.03,217.42,226.62,230.07,244.37,249.17,252.73,269.48,277.16,297.15,300.18,339.88,350.7,374.86,380.55,395.87,423.65,432.64,448.93,464.22,466.87,474.27,475.22,484.04,492.79,510.86,517.85,526.52,543.08,552.52,553.06,562.2,566.54,570.3,571.34,603.19,606.92,608.25,612.62,622.79,634.18,647.56,654.05,660.81,673.91,695.39,700.01,723.11,749.26,2621.4,2639.5,2790.5,3423.0,si
15.444,18.661,38.183,67.835,74.51100000000002,92.445,108.76,135.01,142.93,169.24,172.92,208.4,213.92,226.85,231.6,244.95,248.74,249.88,267.54,279.27,299.61,303.18,338.76,347.66,369.95,384.71,399.11,423.56,425.78,442.07,454.57,461.0,468.57,472.52,481.65,487.32,499.9,514.95,538.65,549.87,557.17,559.7,571.1,574.25,577.14,581.14,601.63,610.95,616.48,621.68,627.72,637.33,652.24,659.79,662.48,692.66,699.88,712.57,737.7,765.97,2629.5,2651.4,2746.1,3486.0,si
15.704,18.597,38.279,67.663,74.181,93.068,108.46,134.09,141.01,168.52,172.96,210.96,215.21,227.35,233.05,246.64,247.91,249.78,265.98,276.98,299.44,300.99,337.04,350.03,372.86,379.55,397.21,424.23,430.85,446.41,460.22,465.47,468.11,476.56,478.98,483.22,505.03,517.01,536.69,544.33,557.5,563.72,566.33,573.07,573.66,578.82,599.72,606.01,615.6,619.53,630.8,633.78,651.34,661.72,667.81,691.31,693.55,713.55,738.97,763.09,2638.0,2654.7,2783.1,3448.6,si
15.489,18.495,38.617,67.42399999999999,75.054,92.087,109.13,134.98,143.17,169.34,171.92,211.66,217.56,229.69,233.26,249.59,250.95,251.86,269.89,281.36,298.5,304.3,342.05,349.83,375.04,382.11,397.69,425.48,435.25,450.0,460.89,467.4,472.2,479.63,482.23,488.57,507.87,513.5,536.01,551.88,561.3,564.5,574.57,577.47,582.73,586.59,606.03,612.45,619.17,624.4,634.43,642.28,648.56,661.74,667.7,690.84,695.91,711.7,734.65,757.34,2655.2,2665.2,2774.6,3424.8,si
15.783,18.545,38.51,68.557,74.641,92.195,108.7,135.19,143.13,167.76,174.12,211.67,215.54,229.09,230.87,248.19,250.29,250.59,267.8,281.27,300.0,302.47,341.33,348.31,375.84,384.02,396.25,427.65,436.4,449.17,455.56,465.38,469.93,479.22,483.03,488.53,507.34,514.67,542.73,543.37,553.03,557.6,567.66,575.58,578.84,583.55,600.06,604.71,611.22,620.32,632.01,633.69,648.29,658.1,663.53,691.48,695.94,708.46,739.2,768.4,2620.6,2631.7,2747.7,3415.8,si
15.5,18.83,38.238,67.85300000000001,75.135,92.255,108.62,134.86,141.28,169.47,173.55,213.54,215.82,226.87,232.48,246.47,248.32,250.36,268.99,279.76,300.87,301.56,342.32,351.06,374.89,378.43,396.54,422.53,429.9,445.15,463.63,465.31,473.02,474.42,478.69,484.54,506.32,518.21,536.11,545.36,557.61,562.06,571.64,576.58,578.93,582.56,601.04,608.56,614.44,623.4,630.6,641.11,650.3,654.91,672.54,690.85,696.59,711.91,734.58,760.32,2623.7,2628.0,2728.3,3440.7,si
15.368,18.419,38.878,68.429,75.771,91.388,110.02,136.68,144.55,169.3,171.59,212.88,217.81,229.78,234.43,249.03,250.42,251.95,271.14,280.56,300.93,303.94,342.2,350.6,375.54,380.91,401.6,424.52,433.13,448.8,464.5,469.67,470.61,476.37,479.88,487.68,508.16,515.75,538.24,549.75,559.6,560.43,569.26,573.93,576.66,580.69,601.82,606.85,613.62,619.79,623.42,642.8,659.37,663.31,665.64,678.6,699.38,716.46,737.14,758.51,2626.7,2631.5,2736.5,3405.3,si
15.599,18.315,38.892,68.061,75.79,90.756,109.68,135.99,144.92,170.39,173.83,213.88,215.62,230.54,232.82,247.88,249.67,251.83,268.75,280.75,302.25,304.77,343.95,349.52,375.65,383.15,396.86,425.66,431.74,445.95,448.68,462.88,468.89,478.39,480.82,484.14,502.44,507.12,543.65,552.13,557.59,563.06,571.57,573.83,577.12,582.99,603.26,612.06,616.92,621.85,627.03,635.87,656.23,657.87,664.65,678.93,703.05,706.76,730.49,758.65,2602.2,2646.8,2746.1,3428.1,si
15.48,18.484,38.367,68.112,74.531,91.365,107.87,135.01,142.33,169.2,173.07,211.43,216.13,227.36,230.09,247.02,250.19,252.53,268.78,283.03,299.21,304.69,341.58,347.97,372.96,385.91,400.52,424.3,431.11,444.03,454.27,462.18,468.06,475.57,479.02,486.48,505.2,523.59,551.29,558.78,561.28,562.33,569.11,576.21,587.28,589.97,609.81,615.32,618.32,623.02,631.03,638.65,654.52,664.45,669.72,679.68,698.42,719.84,737.04,761.63,2621.2,2639.8,2743.9,3477.6,si
15.776,18.731,38.725,68.464,75.628,92.901,109.21,135.51,143.0,169.84,174.01,213.09,216.44,228.04,232.87,247.16,249.48,250.73,268.01,280.69,300.2,304.11,343.72,350.29,376.31,381.78,397.72,425.4,435.33,447.94,464.65,465.4,472.12,477.99,481.66,489.56,512.75,514.83,529.19,554.07,558.01,562.31,563.96,568.16,576.02,581.01,605.41,609.59,616.76,623.72,624.7,635.65,659.26,666.28,672.18,687.36,697.59,717.83,741.94,763.22,2626.9,2664.2,2752.3,3464.4,si
15.791,18.38,39.064,68.053,75.441,92.698,109.85,136.14,144.07,168.82,174.16,213.23,217.78,230.6,236.44,249.73,251.79,252.71,273.95,283.77,303.11,305.37,344.74,349.87,376.36,383.04,399.29,426.88,435.9,458.52,458.98,471.15,474.75,478.87,484.06,488.51,511.21,516.49,538.83,559.15,562.54,565.21,572.12,574.92,578.61,585.79,606.63,617.79,627.84,629.12,633.46,644.34,657.76,664.66,669.43,697.98,699.79,721.2,743.84,767.8,2628.3,2658.0,2740.9,3412.7,si
15.537,18.52,38.595,67.958,75.128,92.122,108.35,134.53,142.68,168.85,172.13,211.51,217.38,227.84,231.25,249.25,250.39,251.45,269.65,281.44,300.3,304.48,341.54,348.72,377.39,382.67,397.11,426.75,433.49,451.84,460.75,468.07,475.27,478.63,485.1,491.17,509.17,518.09,536.12,548.51,556.14,561.13,565.81,574.76,579.01,583.63,608.78,610.47,617.24,625.84,633.07,635.72,655.01,664.11,669.78,691.15,695.01,715.73,734.47,756.43,2623.9,2662.9,2728.3,3437.1,si
15.694,18.94,38.681,68.251,75.027,92.421,108.28,134.24,141.75,168.11,171.56,212.88,218.0,227.79,233.05,246.46,247.69,252.33,269.35,280.41,298.23,301.93,339.06,351.7,373.35,384.4,398.98,423.64,430.3,445.84,463.5,465.29,473.17,478.49,482.72,489.24,509.84,522.26,531.0,548.8,553.48,568.76,569.29,573.09,577.91,581.25,608.88,611.95,613.98,620.42,625.75,640.96,648.61,656.3,666.66,679.83,690.27,709.57,724.44,749.31,2639.2,2652.0,2727.4,3468.4,si
15.585,18.595,38.359,68.166,74.98100000000002,93.218,107.51,135.82,141.75,169.3,174.04,210.42,216.44,227.4,229.51,248.07,250.97,251.47,270.24,282.2,299.57,303.67,344.16,348.63,376.99,388.66,398.11,428.84,436.18,452.73,465.87,471.23,474.32,483.64,487.26,493.5,508.95,522.78,532.75,550.18,557.07,563.39,571.58,573.01,580.65,585.78,607.37,614.81,615.68,621.58,635.35,637.54,659.24,664.23,665.96,693.79,705.47,718.79,744.8,779.7,2647.8,2651.6,2732.3,3423.3,si
15.282,18.477,38.887,67.796,75.577,91.17,108.92,135.9,143.54,169.61,172.84,211.47,217.72,230.35,235.08,248.54,252.32,255.25,272.77,283.69,303.11,304.94,344.35,349.96,378.45,388.25,399.16,427.55,435.88,451.01,459.91,470.25,477.4,479.92,485.54,497.94,512.52,518.38,542.76,549.9,557.28,558.26,564.46,570.59,577.68,581.46,603.34,613.41,616.46,617.88,630.46,639.33,656.13,659.43,667.74,690.06,700.76,716.18,733.9,758.53,2622.9,2634.4,2773.5,3433.7,si
15.505.1,18.733,39.177,68.238,75.813,92.377,109.06,135.16,143.69,168.83,172.89,213.36,218.3,230.36,232.87,247.21,251.17,251.85,270.13,279.6,299.49,302.92,343.94,349.85,374.89,385.25,397.98,425.02,432.53,443.94,454.94,461.83,469.54,477.75,480.35,485.41,505.38,521.31,541.08,549.63,556.7,559.96,560.59,572.52,575.6,583.93,609.24,612.46,615.26,624.23,628.36,636.77,652.82,660.58,667.56,684.12,694.48,711.23,729.98,755.47,2617.9,2632.1,2750.3,3456.7,si
15.486,18.505,38.317,67.514,74.752,91.859,108.19,134.52,141.63,165.34,171.75,209.3,216.78,227.93,230.98,244.89,248.17,250.81,272.18,279.31,296.55,300.22,341.89,351.59,370.29,377.59,395.97,423.21,432.37,445.43,460.57,467.27,472.71,474.57,476.64,486.4,509.49,513.54,541.92,550.9,554.53,560.08,563.6,567.42,577.93,583.93,603.9,611.57,616.08,619.31,632.3,639.35,652.08,655.43,660.55,682.74,693.11,707.49,727.49,754.17,2607.7,2637.6,2732.6,3465.5,si
15.686.1,18.622,38.794,68.308,75.345,92.778,108.33,135.54,143.35,170.67,173.53,211.37,216.14,228.41,232.09,250.5,251.04,253.38,268.92,281.95,303.03,305.14,342.72,348.06,374.31,385.98,399.52,423.85,430.28,441.66,449.15,462.47,467.92,477.63,482.85,484.54,501.18,515.35,538.82,546.91,558.75,562.3,570.22,572.27,576.69,583.49,608.91,612.35,616.14,624.35,634.23,639.01,661.26,664.57,670.59,697.51,701.9,716.66,739.66,766.3,2603.7,2658.6,2744.0,3456.2,si
15.482,18.546,38.849,67.958,75.133,91.758,109.61,135.99,143.03,169.85,175.02,212.31,217.63,231.8,236.8,249.51,251.76,257.37,270.37,283.17,303.77,307.82,345.06,350.74,375.52,384.48,401.1,425.37,430.96,446.21,462.17,466.4,472.04,478.34,483.38,486.84,508.98,514.63,545.26,555.65,563.4,566.13,577.94,580.68,583.01,592.08,610.27,620.68,622.48,626.26,635.36,645.21,658.65,661.17,670.83,686.29,700.7,715.19,737.16,766.6,2609.4,2627.9,2749.7,3436.2,si
15.469,18.439,38.715,67.822,75.407,91.494,109.73,135.19,144.14,168.92,172.74,211.46,218.3,229.85,232.0,251.45,251.68,252.3,272.63,282.4,302.03,305.61,342.61,354.45,373.69,384.11,399.04,427.52,428.8,445.66,464.1,468.2,474.22,478.13,481.12,488.29,509.12,513.19,540.59,547.86,551.5,554.99,566.84,576.16,577.33,583.44,603.24,611.19,612.93,617.41,631.56,640.35,653.33,659.67,662.42,686.18,692.13,713.29,732.2,755.26,2625.4,2639.9,2778.5,3405.9,si
15.389,18.775,38.319,68.023,74.762,92.306,109.13,135.19,142.38,167.16,173.03,211.05,217.35,228.66,232.36,248.1,251.14,252.91,271.49,283.04,299.21,305.18,339.91,351.67,374.07,384.79,396.58,424.53,430.23,447.59,460.32,468.64,471.98,479.85,481.89,490.24,506.47,521.9,532.84,547.2,557.85,566.82,567.16,575.31,578.19,585.89,608.13,611.22,617.03,624.69,633.86,639.53,650.09,656.86,672.75,687.05,695.24,713.62,733.32,758.54,2643.2,2643.5,2753.0,3431.9,si
15.411,18.786,38.57,68.367,74.957,92.229,108.52,134.55,142.64,166.92,172.99,211.54,218.35,228.95,231.15,248.36,250.45,252.78,271.73,281.27,299.63,302.43,342.65,350.74,374.23,385.5,394.96,425.99,432.25,447.33,463.35,465.68,470.22,479.5,485.24,489.04,507.07,520.77,537.3,548.43,559.17,565.58,567.05,573.65,579.74,580.61,611.89,612.26,616.06,620.82,633.11,640.18,648.43,656.96,668.47,689.92,694.09,710.11,733.78,760.03,2602.8,2654.2,2783.5,3439.9,si
15.394,18.768,38.928,68.89,75.94800000000002,92.179,109.08,135.63,145.11,167.97,172.23,211.68,216.64,228.1,231.41,248.68,249.9,253.3,269.0,280.8,298.49,303.31,340.97,348.74,374.81,384.77,398.9,424.27,426.96,442.22,453.82,462.27,467.44,476.1,482.95,491.31,506.11,524.12,539.74,547.63,551.84,555.82,563.12,565.44,577.61,582.47,604.34,609.7,611.13,621.21,629.06,633.47,651.86,661.97,668.33,688.36,696.64,710.56,733.67,756.41,2596.7,2620.7,2791.7,3483.6,si
15.547,18.41,38.494,67.561,74.484,90.911,108.48,134.57,142.32,167.76,173.22,211.46,216.48,229.17,232.31,248.81,249.99,252.57,270.25,280.18,299.85,303.24,340.92,347.82,376.16,382.74,395.27,425.75,434.06,447.41,456.78,467.44,468.88,477.21,482.18,484.98,504.65,514.2,537.58,545.5,557.2,559.97,572.46,575.26,576.04,583.27,601.77,609.1,616.58,621.75,631.84,640.03,650.28,653.84,662.55,678.51,688.81,706.07,727.18,752.78,2620.0,2636.1,2742.5,3412.3,si
